[
  {
    "total_img": 0,
    "number_page": 0,
    "title": "Ferrari F50",
    "tag": "Ferrari F50,",
    "description": "Ferrari F50",
    "link_thumb": "https://live.staticflickr.com/65535/49889038758_cc9c9cf66d_n.jpg",
    "id_album": "1828657669",
    "total_view": 15
  }
]