[
  {
    "total_img": 0,
    "number_page": 0,
    "title": "Lynk Co",
    "tag": "Lynk Co,",
    "description": "Lynk Co",
    "link_thumb": "https://live.staticflickr.com/65535/49890705822_fc8a426aa8_n.jpg",
    "id_album": "1573564113",
    "total_view": 4
  }
]