[
  {
    "total_img": 0,
    "number_page": 0,
    "title": "Nissan 370Z",
    "tag": "Nissan 370Z,",
    "description": "Nissan 370Z",
    "link_thumb": "https://live.staticflickr.com/65535/49891389602_975231963a_n.jpg",
    "id_album": "511911558",
    "total_view": 82
  }
]