[
  {
    "total_img": 0,
    "number_page": 0,
    "title": "Alfa Romeo Disco Volante",
    "tag": "Alfa Romeo Disco Volante,",
    "description": "Alfa Romeo Disco Volante",
    "link_thumb": "https://live.staticflickr.com/65535/49889070872_a87da15b9b_n.jpg",
    "id_album": "1600499504",
    "total_view": 21
  }
]