[
  {
    "total_img": 0,
    "number_page": 0,
    "title": "Ferrari Icona Series",
    "tag": "Ferrari Icona Series,",
    "description": "Ferrari Icona Series",
    "link_thumb": "https://live.staticflickr.com/65535/49889578921_658bb547a2_n.jpg",
    "id_album": "723144483",
    "total_view": 8
  }
]