[
  {
    "link_thumb": "https://live.staticflickr.com/65535/49892675511_b09b700a4e_n.jpg",
    "id_album": "462363805",
    "description": "2017_rv_Volkswagen_rv_Up_rv_GTI_rv_Concept_rv_V1_rv_2000",
    "title": "2017_rv_Volkswagen_rv_Up_rv_GTI_rv_Concept_rv_V1_rv_2000",
    "link_img": "https://live.staticflickr.com/65535/49892675511_d74e35f1be_o.jpg",
    "id_image": "2017_rv_Volkswagen_rv_Up_rv_GTI_rv_Concept_rv_V1_rv_2000",
    "count_view": 0
  },
  {
    "link_thumb": "https://live.staticflickr.com/65535/49892159998_a0c279213a_n.jpg",
    "id_album": "462363805",
    "description": "2017_rv_Volkswagen_rv_Up_rv_GTI_rv_Concept_rv_V2_rv_2000",
    "title": "2017_rv_Volkswagen_rv_Up_rv_GTI_rv_Concept_rv_V2_rv_2000",
    "link_img": "https://live.staticflickr.com/65535/49892159998_345d20687d_o.jpg",
    "id_image": "2017_rv_Volkswagen_rv_Up_rv_GTI_rv_Concept_rv_V2_rv_2000",
    "count_view": 0
  },
  {
    "link_thumb": "https://live.staticflickr.com/65535/49892160178_19dbdaa1bb_n.jpg",
    "id_album": "462363805",
    "description": "2017_rv_Volkswagen_rv_Up_rv_GTI_rv_Concept_rv_V3_rv_2000",
    "title": "2017_rv_Volkswagen_rv_Up_rv_GTI_rv_Concept_rv_V3_rv_2000",
    "link_img": "https://live.staticflickr.com/65535/49892160178_6769c00163_o.jpg",
    "id_image": "2017_rv_Volkswagen_rv_Up_rv_GTI_rv_Concept_rv_V3_rv_2000",
    "count_view": 0
  },
  {
    "link_thumb": "https://live.staticflickr.com/65535/49892986452_1a843ebc1b_n.jpg",
    "id_album": "462363805",
    "description": "2017_rv_Volkswagen_rv_Up_rv_GTI_rv_Concept_rv_V4_rv_2000",
    "title": "2017_rv_Volkswagen_rv_Up_rv_GTI_rv_Concept_rv_V4_rv_2000",
    "link_img": "https://live.staticflickr.com/65535/49892986452_70c96dbc83_o.jpg",
    "id_image": "2017_rv_Volkswagen_rv_Up_rv_GTI_rv_Concept_rv_V4_rv_2000",
    "count_view": 0
  },
  {
    "link_thumb": "https://live.staticflickr.com/65535/49892160488_89fed729ac_n.jpg",
    "id_album": "462363805",
    "description": "2018_rv_Volkswagen_rv_Up_rv_GTI_rv_V1_rv_2000",
    "title": "2018_rv_Volkswagen_rv_Up_rv_GTI_rv_V1_rv_2000",
    "link_img": "https://live.staticflickr.com/65535/49892160488_82b01ec2a2_o.jpg",
    "id_image": "2018_rv_Volkswagen_rv_Up_rv_GTI_rv_V1_rv_2000",
    "count_view": 0
  },
  {
    "link_thumb": "https://live.staticflickr.com/65535/49892160698_ec06bb24d6_n.jpg",
    "id_album": "462363805",
    "description": "2018_rv_Volkswagen_rv_Up_rv_GTI_rv_V2_rv_2000",
    "title": "2018_rv_Volkswagen_rv_Up_rv_GTI_rv_V2_rv_2000",
    "link_img": "https://live.staticflickr.com/65535/49892160698_059ba27baf_o.jpg",
    "id_image": "2018_rv_Volkswagen_rv_Up_rv_GTI_rv_V2_rv_2000",
    "count_view": 0
  },
  {
    "link_thumb": "https://live.staticflickr.com/65535/49892986877_92a7105abe_n.jpg",
    "id_album": "462363805",
    "description": "2018_rv_Volkswagen_rv_Up_rv_GTI_rv_V3_rv_2000",
    "title": "2018_rv_Volkswagen_rv_Up_rv_GTI_rv_V3_rv_2000",
    "link_img": "https://live.staticflickr.com/65535/49892986877_f75ee14d82_o.jpg",
    "id_image": "2018_rv_Volkswagen_rv_Up_rv_GTI_rv_V3_rv_2000",
    "count_view": 0
  },
  {
    "link_thumb": "https://live.staticflickr.com/65535/49892676546_76a2b99425_n.jpg",
    "id_album": "462363805",
    "description": "2018_rv_Volkswagen_rv_Up_rv_GTI_rv_V4_rv_2000",
    "title": "2018_rv_Volkswagen_rv_Up_rv_GTI_rv_V4_rv_2000",
    "link_img": "https://live.staticflickr.com/65535/49892676546_7c22bbbc9a_o.jpg",
    "id_image": "2018_rv_Volkswagen_rv_Up_rv_GTI_rv_V4_rv_2000",
    "count_view": 0
  },
  {
    "link_thumb": "https://live.staticflickr.com/65535/49892676686_c5edba437d_n.jpg",
    "id_album": "462363805",
    "description": "2018_rv_Volkswagen_rv_Up_rv_GTI_rv_V5_rv_2000",
    "title": "2018_rv_Volkswagen_rv_Up_rv_GTI_rv_V5_rv_2000",
    "link_img": "https://live.staticflickr.com/65535/49892676686_d2715642b3_o.jpg",
    "id_image": "2018_rv_Volkswagen_rv_Up_rv_GTI_rv_V5_rv_2000",
    "count_view": 0
  }
]