[
  {
    "total_img": 0,
    "number_page": 0,
    "title": "Vector",
    "tag": "Vector,",
    "description": "Vector",
    "link_thumb": "https://live.staticflickr.com/65535/49892946777_ef8c8847a9_n.jpg",
    "id_album": "-838625604",
    "total_view": 14
  }
]