[
  {
    "total_img": 0,
    "number_page": 0,
    "title": "Mazda Cosmo",
    "tag": "Mazda Cosmo,",
    "description": "Mazda Cosmo",
    "link_thumb": "https://live.staticflickr.com/65535/49890764287_2bcd813a06_n.jpg",
    "id_album": "-2050288521",
    "total_view": 15
  }
]