[
  {
    "total_img": 0,
    "number_page": 0,
    "title": "Hoonigan",
    "tag": "Hoonigan,",
    "description": "Hoonigan",
    "link_thumb": "https://live.staticflickr.com/65535/49889405313_8c0796cca9_n.jpg",
    "id_album": "2066040487",
    "total_view": 3
  }
]