[
  {
    "link_thumb": "https://live.staticflickr.com/65535/49892381836_dc152aed88_n.jpg",
    "id_album": "-189032193",
    "description": "2001_rv_Skoda_rv_Octavia_rv_RS_rv_V1_rv_1536",
    "title": "2001_rv_Skoda_rv_Octavia_rv_RS_rv_V1_rv_1536",
    "link_img": "https://live.staticflickr.com/65535/49892381836_851b2f0747_o.jpg",
    "id_image": "2001_rv_Skoda_rv_Octavia_rv_RS_rv_V1_rv_1536",
    "count_view": 0
  },
  {
    "link_thumb": "https://live.staticflickr.com/65535/49892381966_99c6d7eea0_n.jpg",
    "id_album": "-189032193",
    "description": "2001_rv_Skoda_rv_Octavia_rv_RS_rv_V2_rv_1536",
    "title": "2001_rv_Skoda_rv_Octavia_rv_RS_rv_V2_rv_1536",
    "link_img": "https://live.staticflickr.com/65535/49892381966_428387fb0b_o.jpg",
    "id_image": "2001_rv_Skoda_rv_Octavia_rv_RS_rv_V2_rv_1536",
    "count_view": 0
  },
  {
    "link_thumb": "https://live.staticflickr.com/65535/49892695062_154e7be14e_n.jpg",
    "id_album": "-189032193",
    "description": "2001_rv_Skoda_rv_Octavia_rv_RS_rv_V3_rv_1536",
    "title": "2001_rv_Skoda_rv_Octavia_rv_RS_rv_V3_rv_1536",
    "link_img": "https://live.staticflickr.com/65535/49892695062_9292f7fdb5_o.jpg",
    "id_image": "2001_rv_Skoda_rv_Octavia_rv_RS_rv_V3_rv_1536",
    "count_view": 0
  },
  {
    "link_thumb": "https://live.staticflickr.com/65535/49892382211_e0367c44dc_n.jpg",
    "id_album": "-189032193",
    "description": "2001_rv_Skoda_rv_Octavia_rv_RS_rv_V4_rv_1536",
    "title": "2001_rv_Skoda_rv_Octavia_rv_RS_rv_V4_rv_1536",
    "link_img": "https://live.staticflickr.com/65535/49892382211_d950a7b0c8_o.jpg",
    "id_image": "2001_rv_Skoda_rv_Octavia_rv_RS_rv_V4_rv_1536",
    "count_view": 0
  },
  {
    "link_thumb": "https://live.staticflickr.com/65535/49892382336_75f7b490a4_n.jpg",
    "id_album": "-189032193",
    "description": "2001_rv_Skoda_rv_Octavia_rv_RS_rv_V5_rv_1536",
    "title": "2001_rv_Skoda_rv_Octavia_rv_RS_rv_V5_rv_1536",
    "link_img": "https://live.staticflickr.com/65535/49892382336_9a39877a3b_o.jpg",
    "id_image": "2001_rv_Skoda_rv_Octavia_rv_RS_rv_V5_rv_1536",
    "count_view": 0
  },
  {
    "link_thumb": "https://live.staticflickr.com/65535/49892695402_1d7be31655_n.jpg",
    "id_album": "-189032193",
    "description": "2001_rv_Skoda_rv_Octavia_rv_RS_rv_V6_rv_1536",
    "title": "2001_rv_Skoda_rv_Octavia_rv_RS_rv_V6_rv_1536",
    "link_img": "https://live.staticflickr.com/65535/49892695402_c4138d1c70_o.jpg",
    "id_image": "2001_rv_Skoda_rv_Octavia_rv_RS_rv_V6_rv_1536",
    "count_view": 0
  },
  {
    "link_thumb": "https://live.staticflickr.com/65535/49892382631_ce9ed15ebb_n.jpg",
    "id_album": "-189032193",
    "description": "2001_rv_Skoda_rv_Octavia_rv_RS_rv_V7_rv_1536",
    "title": "2001_rv_Skoda_rv_Octavia_rv_RS_rv_V7_rv_1536",
    "link_img": "https://live.staticflickr.com/65535/49892382631_4389202176_o.jpg",
    "id_image": "2001_rv_Skoda_rv_Octavia_rv_RS_rv_V7_rv_1536",
    "count_view": 0
  },
  {
    "link_thumb": "https://live.staticflickr.com/65535/49892382706_1ce79d35ea_n.jpg",
    "id_album": "-189032193",
    "description": "2001_rv_Skoda_rv_Octavia_rv_RS_rv_V8_rv_1536",
    "title": "2001_rv_Skoda_rv_Octavia_rv_RS_rv_V8_rv_1536",
    "link_img": "https://live.staticflickr.com/65535/49892382706_4cc4b9252b_o.jpg",
    "id_image": "2001_rv_Skoda_rv_Octavia_rv_RS_rv_V8_rv_1536",
    "count_view": 0
  },
  {
    "link_thumb": "https://live.staticflickr.com/65535/49892695717_ef17bb1a61_n.jpg",
    "id_album": "-189032193",
    "description": "2001_rv_Skoda_rv_Octavia_rv_RS_rv_V9_rv_1536",
    "title": "2001_rv_Skoda_rv_Octavia_rv_RS_rv_V9_rv_1536",
    "link_img": "https://live.staticflickr.com/65535/49892695717_d31544049d_o.jpg",
    "id_image": "2001_rv_Skoda_rv_Octavia_rv_RS_rv_V9_rv_1536",
    "count_view": 0
  },
  {
    "link_thumb": "https://live.staticflickr.com/65535/49892382881_ac9e865954_n.jpg",
    "id_album": "-189032193",
    "description": "2003_rv_Skoda_rv_Octavia_rv_RS_rv_Combi_rv_V1_rv_1536",
    "title": "2003_rv_Skoda_rv_Octavia_rv_RS_rv_Combi_rv_V1_rv_1536",
    "link_img": "https://live.staticflickr.com/65535/49892382881_0fcc4d749e_o.jpg",
    "id_image": "2003_rv_Skoda_rv_Octavia_rv_RS_rv_Combi_rv_V1_rv_1536",
    "count_view": 0
  },
  {
    "link_thumb": "https://live.staticflickr.com/65535/49892382981_938d3f394a_n.jpg",
    "id_album": "-189032193",
    "description": "2003_rv_Skoda_rv_Octavia_rv_RS_rv_Combi_rv_V2_rv_1536",
    "title": "2003_rv_Skoda_rv_Octavia_rv_RS_rv_Combi_rv_V2_rv_1536",
    "link_img": "https://live.staticflickr.com/65535/49892382981_fde3584301_o.jpg",
    "id_image": "2003_rv_Skoda_rv_Octavia_rv_RS_rv_Combi_rv_V2_rv_1536",
    "count_view": 0
  },
  {
    "link_thumb": "https://live.staticflickr.com/65535/49892696207_ba11934569_n.jpg",
    "id_album": "-189032193",
    "description": "2003_rv_Skoda_rv_Octavia_rv_RS_rv_Combi_rv_V3_rv_1536",
    "title": "2003_rv_Skoda_rv_Octavia_rv_RS_rv_Combi_rv_V3_rv_1536",
    "link_img": "https://live.staticflickr.com/65535/49892696207_aab8efa1f6_o.jpg",
    "id_image": "2003_rv_Skoda_rv_Octavia_rv_RS_rv_Combi_rv_V3_rv_1536",
    "count_view": 0
  },
  {
    "link_thumb": "https://live.staticflickr.com/65535/49892383191_7e18bd78fa_n.jpg",
    "id_album": "-189032193",
    "description": "2003_rv_Skoda_rv_Octavia_rv_RS_rv_Combi_rv_V4_rv_1536",
    "title": "2003_rv_Skoda_rv_Octavia_rv_RS_rv_Combi_rv_V4_rv_1536",
    "link_img": "https://live.staticflickr.com/65535/49892383191_7800f0f59b_o.jpg",
    "id_image": "2003_rv_Skoda_rv_Octavia_rv_RS_rv_Combi_rv_V4_rv_1536",
    "count_view": 0
  },
  {
    "link_thumb": "https://live.staticflickr.com/65535/49892696377_9c26de1fde_n.jpg",
    "id_album": "-189032193",
    "description": "2003_rv_Skoda_rv_Octavia_rv_RS_rv_Combi_rv_V5_rv_1536",
    "title": "2003_rv_Skoda_rv_Octavia_rv_RS_rv_Combi_rv_V5_rv_1536",
    "link_img": "https://live.staticflickr.com/65535/49892696377_e929ceb1ec_o.jpg",
    "id_image": "2003_rv_Skoda_rv_Octavia_rv_RS_rv_Combi_rv_V5_rv_1536",
    "count_view": 0
  },
  {
    "link_thumb": "https://live.staticflickr.com/65535/49892696532_621dacc636_n.jpg",
    "id_album": "-189032193",
    "description": "2003_rv_Skoda_rv_Octavia_rv_RS_rv_Combi_rv_V6_rv_1536",
    "title": "2003_rv_Skoda_rv_Octavia_rv_RS_rv_Combi_rv_V6_rv_1536",
    "link_img": "https://live.staticflickr.com/65535/49892696532_477fcd3fcb_o.jpg",
    "id_image": "2003_rv_Skoda_rv_Octavia_rv_RS_rv_Combi_rv_V6_rv_1536",
    "count_view": 0
  },
  {
    "link_thumb": "https://live.staticflickr.com/65535/49891869693_7cb79ac7d8_n.jpg",
    "id_album": "-189032193",
    "description": "2004_rv_Skoda_rv_Octavia_rv_RS_rv_V1_rv_1536",
    "title": "2004_rv_Skoda_rv_Octavia_rv_RS_rv_V1_rv_1536",
    "link_img": "https://live.staticflickr.com/65535/49891869693_4d413d6988_o.jpg",
    "id_image": "2004_rv_Skoda_rv_Octavia_rv_RS_rv_V1_rv_1536",
    "count_view": 0
  },
  {
    "link_thumb": "https://live.staticflickr.com/65535/49892383696_19cff0b2bf_n.jpg",
    "id_album": "-189032193",
    "description": "2004_rv_Skoda_rv_Octavia_rv_RS_rv_V2_rv_1536",
    "title": "2004_rv_Skoda_rv_Octavia_rv_RS_rv_V2_rv_1536",
    "link_img": "https://live.staticflickr.com/65535/49892383696_5bc44536e8_o.jpg",
    "id_image": "2004_rv_Skoda_rv_Octavia_rv_RS_rv_V2_rv_1536",
    "count_view": 0
  },
  {
    "link_thumb": "https://live.staticflickr.com/65535/49892696907_ce7a315859_n.jpg",
    "id_album": "-189032193",
    "description": "2004_rv_Skoda_rv_Octavia_rv_RS_rv_V3_rv_1536",
    "title": "2004_rv_Skoda_rv_Octavia_rv_RS_rv_V3_rv_1536",
    "link_img": "https://live.staticflickr.com/65535/49892696907_e18af8e775_o.jpg",
    "id_image": "2004_rv_Skoda_rv_Octavia_rv_RS_rv_V3_rv_1536",
    "count_view": 0
  },
  {
    "link_thumb": "https://live.staticflickr.com/65535/49892384086_746b087c27_n.jpg",
    "id_album": "-189032193",
    "description": "2004_rv_Skoda_rv_Octavia_rv_RS_rv_V4_rv_1536",
    "title": "2004_rv_Skoda_rv_Octavia_rv_RS_rv_V4_rv_1536",
    "link_img": "https://live.staticflickr.com/65535/49892384086_c27aa157d9_o.jpg",
    "id_image": "2004_rv_Skoda_rv_Octavia_rv_RS_rv_V4_rv_1536",
    "count_view": 0
  },
  {
    "link_thumb": "https://live.staticflickr.com/65535/49892697237_aa56c7ee25_n.jpg",
    "id_album": "-189032193",
    "description": "2004_rv_Skoda_rv_Octavia_rv_RS_rv_V5_rv_1536",
    "title": "2004_rv_Skoda_rv_Octavia_rv_RS_rv_V5_rv_1536",
    "link_img": "https://live.staticflickr.com/65535/49892697237_60c5c7ab95_o.jpg",
    "id_image": "2004_rv_Skoda_rv_Octavia_rv_RS_rv_V5_rv_1536",
    "count_view": 0
  },
  {
    "link_thumb": "https://live.staticflickr.com/65535/49892384406_7ea2486398_n.jpg",
    "id_album": "-189032193",
    "description": "2004_rv_Skoda_rv_Octavia_rv_RS_rv_V6_rv_1536",
    "title": "2004_rv_Skoda_rv_Octavia_rv_RS_rv_V6_rv_1536",
    "link_img": "https://live.staticflickr.com/65535/49892384406_315c9df67d_o.jpg",
    "id_image": "2004_rv_Skoda_rv_Octavia_rv_RS_rv_V6_rv_1536",
    "count_view": 0
  },
  {
    "link_thumb": "https://live.staticflickr.com/65535/49891870548_214a119c42_n.jpg",
    "id_album": "-189032193",
    "description": "2009_rv_Skoda_rv_Octavia_rv_RS_rv_Combi_rv_V1_rv_1536",
    "title": "2009_rv_Skoda_rv_Octavia_rv_RS_rv_Combi_rv_V1_rv_1536",
    "link_img": "https://live.staticflickr.com/65535/49891870548_c4c4612c96_o.jpg",
    "id_image": "2009_rv_Skoda_rv_Octavia_rv_RS_rv_Combi_rv_V1_rv_1536",
    "count_view": 0
  },
  {
    "link_thumb": "https://live.staticflickr.com/65535/49892697672_6fa92d8196_n.jpg",
    "id_album": "-189032193",
    "description": "2009_rv_Skoda_rv_Octavia_rv_RS_rv_Combi_rv_V2_rv_1536",
    "title": "2009_rv_Skoda_rv_Octavia_rv_RS_rv_Combi_rv_V2_rv_1536",
    "link_img": "https://live.staticflickr.com/65535/49892697672_eaaecbd997_o.jpg",
    "id_image": "2009_rv_Skoda_rv_Octavia_rv_RS_rv_Combi_rv_V2_rv_1536",
    "count_view": 0
  },
  {
    "link_thumb": "https://live.staticflickr.com/65535/49892384881_601217f06b_n.jpg",
    "id_album": "-189032193",
    "description": "2009_rv_Skoda_rv_Octavia_rv_RS_rv_Combi_rv_V3_rv_1536",
    "title": "2009_rv_Skoda_rv_Octavia_rv_RS_rv_Combi_rv_V3_rv_1536",
    "link_img": "https://live.staticflickr.com/65535/49892384881_d9085dc289_o.jpg",
    "id_image": "2009_rv_Skoda_rv_Octavia_rv_RS_rv_Combi_rv_V3_rv_1536",
    "count_view": 0
  },
  {
    "link_thumb": "https://live.staticflickr.com/65535/49892697982_fe523d3e57_n.jpg",
    "id_album": "-189032193",
    "description": "2009_rv_Skoda_rv_Octavia_rv_RS_rv_Combi_rv_V4_rv_1536",
    "title": "2009_rv_Skoda_rv_Octavia_rv_RS_rv_Combi_rv_V4_rv_1536",
    "link_img": "https://live.staticflickr.com/65535/49892697982_f46a803ed7_o.jpg",
    "id_image": "2009_rv_Skoda_rv_Octavia_rv_RS_rv_Combi_rv_V4_rv_1536",
    "count_view": 0
  },
  {
    "link_thumb": "https://live.staticflickr.com/65535/49891871168_b8b39f76b4_n.jpg",
    "id_album": "-189032193",
    "description": "2009_rv_Skoda_rv_Octavia_rv_RS_rv_Combi_rv_V5_rv_1536",
    "title": "2009_rv_Skoda_rv_Octavia_rv_RS_rv_Combi_rv_V5_rv_1536",
    "link_img": "https://live.staticflickr.com/65535/49891871168_83c9833b02_o.jpg",
    "id_image": "2009_rv_Skoda_rv_Octavia_rv_RS_rv_Combi_rv_V5_rv_1536",
    "count_view": 0
  },
  {
    "link_thumb": "https://live.staticflickr.com/65535/49892698327_6028b4d06b_n.jpg",
    "id_album": "-189032193",
    "description": "2009_rv_Skoda_rv_Octavia_rv_RS_rv_Combi_rv_V6_rv_1536",
    "title": "2009_rv_Skoda_rv_Octavia_rv_RS_rv_Combi_rv_V6_rv_1536",
    "link_img": "https://live.staticflickr.com/65535/49892698327_3f2f4f5857_o.jpg",
    "id_image": "2009_rv_Skoda_rv_Octavia_rv_RS_rv_Combi_rv_V6_rv_1536",
    "count_view": 0
  },
  {
    "link_thumb": "https://live.staticflickr.com/65535/49892698497_df0f740d19_n.jpg",
    "id_album": "-189032193",
    "description": "2009_rv_Skoda_rv_Octavia_rv_RS_rv_V1_rv_1536",
    "title": "2009_rv_Skoda_rv_Octavia_rv_RS_rv_V1_rv_1536",
    "link_img": "https://live.staticflickr.com/65535/49892698497_ba8b26d62b_o.jpg",
    "id_image": "2009_rv_Skoda_rv_Octavia_rv_RS_rv_V1_rv_1536",
    "count_view": 0
  },
  {
    "link_thumb": "https://live.staticflickr.com/65535/49892385641_6e98859352_n.jpg",
    "id_album": "-189032193",
    "description": "2009_rv_Skoda_rv_Octavia_rv_RS_rv_V2_rv_1536",
    "title": "2009_rv_Skoda_rv_Octavia_rv_RS_rv_V2_rv_1536",
    "link_img": "https://live.staticflickr.com/65535/49892385641_313a13f856_o.jpg",
    "id_image": "2009_rv_Skoda_rv_Octavia_rv_RS_rv_V2_rv_1536",
    "count_view": 0
  },
  {
    "link_thumb": "https://live.staticflickr.com/65535/49891871703_63c1b44b1d_n.jpg",
    "id_album": "-189032193",
    "description": "2009_rv_Skoda_rv_Octavia_rv_RS_rv_V3_rv_1536",
    "title": "2009_rv_Skoda_rv_Octavia_rv_RS_rv_V3_rv_1536",
    "link_img": "https://live.staticflickr.com/65535/49891871703_591ebb64ea_o.jpg",
    "id_image": "2009_rv_Skoda_rv_Octavia_rv_RS_rv_V3_rv_1536",
    "count_view": 0
  },
  {
    "link_thumb": "https://live.staticflickr.com/65535/49892698837_7faae0543e_n.jpg",
    "id_album": "-189032193",
    "description": "2009_rv_Skoda_rv_Octavia_rv_RS_rv_V4_rv_1536",
    "title": "2009_rv_Skoda_rv_Octavia_rv_RS_rv_V4_rv_1536",
    "link_img": "https://live.staticflickr.com/65535/49892698837_41c03c3708_o.jpg",
    "id_image": "2009_rv_Skoda_rv_Octavia_rv_RS_rv_V4_rv_1536",
    "count_view": 0
  },
  {
    "link_thumb": "https://live.staticflickr.com/65535/49892386016_1859073fcf_n.jpg",
    "id_album": "-189032193",
    "description": "2009_rv_Skoda_rv_Octavia_rv_RS_rv_V5_rv_1536",
    "title": "2009_rv_Skoda_rv_Octavia_rv_RS_rv_V5_rv_1536",
    "link_img": "https://live.staticflickr.com/65535/49892386016_596ccf0746_o.jpg",
    "id_image": "2009_rv_Skoda_rv_Octavia_rv_RS_rv_V5_rv_1536",
    "count_view": 0
  },
  {
    "link_thumb": "https://live.staticflickr.com/65535/49892699082_ecc7d75dd2_n.jpg",
    "id_album": "-189032193",
    "description": "2009_rv_Skoda_rv_Octavia_rv_RS_rv_V6_rv_1536",
    "title": "2009_rv_Skoda_rv_Octavia_rv_RS_rv_V6_rv_1536",
    "link_img": "https://live.staticflickr.com/65535/49892699082_b4c36bb303_o.jpg",
    "id_image": "2009_rv_Skoda_rv_Octavia_rv_RS_rv_V6_rv_1536",
    "count_view": 0
  },
  {
    "link_thumb": "https://live.staticflickr.com/65535/49892699187_43c2f699fd_n.jpg",
    "id_album": "-189032193",
    "description": "2009_rv_Skoda_rv_Octavia_rv_RS_rv_V7_rv_1536",
    "title": "2009_rv_Skoda_rv_Octavia_rv_RS_rv_V7_rv_1536",
    "link_img": "https://live.staticflickr.com/65535/49892699187_89f307d5be_o.jpg",
    "id_image": "2009_rv_Skoda_rv_Octavia_rv_RS_rv_V7_rv_1536",
    "count_view": 0
  },
  {
    "link_thumb": "https://live.staticflickr.com/65535/49892699287_4d627ff331_n.jpg",
    "id_album": "-189032193",
    "description": "2009_rv_Skoda_rv_Octavia_rv_RS_rv_V8_rv_1536",
    "title": "2009_rv_Skoda_rv_Octavia_rv_RS_rv_V8_rv_1536",
    "link_img": "https://live.staticflickr.com/65535/49892699287_a1a84b1381_o.jpg",
    "id_image": "2009_rv_Skoda_rv_Octavia_rv_RS_rv_V8_rv_1536",
    "count_view": 0
  },
  {
    "link_thumb": "https://live.staticflickr.com/65535/49892699427_741373d7b7_n.jpg",
    "id_album": "-189032193",
    "description": "2014_rv_Skoda_rv_Octavia_rv_RS_rv_V1_rv_1536",
    "title": "2014_rv_Skoda_rv_Octavia_rv_RS_rv_V1_rv_1536",
    "link_img": "https://live.staticflickr.com/65535/49892699427_ff36fa8a63_o.jpg",
    "id_image": "2014_rv_Skoda_rv_Octavia_rv_RS_rv_V1_rv_1536",
    "count_view": 0
  },
  {
    "link_thumb": "https://live.staticflickr.com/65535/49892386516_939e83e606_n.jpg",
    "id_album": "-189032193",
    "description": "2014_rv_Skoda_rv_Octavia_rv_RS_rv_V2_rv_1536",
    "title": "2014_rv_Skoda_rv_Octavia_rv_RS_rv_V2_rv_1536",
    "link_img": "https://live.staticflickr.com/65535/49892386516_be81dcf7ab_o.jpg",
    "id_image": "2014_rv_Skoda_rv_Octavia_rv_RS_rv_V2_rv_1536",
    "count_view": 0
  },
  {
    "link_thumb": "https://live.staticflickr.com/65535/49892699637_c09136f757_n.jpg",
    "id_album": "-189032193",
    "description": "2014_rv_Skoda_rv_Octavia_rv_RS_rv_V3_rv_1536",
    "title": "2014_rv_Skoda_rv_Octavia_rv_RS_rv_V3_rv_1536",
    "link_img": "https://live.staticflickr.com/65535/49892699637_0a61c84478_o.jpg",
    "id_image": "2014_rv_Skoda_rv_Octavia_rv_RS_rv_V3_rv_1536",
    "count_view": 0
  },
  {
    "link_thumb": "https://live.staticflickr.com/65535/49892699757_49dd37a696_n.jpg",
    "id_album": "-189032193",
    "description": "2014_rv_Skoda_rv_Octavia_rv_RS_rv_V4_rv_1536",
    "title": "2014_rv_Skoda_rv_Octavia_rv_RS_rv_V4_rv_1536",
    "link_img": "https://live.staticflickr.com/65535/49892699757_70d4618209_o.jpg",
    "id_image": "2014_rv_Skoda_rv_Octavia_rv_RS_rv_V4_rv_1536",
    "count_view": 0
  },
  {
    "link_thumb": "https://live.staticflickr.com/65535/49891872828_39b8cfbed3_n.jpg",
    "id_album": "-189032193",
    "description": "2014_rv_Skoda_rv_Octavia_rv_RS_rv_V5_rv_1536",
    "title": "2014_rv_Skoda_rv_Octavia_rv_RS_rv_V5_rv_1536",
    "link_img": "https://live.staticflickr.com/65535/49891872828_8f0e60db57_o.jpg",
    "id_image": "2014_rv_Skoda_rv_Octavia_rv_RS_rv_V5_rv_1536",
    "count_view": 0
  },
  {
    "link_thumb": "https://live.staticflickr.com/65535/49891872963_979de88edc_n.jpg",
    "id_album": "-189032193",
    "description": "2014_rv_Skoda_rv_Octavia_rv_RS_rv_V6_rv_1536",
    "title": "2014_rv_Skoda_rv_Octavia_rv_RS_rv_V6_rv_1536",
    "link_img": "https://live.staticflickr.com/65535/49891872963_24128534eb_o.jpg",
    "id_image": "2014_rv_Skoda_rv_Octavia_rv_RS_rv_V6_rv_1536",
    "count_view": 0
  },
  {
    "link_thumb": "https://live.staticflickr.com/65535/49892700147_336df3d33b_n.jpg",
    "id_album": "-189032193",
    "description": "2015_rv_Skoda_rv_Octavia_rv_RS_rv_230_rv_V1_rv_1600",
    "title": "2015_rv_Skoda_rv_Octavia_rv_RS_rv_230_rv_V1_rv_1600",
    "link_img": "https://live.staticflickr.com/65535/49892700147_69b6e52052_o.jpg",
    "id_image": "2015_rv_Skoda_rv_Octavia_rv_RS_rv_230_rv_V1_rv_1600",
    "count_view": 0
  },
  {
    "link_thumb": "https://live.staticflickr.com/65535/49892700322_560dc36afc_n.jpg",
    "id_album": "-189032193",
    "description": "2015_rv_Skoda_rv_Octavia_rv_RS_rv_230_rv_V2_rv_1600",
    "title": "2015_rv_Skoda_rv_Octavia_rv_RS_rv_230_rv_V2_rv_1600",
    "link_img": "https://live.staticflickr.com/65535/49892700322_438efa73c9_o.jpg",
    "id_image": "2015_rv_Skoda_rv_Octavia_rv_RS_rv_230_rv_V2_rv_1600",
    "count_view": 0
  },
  {
    "link_thumb": "https://live.staticflickr.com/65535/49892700437_52f5720b93_n.jpg",
    "id_album": "-189032193",
    "description": "2015_rv_Skoda_rv_Octavia_rv_RS_rv_230_rv_V3_rv_1600",
    "title": "2015_rv_Skoda_rv_Octavia_rv_RS_rv_230_rv_V3_rv_1600",
    "link_img": "https://live.staticflickr.com/65535/49892700437_b32d5b7311_o.jpg",
    "id_image": "2015_rv_Skoda_rv_Octavia_rv_RS_rv_230_rv_V3_rv_1600",
    "count_view": 0
  },
  {
    "link_thumb": "https://live.staticflickr.com/65535/49892700617_91e3d65395_n.jpg",
    "id_album": "-189032193",
    "description": "2015_rv_Skoda_rv_Octavia_rv_RS_rv_230_rv_V4_rv_1600",
    "title": "2015_rv_Skoda_rv_Octavia_rv_RS_rv_230_rv_V4_rv_1600",
    "link_img": "https://live.staticflickr.com/65535/49892700617_3be5ab96ab_o.jpg",
    "id_image": "2015_rv_Skoda_rv_Octavia_rv_RS_rv_230_rv_V4_rv_1600",
    "count_view": 0
  },
  {
    "link_thumb": "https://live.staticflickr.com/65535/49891873663_02d02934a6_n.jpg",
    "id_album": "-189032193",
    "description": "2015_rv_Skoda_rv_Octavia_rv_RS_rv_230_rv_V5_rv_1600",
    "title": "2015_rv_Skoda_rv_Octavia_rv_RS_rv_230_rv_V5_rv_1600",
    "link_img": "https://live.staticflickr.com/65535/49891873663_13b71a02de_o.jpg",
    "id_image": "2015_rv_Skoda_rv_Octavia_rv_RS_rv_230_rv_V5_rv_1600",
    "count_view": 0
  },
  {
    "link_thumb": "https://live.staticflickr.com/65535/49892700852_e377dd41df_n.jpg",
    "id_album": "-189032193",
    "description": "2015_rv_Skoda_rv_Octavia_rv_RS_rv_230_rv_V6_rv_1600",
    "title": "2015_rv_Skoda_rv_Octavia_rv_RS_rv_230_rv_V6_rv_1600",
    "link_img": "https://live.staticflickr.com/65535/49892700852_826ff801ec_o.jpg",
    "id_image": "2015_rv_Skoda_rv_Octavia_rv_RS_rv_230_rv_V6_rv_1600",
    "count_view": 0
  },
  {
    "link_thumb": "https://live.staticflickr.com/65535/49892700997_301663c60e_n.jpg",
    "id_album": "-189032193",
    "description": "2015_rv_Skoda_rv_Octavia_rv_RS_rv_230_rv_V7_rv_1600",
    "title": "2015_rv_Skoda_rv_Octavia_rv_RS_rv_230_rv_V7_rv_1600",
    "link_img": "https://live.staticflickr.com/65535/49892700997_9a24b8f016_o.jpg",
    "id_image": "2015_rv_Skoda_rv_Octavia_rv_RS_rv_230_rv_V7_rv_1600",
    "count_view": 0
  },
  {
    "link_thumb": "https://live.staticflickr.com/65535/49892701097_f3502588e1_n.jpg",
    "id_album": "-189032193",
    "description": "2015_rv_Skoda_rv_Octavia_rv_RS_rv_230_rv_V8_rv_1600",
    "title": "2015_rv_Skoda_rv_Octavia_rv_RS_rv_230_rv_V8_rv_1600",
    "link_img": "https://live.staticflickr.com/65535/49892701097_3703920132_o.jpg",
    "id_image": "2015_rv_Skoda_rv_Octavia_rv_RS_rv_230_rv_V8_rv_1600",
    "count_view": 0
  },
  {
    "link_thumb": "https://live.staticflickr.com/65535/49892701197_cebd2847f5_n.jpg",
    "id_album": "-189032193",
    "description": "2015_rv_Skoda_rv_Octavia_rv_RS_rv_230_rv_V9_rv_1600",
    "title": "2015_rv_Skoda_rv_Octavia_rv_RS_rv_230_rv_V9_rv_1600",
    "link_img": "https://live.staticflickr.com/65535/49892701197_e9d63f2d1a_o.jpg",
    "id_image": "2015_rv_Skoda_rv_Octavia_rv_RS_rv_230_rv_V9_rv_1600",
    "count_view": 0
  },
  {
    "link_thumb": "https://live.staticflickr.com/65535/49892701292_05524e5129_n.jpg",
    "id_album": "-189032193",
    "description": "2017_rv_Skoda_rv_Octavia_rv_RS_rv_V1_rv_2000",
    "title": "2017_rv_Skoda_rv_Octavia_rv_RS_rv_V1_rv_2000",
    "link_img": "https://live.staticflickr.com/65535/49892701292_f653585dbd_o.jpg",
    "id_image": "2017_rv_Skoda_rv_Octavia_rv_RS_rv_V1_rv_2000",
    "count_view": 0
  },
  {
    "link_thumb": "https://live.staticflickr.com/65535/49891874273_665df4ba78_n.jpg",
    "id_album": "-189032193",
    "description": "2017_rv_Skoda_rv_Octavia_rv_RS_rv_V2_rv_2000",
    "title": "2017_rv_Skoda_rv_Octavia_rv_RS_rv_V2_rv_2000",
    "link_img": "https://live.staticflickr.com/65535/49891874273_3c05fc305b_o.jpg",
    "id_image": "2017_rv_Skoda_rv_Octavia_rv_RS_rv_V2_rv_2000",
    "count_view": 0
  },
  {
    "link_thumb": "https://live.staticflickr.com/65535/49892388381_8d405b0c2a_n.jpg",
    "id_album": "-189032193",
    "description": "2017_rv_Skoda_rv_Octavia_rv_RS_rv_V3_rv_2000",
    "title": "2017_rv_Skoda_rv_Octavia_rv_RS_rv_V3_rv_2000",
    "link_img": "https://live.staticflickr.com/65535/49892388381_2ee06eaf46_o.jpg",
    "id_image": "2017_rv_Skoda_rv_Octavia_rv_RS_rv_V3_rv_2000",
    "count_view": 0
  },
  {
    "link_thumb": "https://live.staticflickr.com/65535/49892388561_98a8a96e5c_n.jpg",
    "id_album": "-189032193",
    "description": "2017_rv_Skoda_rv_Octavia_rv_RS_rv_V4_rv_2000",
    "title": "2017_rv_Skoda_rv_Octavia_rv_RS_rv_V4_rv_2000",
    "link_img": "https://live.staticflickr.com/65535/49892388561_52e07ba72a_o.jpg",
    "id_image": "2017_rv_Skoda_rv_Octavia_rv_RS_rv_V4_rv_2000",
    "count_view": 0
  },
  {
    "link_thumb": "https://live.staticflickr.com/65535/49891874718_23fc5450f6_n.jpg",
    "id_album": "-189032193",
    "description": "2017_rv_Skoda_rv_Octavia_rv_RS_rv_V5_rv_2000",
    "title": "2017_rv_Skoda_rv_Octavia_rv_RS_rv_V5_rv_2000",
    "link_img": "https://live.staticflickr.com/65535/49891874718_04dab04e89_o.jpg",
    "id_image": "2017_rv_Skoda_rv_Octavia_rv_RS_rv_V5_rv_2000",
    "count_view": 0
  },
  {
    "link_thumb": "https://live.staticflickr.com/65535/49891874858_05ac9fe580_n.jpg",
    "id_album": "-189032193",
    "description": "2018_rv_Skoda_rv_Octavia_rv_RS_rv_245_rv_V1_rv_2000",
    "title": "2018_rv_Skoda_rv_Octavia_rv_RS_rv_245_rv_V1_rv_2000",
    "link_img": "https://live.staticflickr.com/65535/49891874858_25705b031f_o.jpg",
    "id_image": "2018_rv_Skoda_rv_Octavia_rv_RS_rv_245_rv_V1_rv_2000",
    "count_view": 0
  },
  {
    "link_thumb": "https://live.staticflickr.com/65535/49891875018_44ed19a189_n.jpg",
    "id_album": "-189032193",
    "description": "2018_rv_Skoda_rv_Octavia_rv_RS_rv_245_rv_V2_rv_2000",
    "title": "2018_rv_Skoda_rv_Octavia_rv_RS_rv_245_rv_V2_rv_2000",
    "link_img": "https://live.staticflickr.com/65535/49891875018_0a17f5293d_o.jpg",
    "id_image": "2018_rv_Skoda_rv_Octavia_rv_RS_rv_245_rv_V2_rv_2000",
    "count_view": 0
  },
  {
    "link_thumb": "https://live.staticflickr.com/65535/49891875303_9a91f2c68e_n.jpg",
    "id_album": "-189032193",
    "description": "2018_rv_Skoda_rv_Octavia_rv_RS_rv_245_rv_V3_rv_2000",
    "title": "2018_rv_Skoda_rv_Octavia_rv_RS_rv_245_rv_V3_rv_2000",
    "link_img": "https://live.staticflickr.com/65535/49891875303_32dc3ca409_o.jpg",
    "id_image": "2018_rv_Skoda_rv_Octavia_rv_RS_rv_245_rv_V3_rv_2000",
    "count_view": 0
  },
  {
    "link_thumb": "https://live.staticflickr.com/65535/49892389456_a3e88d4e77_n.jpg",
    "id_album": "-189032193",
    "description": "2018_rv_Skoda_rv_Octavia_rv_RS_rv_245_rv_V4_rv_2000",
    "title": "2018_rv_Skoda_rv_Octavia_rv_RS_rv_245_rv_V4_rv_2000",
    "link_img": "https://live.staticflickr.com/65535/49892389456_6fa905e2bf_o.jpg",
    "id_image": "2018_rv_Skoda_rv_Octavia_rv_RS_rv_245_rv_V4_rv_2000",
    "count_view": 0
  },
  {
    "link_thumb": "https://live.staticflickr.com/65535/49892389626_dabf390356_n.jpg",
    "id_album": "-189032193",
    "description": "2020_rv_Skoda_rv_Octavia_rv_RS_rv_iV_rv_V1_rv_2160",
    "title": "2020_rv_Skoda_rv_Octavia_rv_RS_rv_iV_rv_V1_rv_2160",
    "link_img": "https://live.staticflickr.com/65535/49892389626_3a5d75a25e_o.jpg",
    "id_image": "2020_rv_Skoda_rv_Octavia_rv_RS_rv_iV_rv_V1_rv_2160",
    "count_view": 0
  },
  {
    "link_thumb": "https://live.staticflickr.com/65535/49892389766_e64c3e0a4e_n.jpg",
    "id_album": "-189032193",
    "description": "2020_rv_Skoda_rv_Octavia_rv_RS_rv_iV_rv_V2_rv_2160",
    "title": "2020_rv_Skoda_rv_Octavia_rv_RS_rv_iV_rv_V2_rv_2160",
    "link_img": "https://live.staticflickr.com/65535/49892389766_de4c43757d_o.jpg",
    "id_image": "2020_rv_Skoda_rv_Octavia_rv_RS_rv_iV_rv_V2_rv_2160",
    "count_view": 0
  },
  {
    "link_thumb": "https://live.staticflickr.com/65535/49891875903_53aa5d6c82_n.jpg",
    "id_album": "-189032193",
    "description": "2020_rv_Skoda_rv_Octavia_rv_RS_rv_iV_rv_V3_rv_2160",
    "title": "2020_rv_Skoda_rv_Octavia_rv_RS_rv_iV_rv_V3_rv_2160",
    "link_img": "https://live.staticflickr.com/65535/49891875903_43c7052be6_o.jpg",
    "id_image": "2020_rv_Skoda_rv_Octavia_rv_RS_rv_iV_rv_V3_rv_2160",
    "count_view": 0
  },
  {
    "link_thumb": "https://live.staticflickr.com/65535/49892390061_6a7e4c32e3_n.jpg",
    "id_album": "-189032193",
    "description": "2020_rv_Skoda_rv_Octavia_rv_RS_rv_iV_rv_V4_rv_2160",
    "title": "2020_rv_Skoda_rv_Octavia_rv_RS_rv_iV_rv_V4_rv_2160",
    "link_img": "https://live.staticflickr.com/65535/49892390061_e3b90505ff_o.jpg",
    "id_image": "2020_rv_Skoda_rv_Octavia_rv_RS_rv_iV_rv_V4_rv_2160",
    "count_view": 0
  },
  {
    "link_thumb": "https://live.staticflickr.com/65535/49892390231_41e8e731d9_n.jpg",
    "id_album": "-189032193",
    "description": "2020_rv_Skoda_rv_Octavia_rv_RS_rv_iV_rv_V5_rv_2160",
    "title": "2020_rv_Skoda_rv_Octavia_rv_RS_rv_iV_rv_V5_rv_2160",
    "link_img": "https://live.staticflickr.com/65535/49892390231_775cdbdecf_o.jpg",
    "id_image": "2020_rv_Skoda_rv_Octavia_rv_RS_rv_iV_rv_V5_rv_2160",
    "count_view": 0
  }
]