[
  {
    "link_thumb": "https://live.staticflickr.com/65535/49890706882_3c1c4a14d8_n.jpg",
    "id_album": "1970683085",
    "description": "2012_rv_Mansory_rv_McLaren_rv_MP4_rv_12C_rv_V1_rv_1600",
    "title": "2012_rv_Mansory_rv_McLaren_rv_MP4_rv_12C_rv_V1_rv_1600",
    "link_img": "https://live.staticflickr.com/65535/49890706882_db564202ed_o.jpg",
    "id_image": "2012_rv_Mansory_rv_McLaren_rv_MP4_rv_12C_rv_V1_rv_1600",
    "count_view": 0
  },
  {
    "link_thumb": "https://live.staticflickr.com/65535/49889881763_ca926d6e20_n.jpg",
    "id_album": "1970683085",
    "description": "2012_rv_Mansory_rv_McLaren_rv_MP4_rv_12C_rv_V2_rv_1600",
    "title": "2012_rv_Mansory_rv_McLaren_rv_MP4_rv_12C_rv_V2_rv_1600",
    "link_img": "https://live.staticflickr.com/65535/49889881763_e41cbc2972_o.jpg",
    "id_image": "2012_rv_Mansory_rv_McLaren_rv_MP4_rv_12C_rv_V2_rv_1600",
    "count_view": 0
  },
  {
    "link_thumb": "https://live.staticflickr.com/65535/49890707212_0066f6a742_n.jpg",
    "id_album": "1970683085",
    "description": "2012_rv_Mansory_rv_McLaren_rv_MP4_rv_12C_rv_V3_rv_1600",
    "title": "2012_rv_Mansory_rv_McLaren_rv_MP4_rv_12C_rv_V3_rv_1600",
    "link_img": "https://live.staticflickr.com/65535/49890707212_46a5b45436_o.jpg",
    "id_image": "2012_rv_Mansory_rv_McLaren_rv_MP4_rv_12C_rv_V3_rv_1600",
    "count_view": 0
  },
  {
    "link_thumb": "https://live.staticflickr.com/65535/49890707402_8d653a221e_n.jpg",
    "id_album": "1970683085",
    "description": "2012_rv_Mansory_rv_McLaren_rv_MP4_rv_12C_rv_V4_rv_1600",
    "title": "2012_rv_Mansory_rv_McLaren_rv_MP4_rv_12C_rv_V4_rv_1600",
    "link_img": "https://live.staticflickr.com/65535/49890707402_8669feab8a_o.jpg",
    "id_image": "2012_rv_Mansory_rv_McLaren_rv_MP4_rv_12C_rv_V4_rv_1600",
    "count_view": 0
  },
  {
    "link_thumb": "https://live.staticflickr.com/65535/49890707572_e496f0f61d_n.jpg",
    "id_album": "1970683085",
    "description": "2012_rv_Mansory_rv_McLaren_rv_MP4_rv_12C_rv_V5_rv_1600",
    "title": "2012_rv_Mansory_rv_McLaren_rv_MP4_rv_12C_rv_V5_rv_1600",
    "link_img": "https://live.staticflickr.com/65535/49890707572_1b68443210_o.jpg",
    "id_image": "2012_rv_Mansory_rv_McLaren_rv_MP4_rv_12C_rv_V5_rv_1600",
    "count_view": 0
  }
]