[
  {
    "total_img": 0,
    "number_page": 0,
    "title": "Kia",
    "tag": "Kia,",
    "description": "Kia",
    "link_thumb": "https://live.staticflickr.com/65535/48118166818_acc8366a08_n.jpg",
    "id_album": "-625217782",
    "total_view": 294
  }
]