[
  {
    "total_img": 0,
    "number_page": 0,
    "title": "C3",
    "tag": "C3,",
    "description": "C3",
    "link_thumb": "https://live.staticflickr.com/65535/49888723363_b0680f6cef_n.jpg",
    "id_album": "-843597859",
    "total_view": 9
  }
]