[
  {
    "total_img": 0,
    "number_page": 0,
    "title": "Ferrari Custom",
    "tag": "Ferrari Custom,",
    "description": "Ferrari Custom",
    "link_thumb": "https://live.staticflickr.com/65535/49889838052_2eca4cb2cc_n.jpg",
    "id_album": "-2012649705",
    "total_view": 63
  },
  {
    "total_img": 0,
    "number_page": 0,
    "title": "Pininfarina",
    "tag": "Pininfarina,",
    "description": "Pininfarina",
    "link_thumb": "https://live.staticflickr.com/65535/49889838052_2eca4cb2cc_n.jpg",
    "id_album": "136450507",
    "total_view": 36
  }
]