[
  {
    "link_thumb": "https://live.staticflickr.com/65535/48112872663_477a87a3b8_n.jpg",
    "id_album": "727633301",
    "description": "BMW_471077",
    "title": "BMW_471077",
    "link_img": "https://live.staticflickr.com/65535/48112872663_50a5234549_o.jpg",
    "id_image": "BMW_471077",
    "count_view": 0
  },
  {
    "link_thumb": "https://live.staticflickr.com/65535/48113491058_0a6b11c1ce_n.jpg",
    "id_album": "1456070666",
    "description": "Bugatti_958083",
    "title": "Bugatti_958083",
    "link_img": "https://live.staticflickr.com/65535/48113491058_eea59db32b_o.jpg",
    "id_image": "Bugatti_958083",
    "count_view": 0
  },
  {
    "link_thumb": "https://live.staticflickr.com/65535/49889186003_0822af3a80_n.jpg",
    "id_album": "1345325637",
    "description": "2002_rv_Ford_rv_Focus_rv_RS_rv_V7_rv_1440",
    "title": "2002_rv_Ford_rv_Focus_rv_RS_rv_V7_rv_1440",
    "link_img": "https://live.staticflickr.com/65535/49889186003_cc15703737_o.jpg",
    "id_image": "2002_rv_Ford_rv_Focus_rv_RS_rv_V7_rv_1440",
    "count_view": 0
  },
  {
    "link_thumb": "https://live.staticflickr.com/65535/48118233022_9bbe095422_n.jpg",
    "id_album": "-625217782",
    "description": "Kia_282752",
    "title": "Kia_282752",
    "link_img": "https://live.staticflickr.com/65535/48118233022_d813f8d4bc_o.jpg",
    "id_image": "Kia_282752",
    "count_view": 0
  },
  {
    "link_thumb": "https://live.staticflickr.com/65535/49891541257_45f3c9b74d_n.jpg",
    "id_album": "1600747842",
    "description": "2013_rv_Pagani_rv_Zonda_rv_Revolucion_rv_V3_rv_1600",
    "title": "2013_rv_Pagani_rv_Zonda_rv_Revolucion_rv_V3_rv_1600",
    "link_img": "https://live.staticflickr.com/65535/49891541257_ac1a6deb7e_o.jpg",
    "id_image": "2013_rv_Pagani_rv_Zonda_rv_Revolucion_rv_V3_rv_1600",
    "count_view": 0
  },
  {
    "link_thumb": "https://live.staticflickr.com/65535/48113297131_fd251d757c_n.jpg",
    "id_album": "727633301",
    "description": "BMW_992919",
    "title": "BMW_992919",
    "link_img": "https://live.staticflickr.com/65535/48113297131_4199b5eec7_o.jpg",
    "id_image": "BMW_992919",
    "count_view": 0
  },
  {
    "link_thumb": "https://live.staticflickr.com/65535/49892273901_7ef5248170_n.jpg",
    "id_album": "-135265162",
    "description": "2008_rv_Renault_rv_Twingo_rv_Sport_rv_V3_rv_1440",
    "title": "2008_rv_Renault_rv_Twingo_rv_Sport_rv_V3_rv_1440",
    "link_img": "https://live.staticflickr.com/65535/49892273901_800f18651b_o.jpg",
    "id_image": "2008_rv_Renault_rv_Twingo_rv_Sport_rv_V3_rv_1440",
    "count_view": 0
  },
  {
    "link_thumb": "https://live.staticflickr.com/65535/48115707383_0621bf89e2_n.jpg",
    "id_album": "1364506720",
    "description": "Ferrari_250393",
    "title": "Ferrari_250393",
    "link_img": "https://live.staticflickr.com/65535/48115707383_d29bea9a77_o.jpg",
    "id_image": "Ferrari_250393",
    "count_view": 0
  },
  {
    "link_thumb": "https://live.staticflickr.com/65535/48118447323_2c77788b0a_n.jpg",
    "id_album": "-2100339805",
    "description": "Lamborghini_393756",
    "title": "Lamborghini_393756",
    "link_img": "https://live.staticflickr.com/65535/48118447323_a4d3dd3e61_o.jpg",
    "id_image": "Lamborghini_393756",
    "count_view": 0
  },
  {
    "link_thumb": "https://live.staticflickr.com/65535/49889350657_98b4deb85b_n.jpg",
    "id_album": "727633301",
    "description": "2009_rv_BMW_rv_M3_rv_Coupe_rv_GT2_rv_V3_rv_1440",
    "title": "2009_rv_BMW_rv_M3_rv_Coupe_rv_GT2_rv_V3_rv_1440",
    "link_img": "https://live.staticflickr.com/65535/49889350657_2581972ed2_o.jpg",
    "id_image": "2009_rv_BMW_rv_M3_rv_Coupe_rv_GT2_rv_V3_rv_1440",
    "count_view": 0
  },
  {
    "link_thumb": "https://live.staticflickr.com/65535/48113259808_d31246bb0c_n.jpg",
    "id_album": "727633301",
    "description": "BMW_921840",
    "title": "BMW_921840",
    "link_img": "https://live.staticflickr.com/65535/48113259808_463338c156_o.jpg",
    "id_image": "BMW_921840",
    "count_view": 0
  },
  {
    "link_thumb": "https://live.staticflickr.com/65535/49890372591_a33539b4f2_n.jpg",
    "id_album": "-391278537",
    "description": "2011_rv_Lotus_rv_Evora_rv_S_rv_V7_rv_1536",
    "title": "2011_rv_Lotus_rv_Evora_rv_S_rv_V7_rv_1536",
    "link_img": "https://live.staticflickr.com/65535/49890372591_8cc76a4250_o.jpg",
    "id_image": "2011_rv_Lotus_rv_Evora_rv_S_rv_V7_rv_1536",
    "count_view": 0
  },
  {
    "link_thumb": "https://live.staticflickr.com/65535/48116906402_b77576dde6_n.jpg",
    "id_album": "-1846404630",
    "description": "Ford_238110",
    "title": "Ford_238110",
    "link_img": "https://live.staticflickr.com/65535/48116906402_818fe98879_o.jpg",
    "id_image": "Ford_238110",
    "count_view": 0
  },
  {
    "link_thumb": "https://live.staticflickr.com/65535/48117963367_0a0fe59df2_n.jpg",
    "id_album": "-354267407",
    "description": "Honda_684360",
    "title": "Honda_684360",
    "link_img": "https://live.staticflickr.com/65535/48117963367_2419984afd_o.jpg",
    "id_image": "Honda_684360",
    "count_view": 0
  },
  {
    "link_thumb": "https://live.staticflickr.com/65535/49888738096_7082748cc1_n.jpg",
    "id_album": "638973147",
    "description": "2006_rv_Alfa_rv_Romeo_rv_147_rv_Black_rv_Line_rv_V2_rv_1536",
    "title": "2006_rv_Alfa_rv_Romeo_rv_147_rv_Black_rv_Line_rv_V2_rv_1536",
    "link_img": "https://live.staticflickr.com/65535/49888738096_2e849ea0c5_o.jpg",
    "id_image": "2006_rv_Alfa_rv_Romeo_rv_147_rv_Black_rv_Line_rv_V2_rv_1536",
    "count_view": 0
  },
  {
    "link_thumb": "https://live.staticflickr.com/65535/48116199962_930f49e082_n.jpg",
    "id_album": "1364506720",
    "description": "Ferrari_571850",
    "title": "Ferrari_571850",
    "link_img": "https://live.staticflickr.com/65535/48116199962_f132ee20e9_o.jpg",
    "id_image": "Ferrari_571850",
    "count_view": 0
  },
  {
    "link_thumb": "https://live.staticflickr.com/65535/48113450716_6676a54996_n.jpg",
    "id_album": "1456070666",
    "description": "Bugatti_953685",
    "title": "Bugatti_953685",
    "link_img": "https://live.staticflickr.com/65535/48113450716_0057850166_o.jpg",
    "id_image": "Bugatti_953685",
    "count_view": 0
  },
  {
    "link_thumb": "https://live.staticflickr.com/65535/48115861033_de9eda95dd_n.jpg",
    "id_album": "1364506720",
    "description": "Ferrari_317878",
    "title": "Ferrari_317878",
    "link_img": "https://live.staticflickr.com/65535/48115861033_09857f8de7_o.jpg",
    "id_image": "Ferrari_317878",
    "count_view": 0
  },
  {
    "link_thumb": "https://live.staticflickr.com/65535/48119682483_69c028d64d_n.jpg",
    "id_album": "-731054311",
    "description": "MercedesBenz_401135",
    "title": "MercedesBenz_401135",
    "link_img": "https://live.staticflickr.com/65535/48119682483_b8113e3a94_o.jpg",
    "id_image": "MercedesBenz_401135",
    "count_view": 0
  },
  {
    "link_thumb": "https://live.staticflickr.com/65535/48115818971_824ab25cbf_n.jpg",
    "id_album": "1364506720",
    "description": "Ferrari_317842",
    "title": "Ferrari_317842",
    "link_img": "https://live.staticflickr.com/65535/48115818971_4174143f88_o.jpg",
    "id_image": "Ferrari_317842",
    "count_view": 0
  },
  {
    "link_thumb": "https://live.staticflickr.com/65535/48118632662_415ba5d744_n.jpg",
    "id_album": "-2100339805",
    "description": "Lamborghini_614686",
    "title": "Lamborghini_614686",
    "link_img": "https://live.staticflickr.com/65535/48118632662_fed1339460_o.jpg",
    "id_image": "Lamborghini_614686",
    "count_view": 0
  },
  {
    "link_thumb": "https://live.staticflickr.com/65535/49889039726_1d6f5ab454_n.jpg",
    "id_album": "-1649828898",
    "description": "2015_rv_Bentley_rv_Mulsanne_rv_Speed_rv_V3_rv_1600",
    "title": "2015_rv_Bentley_rv_Mulsanne_rv_Speed_rv_V3_rv_1600",
    "link_img": "https://live.staticflickr.com/65535/49889039726_194acc607f_o.jpg",
    "id_image": "2015_rv_Bentley_rv_Mulsanne_rv_Speed_rv_V3_rv_1600",
    "count_view": 0
  },
  {
    "link_thumb": "https://live.staticflickr.com/65535/48114745476_b3b0f16623_n.jpg",
    "id_album": "939606447",
    "description": "Chrysler_358596",
    "title": "Chrysler_358596",
    "link_img": "https://live.staticflickr.com/65535/48114745476_ba0e94c9e5_o.jpg",
    "id_image": "Chrysler_358596",
    "count_view": 0
  },
  {
    "link_thumb": "https://live.staticflickr.com/65535/49890341126_9f5fc30968_n.jpg",
    "id_album": "-578175838",
    "description": "2016_rv_Porsche_rv_919_rv_Hybrid_rv_V1_rv_2000",
    "title": "2016_rv_Porsche_rv_919_rv_Hybrid_rv_V1_rv_2000",
    "link_img": "https://live.staticflickr.com/65535/49890341126_2a8ed23e13_o.jpg",
    "id_image": "2016_rv_Porsche_rv_919_rv_Hybrid_rv_V1_rv_2000",
    "count_view": 0
  },
  {
    "link_thumb": "https://live.staticflickr.com/65535/49892329816_d59d854cca_n.jpg",
    "id_album": "-283016394",
    "description": "2004_rv_Subaru_rv_Impreza_rv_WRX_rv_STi_rv_V4_rv_1440",
    "title": "2004_rv_Subaru_rv_Impreza_rv_WRX_rv_STi_rv_V4_rv_1440",
    "link_img": "https://live.staticflickr.com/65535/49892329816_342598a0d8_o.jpg",
    "id_image": "2004_rv_Subaru_rv_Impreza_rv_WRX_rv_STi_rv_V4_rv_1440",
    "count_view": 0
  },
  {
    "link_thumb": "https://live.staticflickr.com/65535/48122464007_6525319f6b_n.jpg",
    "id_album": "422322641",
    "description": "Subaru_190891",
    "title": "Subaru_190891",
    "link_img": "https://live.staticflickr.com/65535/48122464007_a1409ce063_o.jpg",
    "id_image": "Subaru_190891",
    "count_view": 0
  },
  {
    "link_thumb": "https://live.staticflickr.com/65535/48113167487_58cf4480bd_n.jpg",
    "id_album": "727633301",
    "description": "BMW_800784",
    "title": "BMW_800784",
    "link_img": "https://live.staticflickr.com/65535/48113167487_aa7fa7cf5f_o.jpg",
    "id_image": "BMW_800784",
    "count_view": 0
  },
  {
    "link_thumb": "https://live.staticflickr.com/65535/49890153568_548f45d428_n.jpg",
    "id_album": "-542802656",
    "description": "2019_rv_Mercedes_rv_AMG_rv_A35_rv_V1_rv_2000",
    "title": "2019_rv_Mercedes_rv_AMG_rv_A35_rv_V1_rv_2000",
    "link_img": "https://live.staticflickr.com/65535/49890153568_6d5c86df06_o.jpg",
    "id_image": "2019_rv_Mercedes_rv_AMG_rv_A35_rv_V1_rv_2000",
    "count_view": 0
  },
  {
    "link_thumb": "https://live.staticflickr.com/65535/48118856277_ef223c5426_n.jpg",
    "id_album": "1986285173",
    "description": "Lancia_253947",
    "title": "Lancia_253947",
    "link_img": "https://live.staticflickr.com/65535/48118856277_e7a8d96786_o.jpg",
    "id_image": "Lancia_253947",
    "count_view": 0
  },
  {
    "link_thumb": "https://live.staticflickr.com/65535/48122746702_ecb97e2a0e_n.jpg",
    "id_album": "1274920659",
    "description": "Toyota_395056",
    "title": "Toyota_395056",
    "link_img": "https://live.staticflickr.com/65535/48122746702_c10e71283c_o.jpg",
    "id_image": "Toyota_395056",
    "count_view": 0
  },
  {
    "link_thumb": "https://live.staticflickr.com/65535/48118258322_5f28c11ae1_n.jpg",
    "id_album": "-625217782",
    "description": "Kia_911357",
    "title": "Kia_911357",
    "link_img": "https://live.staticflickr.com/65535/48118258322_b4b9f3bf52_o.jpg",
    "id_image": "Kia_911357",
    "count_view": 0
  },
  {
    "link_thumb": "https://live.staticflickr.com/65535/48112862287_4d1f4dba48_n.jpg",
    "id_album": "727633301",
    "description": "BMW_447682",
    "title": "BMW_447682",
    "link_img": "https://live.staticflickr.com/65535/48112862287_70c9177577_o.jpg",
    "id_image": "BMW_447682",
    "count_view": 0
  },
  {
    "link_thumb": "https://live.staticflickr.com/65535/48112302423_c49d434422_n.jpg",
    "id_album": "-15119147",
    "description": "Audi_272788",
    "title": "Audi_272788",
    "link_img": "https://live.staticflickr.com/65535/48112302423_3ffbe6ffa7_o.jpg",
    "id_image": "Audi_272788",
    "count_view": 0
  },
  {
    "link_thumb": "https://live.staticflickr.com/65535/48111756958_16015b2c26_n.jpg",
    "id_album": "1906325017",
    "description": "Infiniti_256128",
    "title": "Infiniti_256128",
    "link_img": "https://live.staticflickr.com/65535/48111756958_1630670f2f_o.jpg",
    "id_image": "Infiniti_256128",
    "count_view": 0
  },
  {
    "link_thumb": "https://live.staticflickr.com/65535/49892592802_48e0d61d11_n.jpg",
    "id_album": "-1977273812",
    "description": "2017_rv_Rezvani_rv_Beast_rv_Alpha_rv_V9_rv_2000",
    "title": "2017_rv_Rezvani_rv_Beast_rv_Alpha_rv_V9_rv_2000",
    "link_img": "https://live.staticflickr.com/65535/49892592802_8cce79ce2c_o.jpg",
    "id_image": "2017_rv_Rezvani_rv_Beast_rv_Alpha_rv_V9_rv_2000",
    "count_view": 0
  },
  {
    "link_thumb": "https://live.staticflickr.com/65535/49890711262_e8fc3048bf_n.jpg",
    "id_album": "692514043",
    "description": "1998_rv_Maserati_rv_3200_rv_GT_rv_V3_rv_1440",
    "title": "1998_rv_Maserati_rv_3200_rv_GT_rv_V3_rv_1440",
    "link_img": "https://live.staticflickr.com/65535/49890711262_e03fca5817_o.jpg",
    "id_image": "1998_rv_Maserati_rv_3200_rv_GT_rv_V3_rv_1440",
    "count_view": 0
  },
  {
    "link_thumb": "https://live.staticflickr.com/65535/48113509222_2e574418a1_n.jpg",
    "id_album": "1456070666",
    "description": "Bugatti_497066",
    "title": "Bugatti_497066",
    "link_img": "https://live.staticflickr.com/65535/48113509222_bc1072639a_o.jpg",
    "id_image": "Bugatti_497066",
    "count_view": 0
  },
  {
    "link_thumb": "https://live.staticflickr.com/65535/49890897688_bd34772a48_n.jpg",
    "id_album": "1795407418",
    "description": "2016_rv_Vorsteiner_rv_Porsche_rv_Cayman_rv_GT4_rv_V_rv_CS_rv_Aero_rv_V1_rv_2000",
    "title": "2016_rv_Vorsteiner_rv_Porsche_rv_Cayman_rv_GT4_rv_V_rv_CS_rv_Aero_rv_V1_rv_2000",
    "link_img": "https://live.staticflickr.com/65535/49890897688_232a9880f2_o.jpg",
    "id_image": "2016_rv_Vorsteiner_rv_Porsche_rv_Cayman_rv_GT4_rv_V_rv_CS_rv_Aero_rv_V1_rv_2000",
    "count_view": 0
  },
  {
    "link_thumb": "https://live.staticflickr.com/65535/49891396491_d22ac4125e_n.jpg",
    "id_album": "250320783",
    "description": "2004_rv_Porsche_rv_Carrera_rv_GT_rv_V6_rv_1536",
    "title": "2004_rv_Porsche_rv_Carrera_rv_GT_rv_V6_rv_1536",
    "link_img": "https://live.staticflickr.com/65535/49891396491_6c270a5690_o.jpg",
    "id_image": "2004_rv_Porsche_rv_Carrera_rv_GT_rv_V6_rv_1536",
    "count_view": 0
  },
  {
    "link_thumb": "https://live.staticflickr.com/65535/48111759433_2f14e7e3cb_n.jpg",
    "id_album": "1906325017",
    "description": "Infiniti_318429",
    "title": "Infiniti_318429",
    "link_img": "https://live.staticflickr.com/65535/48111759433_447d1e608b_o.jpg",
    "id_image": "Infiniti_318429",
    "count_view": 0
  },
  {
    "link_thumb": "https://live.staticflickr.com/65535/48121463452_34035efd1a_n.jpg",
    "id_album": "-1178450892",
    "description": "Porsche_447482",
    "title": "Porsche_447482",
    "link_img": "https://live.staticflickr.com/65535/48121463452_a1af0ecac4_o.jpg",
    "id_image": "Porsche_447482",
    "count_view": 0
  },
  {
    "link_thumb": "https://live.staticflickr.com/65535/49888976971_7f5a7f564f_n.jpg",
    "id_album": "716230168",
    "description": "2018_rv_Audi_rv_RS5_rv_V3_rv_2000",
    "title": "2018_rv_Audi_rv_RS5_rv_V3_rv_2000",
    "link_img": "https://live.staticflickr.com/65535/49888976971_e42b69c16e_o.jpg",
    "id_image": "2018_rv_Audi_rv_RS5_rv_V3_rv_2000",
    "count_view": 0
  },
  {
    "link_thumb": "https://live.staticflickr.com/65535/48118218658_97d70d3082_n.jpg",
    "id_album": "-625217782",
    "description": "Kia_993828",
    "title": "Kia_993828",
    "link_img": "https://live.staticflickr.com/65535/48118218658_19557638b2_o.jpg",
    "id_image": "Kia_993828",
    "count_view": 0
  },
  {
    "link_thumb": "https://live.staticflickr.com/65535/49889990188_19f9925860_n.jpg",
    "id_album": "-914737879",
    "description": "2011_rv_McLaren_rv_MP4_rv_12C_rv_GT3_rv_V4_rv_1536",
    "title": "2011_rv_McLaren_rv_MP4_rv_12C_rv_GT3_rv_V4_rv_1536",
    "link_img": "https://live.staticflickr.com/65535/49889990188_19bb205936_o.jpg",
    "id_image": "2011_rv_McLaren_rv_MP4_rv_12C_rv_GT3_rv_V4_rv_1536",
    "count_view": 0
  },
  {
    "link_thumb": "https://live.staticflickr.com/65535/49889034702_b2b2848598_n.jpg",
    "id_album": "504832144",
    "description": "2016_rv_Acura_rv_NSX_rv_V15_rv_1600",
    "title": "2016_rv_Acura_rv_NSX_rv_V15_rv_1600",
    "link_img": "https://live.staticflickr.com/65535/49889034702_dc9b97b0a1_o.jpg",
    "id_image": "2016_rv_Acura_rv_NSX_rv_V15_rv_1600",
    "count_view": 0
  },
  {
    "link_thumb": "https://live.staticflickr.com/65535/49889050373_3883e1273b_n.jpg",
    "id_album": "-1150105315",
    "description": "2018_rv_Formula1_rv_Ferrari_rv_SF71H_rv_V3_rv_2000",
    "title": "2018_rv_Formula1_rv_Ferrari_rv_SF71H_rv_V3_rv_2000",
    "link_img": "https://live.staticflickr.com/65535/49889050373_969ba1c7a6_o.jpg",
    "id_image": "2018_rv_Formula1_rv_Ferrari_rv_SF71H_rv_V3_rv_2000",
    "count_view": 0
  },
  {
    "link_thumb": "https://live.staticflickr.com/65535/49889906757_dc2708a5c4_n.jpg",
    "id_album": "-290692475",
    "description": "2019_rv_Novitec_rv_Ferrari_rv_812_rv_Superfast_rv_V6_rv_2160",
    "title": "2019_rv_Novitec_rv_Ferrari_rv_812_rv_Superfast_rv_V6_rv_2160",
    "link_img": "https://live.staticflickr.com/65535/49889906757_2c62ef4cd9_o.jpg",
    "id_image": "2019_rv_Novitec_rv_Ferrari_rv_812_rv_Superfast_rv_V6_rv_2160",
    "count_view": 0
  },
  {
    "link_thumb": "https://live.staticflickr.com/65535/49890002997_844aeb0f8c_n.jpg",
    "id_album": "-394200433",
    "description": "2017_rv_Ford_rv_F_rv_150_rv_Raptor_rv_V5_rv_1600",
    "title": "2017_rv_Ford_rv_F_rv_150_rv_Raptor_rv_V5_rv_1600",
    "link_img": "https://live.staticflickr.com/65535/49890002997_34029b5474_o.jpg",
    "id_image": "2017_rv_Ford_rv_F_rv_150_rv_Raptor_rv_V5_rv_1600",
    "count_view": 0
  },
  {
    "link_thumb": "https://live.staticflickr.com/65535/48121210626_84b486196b_n.jpg",
    "id_album": "-1178450892",
    "description": "Porsche_223088",
    "title": "Porsche_223088",
    "link_img": "https://live.staticflickr.com/65535/48121210626_33b259b1d0_o.jpg",
    "id_image": "Porsche_223088",
    "count_view": 0
  },
  {
    "link_thumb": "https://live.staticflickr.com/65535/49890143591_5aae56a671_n.jpg",
    "id_album": "636428280",
    "description": "2012_rv_Lamborghini_rv_Gallardo_rv_LP_rv_570_rv_4_rv_Super_rv_Trofeo_rv_Stradale_rv_V3_rv_1600",
    "title": "2012_rv_Lamborghini_rv_Gallardo_rv_LP_rv_570_rv_4_rv_Super_rv_Trofeo_rv_Stradale_rv_V3_rv_1600",
    "link_img": "https://live.staticflickr.com/65535/49890143591_82a6007c6e_o.jpg",
    "id_image": "2012_rv_Lamborghini_rv_Gallardo_rv_LP_rv_570_rv_4_rv_Super_rv_Trofeo_rv_Stradale_rv_V3_rv_1600",
    "count_view": 0
  },
  {
    "link_thumb": "https://live.staticflickr.com/65535/49892096718_3a7a909fac_n.jpg",
    "id_album": "-842876950",
    "description": "2015_rv_Aston_rv_Martin_rv_V8_rv_Vantage_rv_GT_rv_V5_rv_1600",
    "title": "2015_rv_Aston_rv_Martin_rv_V8_rv_Vantage_rv_GT_rv_V5_rv_1600",
    "link_img": "https://live.staticflickr.com/65535/49892096718_52fc43d8f1_o.jpg",
    "id_image": "2015_rv_Aston_rv_Martin_rv_V8_rv_Vantage_rv_GT_rv_V5_rv_1600",
    "count_view": 0
  },
  {
    "link_thumb": "https://live.staticflickr.com/65535/49888724558_0198792de3_n.jpg",
    "id_album": "-843663395",
    "description": "1984_rv_Chevrolet_rv_Corvette_rv_Coupe_rv_V1_rv_1440",
    "title": "1984_rv_Chevrolet_rv_Corvette_rv_Coupe_rv_V1_rv_1440",
    "link_img": "https://live.staticflickr.com/65535/49888724558_db40e5c726_o.jpg",
    "id_image": "1984_rv_Chevrolet_rv_Corvette_rv_Coupe_rv_V1_rv_1440",
    "count_view": 0
  },
  {
    "link_thumb": "https://live.staticflickr.com/65535/49889979973_46c0b047a3_n.jpg",
    "id_album": "653224008",
    "description": "2003_rv_Mazda_rv_RX_rv_8_rv_X_rv_Men_rv_V2_rv_1440",
    "title": "2003_rv_Mazda_rv_RX_rv_8_rv_X_rv_Men_rv_V2_rv_1440",
    "link_img": "https://live.staticflickr.com/65535/49889979973_68f6430098_o.jpg",
    "id_image": "2003_rv_Mazda_rv_RX_rv_8_rv_X_rv_Men_rv_V2_rv_1440",
    "count_view": 0
  },
  {
    "link_thumb": "https://live.staticflickr.com/65535/48119653917_4e0a0cbb0f_n.jpg",
    "id_album": "-731054311",
    "description": "MercedesBenz_273656",
    "title": "MercedesBenz_273656",
    "link_img": "https://live.staticflickr.com/65535/48119653917_be36798758_o.jpg",
    "id_image": "MercedesBenz_273656",
    "count_view": 0
  },
  {
    "link_thumb": "https://live.staticflickr.com/65535/48114179442_dd79fd59d0_n.jpg",
    "id_album": "-1721545051",
    "description": "Chevrolet_296969",
    "title": "Chevrolet_296969",
    "link_img": "https://live.staticflickr.com/65535/48114179442_312b678b50_o.jpg",
    "id_image": "Chevrolet_296969",
    "count_view": 0
  },
  {
    "link_thumb": "https://live.staticflickr.com/65535/49889853598_1ca05f97d2_n.jpg",
    "id_album": "-391278537",
    "description": "2011_rv_Lotus_rv_Evora_rv_S_rv_V2_rv_1536",
    "title": "2011_rv_Lotus_rv_Evora_rv_S_rv_V2_rv_1536",
    "link_img": "https://live.staticflickr.com/65535/49889853598_6affaf9490_o.jpg",
    "id_image": "2011_rv_Lotus_rv_Evora_rv_S_rv_V2_rv_1536",
    "count_view": 0
  },
  {
    "link_thumb": "https://live.staticflickr.com/65535/48123077496_fd27682db8_n.jpg",
    "id_album": "-150952028",
    "description": "Volkswagen_940431",
    "title": "Volkswagen_940431",
    "link_img": "https://live.staticflickr.com/65535/48123077496_d9e7ed3b1e_o.jpg",
    "id_image": "Volkswagen_940431",
    "count_view": 0
  },
  {
    "link_thumb": "https://live.staticflickr.com/65535/49890893026_8245d85ba1_n.jpg",
    "id_album": "-376919707",
    "description": "2013_rv_Mercedes_rv_Benz_rv_SL_rv_65_rv_AMG_rv_V7_rv_1440",
    "title": "2013_rv_Mercedes_rv_Benz_rv_SL_rv_65_rv_AMG_rv_V7_rv_1440",
    "link_img": "https://live.staticflickr.com/65535/49890893026_21eff5f834_o.jpg",
    "id_image": "2013_rv_Mercedes_rv_Benz_rv_SL_rv_65_rv_AMG_rv_V7_rv_1440",
    "count_view": 0
  },
  {
    "link_thumb": "https://live.staticflickr.com/65535/48123234783_8156d7ac6c_n.jpg",
    "id_album": "1159292543",
    "description": "Volvo_990957",
    "title": "Volvo_990957",
    "link_img": "https://live.staticflickr.com/65535/48123234783_55c5c3209f_o.jpg",
    "id_image": "Volvo_990957",
    "count_view": 0
  },
  {
    "link_thumb": "https://live.staticflickr.com/65535/49889419228_c267cbb421_n.jpg",
    "id_album": "1127325547",
    "description": "2013_rv_Hyundai_rv_Genesis_rv_Coupe_rv_V4_rv_1440",
    "title": "2013_rv_Hyundai_rv_Genesis_rv_Coupe_rv_V4_rv_1440",
    "link_img": "https://live.staticflickr.com/65535/49889419228_1d80d135e4_o.jpg",
    "id_image": "2013_rv_Hyundai_rv_Genesis_rv_Coupe_rv_V4_rv_1440",
    "count_view": 0
  },
  {
    "link_thumb": "https://live.staticflickr.com/65535/48119347482_6f8d8949e8_n.jpg",
    "id_album": "990865885",
    "description": "McLaren_186615",
    "title": "McLaren_186615",
    "link_img": "https://live.staticflickr.com/65535/48119347482_cda1d54d5f_o.jpg",
    "id_image": "McLaren_186615",
    "count_view": 0
  },
  {
    "link_thumb": "https://live.staticflickr.com/65535/48113375968_b1d8a26dc4_n.jpg",
    "id_album": "1456070666",
    "description": "Bugatti_272867",
    "title": "Bugatti_272867",
    "link_img": "https://live.staticflickr.com/65535/48113375968_99aff37b22_o.jpg",
    "id_image": "Bugatti_272867",
    "count_view": 0
  },
  {
    "link_thumb": "https://live.staticflickr.com/65535/48113457472_1722642906_n.jpg",
    "id_album": "1456070666",
    "description": "Bugatti_365991",
    "title": "Bugatti_365991",
    "link_img": "https://live.staticflickr.com/65535/48113457472_70299ceda5_o.jpg",
    "id_image": "Bugatti_365991",
    "count_view": 0
  },
  {
    "link_thumb": "https://live.staticflickr.com/65535/48112640523_d09904bea9_n.jpg",
    "id_album": "727633301",
    "description": "BMW_144357",
    "title": "BMW_144357",
    "link_img": "https://live.staticflickr.com/65535/48112640523_266a73d4ed_o.jpg",
    "id_image": "BMW_144357",
    "count_view": 0
  },
  {
    "link_thumb": "https://live.staticflickr.com/65535/49889879047_8f6e7a4920_n.jpg",
    "id_album": "-1150105315",
    "description": "2019_rv_Formula1_rv_Ferrari_rv_SF90_rv_V2_rv_2160",
    "title": "2019_rv_Formula1_rv_Ferrari_rv_SF90_rv_V2_rv_2160",
    "link_img": "https://live.staticflickr.com/65535/49889879047_9462f5ab02_o.jpg",
    "id_image": "2019_rv_Formula1_rv_Ferrari_rv_SF90_rv_V2_rv_2160",
    "count_view": 0
  },
  {
    "link_thumb": "https://live.staticflickr.com/65535/48114911442_35ce093e00_n.jpg",
    "id_album": "2072464184",
    "description": "Citroen_210457",
    "title": "Citroen_210457",
    "link_img": "https://live.staticflickr.com/65535/48114911442_6d22f38e7c_o.jpg",
    "id_image": "Citroen_210457",
    "count_view": 0
  },
  {
    "link_thumb": "https://live.staticflickr.com/65535/48115700962_34cef838d3_n.jpg",
    "id_album": "594975066",
    "description": "Duesenberg_927726",
    "title": "Duesenberg_927726",
    "link_img": "https://live.staticflickr.com/65535/48115700962_1c440a68af_o.jpg",
    "id_image": "Duesenberg_927726",
    "count_view": 0
  },
  {
    "link_thumb": "https://live.staticflickr.com/65535/48119665176_be43b62e45_n.jpg",
    "id_album": "-731054311",
    "description": "MercedesBenz_417204",
    "title": "MercedesBenz_417204",
    "link_img": "https://live.staticflickr.com/65535/48119665176_6b7e521e5a_o.jpg",
    "id_image": "MercedesBenz_417204",
    "count_view": 0
  },
  {
    "link_thumb": "https://live.staticflickr.com/65535/48121323992_e4109b341e_n.jpg",
    "id_album": "-1178450892",
    "description": "Porsche_243803",
    "title": "Porsche_243803",
    "link_img": "https://live.staticflickr.com/65535/48121323992_a3247fc8a5_o.jpg",
    "id_image": "Porsche_243803",
    "count_view": 0
  },
  {
    "link_thumb": "https://live.staticflickr.com/65535/48122232068_3a95ed0fc1_n.jpg",
    "id_album": "1536700661",
    "description": "RollsRoyce_993111",
    "title": "RollsRoyce_993111",
    "link_img": "https://live.staticflickr.com/65535/48122232068_e8bd941a86_o.jpg",
    "id_image": "RollsRoyce_993111",
    "count_view": 0
  },
  {
    "link_thumb": "https://live.staticflickr.com/65535/48115160891_48b0993ddb_n.jpg",
    "id_album": "413141323",
    "description": "Dodge_290654",
    "title": "Dodge_290654",
    "link_img": "https://live.staticflickr.com/65535/48115160891_38ac202e07_o.jpg",
    "id_image": "Dodge_290654",
    "count_view": 0
  },
  {
    "link_thumb": "https://live.staticflickr.com/65535/48112376662_54d76265bd_n.jpg",
    "id_album": "-15119147",
    "description": "Audi_353303",
    "title": "Audi_353303",
    "link_img": "https://live.staticflickr.com/65535/48112376662_f99cc6662f_o.jpg",
    "id_image": "Audi_353303",
    "count_view": 0
  },
  {
    "link_thumb": "https://live.staticflickr.com/65535/48116293737_d1996ab5d8_n.jpg",
    "id_album": "1364506720",
    "description": "Ferrari_756178",
    "title": "Ferrari_756178",
    "link_img": "https://live.staticflickr.com/65535/48116293737_273c9699f8_o.jpg",
    "id_image": "Ferrari_756178",
    "count_view": 0
  },
  {
    "link_thumb": "https://live.staticflickr.com/65535/48115137507_3ae50a1612_n.jpg",
    "id_album": "413141323",
    "description": "Dodge_194316",
    "title": "Dodge_194316",
    "link_img": "https://live.staticflickr.com/65535/48115137507_8934ff1226_o.jpg",
    "id_image": "Dodge_194316",
    "count_view": 0
  },
  {
    "link_thumb": "https://live.staticflickr.com/65535/48113309032_9da5b2a95d_n.jpg",
    "id_album": "727633301",
    "description": "BMW_919818",
    "title": "BMW_919818",
    "link_img": "https://live.staticflickr.com/65535/48113309032_fe68df6d73_o.jpg",
    "id_image": "BMW_919818",
    "count_view": 0
  },
  {
    "link_thumb": "https://live.staticflickr.com/65535/49890170362_e3c1fa42a6_n.jpg",
    "id_album": "1891022534",
    "description": "2009_rv_Volkswagen_rv_Golf_rv_GTI_rv_V7_rv_1440",
    "title": "2009_rv_Volkswagen_rv_Golf_rv_GTI_rv_V7_rv_1440",
    "link_img": "https://live.staticflickr.com/65535/49890170362_48cd2b52ed_o.jpg",
    "id_image": "2009_rv_Volkswagen_rv_Golf_rv_GTI_rv_V7_rv_1440",
    "count_view": 0
  },
  {
    "link_thumb": "https://live.staticflickr.com/65535/48119213027_3ac1f7dbca_n.jpg",
    "id_album": "697984456",
    "description": "Maserati_885612",
    "title": "Maserati_885612",
    "link_img": "https://live.staticflickr.com/65535/48119213027_d3e2e72df9_o.jpg",
    "id_image": "Maserati_885612",
    "count_view": 0
  },
  {
    "link_thumb": "https://live.staticflickr.com/65535/48118610782_191a5bc6e6_n.jpg",
    "id_album": "-2100339805",
    "description": "Lamborghini_538879",
    "title": "Lamborghini_538879",
    "link_img": "https://live.staticflickr.com/65535/48118610782_74fc1fd7a7_o.jpg",
    "id_image": "Lamborghini_538879",
    "count_view": 0
  },
  {
    "link_thumb": "https://live.staticflickr.com/65535/48117053376_35efce3f43_n.jpg",
    "id_album": "-1846404630",
    "description": "Ford_362214",
    "title": "Ford_362214",
    "link_img": "https://live.staticflickr.com/65535/48117053376_ed26df5f77_o.jpg",
    "id_image": "Ford_362214",
    "count_view": 0
  },
  {
    "link_thumb": "https://live.staticflickr.com/65535/49889598222_5291cd3f70_n.jpg",
    "id_album": "1016927281",
    "description": "2013_rv_Porsche_rv_911_rv_Carrera_rv_S_rv_V4_rv_1536",
    "title": "2013_rv_Porsche_rv_911_rv_Carrera_rv_S_rv_V4_rv_1536",
    "link_img": "https://live.staticflickr.com/65535/49889598222_e5e301bca0_o.jpg",
    "id_image": "2013_rv_Porsche_rv_911_rv_Carrera_rv_S_rv_V4_rv_1536",
    "count_view": 0
  },
  {
    "link_thumb": "https://live.staticflickr.com/65535/48119302966_dfe4a619a2_n.jpg",
    "id_album": "990865885",
    "description": "McLaren_508089",
    "title": "McLaren_508089",
    "link_img": "https://live.staticflickr.com/65535/48119302966_a2a7449583_o.jpg",
    "id_image": "McLaren_508089",
    "count_view": 0
  },
  {
    "link_thumb": "https://live.staticflickr.com/65535/49892530361_e2e22544c7_n.jpg",
    "id_album": "883034302",
    "description": "2020_rv_Toyota_rv_Supra_rv_GT4_rv_V5_rv_2160",
    "title": "2020_rv_Toyota_rv_Supra_rv_GT4_rv_V5_rv_2160",
    "link_img": "https://live.staticflickr.com/65535/49892530361_fc69c66e7c_o.jpg",
    "id_image": "2020_rv_Toyota_rv_Supra_rv_GT4_rv_V5_rv_2160",
    "count_view": 0
  },
  {
    "link_thumb": "https://live.staticflickr.com/65535/48118862361_f2b737fbc1_n.jpg",
    "id_album": "446908717",
    "description": "Lexus_449751",
    "title": "Lexus_449751",
    "link_img": "https://live.staticflickr.com/65535/48118862361_f63167ed4c_o.jpg",
    "id_image": "Lexus_449751",
    "count_view": 0
  },
  {
    "link_thumb": "https://live.staticflickr.com/65535/49891131697_6f1c03e4a2_n.jpg",
    "id_album": "-21475779",
    "description": "2016_rv_Mercedes_rv_Benz_rv_AMG_rv_GT_rv_V12_rv_1600",
    "title": "2016_rv_Mercedes_rv_Benz_rv_AMG_rv_GT_rv_V12_rv_1600",
    "link_img": "https://live.staticflickr.com/65535/49891131697_1083b97584_o.jpg",
    "id_image": "2016_rv_Mercedes_rv_Benz_rv_AMG_rv_GT_rv_V12_rv_1600",
    "count_view": 0
  },
  {
    "link_thumb": "https://live.staticflickr.com/65535/48113433407_c1e0a70b30_n.jpg",
    "id_album": "1456070666",
    "description": "Bugatti_264996",
    "title": "Bugatti_264996",
    "link_img": "https://live.staticflickr.com/65535/48113433407_76cf66852e_o.jpg",
    "id_image": "Bugatti_264996",
    "count_view": 0
  },
  {
    "link_thumb": "https://live.staticflickr.com/65535/48119430838_3ff1fc2c33_n.jpg",
    "id_album": "990865885",
    "description": "McLaren_936676",
    "title": "McLaren_936676",
    "link_img": "https://live.staticflickr.com/65535/48119430838_2eb5cae7fa_o.jpg",
    "id_image": "McLaren_936676",
    "count_view": 0
  },
  {
    "link_thumb": "https://live.staticflickr.com/65535/48122983881_5d057623ac_n.jpg",
    "id_album": "-150952028",
    "description": "Volkswagen_498727",
    "title": "Volkswagen_498727",
    "link_img": "https://live.staticflickr.com/65535/48122983881_54ee161b62_o.jpg",
    "id_image": "Volkswagen_498727",
    "count_view": 0
  },
  {
    "link_thumb": "https://live.staticflickr.com/65535/48120921898_49a4e02585_n.jpg",
    "id_album": "1965631892",
    "description": "Peugeot_906217",
    "title": "Peugeot_906217",
    "link_img": "https://live.staticflickr.com/65535/48120921898_17127ac19f_o.jpg",
    "id_image": "Peugeot_906217",
    "count_view": 0
  },
  {
    "link_thumb": "https://live.staticflickr.com/65535/49890820428_4bff92e636_n.jpg",
    "id_album": "-923669998",
    "description": "1965_rv_Pontiac_rv_Tempest_rv_LeMans_rv_GTO_rv_V9_rv_1536",
    "title": "1965_rv_Pontiac_rv_Tempest_rv_LeMans_rv_GTO_rv_V9_rv_1536",
    "link_img": "https://live.staticflickr.com/65535/49890820428_8db266e7a7_o.jpg",
    "id_image": "1965_rv_Pontiac_rv_Tempest_rv_LeMans_rv_GTO_rv_V9_rv_1536",
    "count_view": 0
  },
  {
    "link_thumb": "https://live.staticflickr.com/65535/48113557031_809166dbae_n.jpg",
    "id_album": "-680120434",
    "description": "Cadillac_396210",
    "title": "Cadillac_396210",
    "link_img": "https://live.staticflickr.com/65535/48113557031_b3d6008b08_o.jpg",
    "id_image": "Cadillac_396210",
    "count_view": 0
  },
  {
    "link_thumb": "https://live.staticflickr.com/65535/48113227682_1a8f1b84d9_n.jpg",
    "id_album": "727633301",
    "description": "BMW_880923",
    "title": "BMW_880923",
    "link_img": "https://live.staticflickr.com/65535/48113227682_6956bb00ef_o.jpg",
    "id_image": "BMW_880923",
    "count_view": 0
  },
  {
    "link_thumb": "https://live.staticflickr.com/65535/48121088061_d1f664d28d_n.jpg",
    "id_album": "-2099496752",
    "description": "Pontiac_238980",
    "title": "Pontiac_238980",
    "link_img": "https://live.staticflickr.com/65535/48121088061_f05dc0537c_o.jpg",
    "id_image": "Pontiac_238980",
    "count_view": 0
  },
  {
    "link_thumb": "https://live.staticflickr.com/65535/48119563568_262613817f_n.jpg",
    "id_album": "-731054311",
    "description": "MercedesBenz_257250",
    "title": "MercedesBenz_257250",
    "link_img": "https://live.staticflickr.com/65535/48119563568_b109ceefbb_o.jpg",
    "id_image": "MercedesBenz_257250",
    "count_view": 0
  },
  {
    "link_thumb": "https://live.staticflickr.com/65535/48113083261_d98b4cf709_n.jpg",
    "id_album": "727633301",
    "description": "BMW_838171",
    "title": "BMW_838171",
    "link_img": "https://live.staticflickr.com/65535/48113083261_d92b17d396_o.jpg",
    "id_image": "BMW_838171",
    "count_view": 0
  },
  {
    "link_thumb": "https://live.staticflickr.com/65535/48117764156_41c69f232e_n.jpg",
    "id_album": "-354267407",
    "description": "Honda_225244",
    "title": "Honda_225244",
    "link_img": "https://live.staticflickr.com/65535/48117764156_14c668416f_o.jpg",
    "id_image": "Honda_225244",
    "count_view": 0
  },
  {
    "link_thumb": "https://live.staticflickr.com/65535/48117140873_82916c1c78_n.jpg",
    "id_album": "-1846404630",
    "description": "Ford_400694",
    "title": "Ford_400694",
    "link_img": "https://live.staticflickr.com/65535/48117140873_bbd64aca1e_o.jpg",
    "id_image": "Ford_400694",
    "count_view": 0
  },
  {
    "link_thumb": "https://live.staticflickr.com/65535/49890313757_e05fbef50e_n.jpg",
    "id_album": "1773051543",
    "description": "2012_rv_Jaguar_rv_XF_rv_V6_rv_1536",
    "title": "2012_rv_Jaguar_rv_XF_rv_V6_rv_1536",
    "link_img": "https://live.staticflickr.com/65535/49890313757_aaf2e52c73_o.jpg",
    "id_image": "2012_rv_Jaguar_rv_XF_rv_V6_rv_1536",
    "count_view": 0
  },
  {
    "link_thumb": "https://live.staticflickr.com/65535/48114803168_dedf27216f_n.jpg",
    "id_album": "939606447",
    "description": "Chrysler_478391",
    "title": "Chrysler_478391",
    "link_img": "https://live.staticflickr.com/65535/48114803168_ec023fc026_o.jpg",
    "id_image": "Chrysler_478391",
    "count_view": 0
  },
  {
    "link_thumb": "https://live.staticflickr.com/65535/48112533251_c3ffc1da5b_n.jpg",
    "id_album": "2097036181",
    "description": "Bentley_480506",
    "title": "Bentley_480506",
    "link_img": "https://live.staticflickr.com/65535/48112533251_69ae93a9d3_o.jpg",
    "id_image": "Bentley_480506",
    "count_view": 0
  },
  {
    "link_thumb": "https://live.staticflickr.com/65535/49889070393_abc9f12e7f_n.jpg",
    "id_album": "-290692475",
    "description": "2013_rv_Novitec_rv_Rosso_rv_Ferrari_rv_F12berlinetta_rv_V6_rv_1600",
    "title": "2013_rv_Novitec_rv_Rosso_rv_Ferrari_rv_F12berlinetta_rv_V6_rv_1600",
    "link_img": "https://live.staticflickr.com/65535/49889070393_2fc4d22fe8_o.jpg",
    "id_image": "2013_rv_Novitec_rv_Rosso_rv_Ferrari_rv_F12berlinetta_rv_V6_rv_1600",
    "count_view": 0
  },
  {
    "link_thumb": "https://live.staticflickr.com/65535/48122018882_99efe8acd0_n.jpg",
    "id_album": "-1377335499",
    "description": "RangeRover_801335",
    "title": "RangeRover_801335",
    "link_img": "https://live.staticflickr.com/65535/48122018882_380dd13724_o.jpg",
    "id_image": "RangeRover_801335",
    "count_view": 0
  },
  {
    "link_thumb": "https://live.staticflickr.com/65535/49890210823_7090df25de_n.jpg",
    "id_album": "-2130466459",
    "description": "2013_rv_Mercedes_rv_Benz_rv_CLS_rv_Shooting_rv_Brake_rv_V2_rv_1440",
    "title": "2013_rv_Mercedes_rv_Benz_rv_CLS_rv_Shooting_rv_Brake_rv_V2_rv_1440",
    "link_img": "https://live.staticflickr.com/65535/49890210823_fef489d244_o.jpg",
    "id_image": "2013_rv_Mercedes_rv_Benz_rv_CLS_rv_Shooting_rv_Brake_rv_V2_rv_1440",
    "count_view": 0
  },
  {
    "link_thumb": "https://live.staticflickr.com/65535/48113716031_294aeb4b3f_n.jpg",
    "id_album": "-1721545051",
    "description": "Chevrolet_173717",
    "title": "Chevrolet_173717",
    "link_img": "https://live.staticflickr.com/65535/48113716031_dc270cac68_o.jpg",
    "id_image": "Chevrolet_173717",
    "count_view": 0
  },
  {
    "link_thumb": "https://live.staticflickr.com/65535/49890612967_1d6cf6b618_n.jpg",
    "id_album": "-318595729",
    "description": "2013_rv_Lexus_rv_LS_rv_V3_rv_1440",
    "title": "2013_rv_Lexus_rv_LS_rv_V3_rv_1440",
    "link_img": "https://live.staticflickr.com/65535/49890612967_4488b6e006_o.jpg",
    "id_image": "2013_rv_Lexus_rv_LS_rv_V3_rv_1440",
    "count_view": 0
  },
  {
    "link_thumb": "https://live.staticflickr.com/65535/49889961058_ccff821558_n.jpg",
    "id_album": "-1174261063",
    "description": "2008_rv_Mazda_rv_MX_rv_5_rv_V3_rv_1440",
    "title": "2008_rv_Mazda_rv_MX_rv_5_rv_V3_rv_1440",
    "link_img": "https://live.staticflickr.com/65535/49889961058_89ede1a84e_o.jpg",
    "id_image": "2008_rv_Mazda_rv_MX_rv_5_rv_V3_rv_1440",
    "count_view": 0
  },
  {
    "link_thumb": "https://live.staticflickr.com/65535/49889660208_f67de9ea95_n.jpg",
    "id_album": "-1311987417",
    "description": "1969_rv_Lamborghini_rv_Islero_rv_V1_rv_1440",
    "title": "1969_rv_Lamborghini_rv_Islero_rv_V1_rv_1440",
    "link_img": "https://live.staticflickr.com/65535/49889660208_a768b083ba_o.jpg",
    "id_image": "1969_rv_Lamborghini_rv_Islero_rv_V1_rv_1440",
    "count_view": 0
  },
  {
    "link_thumb": "https://live.staticflickr.com/65535/49892992527_7abb5fb0a1_n.jpg",
    "id_album": "-1154480391",
    "description": "2014_rv_Volvo_rv_Estate_rv_Concept_rv_V3_rv_1600",
    "title": "2014_rv_Volvo_rv_Estate_rv_Concept_rv_V3_rv_1600",
    "link_img": "https://live.staticflickr.com/65535/49892992527_5d81f85055_o.jpg",
    "id_image": "2014_rv_Volvo_rv_Estate_rv_Concept_rv_V3_rv_1600",
    "count_view": 0
  },
  {
    "link_thumb": "https://live.staticflickr.com/65535/48114875226_15d67cebb1_n.jpg",
    "id_album": "2072464184",
    "description": "Citroen_471898",
    "title": "Citroen_471898",
    "link_img": "https://live.staticflickr.com/65535/48114875226_ac908ae4b2_o.jpg",
    "id_image": "Citroen_471898",
    "count_view": 0
  },
  {
    "link_thumb": "https://live.staticflickr.com/65535/48115831301_ddc644bd60_n.jpg",
    "id_album": "1364506720",
    "description": "Ferrari_317882",
    "title": "Ferrari_317882",
    "link_img": "https://live.staticflickr.com/65535/48115831301_8d0f70c75f_o.jpg",
    "id_image": "Ferrari_317882",
    "count_view": 0
  },
  {
    "link_thumb": "https://live.staticflickr.com/65535/48114078231_e9524ef7fa_n.jpg",
    "id_album": "-1721545051",
    "description": "Chevrolet_294829",
    "title": "Chevrolet_294829",
    "link_img": "https://live.staticflickr.com/65535/48114078231_24fa0aa7c4_o.jpg",
    "id_image": "Chevrolet_294829",
    "count_view": 0
  },
  {
    "link_thumb": "https://live.staticflickr.com/65535/48114541108_dbc1efb08e_n.jpg",
    "id_album": "-1721545051",
    "description": "Chevrolet_742731",
    "title": "Chevrolet_742731",
    "link_img": "https://live.staticflickr.com/65535/48114541108_7b19cbee4f_o.jpg",
    "id_image": "Chevrolet_742731",
    "count_view": 0
  },
  {
    "link_thumb": "https://live.staticflickr.com/65535/49890617058_b15176bded_n.jpg",
    "id_album": "-1354931280",
    "description": "2014_rv_Nissan_rv_Pulsar_rv_Nismo_rv_Concept_rv_V4_rv_1600",
    "title": "2014_rv_Nissan_rv_Pulsar_rv_Nismo_rv_Concept_rv_V4_rv_1600",
    "link_img": "https://live.staticflickr.com/65535/49890617058_2ac0482bba_o.jpg",
    "id_image": "2014_rv_Nissan_rv_Pulsar_rv_Nismo_rv_Concept_rv_V4_rv_1600",
    "count_view": 0
  },
  {
    "link_thumb": "https://live.staticflickr.com/65535/49889146743_b6428355ed_n.jpg",
    "id_album": "-135411974",
    "description": "1969_rv_Ford_rv_Mustang_rv_Boss_rv_302_rv_V4_rv_1536",
    "title": "1969_rv_Ford_rv_Mustang_rv_Boss_rv_302_rv_V4_rv_1536",
    "link_img": "https://live.staticflickr.com/65535/49889146743_0f815c2310_o.jpg",
    "id_image": "1969_rv_Ford_rv_Mustang_rv_Boss_rv_302_rv_V4_rv_1536",
    "count_view": 0
  },
  {
    "link_thumb": "https://live.staticflickr.com/65535/49889396308_dac15b08a6_n.jpg",
    "id_album": "-865647970",
    "description": "1990_rv_Honda_rv_NSX_rv_V5_rv_1536",
    "title": "1990_rv_Honda_rv_NSX_rv_V5_rv_1536",
    "link_img": "https://live.staticflickr.com/65535/49889396308_d83f08b022_o.jpg",
    "id_image": "1990_rv_Honda_rv_NSX_rv_V5_rv_1536",
    "count_view": 0
  },
  {
    "link_thumb": "https://live.staticflickr.com/65535/48114629666_9837dd8caa_n.jpg",
    "id_album": "-1721545051",
    "description": "Chevrolet_891456",
    "title": "Chevrolet_891456",
    "link_img": "https://live.staticflickr.com/65535/48114629666_02c4c95b98_o.jpg",
    "id_image": "Chevrolet_891456",
    "count_view": 0
  },
  {
    "link_thumb": "https://live.staticflickr.com/65535/48114371487_ac102633ec_n.jpg",
    "id_album": "-1721545051",
    "description": "Chevrolet_471679",
    "title": "Chevrolet_471679",
    "link_img": "https://live.staticflickr.com/65535/48114371487_283bbe53c2_o.jpg",
    "id_image": "Chevrolet_471679",
    "count_view": 0
  },
  {
    "link_thumb": "https://live.staticflickr.com/65535/48112232018_f211bae062_n.jpg",
    "id_album": "555757480",
    "description": "AstonMartin_892990",
    "title": "AstonMartin_892990",
    "link_img": "https://live.staticflickr.com/65535/48112232018_63218ae07f_o.jpg",
    "id_image": "AstonMartin_892990",
    "count_view": 0
  },
  {
    "link_thumb": "https://live.staticflickr.com/65535/48113564237_84492e9e9e_n.jpg",
    "id_album": "1246496342",
    "description": "Buick_238102",
    "title": "Buick_238102",
    "link_img": "https://live.staticflickr.com/65535/48113564237_d0e3708c87_o.jpg",
    "id_image": "Buick_238102",
    "count_view": 0
  },
  {
    "link_thumb": "https://live.staticflickr.com/65535/48113144358_86bb588005_n.jpg",
    "id_album": "727633301",
    "description": "BMW_869464",
    "title": "BMW_869464",
    "link_img": "https://live.staticflickr.com/65535/48113144358_a7ba4100c0_o.jpg",
    "id_image": "BMW_869464",
    "count_view": 0
  },
  {
    "link_thumb": "https://live.staticflickr.com/65535/49889272226_f3cc2a108e_n.jpg",
    "id_album": "1133923264",
    "description": "2013_rv_Cadillac_rv_Elmiraj_rv_Concept_rv_V3_rv_1600",
    "title": "2013_rv_Cadillac_rv_Elmiraj_rv_Concept_rv_V3_rv_1600",
    "link_img": "https://live.staticflickr.com/65535/49889272226_eaa1a55cd6_o.jpg",
    "id_image": "2013_rv_Cadillac_rv_Elmiraj_rv_Concept_rv_V3_rv_1600",
    "count_view": 0
  },
  {
    "link_thumb": "https://live.staticflickr.com/65535/48119174206_5921471a88_n.jpg",
    "id_album": "1385906093",
    "description": "Maybach_453210",
    "title": "Maybach_453210",
    "link_img": "https://live.staticflickr.com/65535/48119174206_3479d2f74a_o.jpg",
    "id_image": "Maybach_453210",
    "count_view": 0
  },
  {
    "link_thumb": "https://live.staticflickr.com/65535/48113628391_20feab24d6_n.jpg",
    "id_album": "-1721545051",
    "description": "Chevrolet_144361",
    "title": "Chevrolet_144361",
    "link_img": "https://live.staticflickr.com/65535/48113628391_4169260cf4_o.jpg",
    "id_image": "Chevrolet_144361",
    "count_view": 0
  },
  {
    "link_thumb": "https://live.staticflickr.com/65535/49888549318_68e7281e96_n.jpg",
    "id_album": "-1839908199",
    "description": "2018_rv_BMW_rv_M2_rv_M_rv_Performance_rv_Parts_rv_Concept_rv_V1_rv_2000",
    "title": "2018_rv_BMW_rv_M2_rv_M_rv_Performance_rv_Parts_rv_Concept_rv_V1_rv_2000",
    "link_img": "https://live.staticflickr.com/65535/49888549318_8d7e089fd5_o.jpg",
    "id_image": "2018_rv_BMW_rv_M2_rv_M_rv_Performance_rv_Parts_rv_Concept_rv_V1_rv_2000",
    "count_view": 0
  },
  {
    "link_thumb": "https://live.staticflickr.com/65535/49889049922_624cf9f4ca_n.jpg",
    "id_album": "1831597390",
    "description": "2014_rv_Alfa_rv_Romeo_rv_4C_rv_V1_rv_1600",
    "title": "2014_rv_Alfa_rv_Romeo_rv_4C_rv_V1_rv_1600",
    "link_img": "https://live.staticflickr.com/65535/49889049922_9cfe4f6bf5_o.jpg",
    "id_image": "2014_rv_Alfa_rv_Romeo_rv_4C_rv_V1_rv_1600",
    "count_view": 0
  },
  {
    "link_thumb": "https://live.staticflickr.com/65535/49889441501_b715793325_n.jpg",
    "id_album": "1069273898",
    "description": "1966_rv_Ferrari_rv_275_rv_GTB_rv_Competizione_rv_V3_rv_1600",
    "title": "1966_rv_Ferrari_rv_275_rv_GTB_rv_Competizione_rv_V3_rv_1600",
    "link_img": "https://live.staticflickr.com/65535/49889441501_1795e23c70_o.jpg",
    "id_image": "1966_rv_Ferrari_rv_275_rv_GTB_rv_Competizione_rv_V3_rv_1600",
    "count_view": 0
  },
  {
    "link_thumb": "https://live.staticflickr.com/65535/49889432046_d65be7b6bc_n.jpg",
    "id_album": "-1659543920",
    "description": "1949_rv_Ferrari_rv_166_rv_MM_rv_V4_rv_1536",
    "title": "1949_rv_Ferrari_rv_166_rv_MM_rv_V4_rv_1536",
    "link_img": "https://live.staticflickr.com/65535/49889432046_3f51e3cb07_o.jpg",
    "id_image": "1949_rv_Ferrari_rv_166_rv_MM_rv_V4_rv_1536",
    "count_view": 0
  },
  {
    "link_thumb": "https://live.staticflickr.com/65535/48118647196_ffa0a10a23_n.jpg",
    "id_album": "-2100339805",
    "description": "Lamborghini_895883",
    "title": "Lamborghini_895883",
    "link_img": "https://live.staticflickr.com/65535/48118647196_f05898e806_o.jpg",
    "id_image": "Lamborghini_895883",
    "count_view": 0
  },
  {
    "link_thumb": "https://live.staticflickr.com/65535/49892914637_0a7752da49_n.jpg",
    "id_album": "-842876950",
    "description": "2007_rv_Audi_rv_R8_rv_V4_rv_1440",
    "title": "2007_rv_Audi_rv_R8_rv_V4_rv_1440",
    "link_img": "https://live.staticflickr.com/65535/49892914637_1ac0394677_o.jpg",
    "id_image": "2007_rv_Audi_rv_R8_rv_V4_rv_1440",
    "count_view": 0
  },
  {
    "link_thumb": "https://live.staticflickr.com/65535/48117879863_76ff9e9db1_n.jpg",
    "id_album": "-354267407",
    "description": "Honda_684221",
    "title": "Honda_684221",
    "link_img": "https://live.staticflickr.com/65535/48117879863_0c366bcbc9_o.jpg",
    "id_image": "Honda_684221",
    "count_view": 0
  },
  {
    "link_thumb": "https://live.staticflickr.com/65535/48113064886_ed133a7d17_n.jpg",
    "id_album": "727633301",
    "description": "BMW_799179",
    "title": "BMW_799179",
    "link_img": "https://live.staticflickr.com/65535/48113064886_0d6745202a_o.jpg",
    "id_image": "BMW_799179",
    "count_view": 0
  },
  {
    "link_thumb": "https://live.staticflickr.com/65535/48118382222_a02b5372d7_n.jpg",
    "id_album": "-2100339805",
    "description": "Lamborghini_289433",
    "title": "Lamborghini_289433",
    "link_img": "https://live.staticflickr.com/65535/48118382222_c11b66e634_o.jpg",
    "id_image": "Lamborghini_289433",
    "count_view": 0
  },
  {
    "link_thumb": "https://live.staticflickr.com/65535/48122491066_9b1198d39e_n.jpg",
    "id_album": "422322641",
    "description": "Subaru_541184",
    "title": "Subaru_541184",
    "link_img": "https://live.staticflickr.com/65535/48122491066_a4f7907222_o.jpg",
    "id_image": "Subaru_541184",
    "count_view": 0
  },
  {
    "link_thumb": "https://live.staticflickr.com/65535/48118949218_555d75f415_n.jpg",
    "id_album": "446908717",
    "description": "Lexus_882248",
    "title": "Lexus_882248",
    "link_img": "https://live.staticflickr.com/65535/48118949218_40d5a5e3ac_o.jpg",
    "id_image": "Lexus_882248",
    "count_view": 0
  },
  {
    "link_thumb": "https://live.staticflickr.com/65535/49892342641_cc40578d12_n.jpg",
    "id_album": "-1793040217",
    "description": "2015_rv_Shelby_rv_Raptor_rv_V1_rv_1440",
    "title": "2015_rv_Shelby_rv_Raptor_rv_V1_rv_1440",
    "link_img": "https://live.staticflickr.com/65535/49892342641_e8d75b1a1e_o.jpg",
    "id_image": "2015_rv_Shelby_rv_Raptor_rv_V1_rv_1440",
    "count_view": 0
  },
  {
    "link_thumb": "https://live.staticflickr.com/65535/48112429607_870fff73e1_n.jpg",
    "id_album": "-15119147",
    "description": "Audi_477472",
    "title": "Audi_477472",
    "link_img": "https://live.staticflickr.com/65535/48112429607_45936894c2_o.jpg",
    "id_image": "Audi_477472",
    "count_view": 0
  },
  {
    "link_thumb": "https://live.staticflickr.com/65535/48115573578_be289db51b_n.jpg",
    "id_album": "413141323",
    "description": "Dodge_943958",
    "title": "Dodge_943958",
    "link_img": "https://live.staticflickr.com/65535/48115573578_caa21b91d4_o.jpg",
    "id_image": "Dodge_943958",
    "count_view": 0
  },
  {
    "link_thumb": "https://live.staticflickr.com/65535/49890881677_d958c34b4a_n.jpg",
    "id_album": "1807183876",
    "description": "2019_rv_McLaren_rv_720S_rv_Spider_rv_V7_rv_2000",
    "title": "2019_rv_McLaren_rv_720S_rv_Spider_rv_V7_rv_2000",
    "link_img": "https://live.staticflickr.com/65535/49890881677_cbc07418b6_o.jpg",
    "id_image": "2019_rv_McLaren_rv_720S_rv_Spider_rv_V7_rv_2000",
    "count_view": 0
  },
  {
    "link_thumb": "https://live.staticflickr.com/65535/48116574757_7a14299dc4_n.jpg",
    "id_album": "-803737857",
    "description": "Fiat_472207",
    "title": "Fiat_472207",
    "link_img": "https://live.staticflickr.com/65535/48116574757_a0171b5291_o.jpg",
    "id_image": "Fiat_472207",
    "count_view": 0
  },
  {
    "link_thumb": "https://live.staticflickr.com/65535/48119487792_0b6c389e74_n.jpg",
    "id_album": "990865885",
    "description": "McLaren_934375",
    "title": "McLaren_934375",
    "link_img": "https://live.staticflickr.com/65535/48119487792_42c1b060c5_o.jpg",
    "id_image": "McLaren_934375",
    "count_view": 0
  },
  {
    "link_thumb": "https://live.staticflickr.com/65535/49888716576_6c9ab202f3_n.jpg",
    "id_album": "-6998825",
    "description": "2017_rv_Acura_rv_NSX_rv_GT3_rv_V4_rv_2000",
    "title": "2017_rv_Acura_rv_NSX_rv_GT3_rv_V4_rv_2000",
    "link_img": "https://live.staticflickr.com/65535/49888716576_b9c7ef6e88_o.jpg",
    "id_image": "2017_rv_Acura_rv_NSX_rv_GT3_rv_V4_rv_2000",
    "count_view": 0
  },
  {
    "link_thumb": "https://live.staticflickr.com/65535/48113251167_5bd61189ee_n.jpg",
    "id_album": "727633301",
    "description": "BMW_897025",
    "title": "BMW_897025",
    "link_img": "https://live.staticflickr.com/65535/48113251167_29806a865a_o.jpg",
    "id_image": "BMW_897025",
    "count_view": 0
  },
  {
    "link_thumb": "https://live.staticflickr.com/65535/48117382131_3c1cec77f8_n.jpg",
    "id_album": "-1846404630",
    "description": "Ford_698515",
    "title": "Ford_698515",
    "link_img": "https://live.staticflickr.com/65535/48117382131_4b52d4cd70_o.jpg",
    "id_image": "Ford_698515",
    "count_view": 0
  },
  {
    "link_thumb": "https://live.staticflickr.com/65535/48121079197_a79b53d25a_n.jpg",
    "id_album": "-1123679742",
    "description": "Plymouth_289148",
    "title": "Plymouth_289148",
    "link_img": "https://live.staticflickr.com/65535/48121079197_35e4f3fbf6_o.jpg",
    "id_image": "Plymouth_289148",
    "count_view": 0
  },
  {
    "link_thumb": "https://live.staticflickr.com/65535/48118471091_e52d075748_n.jpg",
    "id_album": "-2100339805",
    "description": "Lamborghini_450417",
    "title": "Lamborghini_450417",
    "link_img": "https://live.staticflickr.com/65535/48118471091_490b659806_o.jpg",
    "id_image": "Lamborghini_450417",
    "count_view": 0
  },
  {
    "link_thumb": "https://live.staticflickr.com/65535/48112997643_fe753185b4_n.jpg",
    "id_album": "727633301",
    "description": "BMW_512027",
    "title": "BMW_512027",
    "link_img": "https://live.staticflickr.com/65535/48112997643_a5dc26c4d9_o.jpg",
    "id_image": "BMW_512027",
    "count_view": 0
  },
  {
    "link_thumb": "https://live.staticflickr.com/65535/48120792742_ff2f941bcc_n.jpg",
    "id_album": "1952909762",
    "description": "Packard_391489",
    "title": "Packard_391489",
    "link_img": "https://live.staticflickr.com/65535/48120792742_f0b68c3e65_o.jpg",
    "id_image": "Packard_391489",
    "count_view": 0
  },
  {
    "link_thumb": "https://live.staticflickr.com/65535/48119877723_535080a1f5_n.jpg",
    "id_album": "-731054311",
    "description": "MercedesBenz_906643",
    "title": "MercedesBenz_906643",
    "link_img": "https://live.staticflickr.com/65535/48119877723_9bfd9e670d_o.jpg",
    "id_image": "MercedesBenz_906643",
    "count_view": 0
  },
  {
    "link_thumb": "https://live.staticflickr.com/65535/48114278908_61661e0b15_n.jpg",
    "id_album": "-1721545051",
    "description": "Chevrolet_441171",
    "title": "Chevrolet_441171",
    "link_img": "https://live.staticflickr.com/65535/48114278908_d9623ffb6e_o.jpg",
    "id_image": "Chevrolet_441171",
    "count_view": 0
  },
  {
    "link_thumb": "https://live.staticflickr.com/65535/49889171783_27a2b62811_n.jpg",
    "id_album": "423753153",
    "description": "2019_rv_Ford_rv_Bronco_rv_R_rv_Concept_rv_V1_rv_2160",
    "title": "2019_rv_Ford_rv_Bronco_rv_R_rv_Concept_rv_V1_rv_2160",
    "link_img": "https://live.staticflickr.com/65535/49889171783_0f5cb24e12_o.jpg",
    "id_image": "2019_rv_Ford_rv_Bronco_rv_R_rv_Concept_rv_V1_rv_2160",
    "count_view": 0
  },
  {
    "link_thumb": "https://live.staticflickr.com/65535/48114787456_ef83a0936e_n.jpg",
    "id_album": "939606447",
    "description": "Chrysler_631083",
    "title": "Chrysler_631083",
    "link_img": "https://live.staticflickr.com/65535/48114787456_e715dd81d6_o.jpg",
    "id_image": "Chrysler_631083",
    "count_view": 0
  },
  {
    "link_thumb": "https://live.staticflickr.com/65535/48112314402_5e1532b039_n.jpg",
    "id_album": "555757480",
    "description": "AstonMartin_925308",
    "title": "AstonMartin_925308",
    "link_img": "https://live.staticflickr.com/65535/48112314402_a4f7727f1f_o.jpg",
    "id_image": "AstonMartin_925308",
    "count_view": 0
  },
  {
    "link_thumb": "https://live.staticflickr.com/65535/48113089597_e4b4d5fbb0_n.jpg",
    "id_album": "727633301",
    "description": "BMW_595716",
    "title": "BMW_595716",
    "link_img": "https://live.staticflickr.com/65535/48113089597_f52814df76_o.jpg",
    "id_image": "BMW_595716",
    "count_view": 0
  },
  {
    "link_thumb": "https://live.staticflickr.com/65535/48117897138_115de3fb5b_n.jpg",
    "id_album": "-354267407",
    "description": "Honda_684285",
    "title": "Honda_684285",
    "link_img": "https://live.staticflickr.com/65535/48117897138_28d2757551_o.jpg",
    "id_image": "Honda_684285",
    "count_view": 0
  },
  {
    "link_thumb": "https://live.staticflickr.com/65535/49890728623_a3c2d6a7c9_n.jpg",
    "id_album": "-1991583903",
    "description": "1997_rv_Peugeot_rv_306_rv_GTi_rv_6_rv_V1_rv_1600",
    "title": "1997_rv_Peugeot_rv_306_rv_GTi_rv_6_rv_V1_rv_1600",
    "link_img": "https://live.staticflickr.com/65535/49890728623_bcd0738bbd_o.jpg",
    "id_image": "1997_rv_Peugeot_rv_306_rv_GTi_rv_6_rv_V1_rv_1600",
    "count_view": 0
  },
  {
    "link_thumb": "https://live.staticflickr.com/65535/49891408581_5990b5ea9f_n.jpg",
    "id_album": "1795407418",
    "description": "2016_rv_Porsche_rv_Cayman_rv_GT4_rv_V13_rv_1600",
    "title": "2016_rv_Porsche_rv_Cayman_rv_GT4_rv_V13_rv_1600",
    "link_img": "https://live.staticflickr.com/65535/49891408581_dfe8f89c36_o.jpg",
    "id_image": "2016_rv_Porsche_rv_Cayman_rv_GT4_rv_V13_rv_1600",
    "count_view": 0
  },
  {
    "link_thumb": "https://live.staticflickr.com/65535/49040954196_e9c54ff696_n.jpg",
    "id_album": "-1428556500",
    "description": "AlfaRomeo_525806",
    "title": "AlfaRomeo_525806",
    "link_img": "https://live.staticflickr.com/65535/49040954196_e3b174ebb3_o.jpg",
    "id_image": "AlfaRomeo_525806",
    "count_view": 0
  },
  {
    "link_thumb": "https://live.staticflickr.com/65535/48113791458_719cc8feba_n.jpg",
    "id_album": "-1721545051",
    "description": "Chevrolet_189199",
    "title": "Chevrolet_189199",
    "link_img": "https://live.staticflickr.com/65535/48113791458_206ab45ab1_o.jpg",
    "id_image": "Chevrolet_189199",
    "count_view": 0
  },
  {
    "link_thumb": "https://live.staticflickr.com/65535/48115804023_feb4c7306d_n.jpg",
    "id_album": "1364506720",
    "description": "Ferrari_317682",
    "title": "Ferrari_317682",
    "link_img": "https://live.staticflickr.com/65535/48115804023_801511e06b_o.jpg",
    "id_image": "Ferrari_317682",
    "count_view": 0
  },
  {
    "link_thumb": "https://live.staticflickr.com/65535/49890693018_2eb9fe8b21_n.jpg",
    "id_album": "-1650262351",
    "description": "2015_rv_SS_rv_Customs_rv_Pagani_rv_Huayra_rv_V1_rv_1440",
    "title": "2015_rv_SS_rv_Customs_rv_Pagani_rv_Huayra_rv_V1_rv_1440",
    "link_img": "https://live.staticflickr.com/65535/49890693018_e161c50da2_o.jpg",
    "id_image": "2015_rv_SS_rv_Customs_rv_Pagani_rv_Huayra_rv_V1_rv_1440",
    "count_view": 0
  },
  {
    "link_thumb": "https://live.staticflickr.com/65535/48121299376_2cd4c7a2af_n.jpg",
    "id_album": "-1178450892",
    "description": "Porsche_294675",
    "title": "Porsche_294675",
    "link_img": "https://live.staticflickr.com/65535/48121299376_567a7e3e2f_o.jpg",
    "id_image": "Porsche_294675",
    "count_view": 0
  },
  {
    "link_thumb": "https://live.staticflickr.com/65535/48120747073_5b8db7e739_n.jpg",
    "id_album": "1952909762",
    "description": "Packard_741067",
    "title": "Packard_741067",
    "link_img": "https://live.staticflickr.com/65535/48120747073_f6da9eeda4_o.jpg",
    "id_image": "Packard_741067",
    "count_view": 0
  },
  {
    "link_thumb": "https://live.staticflickr.com/65535/48118883571_101bfb8d86_n.jpg",
    "id_album": "446908717",
    "description": "Lexus_688299",
    "title": "Lexus_688299",
    "link_img": "https://live.staticflickr.com/65535/48118883571_ec3c78efed_o.jpg",
    "id_image": "Lexus_688299",
    "count_view": 0
  },
  {
    "link_thumb": "https://live.staticflickr.com/65535/48119697613_f75e69567f_n.jpg",
    "id_album": "-731054311",
    "description": "MercedesBenz_436065",
    "title": "MercedesBenz_436065",
    "link_img": "https://live.staticflickr.com/65535/48119697613_34c93e390d_o.jpg",
    "id_image": "MercedesBenz_436065",
    "count_view": 0
  },
  {
    "link_thumb": "https://live.staticflickr.com/65535/48120803413_4600d2049f_n.jpg",
    "id_album": "1952909762",
    "description": "Packard_927879",
    "title": "Packard_927879",
    "link_img": "https://live.staticflickr.com/65535/48120803413_781039a939_o.jpg",
    "id_image": "Packard_927879",
    "count_view": 0
  },
  {
    "link_thumb": "https://live.staticflickr.com/65535/48112338593_d8927c81cb_n.jpg",
    "id_album": "-15119147",
    "description": "Audi_450580",
    "title": "Audi_450580",
    "link_img": "https://live.staticflickr.com/65535/48112338593_d463675a15_o.jpg",
    "id_image": "Audi_450580",
    "count_view": 0
  },
  {
    "link_thumb": "https://live.staticflickr.com/65535/48113977212_e5d0f26da1_n.jpg",
    "id_album": "-1721545051",
    "description": "Chevrolet_246285",
    "title": "Chevrolet_246285",
    "link_img": "https://live.staticflickr.com/65535/48113977212_def5ae614b_o.jpg",
    "id_image": "Chevrolet_246285",
    "count_view": 0
  },
  {
    "link_thumb": "https://live.staticflickr.com/65535/48121391763_6692c86af9_n.jpg",
    "id_album": "-1178450892",
    "description": "Porsche_418569",
    "title": "Porsche_418569",
    "link_img": "https://live.staticflickr.com/65535/48121391763_1f9c3a8b17_o.jpg",
    "id_image": "Porsche_418569",
    "count_view": 0
  },
  {
    "link_thumb": "https://live.staticflickr.com/65535/48123260091_6f49c1d15e_n.jpg",
    "id_album": "-360260466",
    "description": "Yamaha_648750",
    "title": "Yamaha_648750",
    "link_img": "https://live.staticflickr.com/65535/48123260091_4afb2dedb3_o.jpg",
    "id_image": "Yamaha_648750",
    "count_view": 0
  },
  {
    "link_thumb": "https://live.staticflickr.com/65535/48118435917_8255dc57d0_n.jpg",
    "id_album": "-2100339805",
    "description": "Lamborghini_322174",
    "title": "Lamborghini_322174",
    "link_img": "https://live.staticflickr.com/65535/48118435917_8cf584285a_o.jpg",
    "id_image": "Lamborghini_322174",
    "count_view": 0
  },
  {
    "link_thumb": "https://live.staticflickr.com/65535/48115502838_daa2d3dae4_n.jpg",
    "id_album": "413141323",
    "description": "Dodge_759554",
    "title": "Dodge_759554",
    "link_img": "https://live.staticflickr.com/65535/48115502838_4daf76b679_o.jpg",
    "id_image": "Dodge_759554",
    "count_view": 0
  },
  {
    "link_thumb": "https://live.staticflickr.com/65535/48113503582_5b0c3518b6_n.jpg",
    "id_album": "1456070666",
    "description": "Bugatti_495392",
    "title": "Bugatti_495392",
    "link_img": "https://live.staticflickr.com/65535/48113503582_856efcfd6f_o.jpg",
    "id_image": "Bugatti_495392",
    "count_view": 0
  },
  {
    "link_thumb": "https://live.staticflickr.com/65535/48113006238_c1e77c4401_n.jpg",
    "id_album": "727633301",
    "description": "BMW_521108",
    "title": "BMW_521108",
    "link_img": "https://live.staticflickr.com/65535/48113006238_6576947e26_o.jpg",
    "id_image": "BMW_521108",
    "count_view": 0
  },
  {
    "link_thumb": "https://live.staticflickr.com/65535/48118545983_6197d3cb60_n.jpg",
    "id_album": "-2100339805",
    "description": "Lamborghini_523941",
    "title": "Lamborghini_523941",
    "link_img": "https://live.staticflickr.com/65535/48118545983_6a22da3e5b_o.jpg",
    "id_image": "Lamborghini_523941",
    "count_view": 0
  },
  {
    "link_thumb": "https://live.staticflickr.com/65535/49888977841_71b789855f_n.jpg",
    "id_album": "716230168",
    "description": "2019_rv_Audi_rv_RS5_rv_Sportback_rv_V3_rv_2000",
    "title": "2019_rv_Audi_rv_RS5_rv_Sportback_rv_V3_rv_2000",
    "link_img": "https://live.staticflickr.com/65535/49888977841_4d04ffbbfe_o.jpg",
    "id_image": "2019_rv_Audi_rv_RS5_rv_Sportback_rv_V3_rv_2000",
    "count_view": 0
  },
  {
    "link_thumb": "https://live.staticflickr.com/65535/48121002901_93fd718f19_n.jpg",
    "id_album": "-1123679742",
    "description": "Plymouth_405795",
    "title": "Plymouth_405795",
    "link_img": "https://live.staticflickr.com/65535/48121002901_e390c89f01_o.jpg",
    "id_image": "Plymouth_405795",
    "count_view": 0
  },
  {
    "link_thumb": "https://live.staticflickr.com/65535/48112007866_0163b55e2a_n.jpg",
    "id_album": "-843028318",
    "description": "Jaguar_216635",
    "title": "Jaguar_216635",
    "link_img": "https://live.staticflickr.com/65535/48112007866_cc2c743e2b_o.jpg",
    "id_image": "Jaguar_216635",
    "count_view": 0
  },
  {
    "link_thumb": "https://live.staticflickr.com/65535/48112901038_c41f204011_n.jpg",
    "id_album": "727633301",
    "description": "BMW_484342",
    "title": "BMW_484342",
    "link_img": "https://live.staticflickr.com/65535/48112901038_2887b17cf6_o.jpg",
    "id_image": "BMW_484342",
    "count_view": 0
  },
  {
    "link_thumb": "https://live.staticflickr.com/65535/48117144431_533e12f1ed_n.jpg",
    "id_album": "-1846404630",
    "description": "Ford_417540",
    "title": "Ford_417540",
    "link_img": "https://live.staticflickr.com/65535/48117144431_a00968a471_o.jpg",
    "id_image": "Ford_417540",
    "count_view": 0
  },
  {
    "link_thumb": "https://live.staticflickr.com/65535/48118591868_dd45d8e896_n.jpg",
    "id_album": "-2100339805",
    "description": "Lamborghini_685510",
    "title": "Lamborghini_685510",
    "link_img": "https://live.staticflickr.com/65535/48118591868_65ffceb433_o.jpg",
    "id_image": "Lamborghini_685510",
    "count_view": 0
  },
  {
    "link_thumb": "https://live.staticflickr.com/65535/48112297566_aedffbdb84_n.jpg",
    "id_album": "-15119147",
    "description": "Audi_450589",
    "title": "Audi_450589",
    "link_img": "https://live.staticflickr.com/65535/48112297566_d7c7450c01_o.jpg",
    "id_image": "Audi_450589",
    "count_view": 0
  },
  {
    "link_thumb": "https://live.staticflickr.com/65535/48116411412_1d92e21ca2_n.jpg",
    "id_album": "1364506720",
    "description": "Ferrari_81522",
    "title": "Ferrari_81522",
    "link_img": "https://live.staticflickr.com/65535/48116411412_a80d9c7d4d_o.jpg",
    "id_image": "Ferrari_81522",
    "count_view": 0
  },
  {
    "link_thumb": "https://live.staticflickr.com/65535/48120046493_026f158c9b_n.jpg",
    "id_album": "-1116477526",
    "description": "Mitsubishi_257405",
    "title": "Mitsubishi_257405",
    "link_img": "https://live.staticflickr.com/65535/48120046493_669f721c04_o.jpg",
    "id_image": "Mitsubishi_257405",
    "count_view": 0
  },
  {
    "link_thumb": "https://live.staticflickr.com/65535/48121632787_3fc8c8d106_n.jpg",
    "id_album": "-1178450892",
    "description": "Porsche_681920",
    "title": "Porsche_681920",
    "link_img": "https://live.staticflickr.com/65535/48121632787_10d1170480_o.jpg",
    "id_image": "Porsche_681920",
    "count_view": 0
  },
  {
    "link_thumb": "https://live.staticflickr.com/65535/48121126456_4340ff4cc0_n.jpg",
    "id_album": "-2099496752",
    "description": "Pontiac_323857",
    "title": "Pontiac_323857",
    "link_img": "https://live.staticflickr.com/65535/48121126456_a1c284003f_o.jpg",
    "id_image": "Pontiac_323857",
    "count_view": 0
  },
  {
    "link_thumb": "https://live.staticflickr.com/65535/48119427653_7fd71596df_n.jpg",
    "id_album": "990865885",
    "description": "McLaren_932916",
    "title": "McLaren_932916",
    "link_img": "https://live.staticflickr.com/65535/48119427653_2050db507a_o.jpg",
    "id_image": "McLaren_932916",
    "count_view": 0
  },
  {
    "link_thumb": "https://live.staticflickr.com/65535/48112562866_6ef7f3ca11_n.jpg",
    "id_album": "2097036181",
    "description": "Bentley_882673",
    "title": "Bentley_882673",
    "link_img": "https://live.staticflickr.com/65535/48112562866_71a0eb3e72_o.jpg",
    "id_image": "Bentley_882673",
    "count_view": 0
  },
  {
    "link_thumb": "https://live.staticflickr.com/65535/48121066332_c47dd805a9_n.jpg",
    "id_album": "-1123679742",
    "description": "Plymouth_242787",
    "title": "Plymouth_242787",
    "link_img": "https://live.staticflickr.com/65535/48121066332_c7d2aef830_o.jpg",
    "id_image": "Plymouth_242787",
    "count_view": 0
  },
  {
    "link_thumb": "https://live.staticflickr.com/65535/49889457821_8b464546de_n.jpg",
    "id_album": "1828854320",
    "description": "2001_rv_Ferrari_rv_360_rv_Spider_rv_V2_rv_1440",
    "title": "2001_rv_Ferrari_rv_360_rv_Spider_rv_V2_rv_1440",
    "link_img": "https://live.staticflickr.com/65535/49889457821_651c38f64f_o.jpg",
    "id_image": "2001_rv_Ferrari_rv_360_rv_Spider_rv_V2_rv_1440",
    "count_view": 0
  },
  {
    "link_thumb": "https://live.staticflickr.com/65535/48118799158_117cb2bde1_n.jpg",
    "id_album": "1986285173",
    "description": "Lancia_273160",
    "title": "Lancia_273160",
    "link_img": "https://live.staticflickr.com/65535/48118799158_7f6601d890_o.jpg",
    "id_image": "Lancia_273160",
    "count_view": 0
  },
  {
    "link_thumb": "https://live.staticflickr.com/65535/48118264351_9efaaec79c_n.jpg",
    "id_album": "-2100339805",
    "description": "Lamborghini_256284",
    "title": "Lamborghini_256284",
    "link_img": "https://live.staticflickr.com/65535/48118264351_210f500222_o.jpg",
    "id_image": "Lamborghini_256284",
    "count_view": 0
  },
  {
    "link_thumb": "https://live.staticflickr.com/65535/48119375432_17f6d5bf7e_n.jpg",
    "id_album": "990865885",
    "description": "McLaren_476995",
    "title": "McLaren_476995",
    "link_img": "https://live.staticflickr.com/65535/48119375432_0e020cfc2d_o.jpg",
    "id_image": "McLaren_476995",
    "count_view": 0
  },
  {
    "link_thumb": "https://live.staticflickr.com/65535/48114740562_1189c4ae3a_n.jpg",
    "id_album": "-1721545051",
    "description": "Chevrolet_919568",
    "title": "Chevrolet_919568",
    "link_img": "https://live.staticflickr.com/65535/48114740562_5ce8e1c435_o.jpg",
    "id_image": "Chevrolet_919568",
    "count_view": 0
  },
  {
    "link_thumb": "https://live.staticflickr.com/65535/49890686253_8a6a229785_n.jpg",
    "id_album": "-420675233",
    "description": "2016_rv_Novitec_rv_Torado_rv_Lamborghini_rv_Huracan_rv_Spyder_rv_V5_rv_2000",
    "title": "2016_rv_Novitec_rv_Torado_rv_Lamborghini_rv_Huracan_rv_Spyder_rv_V5_rv_2000",
    "link_img": "https://live.staticflickr.com/65535/49890686253_1f293016dc_o.jpg",
    "id_image": "2016_rv_Novitec_rv_Torado_rv_Lamborghini_rv_Huracan_rv_Spyder_rv_V5_rv_2000",
    "count_view": 0
  },
  {
    "link_thumb": "https://live.staticflickr.com/65535/48112295261_dcd4b66e47_n.jpg",
    "id_album": "-15119147",
    "description": "Audi_450568",
    "title": "Audi_450568",
    "link_img": "https://live.staticflickr.com/65535/48112295261_f32e319a98_o.jpg",
    "id_image": "Audi_450568",
    "count_view": 0
  },
  {
    "link_thumb": "https://live.staticflickr.com/65535/49890531602_5380caaef8_n.jpg",
    "id_album": "-196242968",
    "description": "2013_rv_Lamborghini_rv_Veneno_rv_V7_rv_1600",
    "title": "2013_rv_Lamborghini_rv_Veneno_rv_V7_rv_1600",
    "link_img": "https://live.staticflickr.com/65535/49890531602_e3c444a0d4_o.jpg",
    "id_image": "2013_rv_Lamborghini_rv_Veneno_rv_V7_rv_1600",
    "count_view": 0
  },
  {
    "link_thumb": "https://live.staticflickr.com/65535/49888637903_e0b1d0fc2e_n.jpg",
    "id_album": "-1077631613",
    "description": "2015_rv_BMW_rv_Compact_rv_Sedan_rv_Concept_rv_V4_rv_2000",
    "title": "2015_rv_BMW_rv_Compact_rv_Sedan_rv_Concept_rv_V4_rv_2000",
    "link_img": "https://live.staticflickr.com/65535/49888637903_53d686ed46_o.jpg",
    "id_image": "2015_rv_BMW_rv_Compact_rv_Sedan_rv_Concept_rv_V4_rv_2000",
    "count_view": 0
  },
  {
    "link_thumb": "https://live.staticflickr.com/65535/48116116266_07ed1ac629_n.jpg",
    "id_album": "1364506720",
    "description": "Ferrari_612340",
    "title": "Ferrari_612340",
    "link_img": "https://live.staticflickr.com/65535/48116116266_71d605d913_o.jpg",
    "id_image": "Ferrari_612340",
    "count_view": 0
  },
  {
    "link_thumb": "https://live.staticflickr.com/65535/49892809732_837592c710_n.jpg",
    "id_album": "22537530",
    "description": "2011_rv_Toyota_rv_FT_rv_86_rv_II_rv_Concept_rv_V2_rv_1536",
    "title": "2011_rv_Toyota_rv_FT_rv_86_rv_II_rv_Concept_rv_V2_rv_1536",
    "link_img": "https://live.staticflickr.com/65535/49892809732_b891f57665_o.jpg",
    "id_image": "2011_rv_Toyota_rv_FT_rv_86_rv_II_rv_Concept_rv_V2_rv_1536",
    "count_view": 0
  },
  {
    "link_thumb": "https://live.staticflickr.com/65535/48120733473_c3dc1fb37d_n.jpg",
    "id_album": "1952909762",
    "description": "Packard_393605",
    "title": "Packard_393605",
    "link_img": "https://live.staticflickr.com/65535/48120733473_68fd205a6f_o.jpg",
    "id_image": "Packard_393605",
    "count_view": 0
  },
  {
    "link_thumb": "https://live.staticflickr.com/65535/48112400667_72e3235833_n.jpg",
    "id_album": "-15119147",
    "description": "Audi_450574",
    "title": "Audi_450574",
    "link_img": "https://live.staticflickr.com/65535/48112400667_647b781e87_o.jpg",
    "id_image": "Audi_450574",
    "count_view": 0
  },
  {
    "link_thumb": "https://live.staticflickr.com/65535/48115757162_529c80cf4d_n.jpg",
    "id_album": "1364506720",
    "description": "Ferrari_240284",
    "title": "Ferrari_240284",
    "link_img": "https://live.staticflickr.com/65535/48115757162_e5f3192322_o.jpg",
    "id_image": "Ferrari_240284",
    "count_view": 0
  },
  {
    "link_thumb": "https://live.staticflickr.com/65535/48112686038_e23884b61f_n.jpg",
    "id_album": "727633301",
    "description": "BMW_253941",
    "title": "BMW_253941",
    "link_img": "https://live.staticflickr.com/65535/48112686038_53f8c95a2a_o.jpg",
    "id_image": "BMW_253941",
    "count_view": 0
  },
  {
    "link_thumb": "https://live.staticflickr.com/65535/48112451306_48e24d193d_n.jpg",
    "id_album": "-15119147",
    "description": "Audi_936999",
    "title": "Audi_936999",
    "link_img": "https://live.staticflickr.com/65535/48112451306_58ef76f5ff_o.jpg",
    "id_image": "Audi_936999",
    "count_view": 0
  },
  {
    "link_thumb": "https://live.staticflickr.com/65535/48116853948_155442fc85_n.jpg",
    "id_album": "-1846404630",
    "description": "Ford_239645",
    "title": "Ford_239645",
    "link_img": "https://live.staticflickr.com/65535/48116853948_b56834f979_o.jpg",
    "id_image": "Ford_239645",
    "count_view": 0
  },
  {
    "link_thumb": "https://live.staticflickr.com/65535/48115480821_fba72ecd30_n.jpg",
    "id_album": "413141323",
    "description": "Dodge_759667",
    "title": "Dodge_759667",
    "link_img": "https://live.staticflickr.com/65535/48115480821_2af749dcd5_o.jpg",
    "id_image": "Dodge_759667",
    "count_view": 0
  },
  {
    "link_thumb": "https://live.staticflickr.com/65535/49892391306_5e96b705b1_n.jpg",
    "id_album": "-445476543",
    "description": "2020_rv_Sony_rv_VISION_rv_S_rv_V2_rv_2160",
    "title": "2020_rv_Sony_rv_VISION_rv_S_rv_V2_rv_2160",
    "link_img": "https://live.staticflickr.com/65535/49892391306_da8f6640a7_o.jpg",
    "id_image": "2020_rv_Sony_rv_VISION_rv_S_rv_V2_rv_2160",
    "count_view": 0
  },
  {
    "link_thumb": "https://live.staticflickr.com/65535/48113428712_225cf4baf5_n.jpg",
    "id_album": "1456070666",
    "description": "Bugatti_254199",
    "title": "Bugatti_254199",
    "link_img": "https://live.staticflickr.com/65535/48113428712_2647023435_o.jpg",
    "id_image": "Bugatti_254199",
    "count_view": 0
  },
  {
    "link_thumb": "https://live.staticflickr.com/65535/48114895131_8c55e4e260_n.jpg",
    "id_album": "2072464184",
    "description": "Citroen_471958",
    "title": "Citroen_471958",
    "link_img": "https://live.staticflickr.com/65535/48114895131_fde3d9ce93_o.jpg",
    "id_image": "Citroen_471958",
    "count_view": 0
  },
  {
    "link_thumb": "https://live.staticflickr.com/65535/48117755201_570a0b1f89_n.jpg",
    "id_album": "-354267407",
    "description": "Honda_144012",
    "title": "Honda_144012",
    "link_img": "https://live.staticflickr.com/65535/48117755201_b7017e183b_o.jpg",
    "id_image": "Honda_144012",
    "count_view": 0
  },
  {
    "link_thumb": "https://live.staticflickr.com/65535/48116952656_3cb6008f9a_n.jpg",
    "id_album": "-1846404630",
    "description": "Ford_289408",
    "title": "Ford_289408",
    "link_img": "https://live.staticflickr.com/65535/48116952656_2db1d46343_o.jpg",
    "id_image": "Ford_289408",
    "count_view": 0
  },
  {
    "link_thumb": "https://live.staticflickr.com/65535/49889702441_47cee6957e_n.jpg",
    "id_album": "-1812338467",
    "description": "2018_rv_Ford_rv_Fiesta_rv_ST_rv_V4_rv_2000",
    "title": "2018_rv_Ford_rv_Fiesta_rv_ST_rv_V4_rv_2000",
    "link_img": "https://live.staticflickr.com/65535/49889702441_e02ecdbe40_o.jpg",
    "id_image": "2018_rv_Ford_rv_Fiesta_rv_ST_rv_V4_rv_2000",
    "count_view": 0
  },
  {
    "link_thumb": "https://live.staticflickr.com/65535/48121478542_9d8004c5bb_n.jpg",
    "id_album": "-1178450892",
    "description": "Porsche_457903",
    "title": "Porsche_457903",
    "link_img": "https://live.staticflickr.com/65535/48121478542_c774563a9a_o.jpg",
    "id_image": "Porsche_457903",
    "count_view": 0
  },
  {
    "link_thumb": "https://live.staticflickr.com/65535/48118099058_bbeb9a7edd_n.jpg",
    "id_album": "-2009218697",
    "description": "Jeep_198821",
    "title": "Jeep_198821",
    "link_img": "https://live.staticflickr.com/65535/48118099058_f602c80563_o.jpg",
    "id_image": "Jeep_198821",
    "count_view": 0
  },
  {
    "link_thumb": "https://live.staticflickr.com/65535/48120427158_66fb2f3d61_n.jpg",
    "id_album": "810634050",
    "description": "Nissan_393647",
    "title": "Nissan_393647",
    "link_img": "https://live.staticflickr.com/65535/48120427158_f8afca504c_o.jpg",
    "id_image": "Nissan_393647",
    "count_view": 0
  },
  {
    "link_thumb": "https://live.staticflickr.com/65535/49889547077_b09bcb6598_n.jpg",
    "id_album": "-843466787",
    "description": "1962_rv_Chevrolet_rv_Corvette_rv_C1_rv_RS_rv_by_rv_Roadster_rv_Shop_rv_V3_rv_1440",
    "title": "1962_rv_Chevrolet_rv_Corvette_rv_C1_rv_RS_rv_by_rv_Roadster_rv_Shop_rv_V3_rv_1440",
    "link_img": "https://live.staticflickr.com/65535/49889547077_22eac0989c_o.jpg",
    "id_image": "1962_rv_Chevrolet_rv_Corvette_rv_C1_rv_RS_rv_by_rv_Roadster_rv_Shop_rv_V3_rv_1440",
    "count_view": 0
  },
  {
    "link_thumb": "https://live.staticflickr.com/65535/48119813586_281183ba0f_n.jpg",
    "id_album": "-731054311",
    "description": "MercedesBenz_880896",
    "title": "MercedesBenz_880896",
    "link_img": "https://live.staticflickr.com/65535/48119813586_8a95027893_o.jpg",
    "id_image": "MercedesBenz_880896",
    "count_view": 0
  },
  {
    "link_thumb": "https://live.staticflickr.com/65535/48122703927_57570d34bb_n.jpg",
    "id_album": "1274920659",
    "description": "Toyota_155448",
    "title": "Toyota_155448",
    "link_img": "https://live.staticflickr.com/65535/48122703927_1ee124e25d_o.jpg",
    "id_image": "Toyota_155448",
    "count_view": 0
  },
  {
    "link_thumb": "https://live.staticflickr.com/65535/48111716576_773d736fb3_n.jpg",
    "id_album": "1906325017",
    "description": "Infiniti_256140",
    "title": "Infiniti_256140",
    "link_img": "https://live.staticflickr.com/65535/48111716576_543d5ec6a2_o.jpg",
    "id_image": "Infiniti_256140",
    "count_view": 0
  },
  {
    "link_thumb": "https://live.staticflickr.com/65535/48112397897_c430d7d6ff_n.jpg",
    "id_album": "-15119147",
    "description": "Audi_449972",
    "title": "Audi_449972",
    "link_img": "https://live.staticflickr.com/65535/48112397897_7657d774d8_o.jpg",
    "id_image": "Audi_449972",
    "count_view": 0
  },
  {
    "link_thumb": "https://live.staticflickr.com/65535/48111753648_9cb4f0e147_n.jpg",
    "id_album": "1906325017",
    "description": "Infiniti_256099",
    "title": "Infiniti_256099",
    "link_img": "https://live.staticflickr.com/65535/48111753648_5e060342e0_o.jpg",
    "id_image": "Infiniti_256099",
    "count_view": 0
  },
  {
    "link_thumb": "https://live.staticflickr.com/65535/48120703917_5cf28204b3_n.jpg",
    "id_album": "810634050",
    "description": "Nissan_947172",
    "title": "Nissan_947172",
    "link_img": "https://live.staticflickr.com/65535/48120703917_12b34b4801_o.jpg",
    "id_image": "Nissan_947172",
    "count_view": 0
  },
  {
    "link_thumb": "https://live.staticflickr.com/65535/49890161126_70b0225be7_n.jpg",
    "id_album": "-936716449",
    "description": "2018_rv_Lamborghini_rv_Huracan_rv_Super_rv_Trofeo_rv_Evo_rv_V1_rv_2160",
    "title": "2018_rv_Lamborghini_rv_Huracan_rv_Super_rv_Trofeo_rv_Evo_rv_V1_rv_2160",
    "link_img": "https://live.staticflickr.com/65535/49890161126_fa1609740d_o.jpg",
    "id_image": "2018_rv_Lamborghini_rv_Huracan_rv_Super_rv_Trofeo_rv_Evo_rv_V1_rv_2160",
    "count_view": 0
  },
  {
    "link_thumb": "https://live.staticflickr.com/65535/48118853603_25d331173e_n.jpg",
    "id_album": "1234246491",
    "description": "LandRover_909195",
    "title": "LandRover_909195",
    "link_img": "https://live.staticflickr.com/65535/48118853603_99139fdfc0_o.jpg",
    "id_image": "LandRover_909195",
    "count_view": 0
  },
  {
    "link_thumb": "https://live.staticflickr.com/65535/48115609368_6a8d65a8b6_n.jpg",
    "id_album": "594975066",
    "description": "Duesenberg_742249",
    "title": "Duesenberg_742249",
    "link_img": "https://live.staticflickr.com/65535/48115609368_38c51de355_o.jpg",
    "id_image": "Duesenberg_742249",
    "count_view": 0
  },
  {
    "link_thumb": "https://live.staticflickr.com/65535/49889849351_253ecfa9ce_n.jpg",
    "id_album": "-2047714402",
    "description": "2015_rv_GTA_rv_Spano_rv_V1_rv_1600",
    "title": "2015_rv_GTA_rv_Spano_rv_V1_rv_1600",
    "link_img": "https://live.staticflickr.com/65535/49889849351_58148402f7_o.jpg",
    "id_image": "2015_rv_GTA_rv_Spano_rv_V1_rv_1600",
    "count_view": 0
  },
  {
    "link_thumb": "https://live.staticflickr.com/65535/49890204998_3c9c8f0f21_n.jpg",
    "id_album": "1310566757",
    "description": "2020_rv_Mercedes_rv_Benz_rv_CLA_rv_V4_rv_2000",
    "title": "2020_rv_Mercedes_rv_Benz_rv_CLA_rv_V4_rv_2000",
    "link_img": "https://live.staticflickr.com/65535/49890204998_b5034de7ba_o.jpg",
    "id_image": "2020_rv_Mercedes_rv_Benz_rv_CLA_rv_V4_rv_2000",
    "count_view": 0
  },
  {
    "link_thumb": "https://live.staticflickr.com/65535/48120342291_78f56ba902_n.jpg",
    "id_album": "810634050",
    "description": "Nissan_251524",
    "title": "Nissan_251524",
    "link_img": "https://live.staticflickr.com/65535/48120342291_a089c47fd4_o.jpg",
    "id_image": "Nissan_251524",
    "count_view": 0
  },
  {
    "link_thumb": "https://live.staticflickr.com/65535/48117846107_fd8b078f3c_n.jpg",
    "id_album": "-354267407",
    "description": "Honda_153015",
    "title": "Honda_153015",
    "link_img": "https://live.staticflickr.com/65535/48117846107_56a5c1fcc3_o.jpg",
    "id_image": "Honda_153015",
    "count_view": 0
  },
  {
    "link_thumb": "https://live.staticflickr.com/65535/48117028467_455e9ec3c6_n.jpg",
    "id_album": "-1846404630",
    "description": "Ford_275423",
    "title": "Ford_275423",
    "link_img": "https://live.staticflickr.com/65535/48117028467_0c4cf435ef_o.jpg",
    "id_image": "Ford_275423",
    "count_view": 0
  },
  {
    "link_thumb": "https://live.staticflickr.com/65535/49892992787_80e1225f47_n.jpg",
    "id_album": "-1154480391",
    "description": "2014_rv_Volvo_rv_XC_rv_Coupe_rv_Concept_rv_V2_rv_1600",
    "title": "2014_rv_Volvo_rv_XC_rv_Coupe_rv_Concept_rv_V2_rv_1600",
    "link_img": "https://live.staticflickr.com/65535/49892992787_9073b7ef4b_o.jpg",
    "id_image": "2014_rv_Volvo_rv_XC_rv_Coupe_rv_Concept_rv_V2_rv_1600",
    "count_view": 0
  },
  {
    "link_thumb": "https://live.staticflickr.com/65535/48115766317_a9f526d2db_n.jpg",
    "id_album": "1364506720",
    "description": "Ferrari_250395",
    "title": "Ferrari_250395",
    "link_img": "https://live.staticflickr.com/65535/48115766317_25843c10e6_o.jpg",
    "id_image": "Ferrari_250395",
    "count_view": 0
  },
  {
    "link_thumb": "https://live.staticflickr.com/65535/49892671602_4bf47d8845_n.jpg",
    "id_album": "2063224475",
    "description": "2015_rv_Ford_rv_Mustang_rv_GT_rv_V17_rv_2000",
    "title": "2015_rv_Ford_rv_Mustang_rv_GT_rv_V17_rv_2000",
    "link_img": "https://live.staticflickr.com/65535/49892671602_4bf76c6c5d_o.jpg",
    "id_image": "2015_rv_Ford_rv_Mustang_rv_GT_rv_V17_rv_2000",
    "count_view": 0
  },
  {
    "link_thumb": "https://live.staticflickr.com/65535/49892933222_2401c6cbed_n.jpg",
    "id_album": "-842876950",
    "description": "2021_rv_Aston_rv_Martin_rv_Vantage_rv_Roadster_rv_V5_rv_2160",
    "title": "2021_rv_Aston_rv_Martin_rv_Vantage_rv_Roadster_rv_V5_rv_2160",
    "link_img": "https://live.staticflickr.com/65535/49892933222_cb858ab473_o.jpg",
    "id_image": "2021_rv_Aston_rv_Martin_rv_Vantage_rv_Roadster_rv_V5_rv_2160",
    "count_view": 0
  },
  {
    "link_thumb": "https://live.staticflickr.com/65535/48123155852_dfb752518e_n.jpg",
    "id_album": "-150952028",
    "description": "Volkswagen_924081",
    "title": "Volkswagen_924081",
    "link_img": "https://live.staticflickr.com/65535/48123155852_ae148891cd_o.jpg",
    "id_image": "Volkswagen_924081",
    "count_view": 0
  },
  {
    "link_thumb": "https://live.staticflickr.com/65535/49890817496_16ea246a5c_n.jpg",
    "id_album": "-21475779",
    "description": "2016_rv_Mercedes_rv_Benz_rv_AMG_rv_GT_rv_S_rv_V3_rv_1600",
    "title": "2016_rv_Mercedes_rv_Benz_rv_AMG_rv_GT_rv_S_rv_V3_rv_1600",
    "link_img": "https://live.staticflickr.com/65535/49890817496_eb3321a1ba_o.jpg",
    "id_image": "2016_rv_Mercedes_rv_Benz_rv_AMG_rv_GT_rv_S_rv_V3_rv_1600",
    "count_view": 0
  },
  {
    "link_thumb": "https://live.staticflickr.com/65535/48114832663_91d7bc7eab_n.jpg",
    "id_album": "2072464184",
    "description": "Citroen_144155",
    "title": "Citroen_144155",
    "link_img": "https://live.staticflickr.com/65535/48114832663_c8fa9878c8_o.jpg",
    "id_image": "Citroen_144155",
    "count_view": 0
  },
  {
    "link_thumb": "https://live.staticflickr.com/65535/48121741782_527c190c5c_n.jpg",
    "id_album": "-1178450892",
    "description": "Porsche_829267",
    "title": "Porsche_829267",
    "link_img": "https://live.staticflickr.com/65535/48121741782_bf7392111f_o.jpg",
    "id_image": "Porsche_829267",
    "count_view": 0
  },
  {
    "link_thumb": "https://live.staticflickr.com/65535/49889361482_fba68a3dfd_n.jpg",
    "id_album": "-1839907970",
    "description": "2016_rv_BMW_rv_M135i_rv_V1_rv_1600",
    "title": "2016_rv_BMW_rv_M135i_rv_V1_rv_1600",
    "link_img": "https://live.staticflickr.com/65535/49889361482_8195f38efd_o.jpg",
    "id_image": "2016_rv_BMW_rv_M135i_rv_V1_rv_1600",
    "count_view": 0
  },
  {
    "link_thumb": "https://live.staticflickr.com/65535/49888922471_a1acd6531f_n.jpg",
    "id_album": "-1254317948",
    "description": "2013_rv_Audi_rv_A1_rv_Quatro_rv_V4_rv_1440",
    "title": "2013_rv_Audi_rv_A1_rv_Quatro_rv_V4_rv_1440",
    "link_img": "https://live.staticflickr.com/65535/49888922471_23b0c8329a_o.jpg",
    "id_image": "2013_rv_Audi_rv_A1_rv_Quatro_rv_V4_rv_1440",
    "count_view": 0
  },
  {
    "link_thumb": "https://live.staticflickr.com/65535/48118765633_9fa9ceae44_n.jpg",
    "id_album": "-2100339805",
    "description": "Lamborghini_985439",
    "title": "Lamborghini_985439",
    "link_img": "https://live.staticflickr.com/65535/48118765633_22442b7043_o.jpg",
    "id_image": "Lamborghini_985439",
    "count_view": 0
  },
  {
    "link_thumb": "https://live.staticflickr.com/65535/48113120671_f53386e9cb_n.jpg",
    "id_album": "727633301",
    "description": "BMW_880627",
    "title": "BMW_880627",
    "link_img": "https://live.staticflickr.com/65535/48113120671_efbb48fc35_o.jpg",
    "id_image": "BMW_880627",
    "count_view": 0
  },
  {
    "link_thumb": "https://live.staticflickr.com/65535/49890138923_bd8d1c97a8_n.jpg",
    "id_album": "-1301139110",
    "description": "2020_rv_McLaren_rv_Speedtail_rv_V12_rv_2160",
    "title": "2020_rv_McLaren_rv_Speedtail_rv_V12_rv_2160",
    "link_img": "https://live.staticflickr.com/65535/49890138923_d0a11355b9_o.jpg",
    "id_image": "2020_rv_McLaren_rv_Speedtail_rv_V12_rv_2160",
    "count_view": 0
  },
  {
    "link_thumb": "https://live.staticflickr.com/65535/49889924478_02c8312310_n.jpg",
    "id_album": "284880556",
    "description": "2008_rv_Maserati_rv_Quattroporte_rv_V1_rv_1440",
    "title": "2008_rv_Maserati_rv_Quattroporte_rv_V1_rv_1440",
    "link_img": "https://live.staticflickr.com/65535/49889924478_270a4f046a_o.jpg",
    "id_image": "2008_rv_Maserati_rv_Quattroporte_rv_V1_rv_1440",
    "count_view": 0
  },
  {
    "link_thumb": "https://live.staticflickr.com/65535/48112573776_63311fb265_n.jpg",
    "id_album": "2097036181",
    "description": "Bentley_975021",
    "title": "Bentley_975021",
    "link_img": "https://live.staticflickr.com/65535/48112573776_4bf98ee34a_o.jpg",
    "id_image": "Bentley_975021",
    "count_view": 0
  },
  {
    "link_thumb": "https://live.staticflickr.com/65535/48116374676_bd0891c5c7_n.jpg",
    "id_album": "1364506720",
    "description": "Ferrari_902163",
    "title": "Ferrari_902163",
    "link_img": "https://live.staticflickr.com/65535/48116374676_9a72c92100_o.jpg",
    "id_image": "Ferrari_902163",
    "count_view": 0
  },
  {
    "link_thumb": "https://live.staticflickr.com/65535/49890205077_ace552d654_n.jpg",
    "id_album": "2135768675",
    "description": "2009_rv_Holden_rv_HSV_rv_W427_rv_V2_rv_1440",
    "title": "2009_rv_Holden_rv_HSV_rv_W427_rv_V2_rv_1440",
    "link_img": "https://live.staticflickr.com/65535/49890205077_dffdba22b6_o.jpg",
    "id_image": "2009_rv_Holden_rv_HSV_rv_W427_rv_V2_rv_1440",
    "count_view": 0
  },
  {
    "link_thumb": "https://live.staticflickr.com/65535/48118035742_f233aabcdd_n.jpg",
    "id_album": "427416146",
    "description": "Hummer_256052",
    "title": "Hummer_256052",
    "link_img": "https://live.staticflickr.com/65535/48118035742_9b692bfe50_o.jpg",
    "id_image": "Hummer_256052",
    "count_view": 0
  },
  {
    "link_thumb": "https://live.staticflickr.com/65535/48112306438_4fa0533f45_n.jpg",
    "id_album": "-15119147",
    "description": "Audi_317425",
    "title": "Audi_317425",
    "link_img": "https://live.staticflickr.com/65535/48112306438_9799c7b245_o.jpg",
    "id_image": "Audi_317425",
    "count_view": 0
  },
  {
    "link_thumb": "https://live.staticflickr.com/65535/49889419938_da53dc6dd9_n.jpg",
    "id_album": "1127325547",
    "description": "2015_rv_Hyundai_rv_Genesis_rv_V1_rv_1600",
    "title": "2015_rv_Hyundai_rv_Genesis_rv_V1_rv_1600",
    "link_img": "https://live.staticflickr.com/65535/49889419938_5779a1cce1_o.jpg",
    "id_image": "2015_rv_Hyundai_rv_Genesis_rv_V1_rv_1600",
    "count_view": 0
  },
  {
    "link_thumb": "https://live.staticflickr.com/65535/49889023216_0e6c3688f5_n.jpg",
    "id_album": "2097036181",
    "description": "2014_rv_Bentley_rv_Continental_rv_GT3_rv_V1_rv_1600",
    "title": "2014_rv_Bentley_rv_Continental_rv_GT3_rv_V1_rv_1600",
    "link_img": "https://live.staticflickr.com/65535/49889023216_970be7594e_o.jpg",
    "id_image": "2014_rv_Bentley_rv_Continental_rv_GT3_rv_V1_rv_1600",
    "count_view": 0
  }
]