[
  {
    "total_img": 0,
    "number_page": 0,
    "title": "Lotus Eleven",
    "tag": "Lotus Eleven,",
    "description": "Lotus Eleven",
    "link_thumb": "https://live.staticflickr.com/65535/49889830198_31f4aba254_n.jpg",
    "id_album": "1503378901",
    "total_view": 15
  }
]