[
  {
    "link_thumb": "https://live.staticflickr.com/65535/49889893736_8b9dc8ca67_n.jpg",
    "id_album": "2135768675",
    "description": "2002_rv_Holden_rv_HSV_rv_HRT_rv_427_rv_V1_rv_1440",
    "title": "2002_rv_Holden_rv_HSV_rv_HRT_rv_427_rv_V1_rv_1440",
    "link_img": "https://live.staticflickr.com/65535/49889893736_60f4a089a5_o.jpg",
    "id_image": "2002_rv_Holden_rv_HSV_rv_HRT_rv_427_rv_V1_rv_1440",
    "count_view": 0
  },
  {
    "link_thumb": "https://live.staticflickr.com/65535/49889893831_1b57813c30_n.jpg",
    "id_album": "2135768675",
    "description": "2002_rv_Holden_rv_HSV_rv_HRT_rv_427_rv_V2_rv_1440",
    "title": "2002_rv_Holden_rv_HSV_rv_HRT_rv_427_rv_V2_rv_1440",
    "link_img": "https://live.staticflickr.com/65535/49889893831_8711efc7da_o.jpg",
    "id_image": "2002_rv_Holden_rv_HSV_rv_HRT_rv_427_rv_V2_rv_1440",
    "count_view": 0
  },
  {
    "link_thumb": "https://live.staticflickr.com/65535/49890204147_36a9306dc6_n.jpg",
    "id_album": "2135768675",
    "description": "2004_rv_Holden_rv_HSV_rv_Coupe_rv_GTO_rv_V1_rv_1440",
    "title": "2004_rv_Holden_rv_HSV_rv_Coupe_rv_GTO_rv_V1_rv_1440",
    "link_img": "https://live.staticflickr.com/65535/49890204147_d566de974a_o.jpg",
    "id_image": "2004_rv_Holden_rv_HSV_rv_Coupe_rv_GTO_rv_V1_rv_1440",
    "count_view": 0
  },
  {
    "link_thumb": "https://live.staticflickr.com/65535/49890204247_38fcf28120_n.jpg",
    "id_album": "2135768675",
    "description": "2004_rv_Holden_rv_HSV_rv_Coupe_rv_GTO_rv_V2_rv_1440",
    "title": "2004_rv_Holden_rv_HSV_rv_Coupe_rv_GTO_rv_V2_rv_1440",
    "link_img": "https://live.staticflickr.com/65535/49890204247_7b726a0034_o.jpg",
    "id_image": "2004_rv_Holden_rv_HSV_rv_Coupe_rv_GTO_rv_V2_rv_1440",
    "count_view": 0
  },
  {
    "link_thumb": "https://live.staticflickr.com/65535/49889376833_6e720d9466_n.jpg",
    "id_album": "2135768675",
    "description": "2004_rv_Holden_rv_HSV_rv_Coupe_rv_GTO_rv_V3_rv_1440",
    "title": "2004_rv_Holden_rv_HSV_rv_Coupe_rv_GTO_rv_V3_rv_1440",
    "link_img": "https://live.staticflickr.com/65535/49889376833_282b3b5ec3_o.jpg",
    "id_image": "2004_rv_Holden_rv_HSV_rv_Coupe_rv_GTO_rv_V3_rv_1440",
    "count_view": 0
  },
  {
    "link_thumb": "https://live.staticflickr.com/65535/49889894221_c231e0a6c9_n.jpg",
    "id_album": "2135768675",
    "description": "2007_rv_Holden_rv_HSV_rv_E_rv_Series_rv_V1_rv_1536",
    "title": "2007_rv_Holden_rv_HSV_rv_E_rv_Series_rv_V1_rv_1536",
    "link_img": "https://live.staticflickr.com/65535/49889894221_b271ac9d6c_o.jpg",
    "id_image": "2007_rv_Holden_rv_HSV_rv_E_rv_Series_rv_V1_rv_1536",
    "count_view": 0
  },
  {
    "link_thumb": "https://live.staticflickr.com/65535/49889894306_8815f2f14a_n.jpg",
    "id_album": "2135768675",
    "description": "2007_rv_Holden_rv_HSV_rv_E_rv_Series_rv_V2_rv_1536",
    "title": "2007_rv_Holden_rv_HSV_rv_E_rv_Series_rv_V2_rv_1536",
    "link_img": "https://live.staticflickr.com/65535/49889894306_f2ac7dde9a_o.jpg",
    "id_image": "2007_rv_Holden_rv_HSV_rv_E_rv_Series_rv_V2_rv_1536",
    "count_view": 0
  },
  {
    "link_thumb": "https://live.staticflickr.com/65535/49889894436_3cd6c5f279_n.jpg",
    "id_album": "2135768675",
    "description": "2007_rv_Holden_rv_HSV_rv_E_rv_Series_rv_V3_rv_1536",
    "title": "2007_rv_Holden_rv_HSV_rv_E_rv_Series_rv_V3_rv_1536",
    "link_img": "https://live.staticflickr.com/65535/49889894436_a0ab098069_o.jpg",
    "id_image": "2007_rv_Holden_rv_HSV_rv_E_rv_Series_rv_V3_rv_1536",
    "count_view": 0
  },
  {
    "link_thumb": "https://live.staticflickr.com/65535/49889894496_5a0f75e11d_n.jpg",
    "id_album": "2135768675",
    "description": "2007_rv_Holden_rv_HSV_rv_E_rv_Series_rv_V4_rv_1536",
    "title": "2007_rv_Holden_rv_HSV_rv_E_rv_Series_rv_V4_rv_1536",
    "link_img": "https://live.staticflickr.com/65535/49889894496_7bdee25554_o.jpg",
    "id_image": "2007_rv_Holden_rv_HSV_rv_E_rv_Series_rv_V4_rv_1536",
    "count_view": 0
  },
  {
    "link_thumb": "https://live.staticflickr.com/65535/49889377263_af284dcd44_n.jpg",
    "id_album": "2135768675",
    "description": "2007_rv_Holden_rv_HSV_rv_E_rv_Series_rv_V5_rv_1536",
    "title": "2007_rv_Holden_rv_HSV_rv_E_rv_Series_rv_V5_rv_1536",
    "link_img": "https://live.staticflickr.com/65535/49889377263_3fba4447a3_o.jpg",
    "id_image": "2007_rv_Holden_rv_HSV_rv_E_rv_Series_rv_V5_rv_1536",
    "count_view": 0
  },
  {
    "link_thumb": "https://live.staticflickr.com/65535/49889894726_e21db6579c_n.jpg",
    "id_album": "2135768675",
    "description": "2007_rv_Holden_rv_HSV_rv_E_rv_Series_rv_V6_rv_1536",
    "title": "2007_rv_Holden_rv_HSV_rv_E_rv_Series_rv_V6_rv_1536",
    "link_img": "https://live.staticflickr.com/65535/49889894726_c2650617bb_o.jpg",
    "id_image": "2007_rv_Holden_rv_HSV_rv_E_rv_Series_rv_V6_rv_1536",
    "count_view": 0
  },
  {
    "link_thumb": "https://live.staticflickr.com/65535/49890204782_92a7b01dba_n.jpg",
    "id_album": "2135768675",
    "description": "2008_rv_Holden_rv_HSV_rv_E_rv_Series_rv_LS3_rv_V1_rv_1200",
    "title": "2008_rv_Holden_rv_HSV_rv_E_rv_Series_rv_LS3_rv_V1_rv_1200",
    "link_img": "https://live.staticflickr.com/65535/49890204782_38001a350f_o.jpg",
    "id_image": "2008_rv_Holden_rv_HSV_rv_E_rv_Series_rv_LS3_rv_V1_rv_1200",
    "count_view": 0
  },
  {
    "link_thumb": "https://live.staticflickr.com/65535/49889894901_03265ed4c4_n.jpg",
    "id_album": "2135768675",
    "description": "2008_rv_Holden_rv_HSV_rv_E_rv_Series_rv_LS3_rv_V2_rv_1200",
    "title": "2008_rv_Holden_rv_HSV_rv_E_rv_Series_rv_LS3_rv_V2_rv_1200",
    "link_img": "https://live.staticflickr.com/65535/49889894901_de746d4316_o.jpg",
    "id_image": "2008_rv_Holden_rv_HSV_rv_E_rv_Series_rv_LS3_rv_V2_rv_1200",
    "count_view": 0
  },
  {
    "link_thumb": "https://live.staticflickr.com/65535/49889377653_0b29502818_n.jpg",
    "id_album": "2135768675",
    "description": "2008_rv_Holden_rv_HSV_rv_E_rv_Series_rv_LS3_rv_V3_rv_1200",
    "title": "2008_rv_Holden_rv_HSV_rv_E_rv_Series_rv_LS3_rv_V3_rv_1200",
    "link_img": "https://live.staticflickr.com/65535/49889377653_41f681959a_o.jpg",
    "id_image": "2008_rv_Holden_rv_HSV_rv_E_rv_Series_rv_LS3_rv_V3_rv_1200",
    "count_view": 0
  },
  {
    "link_thumb": "https://live.staticflickr.com/65535/49889895076_dda44d8954_n.jpg",
    "id_album": "2135768675",
    "description": "2009_rv_Holden_rv_HSV_rv_W427_rv_V1_rv_1440",
    "title": "2009_rv_Holden_rv_HSV_rv_W427_rv_V1_rv_1440",
    "link_img": "https://live.staticflickr.com/65535/49889895076_6f5f6a759d_o.jpg",
    "id_image": "2009_rv_Holden_rv_HSV_rv_W427_rv_V1_rv_1440",
    "count_view": 0
  },
  {
    "link_thumb": "https://live.staticflickr.com/65535/49890205077_ace552d654_n.jpg",
    "id_album": "2135768675",
    "description": "2009_rv_Holden_rv_HSV_rv_W427_rv_V2_rv_1440",
    "title": "2009_rv_Holden_rv_HSV_rv_W427_rv_V2_rv_1440",
    "link_img": "https://live.staticflickr.com/65535/49890205077_dffdba22b6_o.jpg",
    "id_image": "2009_rv_Holden_rv_HSV_rv_W427_rv_V2_rv_1440",
    "count_view": 0
  },
  {
    "link_thumb": "https://live.staticflickr.com/65535/49889377913_b82ecfc38b_n.jpg",
    "id_album": "2135768675",
    "description": "2009_rv_Holden_rv_HSV_rv_W427_rv_V3_rv_1440",
    "title": "2009_rv_Holden_rv_HSV_rv_W427_rv_V3_rv_1440",
    "link_img": "https://live.staticflickr.com/65535/49889377913_31006fe7f3_o.jpg",
    "id_image": "2009_rv_Holden_rv_HSV_rv_W427_rv_V3_rv_1440",
    "count_view": 0
  },
  {
    "link_thumb": "https://live.staticflickr.com/65535/49889895341_cce1c2c614_n.jpg",
    "id_album": "2135768675",
    "description": "2009_rv_Holden_rv_HSV_rv_W427_rv_V4_rv_1440",
    "title": "2009_rv_Holden_rv_HSV_rv_W427_rv_V4_rv_1440",
    "link_img": "https://live.staticflickr.com/65535/49889895341_a1b7eaa766_o.jpg",
    "id_image": "2009_rv_Holden_rv_HSV_rv_W427_rv_V4_rv_1440",
    "count_view": 0
  },
  {
    "link_thumb": "https://live.staticflickr.com/65535/49889378143_3e2169a8ca_n.jpg",
    "id_album": "2135768675",
    "description": "2009_rv_Holden_rv_HSV_rv_W427_rv_V5_rv_1440",
    "title": "2009_rv_Holden_rv_HSV_rv_W427_rv_V5_rv_1440",
    "link_img": "https://live.staticflickr.com/65535/49889378143_72f264e6ca_o.jpg",
    "id_image": "2009_rv_Holden_rv_HSV_rv_W427_rv_V5_rv_1440",
    "count_view": 0
  },
  {
    "link_thumb": "https://live.staticflickr.com/65535/49889378253_55ea4da464_n.jpg",
    "id_album": "2135768675",
    "description": "2009_rv_Holden_rv_HSV_rv_W427_rv_V6_rv_1440",
    "title": "2009_rv_Holden_rv_HSV_rv_W427_rv_V6_rv_1440",
    "link_img": "https://live.staticflickr.com/65535/49889378253_9d7460553c_o.jpg",
    "id_image": "2009_rv_Holden_rv_HSV_rv_W427_rv_V6_rv_1440",
    "count_view": 0
  },
  {
    "link_thumb": "https://live.staticflickr.com/65535/49889378338_db91ef32c6_n.jpg",
    "id_album": "2135768675",
    "description": "2010_rv_Holden_rv_HSV_rv_E_rv_Series_rv_2_rv_V1_rv_1200",
    "title": "2010_rv_Holden_rv_HSV_rv_E_rv_Series_rv_2_rv_V1_rv_1200",
    "link_img": "https://live.staticflickr.com/65535/49889378338_15a967741d_o.jpg",
    "id_image": "2010_rv_Holden_rv_HSV_rv_E_rv_Series_rv_2_rv_V1_rv_1200",
    "count_view": 0
  },
  {
    "link_thumb": "https://live.staticflickr.com/65535/49889895681_cf0ebb6f83_n.jpg",
    "id_album": "2135768675",
    "description": "2010_rv_Holden_rv_HSV_rv_E_rv_Series_rv_2_rv_V2_rv_1200",
    "title": "2010_rv_Holden_rv_HSV_rv_E_rv_Series_rv_2_rv_V2_rv_1200",
    "link_img": "https://live.staticflickr.com/65535/49889895681_e661abd410_o.jpg",
    "id_image": "2010_rv_Holden_rv_HSV_rv_E_rv_Series_rv_2_rv_V2_rv_1200",
    "count_view": 0
  },
  {
    "link_thumb": "https://live.staticflickr.com/65535/49889378503_af6a5b7920_n.jpg",
    "id_album": "2135768675",
    "description": "2010_rv_Holden_rv_HSV_rv_E_rv_Series_rv_2_rv_V3_rv_1200",
    "title": "2010_rv_Holden_rv_HSV_rv_E_rv_Series_rv_2_rv_V3_rv_1200",
    "link_img": "https://live.staticflickr.com/65535/49889378503_b5f3c7c32b_o.jpg",
    "id_image": "2010_rv_Holden_rv_HSV_rv_E_rv_Series_rv_2_rv_V3_rv_1200",
    "count_view": 0
  },
  {
    "link_thumb": "https://live.staticflickr.com/65535/49889895786_2ccfcd8724_n.jpg",
    "id_album": "2135768675",
    "description": "2010_rv_Holden_rv_HSV_rv_E_rv_Series_rv_2_rv_V4_rv_1200",
    "title": "2010_rv_Holden_rv_HSV_rv_E_rv_Series_rv_2_rv_V4_rv_1200",
    "link_img": "https://live.staticflickr.com/65535/49889895786_bf12fc9165_o.jpg",
    "id_image": "2010_rv_Holden_rv_HSV_rv_E_rv_Series_rv_2_rv_V4_rv_1200",
    "count_view": 0
  },
  {
    "link_thumb": "https://live.staticflickr.com/65535/49890205942_cc5d62de9e_n.jpg",
    "id_album": "2135768675",
    "description": "2010_rv_Holden_rv_HSV_rv_E_rv_Series_rv_2_rv_V5_rv_1200",
    "title": "2010_rv_Holden_rv_HSV_rv_E_rv_Series_rv_2_rv_V5_rv_1200",
    "link_img": "https://live.staticflickr.com/65535/49890205942_b9bd3a5c3d_o.jpg",
    "id_image": "2010_rv_Holden_rv_HSV_rv_E_rv_Series_rv_2_rv_V5_rv_1200",
    "count_view": 0
  },
  {
    "link_thumb": "https://live.staticflickr.com/65535/49890206047_1a22c629df_n.jpg",
    "id_album": "2135768675",
    "description": "2010_rv_Holden_rv_HSV_rv_E_rv_Series_rv_2_rv_V6_rv_1200",
    "title": "2010_rv_Holden_rv_HSV_rv_E_rv_Series_rv_2_rv_V6_rv_1200",
    "link_img": "https://live.staticflickr.com/65535/49890206047_9db13fde90_o.jpg",
    "id_image": "2010_rv_Holden_rv_HSV_rv_E_rv_Series_rv_2_rv_V6_rv_1200",
    "count_view": 0
  },
  {
    "link_thumb": "https://live.staticflickr.com/65535/49889378843_275d1f1f3f_n.jpg",
    "id_album": "2135768675",
    "description": "2011_rv_Holden_rv_HSV_rv_E_rv_Series_rv_3_rv_V1_rv_1536",
    "title": "2011_rv_Holden_rv_HSV_rv_E_rv_Series_rv_3_rv_V1_rv_1536",
    "link_img": "https://live.staticflickr.com/65535/49889378843_a305c10e71_o.jpg",
    "id_image": "2011_rv_Holden_rv_HSV_rv_E_rv_Series_rv_3_rv_V1_rv_1536",
    "count_view": 0
  },
  {
    "link_thumb": "https://live.staticflickr.com/65535/49890206167_3268850ed5_n.jpg",
    "id_album": "2135768675",
    "description": "2011_rv_Holden_rv_HSV_rv_E_rv_Series_rv_3_rv_V2_rv_1536",
    "title": "2011_rv_Holden_rv_HSV_rv_E_rv_Series_rv_3_rv_V2_rv_1536",
    "link_img": "https://live.staticflickr.com/65535/49890206167_5c3cd503a6_o.jpg",
    "id_image": "2011_rv_Holden_rv_HSV_rv_E_rv_Series_rv_3_rv_V2_rv_1536",
    "count_view": 0
  },
  {
    "link_thumb": "https://live.staticflickr.com/65535/49889896111_4698e0eba8_n.jpg",
    "id_album": "2135768675",
    "description": "2011_rv_Holden_rv_HSV_rv_E_rv_Series_rv_3_rv_V3_rv_1536",
    "title": "2011_rv_Holden_rv_HSV_rv_E_rv_Series_rv_3_rv_V3_rv_1536",
    "link_img": "https://live.staticflickr.com/65535/49889896111_f3017094b3_o.jpg",
    "id_image": "2011_rv_Holden_rv_HSV_rv_E_rv_Series_rv_3_rv_V3_rv_1536",
    "count_view": 0
  },
  {
    "link_thumb": "https://live.staticflickr.com/65535/49889896186_705d665082_n.jpg",
    "id_album": "2135768675",
    "description": "2012_rv_HSV_rv_GTS_rv_25th_rv_Anniversary_rv_Edition_rv_V1_rv_1440",
    "title": "2012_rv_HSV_rv_GTS_rv_25th_rv_Anniversary_rv_Edition_rv_V1_rv_1440",
    "link_img": "https://live.staticflickr.com/65535/49889896186_e3e50d66b2_o.jpg",
    "id_image": "2012_rv_HSV_rv_GTS_rv_25th_rv_Anniversary_rv_Edition_rv_V1_rv_1440",
    "count_view": 0
  },
  {
    "link_thumb": "https://live.staticflickr.com/65535/49889379233_457087e2da_n.jpg",
    "id_album": "2135768675",
    "description": "2012_rv_HSV_rv_GTS_rv_25th_rv_Anniversary_rv_Edition_rv_V2_rv_1440",
    "title": "2012_rv_HSV_rv_GTS_rv_25th_rv_Anniversary_rv_Edition_rv_V2_rv_1440",
    "link_img": "https://live.staticflickr.com/65535/49889379233_8ede512800_o.jpg",
    "id_image": "2012_rv_HSV_rv_GTS_rv_25th_rv_Anniversary_rv_Edition_rv_V2_rv_1440",
    "count_view": 0
  },
  {
    "link_thumb": "https://live.staticflickr.com/65535/49889896431_8b7a19c2c6_n.jpg",
    "id_album": "2135768675",
    "description": "2012_rv_HSV_rv_GTS_rv_25th_rv_Anniversary_rv_Edition_rv_V3_rv_1440",
    "title": "2012_rv_HSV_rv_GTS_rv_25th_rv_Anniversary_rv_Edition_rv_V3_rv_1440",
    "link_img": "https://live.staticflickr.com/65535/49889896431_54bfe177ab_o.jpg",
    "id_image": "2012_rv_HSV_rv_GTS_rv_25th_rv_Anniversary_rv_Edition_rv_V3_rv_1440",
    "count_view": 0
  },
  {
    "link_thumb": "https://live.staticflickr.com/65535/49889896526_1b01530c5f_n.jpg",
    "id_album": "2135768675",
    "description": "2014_rv_Holden_rv_HSV_rv_Gen_rv_F_rv_V1_rv_1440",
    "title": "2014_rv_Holden_rv_HSV_rv_Gen_rv_F_rv_V1_rv_1440",
    "link_img": "https://live.staticflickr.com/65535/49889896526_7ebee05767_o.jpg",
    "id_image": "2014_rv_Holden_rv_HSV_rv_Gen_rv_F_rv_V1_rv_1440",
    "count_view": 0
  },
  {
    "link_thumb": "https://live.staticflickr.com/65535/49889896651_3f9bd060d8_n.jpg",
    "id_album": "2135768675",
    "description": "2014_rv_Holden_rv_HSV_rv_Gen_rv_F_rv_V2_rv_1440",
    "title": "2014_rv_Holden_rv_HSV_rv_Gen_rv_F_rv_V2_rv_1440",
    "link_img": "https://live.staticflickr.com/65535/49889896651_db4965f461_o.jpg",
    "id_image": "2014_rv_Holden_rv_HSV_rv_Gen_rv_F_rv_V2_rv_1440",
    "count_view": 0
  },
  {
    "link_thumb": "https://live.staticflickr.com/65535/49889379593_de11a47f4f_n.jpg",
    "id_album": "2135768675",
    "description": "2014_rv_Holden_rv_HSV_rv_Gen_rv_F_rv_V3_rv_1440",
    "title": "2014_rv_Holden_rv_HSV_rv_Gen_rv_F_rv_V3_rv_1440",
    "link_img": "https://live.staticflickr.com/65535/49889379593_019c0ffb46_o.jpg",
    "id_image": "2014_rv_Holden_rv_HSV_rv_Gen_rv_F_rv_V3_rv_1440",
    "count_view": 0
  },
  {
    "link_thumb": "https://live.staticflickr.com/65535/49889379678_862d4f25d7_n.jpg",
    "id_album": "2135768675",
    "description": "2014_rv_Holden_rv_HSV_rv_Gen_rv_F_rv_V4_rv_1440",
    "title": "2014_rv_Holden_rv_HSV_rv_Gen_rv_F_rv_V4_rv_1440",
    "link_img": "https://live.staticflickr.com/65535/49889379678_d067f86c10_o.jpg",
    "id_image": "2014_rv_Holden_rv_HSV_rv_Gen_rv_F_rv_V4_rv_1440",
    "count_view": 0
  },
  {
    "link_thumb": "https://live.staticflickr.com/65535/49889379743_1fdba73816_n.jpg",
    "id_album": "2135768675",
    "description": "2014_rv_Holden_rv_HSV_rv_Gen_rv_F_rv_V5_rv_1440",
    "title": "2014_rv_Holden_rv_HSV_rv_Gen_rv_F_rv_V5_rv_1440",
    "link_img": "https://live.staticflickr.com/65535/49889379743_58f4405265_o.jpg",
    "id_image": "2014_rv_Holden_rv_HSV_rv_Gen_rv_F_rv_V5_rv_1440",
    "count_view": 0
  },
  {
    "link_thumb": "https://live.staticflickr.com/65535/49889379828_6933806170_n.jpg",
    "id_album": "2135768675",
    "description": "2014_rv_Holden_rv_HSV_rv_Gen_rv_F_rv_V6_rv_1440",
    "title": "2014_rv_Holden_rv_HSV_rv_Gen_rv_F_rv_V6_rv_1440",
    "link_img": "https://live.staticflickr.com/65535/49889379828_ea5c10ff23_o.jpg",
    "id_image": "2014_rv_Holden_rv_HSV_rv_Gen_rv_F_rv_V6_rv_1440",
    "count_view": 0
  },
  {
    "link_thumb": "https://live.staticflickr.com/65535/49889379918_5dcda3707e_n.jpg",
    "id_album": "2135768675",
    "description": "2015_rv_Holden_rv_HSV_rv_ClubSport_rv_R8_rv_25th_rv_Anniversary_rv_V1_rv_1440",
    "title": "2015_rv_Holden_rv_HSV_rv_ClubSport_rv_R8_rv_25th_rv_Anniversary_rv_V1_rv_1440",
    "link_img": "https://live.staticflickr.com/65535/49889379918_c0c74578e1_o.jpg",
    "id_image": "2015_rv_Holden_rv_HSV_rv_ClubSport_rv_R8_rv_25th_rv_Anniversary_rv_V1_rv_1440",
    "count_view": 0
  },
  {
    "link_thumb": "https://live.staticflickr.com/65535/49889897181_22d4e8482e_n.jpg",
    "id_album": "2135768675",
    "description": "2015_rv_Holden_rv_HSV_rv_ClubSport_rv_R8_rv_25th_rv_Anniversary_rv_V2_rv_1440",
    "title": "2015_rv_Holden_rv_HSV_rv_ClubSport_rv_R8_rv_25th_rv_Anniversary_rv_V2_rv_1440",
    "link_img": "https://live.staticflickr.com/65535/49889897181_f57b6ae50d_o.jpg",
    "id_image": "2015_rv_Holden_rv_HSV_rv_ClubSport_rv_R8_rv_25th_rv_Anniversary_rv_V2_rv_1440",
    "count_view": 0
  },
  {
    "link_thumb": "https://live.staticflickr.com/65535/49889380103_fc8fcc4e2c_n.jpg",
    "id_album": "2135768675",
    "description": "2015_rv_Holden_rv_HSV_rv_GTS_rv_Maloo_rv_V1_rv_1440",
    "title": "2015_rv_Holden_rv_HSV_rv_GTS_rv_Maloo_rv_V1_rv_1440",
    "link_img": "https://live.staticflickr.com/65535/49889380103_75ca71ec79_o.jpg",
    "id_image": "2015_rv_Holden_rv_HSV_rv_GTS_rv_Maloo_rv_V1_rv_1440",
    "count_view": 0
  },
  {
    "link_thumb": "https://live.staticflickr.com/65535/49889380213_eb9a463c36_n.jpg",
    "id_album": "2135768675",
    "description": "2015_rv_Holden_rv_HSV_rv_GTS_rv_Maloo_rv_V2_rv_1440",
    "title": "2015_rv_Holden_rv_HSV_rv_GTS_rv_Maloo_rv_V2_rv_1440",
    "link_img": "https://live.staticflickr.com/65535/49889380213_2c4cf4d36e_o.jpg",
    "id_image": "2015_rv_Holden_rv_HSV_rv_GTS_rv_Maloo_rv_V2_rv_1440",
    "count_view": 0
  },
  {
    "link_thumb": "https://live.staticflickr.com/65535/49890207647_bd157bc000_n.jpg",
    "id_album": "2135768675",
    "description": "2015_rv_Holden_rv_HSV_rv_GTS_rv_Maloo_rv_V3_rv_1440",
    "title": "2015_rv_Holden_rv_HSV_rv_GTS_rv_Maloo_rv_V3_rv_1440",
    "link_img": "https://live.staticflickr.com/65535/49890207647_c1a6d1ae50_o.jpg",
    "id_image": "2015_rv_Holden_rv_HSV_rv_GTS_rv_Maloo_rv_V3_rv_1440",
    "count_view": 0
  },
  {
    "link_thumb": "https://live.staticflickr.com/65535/49890207712_c5a23b9412_n.jpg",
    "id_album": "2135768675",
    "description": "2015_rv_Holden_rv_HSV_rv_GTS_rv_Maloo_rv_V4_rv_1440",
    "title": "2015_rv_Holden_rv_HSV_rv_GTS_rv_Maloo_rv_V4_rv_1440",
    "link_img": "https://live.staticflickr.com/65535/49890207712_6572cc13f5_o.jpg",
    "id_image": "2015_rv_Holden_rv_HSV_rv_GTS_rv_Maloo_rv_V4_rv_1440",
    "count_view": 0
  },
  {
    "link_thumb": "https://live.staticflickr.com/65535/49889897601_4efce21d9f_n.jpg",
    "id_album": "2135768675",
    "description": "2015_rv_Holden_rv_HSV_rv_GTS_rv_Maloo_rv_V5_rv_1440",
    "title": "2015_rv_Holden_rv_HSV_rv_GTS_rv_Maloo_rv_V5_rv_1440",
    "link_img": "https://live.staticflickr.com/65535/49889897601_d75dbe0aa0_o.jpg",
    "id_image": "2015_rv_Holden_rv_HSV_rv_GTS_rv_Maloo_rv_V5_rv_1440",
    "count_view": 0
  },
  {
    "link_thumb": "https://live.staticflickr.com/65535/49890207942_ed9d6c089a_n.jpg",
    "id_album": "2135768675",
    "description": "2015_rv_HSV_rv_Senator_rv_SV_rv_V1_rv_1600",
    "title": "2015_rv_HSV_rv_Senator_rv_SV_rv_V1_rv_1600",
    "link_img": "https://live.staticflickr.com/65535/49890207942_e3887a88a2_o.jpg",
    "id_image": "2015_rv_HSV_rv_Senator_rv_SV_rv_V1_rv_1600",
    "count_view": 0
  },
  {
    "link_thumb": "https://live.staticflickr.com/65535/49889897786_f648f1ddc1_n.jpg",
    "id_album": "2135768675",
    "description": "2015_rv_HSV_rv_Senator_rv_SV_rv_V2_rv_1600",
    "title": "2015_rv_HSV_rv_Senator_rv_SV_rv_V2_rv_1600",
    "link_img": "https://live.staticflickr.com/65535/49889897786_b080df0712_o.jpg",
    "id_image": "2015_rv_HSV_rv_Senator_rv_SV_rv_V2_rv_1600",
    "count_view": 0
  },
  {
    "link_thumb": "https://live.staticflickr.com/65535/49889380818_32d19d2b12_n.jpg",
    "id_album": "2135768675",
    "description": "2016_rv_Holden_rv_HSV_rv_Gen_rv_F2_rv_V10_rv_1600",
    "title": "2016_rv_Holden_rv_HSV_rv_Gen_rv_F2_rv_V10_rv_1600",
    "link_img": "https://live.staticflickr.com/65535/49889380818_b61bd0c876_o.jpg",
    "id_image": "2016_rv_Holden_rv_HSV_rv_Gen_rv_F2_rv_V10_rv_1600",
    "count_view": 0
  },
  {
    "link_thumb": "https://live.staticflickr.com/65535/49889380953_6d222a3468_n.jpg",
    "id_album": "2135768675",
    "description": "2016_rv_Holden_rv_HSV_rv_Gen_rv_F2_rv_V11_rv_1600",
    "title": "2016_rv_Holden_rv_HSV_rv_Gen_rv_F2_rv_V11_rv_1600",
    "link_img": "https://live.staticflickr.com/65535/49889380953_e378560ef5_o.jpg",
    "id_image": "2016_rv_Holden_rv_HSV_rv_Gen_rv_F2_rv_V11_rv_1600",
    "count_view": 0
  },
  {
    "link_thumb": "https://live.staticflickr.com/65535/49889898276_3d0b3ea081_n.jpg",
    "id_album": "2135768675",
    "description": "2016_rv_Holden_rv_HSV_rv_Gen_rv_F2_rv_V12_rv_1600",
    "title": "2016_rv_Holden_rv_HSV_rv_Gen_rv_F2_rv_V12_rv_1600",
    "link_img": "https://live.staticflickr.com/65535/49889898276_96031bb3f6_o.jpg",
    "id_image": "2016_rv_Holden_rv_HSV_rv_Gen_rv_F2_rv_V12_rv_1600",
    "count_view": 0
  },
  {
    "link_thumb": "https://live.staticflickr.com/65535/49889897966_b8301a881e_n.jpg",
    "id_album": "2135768675",
    "description": "2016_rv_Holden_rv_HSV_rv_Gen_rv_F2_rv_V1_rv_1600",
    "title": "2016_rv_Holden_rv_HSV_rv_Gen_rv_F2_rv_V1_rv_1600",
    "link_img": "https://live.staticflickr.com/65535/49889897966_b2835ebdf6_o.jpg",
    "id_image": "2016_rv_Holden_rv_HSV_rv_Gen_rv_F2_rv_V1_rv_1600",
    "count_view": 0
  },
  {
    "link_thumb": "https://live.staticflickr.com/65535/49889898316_c7e3c4ae09_n.jpg",
    "id_album": "2135768675",
    "description": "2016_rv_Holden_rv_HSV_rv_Gen_rv_F2_rv_V2_rv_1600",
    "title": "2016_rv_Holden_rv_HSV_rv_Gen_rv_F2_rv_V2_rv_1600",
    "link_img": "https://live.staticflickr.com/65535/49889898316_431c92260e_o.jpg",
    "id_image": "2016_rv_Holden_rv_HSV_rv_Gen_rv_F2_rv_V2_rv_1600",
    "count_view": 0
  },
  {
    "link_thumb": "https://live.staticflickr.com/65535/49889381323_e4b1ae4378_n.jpg",
    "id_album": "2135768675",
    "description": "2016_rv_Holden_rv_HSV_rv_Gen_rv_F2_rv_V3_rv_1600",
    "title": "2016_rv_Holden_rv_HSV_rv_Gen_rv_F2_rv_V3_rv_1600",
    "link_img": "https://live.staticflickr.com/65535/49889381323_8711d096f1_o.jpg",
    "id_image": "2016_rv_Holden_rv_HSV_rv_Gen_rv_F2_rv_V3_rv_1600",
    "count_view": 0
  },
  {
    "link_thumb": "https://live.staticflickr.com/65535/49889898566_b01c25bbae_n.jpg",
    "id_album": "2135768675",
    "description": "2016_rv_Holden_rv_HSV_rv_Gen_rv_F2_rv_V4_rv_1600",
    "title": "2016_rv_Holden_rv_HSV_rv_Gen_rv_F2_rv_V4_rv_1600",
    "link_img": "https://live.staticflickr.com/65535/49889898566_3428d384d5_o.jpg",
    "id_image": "2016_rv_Holden_rv_HSV_rv_Gen_rv_F2_rv_V4_rv_1600",
    "count_view": 0
  },
  {
    "link_thumb": "https://live.staticflickr.com/65535/49890208942_b613bc9cb2_n.jpg",
    "id_album": "2135768675",
    "description": "2016_rv_Holden_rv_HSV_rv_Gen_rv_F2_rv_V5_rv_1600",
    "title": "2016_rv_Holden_rv_HSV_rv_Gen_rv_F2_rv_V5_rv_1600",
    "link_img": "https://live.staticflickr.com/65535/49890208942_bde8897e08_o.jpg",
    "id_image": "2016_rv_Holden_rv_HSV_rv_Gen_rv_F2_rv_V5_rv_1600",
    "count_view": 0
  },
  {
    "link_thumb": "https://live.staticflickr.com/65535/49889381638_8bc67a8952_n.jpg",
    "id_album": "2135768675",
    "description": "2016_rv_Holden_rv_HSV_rv_Gen_rv_F2_rv_V6_rv_1600",
    "title": "2016_rv_Holden_rv_HSV_rv_Gen_rv_F2_rv_V6_rv_1600",
    "link_img": "https://live.staticflickr.com/65535/49889381638_93ab82ab31_o.jpg",
    "id_image": "2016_rv_Holden_rv_HSV_rv_Gen_rv_F2_rv_V6_rv_1600",
    "count_view": 0
  },
  {
    "link_thumb": "https://live.staticflickr.com/65535/49889381723_1155964c40_n.jpg",
    "id_album": "2135768675",
    "description": "2016_rv_Holden_rv_HSV_rv_Gen_rv_F2_rv_V7_rv_1600",
    "title": "2016_rv_Holden_rv_HSV_rv_Gen_rv_F2_rv_V7_rv_1600",
    "link_img": "https://live.staticflickr.com/65535/49889381723_5983b507f6_o.jpg",
    "id_image": "2016_rv_Holden_rv_HSV_rv_Gen_rv_F2_rv_V7_rv_1600",
    "count_view": 0
  },
  {
    "link_thumb": "https://live.staticflickr.com/65535/49890209272_b37fd5fa9e_n.jpg",
    "id_album": "2135768675",
    "description": "2016_rv_Holden_rv_HSV_rv_Gen_rv_F2_rv_V8_rv_1600",
    "title": "2016_rv_Holden_rv_HSV_rv_Gen_rv_F2_rv_V8_rv_1600",
    "link_img": "https://live.staticflickr.com/65535/49890209272_686337b942_o.jpg",
    "id_image": "2016_rv_Holden_rv_HSV_rv_Gen_rv_F2_rv_V8_rv_1600",
    "count_view": 0
  },
  {
    "link_thumb": "https://live.staticflickr.com/65535/49890209402_753e60a4b4_n.jpg",
    "id_album": "2135768675",
    "description": "2016_rv_Holden_rv_HSV_rv_Gen_rv_F2_rv_V9_rv_1600",
    "title": "2016_rv_Holden_rv_HSV_rv_Gen_rv_F2_rv_V9_rv_1600",
    "link_img": "https://live.staticflickr.com/65535/49890209402_bc840ed54a_o.jpg",
    "id_image": "2016_rv_Holden_rv_HSV_rv_Gen_rv_F2_rv_V9_rv_1600",
    "count_view": 0
  },
  {
    "link_thumb": "https://live.staticflickr.com/65535/49889382053_b3e2758560_n.jpg",
    "id_album": "2135768675",
    "description": "2017_rv_Holden_rv_HSV_rv_GTSR_rv_V1_rv_2000",
    "title": "2017_rv_Holden_rv_HSV_rv_GTSR_rv_V1_rv_2000",
    "link_img": "https://live.staticflickr.com/65535/49889382053_ab27a8fb26_o.jpg",
    "id_image": "2017_rv_Holden_rv_HSV_rv_GTSR_rv_V1_rv_2000",
    "count_view": 0
  },
  {
    "link_thumb": "https://live.staticflickr.com/65535/49889382173_b817de9c7d_n.jpg",
    "id_album": "2135768675",
    "description": "2017_rv_Holden_rv_HSV_rv_GTSR_rv_V2_rv_2000",
    "title": "2017_rv_Holden_rv_HSV_rv_GTSR_rv_V2_rv_2000",
    "link_img": "https://live.staticflickr.com/65535/49889382173_080ba4478e_o.jpg",
    "id_image": "2017_rv_Holden_rv_HSV_rv_GTSR_rv_V2_rv_2000",
    "count_view": 0
  },
  {
    "link_thumb": "https://live.staticflickr.com/65535/49889382243_de79924277_n.jpg",
    "id_album": "2135768675",
    "description": "2017_rv_Holden_rv_HSV_rv_GTSR_rv_V3_rv_2000",
    "title": "2017_rv_Holden_rv_HSV_rv_GTSR_rv_V3_rv_2000",
    "link_img": "https://live.staticflickr.com/65535/49889382243_5cba80c195_o.jpg",
    "id_image": "2017_rv_Holden_rv_HSV_rv_GTSR_rv_V3_rv_2000",
    "count_view": 0
  },
  {
    "link_thumb": "https://live.staticflickr.com/65535/49889899461_0d1d6b262a_n.jpg",
    "id_album": "2135768675",
    "description": "2017_rv_Holden_rv_HSV_rv_GTSR_rv_V4_rv_2000",
    "title": "2017_rv_Holden_rv_HSV_rv_GTSR_rv_V4_rv_2000",
    "link_img": "https://live.staticflickr.com/65535/49889899461_182289d0c2_o.jpg",
    "id_image": "2017_rv_Holden_rv_HSV_rv_GTSR_rv_V4_rv_2000",
    "count_view": 0
  },
  {
    "link_thumb": "https://live.staticflickr.com/65535/49889899581_9ab7cf840c_n.jpg",
    "id_album": "2135768675",
    "description": "2017_rv_Holden_rv_HSV_rv_GTSR_rv_V5_rv_2000",
    "title": "2017_rv_Holden_rv_HSV_rv_GTSR_rv_V5_rv_2000",
    "link_img": "https://live.staticflickr.com/65535/49889899581_0f87849df2_o.jpg",
    "id_image": "2017_rv_Holden_rv_HSV_rv_GTSR_rv_V5_rv_2000",
    "count_view": 0
  },
  {
    "link_thumb": "https://live.staticflickr.com/65535/49890210017_06c5ddf098_n.jpg",
    "id_album": "2135768675",
    "description": "2017_rv_Holden_rv_HSV_rv_GTSR_rv_V6_rv_2000",
    "title": "2017_rv_Holden_rv_HSV_rv_GTSR_rv_V6_rv_2000",
    "link_img": "https://live.staticflickr.com/65535/49890210017_fb87397d85_o.jpg",
    "id_image": "2017_rv_Holden_rv_HSV_rv_GTSR_rv_V6_rv_2000",
    "count_view": 0
  },
  {
    "link_thumb": "https://live.staticflickr.com/65535/49890210112_51bacc23f0_n.jpg",
    "id_album": "2135768675",
    "description": "2017_rv_Holden_rv_HSV_rv_GTSR_rv_V7_rv_2000",
    "title": "2017_rv_Holden_rv_HSV_rv_GTSR_rv_V7_rv_2000",
    "link_img": "https://live.staticflickr.com/65535/49890210112_b2601a319a_o.jpg",
    "id_image": "2017_rv_Holden_rv_HSV_rv_GTSR_rv_V7_rv_2000",
    "count_view": 0
  },
  {
    "link_thumb": "https://live.staticflickr.com/65535/49889899906_b2005b808d_n.jpg",
    "id_album": "2135768675",
    "description": "2017_rv_Holden_rv_HSV_rv_GTSR_rv_V8_rv_2000",
    "title": "2017_rv_Holden_rv_HSV_rv_GTSR_rv_V8_rv_2000",
    "link_img": "https://live.staticflickr.com/65535/49889899906_beeac80525_o.jpg",
    "id_image": "2017_rv_Holden_rv_HSV_rv_GTSR_rv_V8_rv_2000",
    "count_view": 0
  },
  {
    "link_thumb": "https://live.staticflickr.com/65535/49889900046_868726416a_n.jpg",
    "id_album": "2135768675",
    "description": "2017_rv_Holden_rv_HSV_rv_GTSR_rv_V9_rv_2000",
    "title": "2017_rv_Holden_rv_HSV_rv_GTSR_rv_V9_rv_2000",
    "link_img": "https://live.staticflickr.com/65535/49889900046_6765d02d07_o.jpg",
    "id_image": "2017_rv_Holden_rv_HSV_rv_GTSR_rv_V9_rv_2000",
    "count_view": 0
  }
]