[
  {
    "total_img": 0,
    "number_page": 0,
    "title": "Volvo S60",
    "tag": "Volvo S60,",
    "description": "Volvo S60",
    "link_thumb": "https://live.staticflickr.com/65535/49892995557_2dbd909ddc_n.jpg",
    "id_album": "927129407",
    "total_view": 27
  }
]