[
  {
    "link_thumb": "https://live.staticflickr.com/65535/48112400763_eeb4a71c5f_n.jpg",
    "id_album": "-15119147",
    "description": "Audi_589634",
    "title": "Audi_589634",
    "link_img": "https://live.staticflickr.com/65535/48112400763_70a90cb428_o.jpg",
    "id_image": "Audi_589634",
    "count_view": 0
  },
  {
    "link_thumb": "https://live.staticflickr.com/65535/48112400848_af8f68ddd9_n.jpg",
    "id_album": "-15119147",
    "description": "Audi_594184",
    "title": "Audi_594184",
    "link_img": "https://live.staticflickr.com/65535/48112400848_0c444f822b_o.jpg",
    "id_image": "Audi_594184",
    "count_view": 0
  },
  {
    "link_thumb": "https://live.staticflickr.com/65535/48112464732_3efa54ff44_n.jpg",
    "id_album": "-15119147",
    "description": "Audi_598749",
    "title": "Audi_598749",
    "link_img": "https://live.staticflickr.com/65535/48112464732_206fbdf205_o.jpg",
    "id_image": "Audi_598749",
    "count_view": 0
  },
  {
    "link_thumb": "https://live.staticflickr.com/65535/48112464927_1d6aef43c9_n.jpg",
    "id_album": "-15119147",
    "description": "Audi_598780",
    "title": "Audi_598780",
    "link_img": "https://live.staticflickr.com/65535/48112464927_5bcd70cf67_o.jpg",
    "id_image": "Audi_598780",
    "count_view": 0
  },
  {
    "link_thumb": "https://live.staticflickr.com/65535/48112360051_bc8cdc3ce6_n.jpg",
    "id_album": "-15119147",
    "description": "Audi_611853",
    "title": "Audi_611853",
    "link_img": "https://live.staticflickr.com/65535/48112360051_01a7463527_o.jpg",
    "id_image": "Audi_611853",
    "count_view": 0
  },
  {
    "link_thumb": "https://live.staticflickr.com/65535/48112401413_4fa88001a8_n.jpg",
    "id_album": "-15119147",
    "description": "Audi_611856",
    "title": "Audi_611856",
    "link_img": "https://live.staticflickr.com/65535/48112401413_829a94f9f5_o.jpg",
    "id_image": "Audi_611856",
    "count_view": 0
  },
  {
    "link_thumb": "https://live.staticflickr.com/65535/48112465207_f2fea517db_n.jpg",
    "id_album": "-15119147",
    "description": "Audi_611860",
    "title": "Audi_611860",
    "link_img": "https://live.staticflickr.com/65535/48112465207_f55ea0b62e_o.jpg",
    "id_image": "Audi_611860",
    "count_view": 0
  },
  {
    "link_thumb": "https://live.staticflickr.com/65535/48112465297_21bfc37245_n.jpg",
    "id_album": "-15119147",
    "description": "Audi_611879",
    "title": "Audi_611879",
    "link_img": "https://live.staticflickr.com/65535/48112465297_2c9032edf6_o.jpg",
    "id_image": "Audi_611879",
    "count_view": 0
  },
  {
    "link_thumb": "https://live.staticflickr.com/65535/48112465392_afb7b6304f_n.jpg",
    "id_album": "-15119147",
    "description": "Audi_611910",
    "title": "Audi_611910",
    "link_img": "https://live.staticflickr.com/65535/48112465392_211a4d9ff5_o.jpg",
    "id_image": "Audi_611910",
    "count_view": 0
  },
  {
    "link_thumb": "https://live.staticflickr.com/65535/48112360571_1ccc2e5c09_n.jpg",
    "id_album": "-15119147",
    "description": "Audi_611921",
    "title": "Audi_611921",
    "link_img": "https://live.staticflickr.com/65535/48112360571_9a8407de21_o.jpg",
    "id_image": "Audi_611921",
    "count_view": 0
  },
  {
    "link_thumb": "https://live.staticflickr.com/65535/48112360736_6bfe171868_n.jpg",
    "id_album": "-15119147",
    "description": "Audi_612399",
    "title": "Audi_612399",
    "link_img": "https://live.staticflickr.com/65535/48112360736_dd5b44b470_o.jpg",
    "id_image": "Audi_612399",
    "count_view": 0
  },
  {
    "link_thumb": "https://live.staticflickr.com/65535/48112361716_36dbae86f3_n.jpg",
    "id_album": "-15119147",
    "description": "Audi_612851",
    "title": "Audi_612851",
    "link_img": "https://live.staticflickr.com/65535/48112361716_7631b5be30_o.jpg",
    "id_image": "Audi_612851",
    "count_view": 0
  },
  {
    "link_thumb": "https://live.staticflickr.com/65535/48112403173_86efef6b58_n.jpg",
    "id_album": "-15119147",
    "description": "Audi_612860",
    "title": "Audi_612860",
    "link_img": "https://live.staticflickr.com/65535/48112403173_624f5c06ea_o.jpg",
    "id_image": "Audi_612860",
    "count_view": 0
  },
  {
    "link_thumb": "https://live.staticflickr.com/65535/48112466782_c708b405e9_n.jpg",
    "id_album": "-15119147",
    "description": "Audi_612873",
    "title": "Audi_612873",
    "link_img": "https://live.staticflickr.com/65535/48112466782_f2c03366fd_o.jpg",
    "id_image": "Audi_612873",
    "count_view": 0
  },
  {
    "link_thumb": "https://live.staticflickr.com/65535/48112362166_dd99645327_n.jpg",
    "id_album": "-15119147",
    "description": "Audi_612879",
    "title": "Audi_612879",
    "link_img": "https://live.staticflickr.com/65535/48112362166_63bc3b5151_o.jpg",
    "id_image": "Audi_612879",
    "count_view": 0
  },
  {
    "link_thumb": "https://live.staticflickr.com/65535/48112467022_8e726f1c9e_n.jpg",
    "id_album": "-15119147",
    "description": "Audi_614316",
    "title": "Audi_614316",
    "link_img": "https://live.staticflickr.com/65535/48112467022_dd91568597_o.jpg",
    "id_image": "Audi_614316",
    "count_view": 0
  },
  {
    "link_thumb": "https://live.staticflickr.com/65535/48112362401_5e14705c7b_n.jpg",
    "id_album": "-15119147",
    "description": "Audi_615156",
    "title": "Audi_615156",
    "link_img": "https://live.staticflickr.com/65535/48112362401_9c93a5496f_o.jpg",
    "id_image": "Audi_615156",
    "count_view": 0
  },
  {
    "link_thumb": "https://live.staticflickr.com/65535/48112467317_eb140b0016_n.jpg",
    "id_album": "-15119147",
    "description": "Audi_615456",
    "title": "Audi_615456",
    "link_img": "https://live.staticflickr.com/65535/48112467317_0492092030_o.jpg",
    "id_image": "Audi_615456",
    "count_view": 0
  },
  {
    "link_thumb": "https://live.staticflickr.com/65535/48112467407_1d3103698a_n.jpg",
    "id_album": "-15119147",
    "description": "Audi_615488",
    "title": "Audi_615488",
    "link_img": "https://live.staticflickr.com/65535/48112467407_8e25566dd4_o.jpg",
    "id_image": "Audi_615488",
    "count_view": 0
  },
  {
    "link_thumb": "https://live.staticflickr.com/65535/48112403998_aa3657071a_n.jpg",
    "id_album": "-15119147",
    "description": "Audi_631020",
    "title": "Audi_631020",
    "link_img": "https://live.staticflickr.com/65535/48112403998_c655f3f535_o.jpg",
    "id_image": "Audi_631020",
    "count_view": 0
  },
  {
    "link_thumb": "https://live.staticflickr.com/65535/48112467782_eb0c27dd04_n.jpg",
    "id_album": "-15119147",
    "description": "Audi_631126",
    "title": "Audi_631126",
    "link_img": "https://live.staticflickr.com/65535/48112467782_09b5b193d9_o.jpg",
    "id_image": "Audi_631126",
    "count_view": 0
  },
  {
    "link_thumb": "https://live.staticflickr.com/65535/48112363061_407ce6dab5_n.jpg",
    "id_album": "-15119147",
    "description": "Audi_631455",
    "title": "Audi_631455",
    "link_img": "https://live.staticflickr.com/65535/48112363061_f78b221b04_o.jpg",
    "id_image": "Audi_631455",
    "count_view": 0
  },
  {
    "link_thumb": "https://live.staticflickr.com/65535/48112467977_c469f9a8b4_n.jpg",
    "id_album": "-15119147",
    "description": "Audi_6358",
    "title": "Audi_6358",
    "link_img": "https://live.staticflickr.com/65535/48112467977_847958aba1_o.jpg",
    "id_image": "Audi_6358",
    "count_view": 0
  },
  {
    "link_thumb": "https://live.staticflickr.com/65535/48112468087_5590c58de3_n.jpg",
    "id_album": "-15119147",
    "description": "Audi_639514",
    "title": "Audi_639514",
    "link_img": "https://live.staticflickr.com/65535/48112468087_b99ecb0c79_o.jpg",
    "id_image": "Audi_639514",
    "count_view": 0
  },
  {
    "link_thumb": "https://live.staticflickr.com/65535/48112468182_2f0f2746fe_n.jpg",
    "id_album": "-15119147",
    "description": "Audi_639530",
    "title": "Audi_639530",
    "link_img": "https://live.staticflickr.com/65535/48112468182_c756d53810_o.jpg",
    "id_image": "Audi_639530",
    "count_view": 0
  },
  {
    "link_thumb": "https://live.staticflickr.com/65535/48112468242_af96450559_n.jpg",
    "id_album": "-15119147",
    "description": "Audi_639535",
    "title": "Audi_639535",
    "link_img": "https://live.staticflickr.com/65535/48112468242_8ffb7800e8_o.jpg",
    "id_image": "Audi_639535",
    "count_view": 0
  },
  {
    "link_thumb": "https://live.staticflickr.com/65535/48112469782_b338a921e8_n.jpg",
    "id_album": "-15119147",
    "description": "Audi_644379",
    "title": "Audi_644379",
    "link_img": "https://live.staticflickr.com/65535/48112469782_56ae436c63_o.jpg",
    "id_image": "Audi_644379",
    "count_view": 0
  },
  {
    "link_thumb": "https://live.staticflickr.com/65535/48112364936_f7ef552584_n.jpg",
    "id_album": "-15119147",
    "description": "Audi_644527",
    "title": "Audi_644527",
    "link_img": "https://live.staticflickr.com/65535/48112364936_170e4f545b_o.jpg",
    "id_image": "Audi_644527",
    "count_view": 0
  },
  {
    "link_thumb": "https://live.staticflickr.com/65535/48112469947_d6d917515c_n.jpg",
    "id_album": "-15119147",
    "description": "Audi_645913",
    "title": "Audi_645913",
    "link_img": "https://live.staticflickr.com/65535/48112469947_2aef7a3147_o.jpg",
    "id_image": "Audi_645913",
    "count_view": 0
  },
  {
    "link_thumb": "https://live.staticflickr.com/65535/48112406258_babc9d3f62_n.jpg",
    "id_album": "-15119147",
    "description": "Audi_646072",
    "title": "Audi_646072",
    "link_img": "https://live.staticflickr.com/65535/48112406258_d2b1d41485_o.jpg",
    "id_image": "Audi_646072",
    "count_view": 0
  },
  {
    "link_thumb": "https://live.staticflickr.com/65535/48112365246_efa4b57746_n.jpg",
    "id_album": "-15119147",
    "description": "Audi_646484",
    "title": "Audi_646484",
    "link_img": "https://live.staticflickr.com/65535/48112365246_8813557edd_o.jpg",
    "id_image": "Audi_646484",
    "count_view": 0
  },
  {
    "link_thumb": "https://live.staticflickr.com/65535/48112365311_945041dd2a_n.jpg",
    "id_album": "-15119147",
    "description": "Audi_646485",
    "title": "Audi_646485",
    "link_img": "https://live.staticflickr.com/65535/48112365311_1c57942377_o.jpg",
    "id_image": "Audi_646485",
    "count_view": 0
  },
  {
    "link_thumb": "https://live.staticflickr.com/65535/48112406483_88f3c4e3a3_n.jpg",
    "id_album": "-15119147",
    "description": "Audi_646486",
    "title": "Audi_646486",
    "link_img": "https://live.staticflickr.com/65535/48112406483_ab1cc0bb2d_o.jpg",
    "id_image": "Audi_646486",
    "count_view": 0
  },
  {
    "link_thumb": "https://live.staticflickr.com/65535/48112365651_97ee33f1ca_n.jpg",
    "id_album": "-15119147",
    "description": "Audi_646487",
    "title": "Audi_646487",
    "link_img": "https://live.staticflickr.com/65535/48112365651_5c797824c8_o.jpg",
    "id_image": "Audi_646487",
    "count_view": 0
  },
  {
    "link_thumb": "https://live.staticflickr.com/65535/48112470657_b24c718729_n.jpg",
    "id_album": "-15119147",
    "description": "Audi_651034",
    "title": "Audi_651034",
    "link_img": "https://live.staticflickr.com/65535/48112470657_01ce3c6775_o.jpg",
    "id_image": "Audi_651034",
    "count_view": 0
  },
  {
    "link_thumb": "https://live.staticflickr.com/65535/48112406893_34b2d26298_n.jpg",
    "id_album": "-15119147",
    "description": "Audi_655066",
    "title": "Audi_655066",
    "link_img": "https://live.staticflickr.com/65535/48112406893_8ef16a336c_o.jpg",
    "id_image": "Audi_655066",
    "count_view": 0
  },
  {
    "link_thumb": "https://live.staticflickr.com/65535/48112407253_74e4d972a4_n.jpg",
    "id_album": "-15119147",
    "description": "Audi_657211",
    "title": "Audi_657211",
    "link_img": "https://live.staticflickr.com/65535/48112407253_314a4b1b59_o.jpg",
    "id_image": "Audi_657211",
    "count_view": 0
  },
  {
    "link_thumb": "https://live.staticflickr.com/65535/48112366596_ca736866bd_n.jpg",
    "id_album": "-15119147",
    "description": "Audi_657216",
    "title": "Audi_657216",
    "link_img": "https://live.staticflickr.com/65535/48112366596_23f10c4f44_o.jpg",
    "id_image": "Audi_657216",
    "count_view": 0
  },
  {
    "link_thumb": "https://live.staticflickr.com/65535/48112471492_84fcf9b077_n.jpg",
    "id_album": "-15119147",
    "description": "Audi_663127",
    "title": "Audi_663127",
    "link_img": "https://live.staticflickr.com/65535/48112471492_0029108f1d_o.jpg",
    "id_image": "Audi_663127",
    "count_view": 0
  },
  {
    "link_thumb": "https://live.staticflickr.com/65535/48112407653_c3d2921a6e_n.jpg",
    "id_album": "-15119147",
    "description": "Audi_663893",
    "title": "Audi_663893",
    "link_img": "https://live.staticflickr.com/65535/48112407653_1818782b38_o.jpg",
    "id_image": "Audi_663893",
    "count_view": 0
  },
  {
    "link_thumb": "https://live.staticflickr.com/65535/48112471927_d6a0422591_n.jpg",
    "id_album": "-15119147",
    "description": "Audi_669390",
    "title": "Audi_669390",
    "link_img": "https://live.staticflickr.com/65535/48112471927_4c3f2e3db5_o.jpg",
    "id_image": "Audi_669390",
    "count_view": 0
  },
  {
    "link_thumb": "https://live.staticflickr.com/65535/48112472172_ea92d9d637_n.jpg",
    "id_album": "-15119147",
    "description": "Audi_669494",
    "title": "Audi_669494",
    "link_img": "https://live.staticflickr.com/65535/48112472172_878d522411_o.jpg",
    "id_image": "Audi_669494",
    "count_view": 0
  },
  {
    "link_thumb": "https://live.staticflickr.com/65535/48112367496_ffc209d2b7_n.jpg",
    "id_album": "-15119147",
    "description": "Audi_669510",
    "title": "Audi_669510",
    "link_img": "https://live.staticflickr.com/65535/48112367496_af80bb5ee9_o.jpg",
    "id_image": "Audi_669510",
    "count_view": 0
  },
  {
    "link_thumb": "https://live.staticflickr.com/65535/48112408418_f4666458f8_n.jpg",
    "id_album": "-15119147",
    "description": "Audi_673175",
    "title": "Audi_673175",
    "link_img": "https://live.staticflickr.com/65535/48112408418_e64c6b8168_o.jpg",
    "id_image": "Audi_673175",
    "count_view": 0
  },
  {
    "link_thumb": "https://live.staticflickr.com/65535/48112472482_0b7d19d480_n.jpg",
    "id_album": "-15119147",
    "description": "Audi_676734",
    "title": "Audi_676734",
    "link_img": "https://live.staticflickr.com/65535/48112472482_c44f8a1f2d_o.jpg",
    "id_image": "Audi_676734",
    "count_view": 0
  },
  {
    "link_thumb": "https://live.staticflickr.com/65535/48112472647_009c10957e_n.jpg",
    "id_album": "-15119147",
    "description": "Audi_677887",
    "title": "Audi_677887",
    "link_img": "https://live.staticflickr.com/65535/48112472647_e138611ac1_o.jpg",
    "id_image": "Audi_677887",
    "count_view": 0
  },
  {
    "link_thumb": "https://live.staticflickr.com/65535/48112473017_f721e04b0e_n.jpg",
    "id_album": "-15119147",
    "description": "Audi_679538",
    "title": "Audi_679538",
    "link_img": "https://live.staticflickr.com/65535/48112473017_8969920b09_o.jpg",
    "id_image": "Audi_679538",
    "count_view": 0
  },
  {
    "link_thumb": "https://live.staticflickr.com/65535/48112409278_5d7dc912ea_n.jpg",
    "id_album": "-15119147",
    "description": "Audi_679898",
    "title": "Audi_679898",
    "link_img": "https://live.staticflickr.com/65535/48112409278_8823b42060_o.jpg",
    "id_image": "Audi_679898",
    "count_view": 0
  },
  {
    "link_thumb": "https://live.staticflickr.com/65535/48112368516_be7b7768d5_n.jpg",
    "id_album": "-15119147",
    "description": "Audi_680555",
    "title": "Audi_680555",
    "link_img": "https://live.staticflickr.com/65535/48112368516_06ddb491a1_o.jpg",
    "id_image": "Audi_680555",
    "count_view": 0
  },
  {
    "link_thumb": "https://live.staticflickr.com/65535/48112409703_e33d380832_n.jpg",
    "id_album": "-15119147",
    "description": "Audi_681120",
    "title": "Audi_681120",
    "link_img": "https://live.staticflickr.com/65535/48112409703_a655388258_o.jpg",
    "id_image": "Audi_681120",
    "count_view": 0
  },
  {
    "link_thumb": "https://live.staticflickr.com/65535/48112474007_d5af090aa1_n.jpg",
    "id_album": "-15119147",
    "description": "Audi_681819",
    "title": "Audi_681819",
    "link_img": "https://live.staticflickr.com/65535/48112474007_3858c6a005_o.jpg",
    "id_image": "Audi_681819",
    "count_view": 0
  },
  {
    "link_thumb": "https://live.staticflickr.com/65535/48112369386_0f1abd5fa8_n.jpg",
    "id_album": "-15119147",
    "description": "Audi_683685",
    "title": "Audi_683685",
    "link_img": "https://live.staticflickr.com/65535/48112369386_b463a056fc_o.jpg",
    "id_image": "Audi_683685",
    "count_view": 0
  },
  {
    "link_thumb": "https://live.staticflickr.com/65535/48112369526_73b4b68667_n.jpg",
    "id_album": "-15119147",
    "description": "Audi_683792",
    "title": "Audi_683792",
    "link_img": "https://live.staticflickr.com/65535/48112369526_788e7d05cb_o.jpg",
    "id_image": "Audi_683792",
    "count_view": 0
  },
  {
    "link_thumb": "https://live.staticflickr.com/65535/48112474502_aa0b85774c_n.jpg",
    "id_album": "-15119147",
    "description": "Audi_683797",
    "title": "Audi_683797",
    "link_img": "https://live.staticflickr.com/65535/48112474502_412a813ebd_o.jpg",
    "id_image": "Audi_683797",
    "count_view": 0
  },
  {
    "link_thumb": "https://live.staticflickr.com/65535/48112410508_a2fdc9f27c_n.jpg",
    "id_album": "-15119147",
    "description": "Audi_683798",
    "title": "Audi_683798",
    "link_img": "https://live.staticflickr.com/65535/48112410508_665135c27d_o.jpg",
    "id_image": "Audi_683798",
    "count_view": 0
  },
  {
    "link_thumb": "https://live.staticflickr.com/65535/48112410673_811793e564_n.jpg",
    "id_album": "-15119147",
    "description": "Audi_683799",
    "title": "Audi_683799",
    "link_img": "https://live.staticflickr.com/65535/48112410673_37836a5f48_o.jpg",
    "id_image": "Audi_683799",
    "count_view": 0
  },
  {
    "link_thumb": "https://live.staticflickr.com/65535/48112410838_89c787ef6d_n.jpg",
    "id_album": "-15119147",
    "description": "Audi_683800",
    "title": "Audi_683800",
    "link_img": "https://live.staticflickr.com/65535/48112410838_611cb3dcdd_o.jpg",
    "id_image": "Audi_683800",
    "count_view": 0
  },
  {
    "link_thumb": "https://live.staticflickr.com/65535/48112370346_a217ec98d3_n.jpg",
    "id_album": "-15119147",
    "description": "Audi_683801",
    "title": "Audi_683801",
    "link_img": "https://live.staticflickr.com/65535/48112370346_fe5417392e_o.jpg",
    "id_image": "Audi_683801",
    "count_view": 0
  },
  {
    "link_thumb": "https://live.staticflickr.com/65535/48112411248_634e04dcc9_n.jpg",
    "id_album": "-15119147",
    "description": "Audi_683802",
    "title": "Audi_683802",
    "link_img": "https://live.staticflickr.com/65535/48112411248_bf9471a4f7_o.jpg",
    "id_image": "Audi_683802",
    "count_view": 0
  },
  {
    "link_thumb": "https://live.staticflickr.com/65535/48112370676_aab71915a7_n.jpg",
    "id_album": "-15119147",
    "description": "Audi_683803",
    "title": "Audi_683803",
    "link_img": "https://live.staticflickr.com/65535/48112370676_d8e793f88a_o.jpg",
    "id_image": "Audi_683803",
    "count_view": 0
  },
  {
    "link_thumb": "https://live.staticflickr.com/65535/48112475567_e83fdc582c_n.jpg",
    "id_album": "-15119147",
    "description": "Audi_683804",
    "title": "Audi_683804",
    "link_img": "https://live.staticflickr.com/65535/48112475567_f7f2d35c79_o.jpg",
    "id_image": "Audi_683804",
    "count_view": 0
  },
  {
    "link_thumb": "https://live.staticflickr.com/65535/48112370971_414a1a011f_n.jpg",
    "id_album": "-15119147",
    "description": "Audi_683805",
    "title": "Audi_683805",
    "link_img": "https://live.staticflickr.com/65535/48112370971_73eeaa72de_o.jpg",
    "id_image": "Audi_683805",
    "count_view": 0
  },
  {
    "link_thumb": "https://live.staticflickr.com/65535/48112411823_0236332db8_n.jpg",
    "id_album": "-15119147",
    "description": "Audi_683806",
    "title": "Audi_683806",
    "link_img": "https://live.staticflickr.com/65535/48112411823_0b17c2b704_o.jpg",
    "id_image": "Audi_683806",
    "count_view": 0
  },
  {
    "link_thumb": "https://live.staticflickr.com/65535/48112371231_71b84d79bd_n.jpg",
    "id_album": "-15119147",
    "description": "Audi_683807",
    "title": "Audi_683807",
    "link_img": "https://live.staticflickr.com/65535/48112371231_28932969eb_o.jpg",
    "id_image": "Audi_683807",
    "count_view": 0
  },
  {
    "link_thumb": "https://live.staticflickr.com/65535/48112775792_a4cb6b5de5_n.jpg",
    "id_album": "-15119147",
    "description": "Audi_683808",
    "title": "Audi_683808",
    "link_img": "https://live.staticflickr.com/65535/48112775792_05815b9951_o.jpg",
    "id_image": "Audi_683808",
    "count_view": 0
  },
  {
    "link_thumb": "https://live.staticflickr.com/65535/48112412233_de0a5cc5c1_n.jpg",
    "id_album": "-15119147",
    "description": "Audi_683809",
    "title": "Audi_683809",
    "link_img": "https://live.staticflickr.com/65535/48112412233_f96f009274_o.jpg",
    "id_image": "Audi_683809",
    "count_view": 0
  },
  {
    "link_thumb": "https://live.staticflickr.com/65535/48112412398_bcaae202be_n.jpg",
    "id_album": "-15119147",
    "description": "Audi_683810",
    "title": "Audi_683810",
    "link_img": "https://live.staticflickr.com/65535/48112412398_706aa48719_o.jpg",
    "id_image": "Audi_683810",
    "count_view": 0
  },
  {
    "link_thumb": "https://live.staticflickr.com/65535/48112371786_57ba264e0a_n.jpg",
    "id_album": "-15119147",
    "description": "Audi_683811",
    "title": "Audi_683811",
    "link_img": "https://live.staticflickr.com/65535/48112371786_b553a6bf51_o.jpg",
    "id_image": "Audi_683811",
    "count_view": 0
  },
  {
    "link_thumb": "https://live.staticflickr.com/65535/48112372161_1a3a772cfd_n.jpg",
    "id_album": "-15119147",
    "description": "Audi_683813",
    "title": "Audi_683813",
    "link_img": "https://live.staticflickr.com/65535/48112372161_b37066c319_o.jpg",
    "id_image": "Audi_683813",
    "count_view": 0
  },
  {
    "link_thumb": "https://live.staticflickr.com/65535/48112372911_7c410cdec7_n.jpg",
    "id_album": "-15119147",
    "description": "Audi_684749",
    "title": "Audi_684749",
    "link_img": "https://live.staticflickr.com/65535/48112372911_e139d37ebe_o.jpg",
    "id_image": "Audi_684749",
    "count_view": 0
  },
  {
    "link_thumb": "https://live.staticflickr.com/65535/48112373036_191b95b51f_n.jpg",
    "id_album": "-15119147",
    "description": "Audi_686309",
    "title": "Audi_686309",
    "link_img": "https://live.staticflickr.com/65535/48112373036_49576e01af_o.jpg",
    "id_image": "Audi_686309",
    "count_view": 0
  },
  {
    "link_thumb": "https://live.staticflickr.com/65535/48112477982_55fb15b4ec_n.jpg",
    "id_album": "-15119147",
    "description": "Audi_687239",
    "title": "Audi_687239",
    "link_img": "https://live.staticflickr.com/65535/48112477982_ba51acea6f_o.jpg",
    "id_image": "Audi_687239",
    "count_view": 0
  },
  {
    "link_thumb": "https://live.staticflickr.com/65535/48112373356_227670c126_n.jpg",
    "id_album": "-15119147",
    "description": "Audi_687505",
    "title": "Audi_687505",
    "link_img": "https://live.staticflickr.com/65535/48112373356_33e9d98015_o.jpg",
    "id_image": "Audi_687505",
    "count_view": 0
  },
  {
    "link_thumb": "https://live.staticflickr.com/65535/48112373536_c37ebd1c6b_n.jpg",
    "id_album": "-15119147",
    "description": "Audi_688291",
    "title": "Audi_688291",
    "link_img": "https://live.staticflickr.com/65535/48112373536_7c68544be6_o.jpg",
    "id_image": "Audi_688291",
    "count_view": 0
  },
  {
    "link_thumb": "https://live.staticflickr.com/65535/48112478492_a90ae4ece0_n.jpg",
    "id_album": "-15119147",
    "description": "Audi_688344",
    "title": "Audi_688344",
    "link_img": "https://live.staticflickr.com/65535/48112478492_dd2b1d7d95_o.jpg",
    "id_image": "Audi_688344",
    "count_view": 0
  },
  {
    "link_thumb": "https://live.staticflickr.com/65535/48112478612_f57f66fc7b_n.jpg",
    "id_album": "-15119147",
    "description": "Audi_693059",
    "title": "Audi_693059",
    "link_img": "https://live.staticflickr.com/65535/48112478612_edb6f58266_o.jpg",
    "id_image": "Audi_693059",
    "count_view": 0
  },
  {
    "link_thumb": "https://live.staticflickr.com/65535/48112478727_d9b47ea8f0_n.jpg",
    "id_album": "-15119147",
    "description": "Audi_694657",
    "title": "Audi_694657",
    "link_img": "https://live.staticflickr.com/65535/48112478727_56b2b3d29b_o.jpg",
    "id_image": "Audi_694657",
    "count_view": 0
  },
  {
    "link_thumb": "https://live.staticflickr.com/65535/48112478837_29405d6b50_n.jpg",
    "id_album": "-15119147",
    "description": "Audi_694662",
    "title": "Audi_694662",
    "link_img": "https://live.staticflickr.com/65535/48112478837_f862bec609_o.jpg",
    "id_image": "Audi_694662",
    "count_view": 0
  },
  {
    "link_thumb": "https://live.staticflickr.com/65535/48112414798_953778e810_n.jpg",
    "id_album": "-15119147",
    "description": "Audi_695095",
    "title": "Audi_695095",
    "link_img": "https://live.staticflickr.com/65535/48112414798_12ca57faac_o.jpg",
    "id_image": "Audi_695095",
    "count_view": 0
  },
  {
    "link_thumb": "https://live.staticflickr.com/65535/48112415028_0cdd7b9334_n.jpg",
    "id_album": "-15119147",
    "description": "Audi_695651",
    "title": "Audi_695651",
    "link_img": "https://live.staticflickr.com/65535/48112415028_d8d5472a9e_o.jpg",
    "id_image": "Audi_695651",
    "count_view": 0
  },
  {
    "link_thumb": "https://live.staticflickr.com/65535/48112415153_e5810a763e_n.jpg",
    "id_album": "-15119147",
    "description": "Audi_695735",
    "title": "Audi_695735",
    "link_img": "https://live.staticflickr.com/65535/48112415153_ee155bb430_o.jpg",
    "id_image": "Audi_695735",
    "count_view": 0
  },
  {
    "link_thumb": "https://live.staticflickr.com/65535/48112415268_39c2d385dd_n.jpg",
    "id_album": "-15119147",
    "description": "Audi_695750",
    "title": "Audi_695750",
    "link_img": "https://live.staticflickr.com/65535/48112415268_bac208f3d7_o.jpg",
    "id_image": "Audi_695750",
    "count_view": 0
  },
  {
    "link_thumb": "https://live.staticflickr.com/65535/48112415438_b7d7454b12_n.jpg",
    "id_album": "-15119147",
    "description": "Audi_695759",
    "title": "Audi_695759",
    "link_img": "https://live.staticflickr.com/65535/48112415438_480e766b0f_o.jpg",
    "id_image": "Audi_695759",
    "count_view": 0
  },
  {
    "link_thumb": "https://live.staticflickr.com/65535/48112479797_0c9d7251d7_n.jpg",
    "id_album": "-15119147",
    "description": "Audi_695761",
    "title": "Audi_695761",
    "link_img": "https://live.staticflickr.com/65535/48112479797_c54a32fcc9_o.jpg",
    "id_image": "Audi_695761",
    "count_view": 0
  },
  {
    "link_thumb": "https://live.staticflickr.com/65535/48112415763_31b44f53cc_n.jpg",
    "id_album": "-15119147",
    "description": "Audi_697526",
    "title": "Audi_697526",
    "link_img": "https://live.staticflickr.com/65535/48112415763_7400da6d9b_o.jpg",
    "id_image": "Audi_697526",
    "count_view": 0
  },
  {
    "link_thumb": "https://live.staticflickr.com/65535/48112375341_f2e0bca7c7_n.jpg",
    "id_album": "-15119147",
    "description": "Audi_697565",
    "title": "Audi_697565",
    "link_img": "https://live.staticflickr.com/65535/48112375341_06f2437f81_o.jpg",
    "id_image": "Audi_697565",
    "count_view": 0
  },
  {
    "link_thumb": "https://live.staticflickr.com/65535/48112480432_031d5cd34f_n.jpg",
    "id_album": "-15119147",
    "description": "Audi_698244",
    "title": "Audi_698244",
    "link_img": "https://live.staticflickr.com/65535/48112480432_5efb7a0453_o.jpg",
    "id_image": "Audi_698244",
    "count_view": 0
  },
  {
    "link_thumb": "https://live.staticflickr.com/65535/48112375766_cd353d0cc9_n.jpg",
    "id_album": "-15119147",
    "description": "Audi_698516",
    "title": "Audi_698516",
    "link_img": "https://live.staticflickr.com/65535/48112375766_57ab5b1a01_o.jpg",
    "id_image": "Audi_698516",
    "count_view": 0
  },
  {
    "link_thumb": "https://live.staticflickr.com/65535/48112480737_669e94c0a4_n.jpg",
    "id_album": "-15119147",
    "description": "Audi_698537",
    "title": "Audi_698537",
    "link_img": "https://live.staticflickr.com/65535/48112480737_928df59f3e_o.jpg",
    "id_image": "Audi_698537",
    "count_view": 0
  },
  {
    "link_thumb": "https://live.staticflickr.com/65535/48112480907_8b9f5c3781_n.jpg",
    "id_album": "-15119147",
    "description": "Audi_700632",
    "title": "Audi_700632",
    "link_img": "https://live.staticflickr.com/65535/48112480907_82da2cd51e_o.jpg",
    "id_image": "Audi_700632",
    "count_view": 0
  },
  {
    "link_thumb": "https://live.staticflickr.com/65535/48112481227_911848f250_n.jpg",
    "id_album": "-15119147",
    "description": "Audi_700633",
    "title": "Audi_700633",
    "link_img": "https://live.staticflickr.com/65535/48112481227_8401398aa3_o.jpg",
    "id_image": "Audi_700633",
    "count_view": 0
  },
  {
    "link_thumb": "https://live.staticflickr.com/65535/48112481477_675de4fa01_n.jpg",
    "id_album": "-15119147",
    "description": "Audi_700634",
    "title": "Audi_700634",
    "link_img": "https://live.staticflickr.com/65535/48112481477_f1d9ef94f2_o.jpg",
    "id_image": "Audi_700634",
    "count_view": 0
  },
  {
    "link_thumb": "https://live.staticflickr.com/65535/48112376776_362cab94dc_n.jpg",
    "id_album": "-15119147",
    "description": "Audi_702132",
    "title": "Audi_702132",
    "link_img": "https://live.staticflickr.com/65535/48112376776_8ec2788f52_o.jpg",
    "id_image": "Audi_702132",
    "count_view": 0
  },
  {
    "link_thumb": "https://live.staticflickr.com/65535/48112417563_fb05b7ef08_n.jpg",
    "id_album": "-15119147",
    "description": "Audi_707869",
    "title": "Audi_707869",
    "link_img": "https://live.staticflickr.com/65535/48112417563_499db5cd25_o.jpg",
    "id_image": "Audi_707869",
    "count_view": 0
  },
  {
    "link_thumb": "https://live.staticflickr.com/65535/48112481862_0cf6789246_n.jpg",
    "id_album": "-15119147",
    "description": "Audi_707882",
    "title": "Audi_707882",
    "link_img": "https://live.staticflickr.com/65535/48112481862_87462e8699_o.jpg",
    "id_image": "Audi_707882",
    "count_view": 0
  },
  {
    "link_thumb": "https://live.staticflickr.com/65535/48112482022_01dcac5ea6_n.jpg",
    "id_album": "-15119147",
    "description": "Audi_707883",
    "title": "Audi_707883",
    "link_img": "https://live.staticflickr.com/65535/48112482022_e26a94efc1_o.jpg",
    "id_image": "Audi_707883",
    "count_view": 0
  },
  {
    "link_thumb": "https://live.staticflickr.com/65535/48112377311_4074e623b1_n.jpg",
    "id_album": "-15119147",
    "description": "Audi_707900",
    "title": "Audi_707900",
    "link_img": "https://live.staticflickr.com/65535/48112377311_48ccf78ffe_o.jpg",
    "id_image": "Audi_707900",
    "count_view": 0
  },
  {
    "link_thumb": "https://live.staticflickr.com/65535/48112377416_ae6d0ae1fd_n.jpg",
    "id_album": "-15119147",
    "description": "Audi_708454",
    "title": "Audi_708454",
    "link_img": "https://live.staticflickr.com/65535/48112377416_b412479c23_o.jpg",
    "id_image": "Audi_708454",
    "count_view": 0
  },
  {
    "link_thumb": "https://live.staticflickr.com/65535/48112377536_3cfbdb1c0b_n.jpg",
    "id_album": "-15119147",
    "description": "Audi_709647",
    "title": "Audi_709647",
    "link_img": "https://live.staticflickr.com/65535/48112377536_f1e0fc7ea8_o.jpg",
    "id_image": "Audi_709647",
    "count_view": 0
  },
  {
    "link_thumb": "https://live.staticflickr.com/65535/48112482537_853f911992_n.jpg",
    "id_album": "-15119147",
    "description": "Audi_709736",
    "title": "Audi_709736",
    "link_img": "https://live.staticflickr.com/65535/48112482537_1e772ab9a7_o.jpg",
    "id_image": "Audi_709736",
    "count_view": 0
  },
  {
    "link_thumb": "https://live.staticflickr.com/65535/48112482832_9a07822a2b_n.jpg",
    "id_album": "-15119147",
    "description": "Audi_710389",
    "title": "Audi_710389",
    "link_img": "https://live.staticflickr.com/65535/48112482832_57006f0cc2_o.jpg",
    "id_image": "Audi_710389",
    "count_view": 0
  },
  {
    "link_thumb": "https://live.staticflickr.com/65535/48112419073_6a0ab54337_n.jpg",
    "id_album": "-15119147",
    "description": "Audi_710409",
    "title": "Audi_710409",
    "link_img": "https://live.staticflickr.com/65535/48112419073_f97fa8169f_o.jpg",
    "id_image": "Audi_710409",
    "count_view": 0
  },
  {
    "link_thumb": "https://live.staticflickr.com/65535/48112378411_2aee8e549c_n.jpg",
    "id_album": "-15119147",
    "description": "Audi_710411",
    "title": "Audi_710411",
    "link_img": "https://live.staticflickr.com/65535/48112378411_6fa1fccc80_o.jpg",
    "id_image": "Audi_710411",
    "count_view": 0
  },
  {
    "link_thumb": "https://live.staticflickr.com/65535/48112378536_e90359d3ce_n.jpg",
    "id_album": "-15119147",
    "description": "Audi_710495",
    "title": "Audi_710495",
    "link_img": "https://live.staticflickr.com/65535/48112378536_c477822a0d_o.jpg",
    "id_image": "Audi_710495",
    "count_view": 0
  },
  {
    "link_thumb": "https://live.staticflickr.com/65535/48112378736_817010c4e2_n.jpg",
    "id_album": "-15119147",
    "description": "Audi_711402",
    "title": "Audi_711402",
    "link_img": "https://live.staticflickr.com/65535/48112378736_283758eb3d_o.jpg",
    "id_image": "Audi_711402",
    "count_view": 0
  },
  {
    "link_thumb": "https://live.staticflickr.com/65535/48112419773_f5dc0aa53e_n.jpg",
    "id_album": "-15119147",
    "description": "Audi_711634",
    "title": "Audi_711634",
    "link_img": "https://live.staticflickr.com/65535/48112419773_314f5bc7d5_o.jpg",
    "id_image": "Audi_711634",
    "count_view": 0
  },
  {
    "link_thumb": "https://live.staticflickr.com/65535/48112379191_aab0777b29_n.jpg",
    "id_album": "-15119147",
    "description": "Audi_711851",
    "title": "Audi_711851",
    "link_img": "https://live.staticflickr.com/65535/48112379191_e67cd0dc78_o.jpg",
    "id_image": "Audi_711851",
    "count_view": 0
  },
  {
    "link_thumb": "https://live.staticflickr.com/65535/48112420323_a1125e6a1c_n.jpg",
    "id_album": "-15119147",
    "description": "Audi_712356",
    "title": "Audi_712356",
    "link_img": "https://live.staticflickr.com/65535/48112420323_a4e537b8c8_o.jpg",
    "id_image": "Audi_712356",
    "count_view": 0
  },
  {
    "link_thumb": "https://live.staticflickr.com/65535/48112420618_c276c9b573_n.jpg",
    "id_album": "-15119147",
    "description": "Audi_712359",
    "title": "Audi_712359",
    "link_img": "https://live.staticflickr.com/65535/48112420618_36d215e09b_o.jpg",
    "id_image": "Audi_712359",
    "count_view": 0
  },
  {
    "link_thumb": "https://live.staticflickr.com/65535/48112420888_4a37051fb5_n.jpg",
    "id_album": "-15119147",
    "description": "Audi_712380",
    "title": "Audi_712380",
    "link_img": "https://live.staticflickr.com/65535/48112420888_23a63e4d01_o.jpg",
    "id_image": "Audi_712380",
    "count_view": 0
  },
  {
    "link_thumb": "https://live.staticflickr.com/65535/48112484972_4a69fc46fd_n.jpg",
    "id_album": "-15119147",
    "description": "Audi_712649",
    "title": "Audi_712649",
    "link_img": "https://live.staticflickr.com/65535/48112484972_cfc1d63a9e_o.jpg",
    "id_image": "Audi_712649",
    "count_view": 0
  },
  {
    "link_thumb": "https://live.staticflickr.com/65535/48112421218_4ae770b6ec_n.jpg",
    "id_album": "-15119147",
    "description": "Audi_713356",
    "title": "Audi_713356",
    "link_img": "https://live.staticflickr.com/65535/48112421218_7ed5a16b0b_o.jpg",
    "id_image": "Audi_713356",
    "count_view": 0
  },
  {
    "link_thumb": "https://live.staticflickr.com/65535/48112485297_4e8685aa3f_n.jpg",
    "id_album": "-15119147",
    "description": "Audi_713360",
    "title": "Audi_713360",
    "link_img": "https://live.staticflickr.com/65535/48112485297_e9b93c306f_o.jpg",
    "id_image": "Audi_713360",
    "count_view": 0
  },
  {
    "link_thumb": "https://live.staticflickr.com/65535/48112421593_6bb13ba858_n.jpg",
    "id_album": "-15119147",
    "description": "Audi_713385",
    "title": "Audi_713385",
    "link_img": "https://live.staticflickr.com/65535/48112421593_95d48b493b_o.jpg",
    "id_image": "Audi_713385",
    "count_view": 0
  },
  {
    "link_thumb": "https://live.staticflickr.com/65535/48112380886_bb198ef244_n.jpg",
    "id_album": "-15119147",
    "description": "Audi_713388",
    "title": "Audi_713388",
    "link_img": "https://live.staticflickr.com/65535/48112380886_f41a8b8ce3_o.jpg",
    "id_image": "Audi_713388",
    "count_view": 0
  },
  {
    "link_thumb": "https://live.staticflickr.com/65535/48112381056_01e6cf13f2_n.jpg",
    "id_album": "-15119147",
    "description": "Audi_713655",
    "title": "Audi_713655",
    "link_img": "https://live.staticflickr.com/65535/48112381056_3fcda75fe3_o.jpg",
    "id_image": "Audi_713655",
    "count_view": 0
  },
  {
    "link_thumb": "https://live.staticflickr.com/65535/48112486202_796006cb85_n.jpg",
    "id_album": "-15119147",
    "description": "Audi_716384",
    "title": "Audi_716384",
    "link_img": "https://live.staticflickr.com/65535/48112486202_6d3f081884_o.jpg",
    "id_image": "Audi_716384",
    "count_view": 0
  },
  {
    "link_thumb": "https://live.staticflickr.com/65535/48112381316_f0369be21f_n.jpg",
    "id_album": "-15119147",
    "description": "Audi_716386",
    "title": "Audi_716386",
    "link_img": "https://live.staticflickr.com/65535/48112381316_5ff89b953c_o.jpg",
    "id_image": "Audi_716386",
    "count_view": 0
  },
  {
    "link_thumb": "https://live.staticflickr.com/65535/48112486762_8f642753a8_n.jpg",
    "id_album": "-15119147",
    "description": "Audi_716725",
    "title": "Audi_716725",
    "link_img": "https://live.staticflickr.com/65535/48112486762_030fc9380b_o.jpg",
    "id_image": "Audi_716725",
    "count_view": 0
  },
  {
    "link_thumb": "https://live.staticflickr.com/65535/48112486997_22dfe509e6_n.jpg",
    "id_album": "-15119147",
    "description": "Audi_716730",
    "title": "Audi_716730",
    "link_img": "https://live.staticflickr.com/65535/48112486997_8b10fda529_o.jpg",
    "id_image": "Audi_716730",
    "count_view": 0
  },
  {
    "link_thumb": "https://live.staticflickr.com/65535/48112423013_532f426696_n.jpg",
    "id_album": "-15119147",
    "description": "Audi_716731",
    "title": "Audi_716731",
    "link_img": "https://live.staticflickr.com/65535/48112423013_cfb59cc230_o.jpg",
    "id_image": "Audi_716731",
    "count_view": 0
  },
  {
    "link_thumb": "https://live.staticflickr.com/65535/48112382061_70ec5d630a_n.jpg",
    "id_album": "-15119147",
    "description": "Audi_716732",
    "title": "Audi_716732",
    "link_img": "https://live.staticflickr.com/65535/48112382061_582a6195d6_o.jpg",
    "id_image": "Audi_716732",
    "count_view": 0
  },
  {
    "link_thumb": "https://live.staticflickr.com/65535/48112382271_64354608d5_n.jpg",
    "id_album": "-15119147",
    "description": "Audi_716733",
    "title": "Audi_716733",
    "link_img": "https://live.staticflickr.com/65535/48112382271_12a825e8db_o.jpg",
    "id_image": "Audi_716733",
    "count_view": 0
  },
  {
    "link_thumb": "https://live.staticflickr.com/65535/48112423548_68b33a045b_n.jpg",
    "id_album": "-15119147",
    "description": "Audi_717024",
    "title": "Audi_717024",
    "link_img": "https://live.staticflickr.com/65535/48112423548_6f9efc0245_o.jpg",
    "id_image": "Audi_717024",
    "count_view": 0
  },
  {
    "link_thumb": "https://live.staticflickr.com/65535/48112487742_bd98df54c6_n.jpg",
    "id_album": "-15119147",
    "description": "Audi_717025",
    "title": "Audi_717025",
    "link_img": "https://live.staticflickr.com/65535/48112487742_5a501d14c6_o.jpg",
    "id_image": "Audi_717025",
    "count_view": 0
  },
  {
    "link_thumb": "https://live.staticflickr.com/65535/48112487887_fdb575f201_n.jpg",
    "id_album": "-15119147",
    "description": "Audi_717559",
    "title": "Audi_717559",
    "link_img": "https://live.staticflickr.com/65535/48112487887_42134c65f4_o.jpg",
    "id_image": "Audi_717559",
    "count_view": 0
  },
  {
    "link_thumb": "https://live.staticflickr.com/65535/48112488147_27ebbed9f0_n.jpg",
    "id_album": "-15119147",
    "description": "Audi_719365",
    "title": "Audi_719365",
    "link_img": "https://live.staticflickr.com/65535/48112488147_3ae11654eb_o.jpg",
    "id_image": "Audi_719365",
    "count_view": 0
  },
  {
    "link_thumb": "https://live.staticflickr.com/65535/48112383146_fc562c814d_n.jpg",
    "id_album": "-15119147",
    "description": "Audi_720339",
    "title": "Audi_720339",
    "link_img": "https://live.staticflickr.com/65535/48112383146_82a1077e8d_o.jpg",
    "id_image": "Audi_720339",
    "count_view": 0
  },
  {
    "link_thumb": "https://live.staticflickr.com/65535/48112424493_27fe43a9cf_n.jpg",
    "id_album": "-15119147",
    "description": "Audi_720340",
    "title": "Audi_720340",
    "link_img": "https://live.staticflickr.com/65535/48112424493_0c9ecee1a0_o.jpg",
    "id_image": "Audi_720340",
    "count_view": 0
  },
  {
    "link_thumb": "https://live.staticflickr.com/65535/48112424713_16acf63410_n.jpg",
    "id_album": "-15119147",
    "description": "Audi_720341",
    "title": "Audi_720341",
    "link_img": "https://live.staticflickr.com/65535/48112424713_4474dff053_o.jpg",
    "id_image": "Audi_720341",
    "count_view": 0
  },
  {
    "link_thumb": "https://live.staticflickr.com/65535/48112383616_a47479c698_n.jpg",
    "id_album": "-15119147",
    "description": "Audi_721580",
    "title": "Audi_721580",
    "link_img": "https://live.staticflickr.com/65535/48112383616_d67aa6fc04_o.jpg",
    "id_image": "Audi_721580",
    "count_view": 0
  },
  {
    "link_thumb": "https://live.staticflickr.com/65535/48112488817_4847e3840e_n.jpg",
    "id_album": "-15119147",
    "description": "Audi_722820",
    "title": "Audi_722820",
    "link_img": "https://live.staticflickr.com/65535/48112488817_362f1de343_o.jpg",
    "id_image": "Audi_722820",
    "count_view": 0
  },
  {
    "link_thumb": "https://live.staticflickr.com/65535/48112384051_aa0a1c03b6_n.jpg",
    "id_album": "-15119147",
    "description": "Audi_722821",
    "title": "Audi_722821",
    "link_img": "https://live.staticflickr.com/65535/48112384051_5856a280ce_o.jpg",
    "id_image": "Audi_722821",
    "count_view": 0
  },
  {
    "link_thumb": "https://live.staticflickr.com/65535/48112384261_3186718621_n.jpg",
    "id_album": "-15119147",
    "description": "Audi_722895",
    "title": "Audi_722895",
    "link_img": "https://live.staticflickr.com/65535/48112384261_669563c5ee_o.jpg",
    "id_image": "Audi_722895",
    "count_view": 0
  },
  {
    "link_thumb": "https://live.staticflickr.com/65535/48112489367_e5e4808bf9_n.jpg",
    "id_album": "-15119147",
    "description": "Audi_723435",
    "title": "Audi_723435",
    "link_img": "https://live.staticflickr.com/65535/48112489367_13efbeb402_o.jpg",
    "id_image": "Audi_723435",
    "count_view": 0
  },
  {
    "link_thumb": "https://live.staticflickr.com/65535/48112489662_978ec07e3b_n.jpg",
    "id_album": "-15119147",
    "description": "Audi_723848",
    "title": "Audi_723848",
    "link_img": "https://live.staticflickr.com/65535/48112489662_a9df10ed16_o.jpg",
    "id_image": "Audi_723848",
    "count_view": 0
  },
  {
    "link_thumb": "https://live.staticflickr.com/65535/48112385016_8d441d701f_n.jpg",
    "id_album": "-15119147",
    "description": "Audi_724527",
    "title": "Audi_724527",
    "link_img": "https://live.staticflickr.com/65535/48112385016_3772094e1a_o.jpg",
    "id_image": "Audi_724527",
    "count_view": 0
  },
  {
    "link_thumb": "https://live.staticflickr.com/65535/48112426178_74990bf97a_n.jpg",
    "id_album": "-15119147",
    "description": "Audi_724529",
    "title": "Audi_724529",
    "link_img": "https://live.staticflickr.com/65535/48112426178_b540e64847_o.jpg",
    "id_image": "Audi_724529",
    "count_view": 0
  },
  {
    "link_thumb": "https://live.staticflickr.com/65535/48112426378_30627e8ba3_n.jpg",
    "id_album": "-15119147",
    "description": "Audi_724546",
    "title": "Audi_724546",
    "link_img": "https://live.staticflickr.com/65535/48112426378_3d10ce3975_o.jpg",
    "id_image": "Audi_724546",
    "count_view": 0
  },
  {
    "link_thumb": "https://live.staticflickr.com/65535/48112490412_749d0ce9e4_n.jpg",
    "id_album": "-15119147",
    "description": "Audi_725291",
    "title": "Audi_725291",
    "link_img": "https://live.staticflickr.com/65535/48112490412_29530315fd_o.jpg",
    "id_image": "Audi_725291",
    "count_view": 0
  },
  {
    "link_thumb": "https://live.staticflickr.com/65535/48112385821_92cc92d7ee_n.jpg",
    "id_album": "-15119147",
    "description": "Audi_725682",
    "title": "Audi_725682",
    "link_img": "https://live.staticflickr.com/65535/48112385821_c6756bef5f_o.jpg",
    "id_image": "Audi_725682",
    "count_view": 0
  },
  {
    "link_thumb": "https://live.staticflickr.com/65535/48112490837_19df724426_n.jpg",
    "id_album": "-15119147",
    "description": "Audi_726161",
    "title": "Audi_726161",
    "link_img": "https://live.staticflickr.com/65535/48112490837_5c80b8ed66_o.jpg",
    "id_image": "Audi_726161",
    "count_view": 0
  },
  {
    "link_thumb": "https://live.staticflickr.com/65535/48112386161_28f6f02aa3_n.jpg",
    "id_album": "-15119147",
    "description": "Audi_726957",
    "title": "Audi_726957",
    "link_img": "https://live.staticflickr.com/65535/48112386161_3f4beec270_o.jpg",
    "id_image": "Audi_726957",
    "count_view": 0
  },
  {
    "link_thumb": "https://live.staticflickr.com/65535/48112491202_16f05fa3cf_n.jpg",
    "id_album": "-15119147",
    "description": "Audi_727106",
    "title": "Audi_727106",
    "link_img": "https://live.staticflickr.com/65535/48112491202_829176b34c_o.jpg",
    "id_image": "Audi_727106",
    "count_view": 0
  },
  {
    "link_thumb": "https://live.staticflickr.com/65535/48112427728_12780070ec_n.jpg",
    "id_album": "-15119147",
    "description": "Audi_739339",
    "title": "Audi_739339",
    "link_img": "https://live.staticflickr.com/65535/48112427728_321fcdf754_o.jpg",
    "id_image": "Audi_739339",
    "count_view": 0
  },
  {
    "link_thumb": "https://live.staticflickr.com/65535/48112491792_844de6eaf3_n.jpg",
    "id_album": "-15119147",
    "description": "Audi_743752",
    "title": "Audi_743752",
    "link_img": "https://live.staticflickr.com/65535/48112491792_1a8fab400e_o.jpg",
    "id_image": "Audi_743752",
    "count_view": 0
  },
  {
    "link_thumb": "https://live.staticflickr.com/65535/48112491977_1ba44e7fe6_n.jpg",
    "id_album": "-15119147",
    "description": "Audi_743753",
    "title": "Audi_743753",
    "link_img": "https://live.staticflickr.com/65535/48112491977_468d8a690c_o.jpg",
    "id_image": "Audi_743753",
    "count_view": 0
  },
  {
    "link_thumb": "https://live.staticflickr.com/65535/48112492117_38cc8c5222_n.jpg",
    "id_album": "-15119147",
    "description": "Audi_743754",
    "title": "Audi_743754",
    "link_img": "https://live.staticflickr.com/65535/48112492117_7171e26674_o.jpg",
    "id_image": "Audi_743754",
    "count_view": 0
  },
  {
    "link_thumb": "https://live.staticflickr.com/65535/48112387586_e097ffb632_n.jpg",
    "id_album": "-15119147",
    "description": "Audi_744013",
    "title": "Audi_744013",
    "link_img": "https://live.staticflickr.com/65535/48112387586_d0df68671d_o.jpg",
    "id_image": "Audi_744013",
    "count_view": 0
  },
  {
    "link_thumb": "https://live.staticflickr.com/65535/48112387741_a39f7f6aa5_n.jpg",
    "id_album": "-15119147",
    "description": "Audi_744014",
    "title": "Audi_744014",
    "link_img": "https://live.staticflickr.com/65535/48112387741_2167bfa35a_o.jpg",
    "id_image": "Audi_744014",
    "count_view": 0
  },
  {
    "link_thumb": "https://live.staticflickr.com/65535/48112387916_7dbc092956_n.jpg",
    "id_album": "-15119147",
    "description": "Audi_744015",
    "title": "Audi_744015",
    "link_img": "https://live.staticflickr.com/65535/48112387916_6c47f0175d_o.jpg",
    "id_image": "Audi_744015",
    "count_view": 0
  },
  {
    "link_thumb": "https://live.staticflickr.com/65535/48112388066_d63eef451a_n.jpg",
    "id_album": "-15119147",
    "description": "Audi_744412",
    "title": "Audi_744412",
    "link_img": "https://live.staticflickr.com/65535/48112388066_990bf49c35_o.jpg",
    "id_image": "Audi_744412",
    "count_view": 0
  },
  {
    "link_thumb": "https://live.staticflickr.com/65535/48112388246_4b4423cf7f_n.jpg",
    "id_album": "-15119147",
    "description": "Audi_745164",
    "title": "Audi_745164",
    "link_img": "https://live.staticflickr.com/65535/48112388246_da948fc595_o.jpg",
    "id_image": "Audi_745164",
    "count_view": 0
  },
  {
    "link_thumb": "https://live.staticflickr.com/65535/48112493212_4f7846c280_n.jpg",
    "id_album": "-15119147",
    "description": "Audi_745722",
    "title": "Audi_745722",
    "link_img": "https://live.staticflickr.com/65535/48112493212_3571a324c8_o.jpg",
    "id_image": "Audi_745722",
    "count_view": 0
  },
  {
    "link_thumb": "https://live.staticflickr.com/65535/48112493417_c7b16c880a_n.jpg",
    "id_album": "-15119147",
    "description": "Audi_747871",
    "title": "Audi_747871",
    "link_img": "https://live.staticflickr.com/65535/48112493417_c82cec729b_o.jpg",
    "id_image": "Audi_747871",
    "count_view": 0
  },
  {
    "link_thumb": "https://live.staticflickr.com/65535/48112429653_d5244dda62_n.jpg",
    "id_album": "-15119147",
    "description": "Audi_757251",
    "title": "Audi_757251",
    "link_img": "https://live.staticflickr.com/65535/48112429653_b48f60f1d8_o.jpg",
    "id_image": "Audi_757251",
    "count_view": 0
  },
  {
    "link_thumb": "https://live.staticflickr.com/65535/48112429798_9bcc4a9de1_n.jpg",
    "id_album": "-15119147",
    "description": "Audi_76919",
    "title": "Audi_76919",
    "link_img": "https://live.staticflickr.com/65535/48112429798_252146e4a9_o.jpg",
    "id_image": "Audi_76919",
    "count_view": 0
  },
  {
    "link_thumb": "https://live.staticflickr.com/65535/48112429933_8357c00547_n.jpg",
    "id_album": "-15119147",
    "description": "Audi_76921",
    "title": "Audi_76921",
    "link_img": "https://live.staticflickr.com/65535/48112429933_a0cff612a2_o.jpg",
    "id_image": "Audi_76921",
    "count_view": 0
  },
  {
    "link_thumb": "https://live.staticflickr.com/65535/48112390086_f7092126dc_n.jpg",
    "id_album": "-15119147",
    "description": "Audi_771386",
    "title": "Audi_771386",
    "link_img": "https://live.staticflickr.com/65535/48112390086_df9617aeab_o.jpg",
    "id_image": "Audi_771386",
    "count_view": 0
  },
  {
    "link_thumb": "https://live.staticflickr.com/65535/48112495082_6a0b9f0599_n.jpg",
    "id_album": "-15119147",
    "description": "Audi_774287",
    "title": "Audi_774287",
    "link_img": "https://live.staticflickr.com/65535/48112495082_c46c57cf8a_o.jpg",
    "id_image": "Audi_774287",
    "count_view": 0
  },
  {
    "link_thumb": "https://live.staticflickr.com/65535/48112390591_f678148f5e_n.jpg",
    "id_album": "-15119147",
    "description": "Audi_774997",
    "title": "Audi_774997",
    "link_img": "https://live.staticflickr.com/65535/48112390591_58a726b3db_o.jpg",
    "id_image": "Audi_774997",
    "count_view": 0
  },
  {
    "link_thumb": "https://live.staticflickr.com/65535/48112390881_e8d2738b96_n.jpg",
    "id_album": "-15119147",
    "description": "Audi_777877",
    "title": "Audi_777877",
    "link_img": "https://live.staticflickr.com/65535/48112390881_146b15f156_o.jpg",
    "id_image": "Audi_777877",
    "count_view": 0
  },
  {
    "link_thumb": "https://live.staticflickr.com/65535/48112495802_e7d3da4864_n.jpg",
    "id_album": "-15119147",
    "description": "Audi_777879",
    "title": "Audi_777879",
    "link_img": "https://live.staticflickr.com/65535/48112495802_ed55989e80_o.jpg",
    "id_image": "Audi_777879",
    "count_view": 0
  },
  {
    "link_thumb": "https://live.staticflickr.com/65535/48112432248_1cc5af3d67_n.jpg",
    "id_album": "-15119147",
    "description": "Audi_777880",
    "title": "Audi_777880",
    "link_img": "https://live.staticflickr.com/65535/48112432248_c9f405ee9c_o.jpg",
    "id_image": "Audi_777880",
    "count_view": 0
  },
  {
    "link_thumb": "https://live.staticflickr.com/65535/48112496557_5db1252000_n.jpg",
    "id_album": "-15119147",
    "description": "Audi_777882",
    "title": "Audi_777882",
    "link_img": "https://live.staticflickr.com/65535/48112496557_c8560bdbd6_o.jpg",
    "id_image": "Audi_777882",
    "count_view": 0
  },
  {
    "link_thumb": "https://live.staticflickr.com/65535/48112392171_a8edb8f629_n.jpg",
    "id_album": "-15119147",
    "description": "Audi_777888",
    "title": "Audi_777888",
    "link_img": "https://live.staticflickr.com/65535/48112392171_30b291b764_o.jpg",
    "id_image": "Audi_777888",
    "count_view": 0
  },
  {
    "link_thumb": "https://live.staticflickr.com/65535/48112432948_a382dbc71c_n.jpg",
    "id_album": "-15119147",
    "description": "Audi_777894",
    "title": "Audi_777894",
    "link_img": "https://live.staticflickr.com/65535/48112432948_e054f3c502_o.jpg",
    "id_image": "Audi_777894",
    "count_view": 0
  },
  {
    "link_thumb": "https://live.staticflickr.com/65535/48112433263_f03e280e96_n.jpg",
    "id_album": "-15119147",
    "description": "Audi_778164",
    "title": "Audi_778164",
    "link_img": "https://live.staticflickr.com/65535/48112433263_6ddeb3c00d_o.jpg",
    "id_image": "Audi_778164",
    "count_view": 0
  },
  {
    "link_thumb": "https://live.staticflickr.com/65535/48112497372_1f8cd0cbec_n.jpg",
    "id_album": "-15119147",
    "description": "Audi_778795",
    "title": "Audi_778795",
    "link_img": "https://live.staticflickr.com/65535/48112497372_ebc7da26d2_o.jpg",
    "id_image": "Audi_778795",
    "count_view": 0
  },
  {
    "link_thumb": "https://live.staticflickr.com/65535/48112497532_527639942d_n.jpg",
    "id_album": "-15119147",
    "description": "Audi_778796",
    "title": "Audi_778796",
    "link_img": "https://live.staticflickr.com/65535/48112497532_a3d32fab4e_o.jpg",
    "id_image": "Audi_778796",
    "count_view": 0
  },
  {
    "link_thumb": "https://live.staticflickr.com/65535/48112433648_e2c2f240ff_n.jpg",
    "id_album": "-15119147",
    "description": "Audi_778797",
    "title": "Audi_778797",
    "link_img": "https://live.staticflickr.com/65535/48112433648_a245b1ebf2_o.jpg",
    "id_image": "Audi_778797",
    "count_view": 0
  },
  {
    "link_thumb": "https://live.staticflickr.com/65535/48112433843_d94310c53f_n.jpg",
    "id_album": "-15119147",
    "description": "Audi_778798",
    "title": "Audi_778798",
    "link_img": "https://live.staticflickr.com/65535/48112433843_dab4e6572d_o.jpg",
    "id_image": "Audi_778798",
    "count_view": 0
  },
  {
    "link_thumb": "https://live.staticflickr.com/65535/48112498012_482f587074_n.jpg",
    "id_album": "-15119147",
    "description": "Audi_778799",
    "title": "Audi_778799",
    "link_img": "https://live.staticflickr.com/65535/48112498012_ccc34c58bc_o.jpg",
    "id_image": "Audi_778799",
    "count_view": 0
  },
  {
    "link_thumb": "https://live.staticflickr.com/65535/48112434253_8ceffab1af_n.jpg",
    "id_album": "-15119147",
    "description": "Audi_778828",
    "title": "Audi_778828",
    "link_img": "https://live.staticflickr.com/65535/48112434253_dbc2b267a4_o.jpg",
    "id_image": "Audi_778828",
    "count_view": 0
  },
  {
    "link_thumb": "https://live.staticflickr.com/65535/48112393876_dacac60765_n.jpg",
    "id_album": "-15119147",
    "description": "Audi_778829",
    "title": "Audi_778829",
    "link_img": "https://live.staticflickr.com/65535/48112393876_036c180c4b_o.jpg",
    "id_image": "Audi_778829",
    "count_view": 0
  },
  {
    "link_thumb": "https://live.staticflickr.com/65535/48112498697_754d537b6e_n.jpg",
    "id_album": "-15119147",
    "description": "Audi_778830",
    "title": "Audi_778830",
    "link_img": "https://live.staticflickr.com/65535/48112498697_3ebe940b9e_o.jpg",
    "id_image": "Audi_778830",
    "count_view": 0
  },
  {
    "link_thumb": "https://live.staticflickr.com/65535/48112394336_c7eccb8302_n.jpg",
    "id_album": "-15119147",
    "description": "Audi_778831",
    "title": "Audi_778831",
    "link_img": "https://live.staticflickr.com/65535/48112394336_b830514cfa_o.jpg",
    "id_image": "Audi_778831",
    "count_view": 0
  },
  {
    "link_thumb": "https://live.staticflickr.com/65535/48112499092_fe20dfb2d6_n.jpg",
    "id_album": "-15119147",
    "description": "Audi_780609",
    "title": "Audi_780609",
    "link_img": "https://live.staticflickr.com/65535/48112499092_79f090c464_o.jpg",
    "id_image": "Audi_780609",
    "count_view": 0
  },
  {
    "link_thumb": "https://live.staticflickr.com/65535/48112499242_705b70b6bb_n.jpg",
    "id_album": "-15119147",
    "description": "Audi_784897",
    "title": "Audi_784897",
    "link_img": "https://live.staticflickr.com/65535/48112499242_d160c96db0_o.jpg",
    "id_image": "Audi_784897",
    "count_view": 0
  },
  {
    "link_thumb": "https://live.staticflickr.com/65535/48112394866_f3116eff1f_n.jpg",
    "id_album": "-15119147",
    "description": "Audi_795470",
    "title": "Audi_795470",
    "link_img": "https://live.staticflickr.com/65535/48112394866_f1171bc27e_o.jpg",
    "id_image": "Audi_795470",
    "count_view": 0
  },
  {
    "link_thumb": "https://live.staticflickr.com/65535/48112499672_eccda409cd_n.jpg",
    "id_album": "-15119147",
    "description": "Audi_796187",
    "title": "Audi_796187",
    "link_img": "https://live.staticflickr.com/65535/48112499672_cd9c01be90_o.jpg",
    "id_image": "Audi_796187",
    "count_view": 0
  },
  {
    "link_thumb": "https://live.staticflickr.com/65535/48112435938_0cbbd4bc21_n.jpg",
    "id_album": "-15119147",
    "description": "Audi_796942",
    "title": "Audi_796942",
    "link_img": "https://live.staticflickr.com/65535/48112435938_6d383c070d_o.jpg",
    "id_image": "Audi_796942",
    "count_view": 0
  },
  {
    "link_thumb": "https://live.staticflickr.com/65535/48112436178_12088dc052_n.jpg",
    "id_album": "-15119147",
    "description": "Audi_797501",
    "title": "Audi_797501",
    "link_img": "https://live.staticflickr.com/65535/48112436178_b7d8ae1de2_o.jpg",
    "id_image": "Audi_797501",
    "count_view": 0
  },
  {
    "link_thumb": "https://live.staticflickr.com/65535/48112436483_aa626f4f36_n.jpg",
    "id_album": "-15119147",
    "description": "Audi_797503",
    "title": "Audi_797503",
    "link_img": "https://live.staticflickr.com/65535/48112436483_07ce990788_o.jpg",
    "id_image": "Audi_797503",
    "count_view": 0
  },
  {
    "link_thumb": "https://live.staticflickr.com/65535/48112436678_61b120e5ef_n.jpg",
    "id_album": "-15119147",
    "description": "Audi_797504",
    "title": "Audi_797504",
    "link_img": "https://live.staticflickr.com/65535/48112436678_b57fefc426_o.jpg",
    "id_image": "Audi_797504",
    "count_view": 0
  },
  {
    "link_thumb": "https://live.staticflickr.com/65535/48112500732_7f1f4d5ebd_n.jpg",
    "id_album": "-15119147",
    "description": "Audi_798351",
    "title": "Audi_798351",
    "link_img": "https://live.staticflickr.com/65535/48112500732_a3fea7982a_o.jpg",
    "id_image": "Audi_798351",
    "count_view": 0
  },
  {
    "link_thumb": "https://live.staticflickr.com/65535/48112436978_c84a051f40_n.jpg",
    "id_album": "-15119147",
    "description": "Audi_799182",
    "title": "Audi_799182",
    "link_img": "https://live.staticflickr.com/65535/48112436978_3966384a76_o.jpg",
    "id_image": "Audi_799182",
    "count_view": 0
  },
  {
    "link_thumb": "https://live.staticflickr.com/65535/48112501042_7d7952503a_n.jpg",
    "id_album": "-15119147",
    "description": "Audi_800808",
    "title": "Audi_800808",
    "link_img": "https://live.staticflickr.com/65535/48112501042_9d8988a9e1_o.jpg",
    "id_image": "Audi_800808",
    "count_view": 0
  },
  {
    "link_thumb": "https://live.staticflickr.com/65535/48112396791_4d33820b89_n.jpg",
    "id_album": "-15119147",
    "description": "Audi_801697",
    "title": "Audi_801697",
    "link_img": "https://live.staticflickr.com/65535/48112396791_22ccbb31b5_o.jpg",
    "id_image": "Audi_801697",
    "count_view": 0
  },
  {
    "link_thumb": "https://live.staticflickr.com/65535/48112501292_031d60e4e1_n.jpg",
    "id_album": "-15119147",
    "description": "Audi_80311",
    "title": "Audi_80311",
    "link_img": "https://live.staticflickr.com/65535/48112501292_1f3977b7b5_o.jpg",
    "id_image": "Audi_80311",
    "count_view": 0
  },
  {
    "link_thumb": "https://live.staticflickr.com/65535/48112437498_f719ccd6ee_n.jpg",
    "id_album": "-15119147",
    "description": "Audi_805448",
    "title": "Audi_805448",
    "link_img": "https://live.staticflickr.com/65535/48112437498_10953f8a0b_o.jpg",
    "id_image": "Audi_805448",
    "count_view": 0
  },
  {
    "link_thumb": "https://live.staticflickr.com/65535/48112501792_c75c848508_n.jpg",
    "id_album": "-15119147",
    "description": "Audi_805449",
    "title": "Audi_805449",
    "link_img": "https://live.staticflickr.com/65535/48112501792_9c6e6f465d_o.jpg",
    "id_image": "Audi_805449",
    "count_view": 0
  },
  {
    "link_thumb": "https://live.staticflickr.com/65535/48112397626_c632e5f493_n.jpg",
    "id_album": "-15119147",
    "description": "Audi_805450",
    "title": "Audi_805450",
    "link_img": "https://live.staticflickr.com/65535/48112397626_9afd92d346_o.jpg",
    "id_image": "Audi_805450",
    "count_view": 0
  },
  {
    "link_thumb": "https://live.staticflickr.com/65535/48112438203_5e222c9ba8_n.jpg",
    "id_album": "-15119147",
    "description": "Audi_805451",
    "title": "Audi_805451",
    "link_img": "https://live.staticflickr.com/65535/48112438203_5e72c7c86f_o.jpg",
    "id_image": "Audi_805451",
    "count_view": 0
  },
  {
    "link_thumb": "https://live.staticflickr.com/65535/48112438333_ff403dc01b_n.jpg",
    "id_album": "-15119147",
    "description": "Audi_805452",
    "title": "Audi_805452",
    "link_img": "https://live.staticflickr.com/65535/48112438333_77f71c9e9e_o.jpg",
    "id_image": "Audi_805452",
    "count_view": 0
  },
  {
    "link_thumb": "https://live.staticflickr.com/65535/48112502477_2c6d8f551a_n.jpg",
    "id_album": "-15119147",
    "description": "Audi_805453",
    "title": "Audi_805453",
    "link_img": "https://live.staticflickr.com/65535/48112502477_7b84ce9dfb_o.jpg",
    "id_image": "Audi_805453",
    "count_view": 0
  },
  {
    "link_thumb": "https://live.staticflickr.com/65535/48112502602_fe40d7e789_n.jpg",
    "id_album": "-15119147",
    "description": "Audi_805454",
    "title": "Audi_805454",
    "link_img": "https://live.staticflickr.com/65535/48112502602_66b1d60044_o.jpg",
    "id_image": "Audi_805454",
    "count_view": 0
  },
  {
    "link_thumb": "https://live.staticflickr.com/65535/48112398401_1af4fdc896_n.jpg",
    "id_album": "-15119147",
    "description": "Audi_805455",
    "title": "Audi_805455",
    "link_img": "https://live.staticflickr.com/65535/48112398401_cf089be250_o.jpg",
    "id_image": "Audi_805455",
    "count_view": 0
  },
  {
    "link_thumb": "https://live.staticflickr.com/65535/48112398956_c3309119c8_n.jpg",
    "id_album": "-15119147",
    "description": "Audi_808101",
    "title": "Audi_808101",
    "link_img": "https://live.staticflickr.com/65535/48112398956_3ee33e72cc_o.jpg",
    "id_image": "Audi_808101",
    "count_view": 0
  },
  {
    "link_thumb": "https://live.staticflickr.com/65535/48112399121_1cfd49165d_n.jpg",
    "id_album": "-15119147",
    "description": "Audi_809620",
    "title": "Audi_809620",
    "link_img": "https://live.staticflickr.com/65535/48112399121_aa2feb0393_o.jpg",
    "id_image": "Audi_809620",
    "count_view": 0
  }
]