[
  {
    "total_img": 0,
    "number_page": 0,
    "title": "Mitsubishi Concepts",
    "tag": "Mitsubishi Concepts,",
    "description": "Mitsubishi Concepts",
    "link_thumb": "https://live.staticflickr.com/65535/49890454348_1574f6799e_n.jpg",
    "id_album": "-1072712416",
    "total_view": 16
  }
]