[
  {
    "total_img": 0,
    "number_page": 0,
    "title": "Hyundai Genesis",
    "tag": "Hyundai Genesis,",
    "description": "Hyundai Genesis",
    "link_thumb": "https://live.staticflickr.com/65535/49889418733_1667876d23_n.jpg",
    "id_album": "1127325547",
    "total_view": 37
  }
]