[
  {
    "total_img": 0,
    "number_page": 0,
    "title": "Citroen C5",
    "tag": "Citroen C5,",
    "description": "Citroen C5",
    "link_thumb": "https://live.staticflickr.com/65535/49889314021_cc6c198aea_n.jpg",
    "id_album": "-530411100",
    "total_view": 3
  }
]