[
  {
    "total_img": 0,
    "number_page": 0,
    "title": "Maserati 3200 GT",
    "tag": "Maserati 3200 GT,",
    "description": "Maserati 3200 GT",
    "link_thumb": "https://live.staticflickr.com/65535/49890404541_90ccf6d1f8_n.jpg",
    "id_album": "692514043",
    "total_view": 5
  }
]