[
  {
    "link_thumb": "https://live.staticflickr.com/65535/48122464553_1b401c0659_n.jpg",
    "id_album": "422322641",
    "description": "Subaru_437321",
    "title": "Subaru_437321",
    "link_img": "https://live.staticflickr.com/65535/48122464553_b39aff02fd_o.jpg",
    "id_image": "Subaru_437321",
    "count_view": 0
  },
  {
    "link_thumb": "https://live.staticflickr.com/65535/49891676027_1bd0126669_n.jpg",
    "id_album": "1817637578",
    "description": "1981_rv_Porsche_rv_924_rv_Carrera_rv_GTS_rv_V2_rv_1600",
    "title": "1981_rv_Porsche_rv_924_rv_Carrera_rv_GTS_rv_V2_rv_1600",
    "link_img": "https://live.staticflickr.com/65535/49891676027_242989ed23_o.jpg",
    "id_image": "1981_rv_Porsche_rv_924_rv_Carrera_rv_GTS_rv_V2_rv_1600",
    "count_view": 0
  },
  {
    "link_thumb": "https://live.staticflickr.com/65535/48122642992_ac67a7dca2_n.jpg",
    "id_album": "1645818674",
    "description": "Suzuki_825129",
    "title": "Suzuki_825129",
    "link_img": "https://live.staticflickr.com/65535/48122642992_f6e5a8cfd4_o.jpg",
    "id_image": "Suzuki_825129",
    "count_view": 0
  },
  {
    "link_thumb": "https://live.staticflickr.com/65535/48120611497_a98224051c_n.jpg",
    "id_album": "810634050",
    "description": "Nissan_563032",
    "title": "Nissan_563032",
    "link_img": "https://live.staticflickr.com/65535/48120611497_4e9db9ced6_o.jpg",
    "id_image": "Nissan_563032",
    "count_view": 0
  },
  {
    "link_thumb": "https://live.staticflickr.com/65535/48121007168_4155135057_n.jpg",
    "id_album": "-1123679742",
    "description": "Plymouth_240914",
    "title": "Plymouth_240914",
    "link_img": "https://live.staticflickr.com/65535/48121007168_ec78f134fb_o.jpg",
    "id_image": "Plymouth_240914",
    "count_view": 0
  },
  {
    "link_thumb": "https://live.staticflickr.com/65535/49890691727_6e40a12711_n.jpg",
    "id_album": "-843792943",
    "description": "2009_rv_Lotus_rv_Exige_rv_Cup_rv_260_rv_V3_rv_1440",
    "title": "2009_rv_Lotus_rv_Exige_rv_Cup_rv_260_rv_V3_rv_1440",
    "link_img": "https://live.staticflickr.com/65535/49890691727_4b3c9c2a47_o.jpg",
    "id_image": "2009_rv_Lotus_rv_Exige_rv_Cup_rv_260_rv_V3_rv_1440",
    "count_view": 0
  },
  {
    "link_thumb": "https://live.staticflickr.com/65535/48120166693_ef20421d5e_n.jpg",
    "id_album": "666438681",
    "description": "Motorcycles_180199",
    "title": "Motorcycles_180199",
    "link_img": "https://live.staticflickr.com/65535/48120166693_5a0e24e750_o.jpg",
    "id_image": "Motorcycles_180199",
    "count_view": 0
  },
  {
    "link_thumb": "https://live.staticflickr.com/65535/49892573962_acd4a10bf5_n.jpg",
    "id_album": "-924016578",
    "description": "2006_rv_Renault_rv_Megane_rv_RS_rv_F1_rv_Team_rv_V1_rv_1536",
    "title": "2006_rv_Renault_rv_Megane_rv_RS_rv_F1_rv_Team_rv_V1_rv_1536",
    "link_img": "https://live.staticflickr.com/65535/49892573962_ffa4ff569d_o.jpg",
    "id_image": "2006_rv_Renault_rv_Megane_rv_RS_rv_F1_rv_Team_rv_V1_rv_1536",
    "count_view": 0
  },
  {
    "link_thumb": "https://live.staticflickr.com/65535/49891947403_9d1832f8ab_n.jpg",
    "id_album": "-91950429",
    "description": "2008_rv_Subaru_rv_Impreza_rv_WRX_rv_STI_rv_V3_rv_1440",
    "title": "2008_rv_Subaru_rv_Impreza_rv_WRX_rv_STI_rv_V3_rv_1440",
    "link_img": "https://live.staticflickr.com/65535/49891947403_13dce32dfe_o.jpg",
    "id_image": "2008_rv_Subaru_rv_Impreza_rv_WRX_rv_STI_rv_V3_rv_1440",
    "count_view": 0
  },
  {
    "link_thumb": "https://live.staticflickr.com/65535/49889689932_de4fc0c5e0_n.jpg",
    "id_album": "1502066965",
    "description": "2006_rv_Formula1_rv_Honda_rv_RA106_rv_V1_rv_1200",
    "title": "2006_rv_Formula1_rv_Honda_rv_RA106_rv_V1_rv_1200",
    "link_img": "https://live.staticflickr.com/65535/49889689932_303d3632bd_o.jpg",
    "id_image": "2006_rv_Formula1_rv_Honda_rv_RA106_rv_V1_rv_1200",
    "count_view": 0
  },
  {
    "link_thumb": "https://live.staticflickr.com/65535/49892696377_9c26de1fde_n.jpg",
    "id_album": "-189032193",
    "description": "2003_rv_Skoda_rv_Octavia_rv_RS_rv_Combi_rv_V5_rv_1536",
    "title": "2003_rv_Skoda_rv_Octavia_rv_RS_rv_Combi_rv_V5_rv_1536",
    "link_img": "https://live.staticflickr.com/65535/49892696377_e929ceb1ec_o.jpg",
    "id_image": "2003_rv_Skoda_rv_Octavia_rv_RS_rv_Combi_rv_V5_rv_1536",
    "count_view": 0
  },
  {
    "link_thumb": "https://live.staticflickr.com/65535/49889417696_d18a1c0fc9_n.jpg",
    "id_album": "-1219799180",
    "description": "2015_rv_BMW_rv_M3_rv_Sedan_rv_V2_rv_1600",
    "title": "2015_rv_BMW_rv_M3_rv_Sedan_rv_V2_rv_1600",
    "link_img": "https://live.staticflickr.com/65535/49889417696_28edd8dd16_o.jpg",
    "id_image": "2015_rv_BMW_rv_M3_rv_Sedan_rv_V2_rv_1600",
    "count_view": 0
  },
  {
    "link_thumb": "https://live.staticflickr.com/65535/48115948773_03027daf14_n.jpg",
    "id_album": "1364506720",
    "description": "Ferrari_379200",
    "title": "Ferrari_379200",
    "link_img": "https://live.staticflickr.com/65535/48115948773_0551152624_o.jpg",
    "id_image": "Ferrari_379200",
    "count_view": 0
  },
  {
    "link_thumb": "https://live.staticflickr.com/65535/48116865927_ac4bf8fd19_n.jpg",
    "id_album": "-1846404630",
    "description": "Ford_222740",
    "title": "Ford_222740",
    "link_img": "https://live.staticflickr.com/65535/48116865927_6c766381f9_o.jpg",
    "id_image": "Ford_222740",
    "count_view": 0
  },
  {
    "link_thumb": "https://live.staticflickr.com/65535/48119186727_334b3e4250_n.jpg",
    "id_album": "697984456",
    "description": "Maserati_450622",
    "title": "Maserati_450622",
    "link_img": "https://live.staticflickr.com/65535/48119186727_51f3a973e2_o.jpg",
    "id_image": "Maserati_450622",
    "count_view": 0
  },
  {
    "link_thumb": "https://live.staticflickr.com/65535/49891473737_9572af4b37_n.jpg",
    "id_album": "-1746133601",
    "description": "2019_rv_Novitec_rv_Ferrari_rv_Portofino_rv_V5_rv_2160",
    "title": "2019_rv_Novitec_rv_Ferrari_rv_Portofino_rv_V5_rv_2160",
    "link_img": "https://live.staticflickr.com/65535/49891473737_3ae3442d92_o.jpg",
    "id_image": "2019_rv_Novitec_rv_Ferrari_rv_Portofino_rv_V5_rv_2160",
    "count_view": 0
  },
  {
    "link_thumb": "https://live.staticflickr.com/65535/48113790022_9f4af7239e_n.jpg",
    "id_album": "-1721545051",
    "description": "Chevrolet_163900",
    "title": "Chevrolet_163900",
    "link_img": "https://live.staticflickr.com/65535/48113790022_d5c1bef0f0_o.jpg",
    "id_image": "Chevrolet_163900",
    "count_view": 0
  },
  {
    "link_thumb": "https://live.staticflickr.com/65535/48112909717_f617a29346_n.jpg",
    "id_album": "727633301",
    "description": "BMW_468281",
    "title": "BMW_468281",
    "link_img": "https://live.staticflickr.com/65535/48112909717_7e58de6331_o.jpg",
    "id_image": "BMW_468281",
    "count_view": 0
  },
  {
    "link_thumb": "https://live.staticflickr.com/65535/49890765187_16e27c466c_n.jpg",
    "id_album": "-2050288521",
    "description": "1990_rv_Mazda_rv_Eunos_rv_Cosmo_rv_V1_rv_1536",
    "title": "1990_rv_Mazda_rv_Eunos_rv_Cosmo_rv_V1_rv_1536",
    "link_img": "https://live.staticflickr.com/65535/49890765187_0624753c9e_o.jpg",
    "id_image": "1990_rv_Mazda_rv_Eunos_rv_Cosmo_rv_V1_rv_1536",
    "count_view": 0
  },
  {
    "link_thumb": "https://live.staticflickr.com/65535/49889854638_baab286578_n.jpg",
    "id_album": "-391278537",
    "description": "2012_rv_Lotus_rv_Evora_rv_GTE_rv_V1_rv_1440",
    "title": "2012_rv_Lotus_rv_Evora_rv_GTE_rv_V1_rv_1440",
    "link_img": "https://live.staticflickr.com/65535/49889854638_2140a58688_o.jpg",
    "id_image": "2012_rv_Lotus_rv_Evora_rv_GTE_rv_V1_rv_1440",
    "count_view": 0
  },
  {
    "link_thumb": "https://live.staticflickr.com/65535/48120425826_6102855b06_n.jpg",
    "id_album": "810634050",
    "description": "Nissan_450382",
    "title": "Nissan_450382",
    "link_img": "https://live.staticflickr.com/65535/48120425826_aa17287fa8_o.jpg",
    "id_image": "Nissan_450382",
    "count_view": 0
  },
  {
    "link_thumb": "https://live.staticflickr.com/65535/48115236022_e9560a6b57_n.jpg",
    "id_album": "413141323",
    "description": "Dodge_274347",
    "title": "Dodge_274347",
    "link_img": "https://live.staticflickr.com/65535/48115236022_5057063252_o.jpg",
    "id_image": "Dodge_274347",
    "count_view": 0
  },
  {
    "link_thumb": "https://live.staticflickr.com/65535/48118470376_8a4f671b09_n.jpg",
    "id_album": "-2100339805",
    "description": "Lamborghini_449985",
    "title": "Lamborghini_449985",
    "link_img": "https://live.staticflickr.com/65535/48118470376_fb43bcfc43_o.jpg",
    "id_image": "Lamborghini_449985",
    "count_view": 0
  },
  {
    "link_thumb": "https://live.staticflickr.com/65535/48114452548_2b4f15e10d_n.jpg",
    "id_album": "-1721545051",
    "description": "Chevrolet_611461",
    "title": "Chevrolet_611461",
    "link_img": "https://live.staticflickr.com/65535/48114452548_85be2c8e0c_o.jpg",
    "id_image": "Chevrolet_611461",
    "count_view": 0
  },
  {
    "link_thumb": "https://live.staticflickr.com/65535/48115511383_a03aef4988_n.jpg",
    "id_album": "413141323",
    "description": "Dodge_759653",
    "title": "Dodge_759653",
    "link_img": "https://live.staticflickr.com/65535/48115511383_e72cb911aa_o.jpg",
    "id_image": "Dodge_759653",
    "count_view": 0
  },
  {
    "link_thumb": "https://live.staticflickr.com/65535/49889163933_6f0cbc5f6b_n.jpg",
    "id_album": "-1221805240",
    "description": "2013_rv_Ford_rv_Mustang_rv_Boss_rv_302_rv_V2_rv_1440",
    "title": "2013_rv_Ford_rv_Mustang_rv_Boss_rv_302_rv_V2_rv_1440",
    "link_img": "https://live.staticflickr.com/65535/49889163933_f5ee9342a7_o.jpg",
    "id_image": "2013_rv_Ford_rv_Mustang_rv_Boss_rv_302_rv_V2_rv_1440",
    "count_view": 0
  },
  {
    "link_thumb": "https://live.staticflickr.com/65535/48112069752_79db59e35e_n.jpg",
    "id_album": "1906325017",
    "description": "Infiniti_449802",
    "title": "Infiniti_449802",
    "link_img": "https://live.staticflickr.com/65535/48112069752_1de106e2cb_o.jpg",
    "id_image": "Infiniti_449802",
    "count_view": 0
  },
  {
    "link_thumb": "https://live.staticflickr.com/65535/48115155883_5b5a89e885_n.jpg",
    "id_album": "413141323",
    "description": "Dodge_255049",
    "title": "Dodge_255049",
    "link_img": "https://live.staticflickr.com/65535/48115155883_edde75d593_o.jpg",
    "id_image": "Dodge_255049",
    "count_view": 0
  },
  {
    "link_thumb": "https://live.staticflickr.com/65535/48114766548_33e41dda42_n.jpg",
    "id_album": "939606447",
    "description": "Chrysler_190730",
    "title": "Chrysler_190730",
    "link_img": "https://live.staticflickr.com/65535/48114766548_74dbe549a7_o.jpg",
    "id_image": "Chrysler_190730",
    "count_view": 0
  },
  {
    "link_thumb": "https://live.staticflickr.com/65535/48117829281_7543581a7e_n.jpg",
    "id_album": "-354267407",
    "description": "Honda_631562",
    "title": "Honda_631562",
    "link_img": "https://live.staticflickr.com/65535/48117829281_abbabe44bd_o.jpg",
    "id_image": "Honda_631562",
    "count_view": 0
  },
  {
    "link_thumb": "https://live.staticflickr.com/65535/48120845268_421d2367a8_n.jpg",
    "id_album": "1952909762",
    "description": "Packard_928418",
    "title": "Packard_928418",
    "link_img": "https://live.staticflickr.com/65535/48120845268_ed7facbb7a_o.jpg",
    "id_image": "Packard_928418",
    "count_view": 0
  },
  {
    "link_thumb": "https://live.staticflickr.com/65535/48118250893_f4fbbef0aa_n.jpg",
    "id_album": "1911063798",
    "description": "Koenigsegg_911475",
    "title": "Koenigsegg_911475",
    "link_img": "https://live.staticflickr.com/65535/48118250893_89af45e78e_o.jpg",
    "id_image": "Koenigsegg_911475",
    "count_view": 0
  },
  {
    "link_thumb": "https://live.staticflickr.com/65535/48115740557_f97ae427b5_n.jpg",
    "id_album": "1364506720",
    "description": "Ferrari_209319",
    "title": "Ferrari_209319",
    "link_img": "https://live.staticflickr.com/65535/48115740557_b8e8df4ca9_o.jpg",
    "id_image": "Ferrari_209319",
    "count_view": 0
  },
  {
    "link_thumb": "https://live.staticflickr.com/65535/48116652181_4a0e311f35_n.jpg",
    "id_album": "-1846404630",
    "description": "Ford_174926",
    "title": "Ford_174926",
    "link_img": "https://live.staticflickr.com/65535/48116652181_29c181032c_o.jpg",
    "id_image": "Ford_174926",
    "count_view": 0
  },
  {
    "link_thumb": "https://live.staticflickr.com/65535/49889236321_98d8eb8805_n.jpg",
    "id_album": "-843466787",
    "description": "1959_rv_Chevrolet_rv_Corvette_rv_by_rv_Pogea_rv_Racing_rv_V3_rv_1440",
    "title": "1959_rv_Chevrolet_rv_Corvette_rv_by_rv_Pogea_rv_Racing_rv_V3_rv_1440",
    "link_img": "https://live.staticflickr.com/65535/49889236321_77b1df700b_o.jpg",
    "id_image": "1959_rv_Chevrolet_rv_Corvette_rv_by_rv_Pogea_rv_Racing_rv_V3_rv_1440",
    "count_view": 0
  },
  {
    "link_thumb": "https://live.staticflickr.com/65535/48112417563_fb05b7ef08_n.jpg",
    "id_album": "-15119147",
    "description": "Audi_707869",
    "title": "Audi_707869",
    "link_img": "https://live.staticflickr.com/65535/48112417563_499db5cd25_o.jpg",
    "id_image": "Audi_707869",
    "count_view": 0
  },
  {
    "link_thumb": "https://live.staticflickr.com/65535/48111706901_02db2c3c5c_n.jpg",
    "id_album": "1906325017",
    "description": "Infiniti_152985",
    "title": "Infiniti_152985",
    "link_img": "https://live.staticflickr.com/65535/48111706901_8a82ac09ec_o.jpg",
    "id_image": "Infiniti_152985",
    "count_view": 0
  },
  {
    "link_thumb": "https://live.staticflickr.com/65535/48115061351_3d6ab176c8_n.jpg",
    "id_album": "413141323",
    "description": "Dodge_219616",
    "title": "Dodge_219616",
    "link_img": "https://live.staticflickr.com/65535/48115061351_a963ec7bfa_o.jpg",
    "id_image": "Dodge_219616",
    "count_view": 0
  },
  {
    "link_thumb": "https://live.staticflickr.com/65535/48114791668_98e4a956e2_n.jpg",
    "id_album": "939606447",
    "description": "Chrysler_420673",
    "title": "Chrysler_420673",
    "link_img": "https://live.staticflickr.com/65535/48114791668_0bf711e423_o.jpg",
    "id_image": "Chrysler_420673",
    "count_view": 0
  },
  {
    "link_thumb": "https://live.staticflickr.com/65535/48123148777_a8b6b9662d_n.jpg",
    "id_album": "-150952028",
    "description": "Volkswagen_918825",
    "title": "Volkswagen_918825",
    "link_img": "https://live.staticflickr.com/65535/48123148777_c6ab7916bc_o.jpg",
    "id_image": "Volkswagen_918825",
    "count_view": 0
  },
  {
    "link_thumb": "https://live.staticflickr.com/65535/48115387203_52fcd5a51f_n.jpg",
    "id_album": "413141323",
    "description": "Dodge_504578",
    "title": "Dodge_504578",
    "link_img": "https://live.staticflickr.com/65535/48115387203_48cc4c857a_o.jpg",
    "id_image": "Dodge_504578",
    "count_view": 0
  },
  {
    "link_thumb": "https://live.staticflickr.com/65535/48116950337_0ceb7200e7_n.jpg",
    "id_album": "-1846404630",
    "description": "Ford_250899",
    "title": "Ford_250899",
    "link_img": "https://live.staticflickr.com/65535/48116950337_7f555b8c50_o.jpg",
    "id_image": "Ford_250899",
    "count_view": 0
  },
  {
    "link_thumb": "https://live.staticflickr.com/65535/49892622527_9409a598cf_n.jpg",
    "id_album": "1439700820",
    "description": "2015_rv_SCG_rv_003_rv_Competizione_rv_V2_rv_1600",
    "title": "2015_rv_SCG_rv_003_rv_Competizione_rv_V2_rv_1600",
    "link_img": "https://live.staticflickr.com/65535/49892622527_f20698ebf1_o.jpg",
    "id_image": "2015_rv_SCG_rv_003_rv_Competizione_rv_V2_rv_1600",
    "count_view": 0
  },
  {
    "link_thumb": "https://live.staticflickr.com/65535/49888271933_e5929c92b0_n.jpg",
    "id_album": "-1564805819",
    "description": "1989_rv_Alfa_rv_Romeo_rv_SZ_rv_V8_rv_2160",
    "title": "1989_rv_Alfa_rv_Romeo_rv_SZ_rv_V8_rv_2160",
    "link_img": "https://live.staticflickr.com/65535/49888271933_f04fe69b91_o.jpg",
    "id_image": "1989_rv_Alfa_rv_Romeo_rv_SZ_rv_V8_rv_2160",
    "count_view": 0
  },
  {
    "link_thumb": "https://live.staticflickr.com/65535/48118538601_5efc9a95e1_n.jpg",
    "id_album": "-2100339805",
    "description": "Lamborghini_594644",
    "title": "Lamborghini_594644",
    "link_img": "https://live.staticflickr.com/65535/48118538601_9b59194459_o.jpg",
    "id_image": "Lamborghini_594644",
    "count_view": 0
  },
  {
    "link_thumb": "https://live.staticflickr.com/65535/49892441551_e6a17270a2_n.jpg",
    "id_album": "-2039917874",
    "description": "2013_rv_Porsche_rv_Boxster_rv_by_rv_TechArt_rv_V5_rv_1440",
    "title": "2013_rv_Porsche_rv_Boxster_rv_by_rv_TechArt_rv_V5_rv_1440",
    "link_img": "https://live.staticflickr.com/65535/49892441551_9ed7bbf5fc_o.jpg",
    "id_image": "2013_rv_Porsche_rv_Boxster_rv_by_rv_TechArt_rv_V5_rv_1440",
    "count_view": 0
  },
  {
    "link_thumb": "https://live.staticflickr.com/65535/49893022877_b9d62e8060_n.jpg",
    "id_album": "-842352648",
    "description": "2015_rv_Mitsubishi_rv_Lancer_rv_Evolution_rv_X_rv_Final_rv_Edition_rv_V7_rv_1600",
    "title": "2015_rv_Mitsubishi_rv_Lancer_rv_Evolution_rv_X_rv_Final_rv_Edition_rv_V7_rv_1600",
    "link_img": "https://live.staticflickr.com/65535/49893022877_507f1515b3_o.jpg",
    "id_image": "2015_rv_Mitsubishi_rv_Lancer_rv_Evolution_rv_X_rv_Final_rv_Edition_rv_V7_rv_1600",
    "count_view": 0
  },
  {
    "link_thumb": "https://live.staticflickr.com/65535/48118591868_dd45d8e896_n.jpg",
    "id_album": "-2100339805",
    "description": "Lamborghini_685510",
    "title": "Lamborghini_685510",
    "link_img": "https://live.staticflickr.com/65535/48118591868_65ffceb433_o.jpg",
    "id_image": "Lamborghini_685510",
    "count_view": 0
  },
  {
    "link_thumb": "https://live.staticflickr.com/65535/48119275633_1ce58938f6_n.jpg",
    "id_album": "898314866",
    "description": "Mazda_937289",
    "title": "Mazda_937289",
    "link_img": "https://live.staticflickr.com/65535/48119275633_a55e9f31b4_o.jpg",
    "id_image": "Mazda_937289",
    "count_view": 0
  },
  {
    "link_thumb": "https://live.staticflickr.com/65535/48120509362_6c65247071_n.jpg",
    "id_album": "810634050",
    "description": "Nissan_446062",
    "title": "Nissan_446062",
    "link_img": "https://live.staticflickr.com/65535/48120509362_a1a86be474_o.jpg",
    "id_image": "Nissan_446062",
    "count_view": 0
  },
  {
    "link_thumb": "https://live.staticflickr.com/65535/48120522156_ae0bef1b42_n.jpg",
    "id_album": "810634050",
    "description": "Nissan_567215",
    "title": "Nissan_567215",
    "link_img": "https://live.staticflickr.com/65535/48120522156_269b263a28_o.jpg",
    "id_image": "Nissan_567215",
    "count_view": 0
  },
  {
    "link_thumb": "https://live.staticflickr.com/65535/48121751288_4619f28898_n.jpg",
    "id_album": "-1178450892",
    "description": "Porsche_893027",
    "title": "Porsche_893027",
    "link_img": "https://live.staticflickr.com/65535/48121751288_8bdfdeff1f_o.jpg",
    "id_image": "Porsche_893027",
    "count_view": 0
  },
  {
    "link_thumb": "https://live.staticflickr.com/65535/49889990882_dd0ae15f8b_n.jpg",
    "id_album": "-1221805240",
    "description": "2013_rv_Ford_rv_Mustang_rv_Boss_rv_302_rv_V1_rv_1440",
    "title": "2013_rv_Ford_rv_Mustang_rv_Boss_rv_302_rv_V1_rv_1440",
    "link_img": "https://live.staticflickr.com/65535/49889990882_c3ed140905_o.jpg",
    "id_image": "2013_rv_Ford_rv_Mustang_rv_Boss_rv_302_rv_V1_rv_1440",
    "count_view": 0
  },
  {
    "link_thumb": "https://live.staticflickr.com/65535/49889568862_ffdbd4fa59_n.jpg",
    "id_album": "-843860003",
    "description": "2015_rv_Chevrolet_rv_Corvette_rv_Z06_rv_V11_rv_1600",
    "title": "2015_rv_Chevrolet_rv_Corvette_rv_Z06_rv_V11_rv_1600",
    "link_img": "https://live.staticflickr.com/65535/49889568862_200f0eecea_o.jpg",
    "id_image": "2015_rv_Chevrolet_rv_Corvette_rv_Z06_rv_V11_rv_1600",
    "count_view": 0
  },
  {
    "link_thumb": "https://live.staticflickr.com/65535/49040969526_12a4e4d632_n.jpg",
    "id_album": "-1428556500",
    "description": "AlfaRomeo_960828",
    "title": "AlfaRomeo_960828",
    "link_img": "https://live.staticflickr.com/65535/49040969526_767d1ae830_o.jpg",
    "id_image": "AlfaRomeo_960828",
    "count_view": 0
  },
  {
    "link_thumb": "https://live.staticflickr.com/65535/48114775996_67eb6635ef_n.jpg",
    "id_album": "939606447",
    "description": "Chrysler_497368",
    "title": "Chrysler_497368",
    "link_img": "https://live.staticflickr.com/65535/48114775996_64c293d599_o.jpg",
    "id_image": "Chrysler_497368",
    "count_view": 0
  },
  {
    "link_thumb": "https://live.staticflickr.com/65535/48115071976_0762fdbdd7_n.jpg",
    "id_album": "413141323",
    "description": "Dodge_233946",
    "title": "Dodge_233946",
    "link_img": "https://live.staticflickr.com/65535/48115071976_88cc7d2806_o.jpg",
    "id_image": "Dodge_233946",
    "count_view": 0
  },
  {
    "link_thumb": "https://live.staticflickr.com/65535/48113031293_091a4f82e2_n.jpg",
    "id_album": "727633301",
    "description": "BMW_612390",
    "title": "BMW_612390",
    "link_img": "https://live.staticflickr.com/65535/48113031293_09ed774dd1_o.jpg",
    "id_image": "BMW_612390",
    "count_view": 0
  },
  {
    "link_thumb": "https://live.staticflickr.com/65535/48120903618_2280853aa1_n.jpg",
    "id_album": "1965631892",
    "description": "Peugeot_527818",
    "title": "Peugeot_527818",
    "link_img": "https://live.staticflickr.com/65535/48120903618_4d55f0b345_o.jpg",
    "id_image": "Peugeot_527818",
    "count_view": 0
  },
  {
    "link_thumb": "https://live.staticflickr.com/65535/48121909033_8af11f81e2_n.jpg",
    "id_album": "-1377335499",
    "description": "RangeRover_318811",
    "title": "RangeRover_318811",
    "link_img": "https://live.staticflickr.com/65535/48121909033_a7a016b217_o.jpg",
    "id_image": "RangeRover_318811",
    "count_view": 0
  },
  {
    "link_thumb": "https://live.staticflickr.com/65535/48118812176_d2de3e4167_n.jpg",
    "id_album": "1234246491",
    "description": "LandRover_885620",
    "title": "LandRover_885620",
    "link_img": "https://live.staticflickr.com/65535/48118812176_bf2d5642f9_o.jpg",
    "id_image": "LandRover_885620",
    "count_view": 0
  },
  {
    "link_thumb": "https://live.staticflickr.com/65535/48112055273_0f26c19e17_n.jpg",
    "id_album": "-843028318",
    "description": "Jaguar_256165",
    "title": "Jaguar_256165",
    "link_img": "https://live.staticflickr.com/65535/48112055273_fa0fd621dd_o.jpg",
    "id_image": "Jaguar_256165",
    "count_view": 0
  },
  {
    "link_thumb": "https://live.staticflickr.com/65535/49890951291_e3f3e0cd78_n.jpg",
    "id_album": "-353804760",
    "description": "2019_rv_Mini_rv_John_rv_Cooper_rv_Works_rv_V4_rv_2000",
    "title": "2019_rv_Mini_rv_John_rv_Cooper_rv_Works_rv_V4_rv_2000",
    "link_img": "https://live.staticflickr.com/65535/49890951291_d50c64226a_o.jpg",
    "id_image": "2019_rv_Mini_rv_John_rv_Cooper_rv_Works_rv_V4_rv_2000",
    "count_view": 0
  },
  {
    "link_thumb": "https://live.staticflickr.com/65535/49888838906_b9c6e5b4c8_n.jpg",
    "id_album": "-354618933",
    "description": "1964_rv_Aston_rv_Martin_rv_DB5_rv_V2_rv_1536",
    "title": "1964_rv_Aston_rv_Martin_rv_DB5_rv_V2_rv_1536",
    "link_img": "https://live.staticflickr.com/65535/49888838906_0ccd4db331_o.jpg",
    "id_image": "1964_rv_Aston_rv_Martin_rv_DB5_rv_V2_rv_1536",
    "count_view": 0
  },
  {
    "link_thumb": "https://live.staticflickr.com/65535/48119520276_bce36d2ee8_n.jpg",
    "id_album": "-731054311",
    "description": "MercedesBenz_257166",
    "title": "MercedesBenz_257166",
    "link_img": "https://live.staticflickr.com/65535/48119520276_4bba26506d_o.jpg",
    "id_image": "MercedesBenz_257166",
    "count_view": 0
  },
  {
    "link_thumb": "https://live.staticflickr.com/65535/48116245261_dc5f3c98cd_n.jpg",
    "id_album": "1364506720",
    "description": "Ferrari_757804",
    "title": "Ferrari_757804",
    "link_img": "https://live.staticflickr.com/65535/48116245261_5404f3d3c4_o.jpg",
    "id_image": "Ferrari_757804",
    "count_view": 0
  },
  {
    "link_thumb": "https://live.staticflickr.com/65535/48116863301_b619fb1c11_n.jpg",
    "id_album": "-1846404630",
    "description": "Ford_250929",
    "title": "Ford_250929",
    "link_img": "https://live.staticflickr.com/65535/48116863301_8a88ef473a_o.jpg",
    "id_image": "Ford_250929",
    "count_view": 0
  },
  {
    "link_thumb": "https://live.staticflickr.com/65535/48117559676_ca7b65870f_n.jpg",
    "id_album": "-1846404630",
    "description": "Ford_931228",
    "title": "Ford_931228",
    "link_img": "https://live.staticflickr.com/65535/48117559676_44231b8225_o.jpg",
    "id_image": "Ford_931228",
    "count_view": 0
  },
  {
    "link_thumb": "https://live.staticflickr.com/65535/48120328127_994a6c9881_n.jpg",
    "id_album": "666438681",
    "description": "Motorcycles_598475",
    "title": "Motorcycles_598475",
    "link_img": "https://live.staticflickr.com/65535/48120328127_22038ae375_o.jpg",
    "id_image": "Motorcycles_598475",
    "count_view": 0
  },
  {
    "link_thumb": "https://live.staticflickr.com/65535/48113753932_ca0202c83b_n.jpg",
    "id_album": "-1721545051",
    "description": "Chevrolet_158523",
    "title": "Chevrolet_158523",
    "link_img": "https://live.staticflickr.com/65535/48113753932_bb14a909f2_o.jpg",
    "id_image": "Chevrolet_158523",
    "count_view": 0
  },
  {
    "link_thumb": "https://live.staticflickr.com/65535/48120630773_a9e97992cf_n.jpg",
    "id_album": "810634050",
    "description": "Nissan_925083",
    "title": "Nissan_925083",
    "link_img": "https://live.staticflickr.com/65535/48120630773_74cabaffec_o.jpg",
    "id_image": "Nissan_925083",
    "count_view": 0
  },
  {
    "link_thumb": "https://live.staticflickr.com/65535/48116884013_73f67dd6ac_n.jpg",
    "id_album": "-1846404630",
    "description": "Ford_249903",
    "title": "Ford_249903",
    "link_img": "https://live.staticflickr.com/65535/48116884013_db9673ed9d_o.jpg",
    "id_image": "Ford_249903",
    "count_view": 0
  },
  {
    "link_thumb": "https://live.staticflickr.com/65535/48118992953_6f5bc695da_n.jpg",
    "id_album": "446908717",
    "description": "Lexus_962815",
    "title": "Lexus_962815",
    "link_img": "https://live.staticflickr.com/65535/48118992953_d07f6d516a_o.jpg",
    "id_image": "Lexus_962815",
    "count_view": 0
  },
  {
    "link_thumb": "https://live.staticflickr.com/65535/48114823172_fc9a232fb8_n.jpg",
    "id_album": "939606447",
    "description": "Chrysler_190733",
    "title": "Chrysler_190733",
    "link_img": "https://live.staticflickr.com/65535/48114823172_f66a727a44_o.jpg",
    "id_image": "Chrysler_190733",
    "count_view": 0
  },
  {
    "link_thumb": "https://live.staticflickr.com/65535/48115016827_48b5836f43_n.jpg",
    "id_album": "2072464184",
    "description": "Citroen_859589",
    "title": "Citroen_859589",
    "link_img": "https://live.staticflickr.com/65535/48115016827_b99c137f86_o.jpg",
    "id_image": "Citroen_859589",
    "count_view": 0
  },
  {
    "link_thumb": "https://live.staticflickr.com/65535/49889269491_3dbbf71048_n.jpg",
    "id_album": "-10315880",
    "description": "2016_rv_Cadillac_rv_ATS_rv_V_rv_Coupe_rv_V7_rv_1600",
    "title": "2016_rv_Cadillac_rv_ATS_rv_V_rv_Coupe_rv_V7_rv_1600",
    "link_img": "https://live.staticflickr.com/65535/49889269491_120c4dc4ac_o.jpg",
    "id_image": "2016_rv_Cadillac_rv_ATS_rv_V_rv_Coupe_rv_V7_rv_1600",
    "count_view": 0
  },
  {
    "link_thumb": "https://live.staticflickr.com/65535/48116190093_6af64ccd71_n.jpg",
    "id_album": "1364506720",
    "description": "Ferrari_698465",
    "title": "Ferrari_698465",
    "link_img": "https://live.staticflickr.com/65535/48116190093_1a77e5a3c8_o.jpg",
    "id_image": "Ferrari_698465",
    "count_view": 0
  },
  {
    "link_thumb": "https://live.staticflickr.com/65535/49888726596_a249eda91b_n.jpg",
    "id_album": "504832144",
    "description": "2016_rv_Acura_rv_NSX_rv_V10_rv_1600",
    "title": "2016_rv_Acura_rv_NSX_rv_V10_rv_1600",
    "link_img": "https://live.staticflickr.com/65535/49888726596_7b32b63860_o.jpg",
    "id_image": "2016_rv_Acura_rv_NSX_rv_V10_rv_1600",
    "count_view": 0
  },
  {
    "link_thumb": "https://live.staticflickr.com/65535/49890459967_8464107af2_n.jpg",
    "id_album": "-936716449",
    "description": "2015_rv_Lamborghini_rv_Huracan_rv_LP610_rv_4_rv_V14_rv_2160",
    "title": "2015_rv_Lamborghini_rv_Huracan_rv_LP610_rv_4_rv_V14_rv_2160",
    "link_img": "https://live.staticflickr.com/65535/49890459967_a77df37de9_o.jpg",
    "id_image": "2015_rv_Lamborghini_rv_Huracan_rv_LP610_rv_4_rv_V14_rv_2160",
    "count_view": 0
  },
  {
    "link_thumb": "https://live.staticflickr.com/65535/48112698223_7f9bcc3cb3_n.jpg",
    "id_album": "727633301",
    "description": "BMW_254036",
    "title": "BMW_254036",
    "link_img": "https://live.staticflickr.com/65535/48112698223_3a7abbb061_o.jpg",
    "id_image": "BMW_254036",
    "count_view": 0
  },
  {
    "link_thumb": "https://live.staticflickr.com/65535/48122774702_5b04ea27b2_n.jpg",
    "id_album": "1274920659",
    "description": "Toyota_476736",
    "title": "Toyota_476736",
    "link_img": "https://live.staticflickr.com/65535/48122774702_5e0f474da4_o.jpg",
    "id_image": "Toyota_476736",
    "count_view": 0
  },
  {
    "link_thumb": "https://live.staticflickr.com/65535/48119298826_c5bb623065_n.jpg",
    "id_album": "990865885",
    "description": "McLaren_508052",
    "title": "McLaren_508052",
    "link_img": "https://live.staticflickr.com/65535/48119298826_551ef839a4_o.jpg",
    "id_image": "McLaren_508052",
    "count_view": 0
  },
  {
    "link_thumb": "https://live.staticflickr.com/65535/49890504382_4d7de8ba3e_n.jpg",
    "id_album": "1957300237",
    "description": "2013_rv_Novitec_rv_Torado_rv_Lamborghini_rv_Aventador_rv_V1_rv_1600",
    "title": "2013_rv_Novitec_rv_Torado_rv_Lamborghini_rv_Aventador_rv_V1_rv_1600",
    "link_img": "https://live.staticflickr.com/65535/49890504382_fc3be367ee_o.jpg",
    "id_image": "2013_rv_Novitec_rv_Torado_rv_Lamborghini_rv_Aventador_rv_V1_rv_1600",
    "count_view": 0
  },
  {
    "link_thumb": "https://live.staticflickr.com/65535/48120259361_3a8a64b760_n.jpg",
    "id_album": "666438681",
    "description": "Motorcycles_649124",
    "title": "Motorcycles_649124",
    "link_img": "https://live.staticflickr.com/65535/48120259361_69752a7802_o.jpg",
    "id_image": "Motorcycles_649124",
    "count_view": 0
  },
  {
    "link_thumb": "https://live.staticflickr.com/65535/49889676586_f0d1e9314b_n.jpg",
    "id_album": "-1221805240",
    "description": "2005_rv_Ford_rv_Mustang_rv_GT_rv_V3_rv_1440",
    "title": "2005_rv_Ford_rv_Mustang_rv_GT_rv_V3_rv_1440",
    "link_img": "https://live.staticflickr.com/65535/49889676586_af594e9236_o.jpg",
    "id_image": "2005_rv_Ford_rv_Mustang_rv_GT_rv_V3_rv_1440",
    "count_view": 0
  },
  {
    "link_thumb": "https://live.staticflickr.com/65535/49889753841_bf3c01abef_n.jpg",
    "id_album": "-559101122",
    "description": "2003_rv_Ford_rv_Mustang_rv_Mach_rv_1_rv_V2_rv_1536",
    "title": "2003_rv_Ford_rv_Mustang_rv_Mach_rv_1_rv_V2_rv_1536",
    "link_img": "https://live.staticflickr.com/65535/49889753841_7fe720dc89_o.jpg",
    "id_image": "2003_rv_Ford_rv_Mustang_rv_Mach_rv_1_rv_V2_rv_1536",
    "count_view": 0
  },
  {
    "link_thumb": "https://live.staticflickr.com/65535/48116915613_be9a18e77b_n.jpg",
    "id_album": "-1846404630",
    "description": "Ford_255422",
    "title": "Ford_255422",
    "link_img": "https://live.staticflickr.com/65535/48116915613_bd373f62f6_o.jpg",
    "id_image": "Ford_255422",
    "count_view": 0
  },
  {
    "link_thumb": "https://live.staticflickr.com/65535/49889365926_6ecd9011ef_n.jpg",
    "id_album": "-57065301",
    "description": "2013_rv_BMW_rv_M3_rv_Frozen_rv_Edition_rv_V2_rv_1440",
    "title": "2013_rv_BMW_rv_M3_rv_Frozen_rv_Edition_rv_V2_rv_1440",
    "link_img": "https://live.staticflickr.com/65535/49889365926_e4cf258edd_o.jpg",
    "id_image": "2013_rv_BMW_rv_M3_rv_Frozen_rv_Edition_rv_V2_rv_1440",
    "count_view": 0
  },
  {
    "link_thumb": "https://live.staticflickr.com/65535/49892718316_c88be53bc9_n.jpg",
    "id_album": "1158113959",
    "description": "2013_rv_Aston_rv_Martin_rv_V12_rv_Zagato_rv_V2_rv_1440",
    "title": "2013_rv_Aston_rv_Martin_rv_V12_rv_Zagato_rv_V2_rv_1440",
    "link_img": "https://live.staticflickr.com/65535/49892718316_99482fbeac_o.jpg",
    "id_image": "2013_rv_Aston_rv_Martin_rv_V12_rv_Zagato_rv_V2_rv_1440",
    "count_view": 0
  },
  {
    "link_thumb": "https://live.staticflickr.com/65535/49889355147_33abe09a34_n.jpg",
    "id_album": "-1839907970",
    "description": "1979_rv_Canepa_rv_BMW_rv_M1_rv_Procar_rv_V4_rv_2000",
    "title": "1979_rv_Canepa_rv_BMW_rv_M1_rv_Procar_rv_V4_rv_2000",
    "link_img": "https://live.staticflickr.com/65535/49889355147_b21ae25055_o.jpg",
    "id_image": "1979_rv_Canepa_rv_BMW_rv_M1_rv_Procar_rv_V4_rv_2000",
    "count_view": 0
  },
  {
    "link_thumb": "https://live.staticflickr.com/65535/49889714882_a3fd5f6716_n.jpg",
    "id_album": "-2091344784",
    "description": "2011_rv_Formula1_rv_Team_rv_Lotus_rv_T128_rv_V1_rv_1200",
    "title": "2011_rv_Formula1_rv_Team_rv_Lotus_rv_T128_rv_V1_rv_1200",
    "link_img": "https://live.staticflickr.com/65535/49889714882_f78b3e36ec_o.jpg",
    "id_image": "2011_rv_Formula1_rv_Team_rv_Lotus_rv_T128_rv_V1_rv_1200",
    "count_view": 0
  },
  {
    "link_thumb": "https://live.staticflickr.com/65535/48112557577_f575c965ba_n.jpg",
    "id_album": "-15119147",
    "description": "Audi_938611",
    "title": "Audi_938611",
    "link_img": "https://live.staticflickr.com/65535/48112557577_2bd5cb8bbf_o.jpg",
    "id_image": "Audi_938611",
    "count_view": 0
  },
  {
    "link_thumb": "https://live.staticflickr.com/65535/49889470308_1ba15ec22a_n.jpg",
    "id_album": "-1191355745",
    "description": "2017_rv_Jaguar_rv_F_rv_Type_rv_SVR_rv_V2_rv_2000",
    "title": "2017_rv_Jaguar_rv_F_rv_Type_rv_SVR_rv_V2_rv_2000",
    "link_img": "https://live.staticflickr.com/65535/49889470308_976b1bbca3_o.jpg",
    "id_image": "2017_rv_Jaguar_rv_F_rv_Type_rv_SVR_rv_V2_rv_2000",
    "count_view": 0
  },
  {
    "link_thumb": "https://live.staticflickr.com/65535/48112355452_a3cbdfe7d4_n.jpg",
    "id_album": "-15119147",
    "description": "Audi_253670",
    "title": "Audi_253670",
    "link_img": "https://live.staticflickr.com/65535/48112355452_94f770a004_o.jpg",
    "id_image": "Audi_253670",
    "count_view": 0
  },
  {
    "link_thumb": "https://live.staticflickr.com/65535/49889906162_94c146d9f6_n.jpg",
    "id_album": "-290692475",
    "description": "2019_rv_Novitec_rv_Ferrari_rv_812_rv_Superfast_rv_V1_rv_2160",
    "title": "2019_rv_Novitec_rv_Ferrari_rv_812_rv_Superfast_rv_V1_rv_2160",
    "link_img": "https://live.staticflickr.com/65535/49889906162_22ed403dba_o.jpg",
    "id_image": "2019_rv_Novitec_rv_Ferrari_rv_812_rv_Superfast_rv_V1_rv_2160",
    "count_view": 0
  },
  {
    "link_thumb": "https://live.staticflickr.com/65535/48112788882_391db31417_n.jpg",
    "id_album": "727633301",
    "description": "BMW_291579",
    "title": "BMW_291579",
    "link_img": "https://live.staticflickr.com/65535/48112788882_993e01b4b5_o.jpg",
    "id_image": "BMW_291579",
    "count_view": 0
  },
  {
    "link_thumb": "https://live.staticflickr.com/65535/49889186483_3b4e00cfdb_n.jpg",
    "id_album": "1345325637",
    "description": "2005_rv_Ford_rv_Focus_rv_ST_rv_V1_rv_1440",
    "title": "2005_rv_Ford_rv_Focus_rv_ST_rv_V1_rv_1440",
    "link_img": "https://live.staticflickr.com/65535/49889186483_f48dbf481d_o.jpg",
    "id_image": "2005_rv_Ford_rv_Focus_rv_ST_rv_V1_rv_1440",
    "count_view": 0
  },
  {
    "link_thumb": "https://live.staticflickr.com/65535/48112957696_6907aaa65c_n.jpg",
    "id_album": "727633301",
    "description": "BMW_512298",
    "title": "BMW_512298",
    "link_img": "https://live.staticflickr.com/65535/48112957696_a7aa2840ab_o.jpg",
    "id_image": "BMW_512298",
    "count_view": 0
  },
  {
    "link_thumb": "https://live.staticflickr.com/65535/48119349691_afb00354b1_n.jpg",
    "id_album": "990865885",
    "description": "McLaren_843466",
    "title": "McLaren_843466",
    "link_img": "https://live.staticflickr.com/65535/48119349691_198c941e5e_o.jpg",
    "id_image": "McLaren_843466",
    "count_view": 0
  },
  {
    "link_thumb": "https://live.staticflickr.com/65535/49891524297_d5f20ab263_n.jpg",
    "id_album": "-1650262351",
    "description": "2017_rv_Pagani_rv_Huayra_rv_Roadster_rv_V10_rv_2160",
    "title": "2017_rv_Pagani_rv_Huayra_rv_Roadster_rv_V10_rv_2160",
    "link_img": "https://live.staticflickr.com/65535/49891524297_bafe768694_o.jpg",
    "id_image": "2017_rv_Pagani_rv_Huayra_rv_Roadster_rv_V10_rv_2160",
    "count_view": 0
  },
  {
    "link_thumb": "https://live.staticflickr.com/65535/48122097266_2d4b386c63_n.jpg",
    "id_album": "1536700661",
    "description": "RollsRoyce_257779",
    "title": "RollsRoyce_257779",
    "link_img": "https://live.staticflickr.com/65535/48122097266_3e035fec86_o.jpg",
    "id_image": "RollsRoyce_257779",
    "count_view": 0
  },
  {
    "link_thumb": "https://live.staticflickr.com/65535/48112602916_fef5478cc6_n.jpg",
    "id_album": "727633301",
    "description": "BMW_178376",
    "title": "BMW_178376",
    "link_img": "https://live.staticflickr.com/65535/48112602916_6c5621463d_o.jpg",
    "id_image": "BMW_178376",
    "count_view": 0
  },
  {
    "link_thumb": "https://live.staticflickr.com/65535/49892043048_9f61a1a2e6_n.jpg",
    "id_album": "2103242556",
    "description": "2007_rv_Honda_rv_Civic_rv_Type_rv_R_rv_V4_rv_1536",
    "title": "2007_rv_Honda_rv_Civic_rv_Type_rv_R_rv_V4_rv_1536",
    "link_img": "https://live.staticflickr.com/65535/49892043048_1d9a69a022_o.jpg",
    "id_image": "2007_rv_Honda_rv_Civic_rv_Type_rv_R_rv_V4_rv_1536",
    "count_view": 0
  },
  {
    "link_thumb": "https://live.staticflickr.com/65535/48113021358_24f6d120f9_n.jpg",
    "id_album": "727633301",
    "description": "BMW_554910",
    "title": "BMW_554910",
    "link_img": "https://live.staticflickr.com/65535/48113021358_7dfc7e22a3_o.jpg",
    "id_image": "BMW_554910",
    "count_view": 0
  },
  {
    "link_thumb": "https://live.staticflickr.com/65535/49890900321_b27f3d1455_n.jpg",
    "id_album": "-376919707",
    "description": "2017_rv_Mercedes_rv_Benz_rv_SL65_rv_AMG_rv_V1_rv_2000",
    "title": "2017_rv_Mercedes_rv_Benz_rv_SL65_rv_AMG_rv_V1_rv_2000",
    "link_img": "https://live.staticflickr.com/65535/49890900321_d70671a318_o.jpg",
    "id_image": "2017_rv_Mercedes_rv_Benz_rv_SL65_rv_AMG_rv_V1_rv_2000",
    "count_view": 0
  },
  {
    "link_thumb": "https://live.staticflickr.com/65535/49889117833_a2f8eea644_n.jpg",
    "id_album": "1558646706",
    "description": "2013_rv_Chevrolet_rv_Camaro_rv_ZL1_rv_Convertible_rv_V4_rv_1440",
    "title": "2013_rv_Chevrolet_rv_Camaro_rv_ZL1_rv_Convertible_rv_V4_rv_1440",
    "link_img": "https://live.staticflickr.com/65535/49889117833_b1331cce7f_o.jpg",
    "id_image": "2013_rv_Chevrolet_rv_Camaro_rv_ZL1_rv_Convertible_rv_V4_rv_1440",
    "count_view": 0
  },
  {
    "link_thumb": "https://live.staticflickr.com/65535/48117771838_57646b1641_n.jpg",
    "id_album": "249743491",
    "description": "HarleyDavidson_758480",
    "title": "HarleyDavidson_758480",
    "link_img": "https://live.staticflickr.com/65535/48117771838_aab1bb3dea_o.jpg",
    "id_image": "HarleyDavidson_758480",
    "count_view": 0
  },
  {
    "link_thumb": "https://live.staticflickr.com/65535/48115933157_96f7296a17_n.jpg",
    "id_album": "1364506720",
    "description": "Ferrari_317915",
    "title": "Ferrari_317915",
    "link_img": "https://live.staticflickr.com/65535/48115933157_609f3e4f75_o.jpg",
    "id_image": "Ferrari_317915",
    "count_view": 0
  },
  {
    "link_thumb": "https://live.staticflickr.com/65535/48122031608_9960a1bd30_n.jpg",
    "id_album": "-1217333387",
    "description": "Renault_358486",
    "title": "Renault_358486",
    "link_img": "https://live.staticflickr.com/65535/48122031608_69731f597e_o.jpg",
    "id_image": "Renault_358486",
    "count_view": 0
  },
  {
    "link_thumb": "https://live.staticflickr.com/65535/48118791666_4f5a3498b4_n.jpg",
    "id_album": "1234246491",
    "description": "LandRover_323245",
    "title": "LandRover_323245",
    "link_img": "https://live.staticflickr.com/65535/48118791666_62447b397e_o.jpg",
    "id_image": "LandRover_323245",
    "count_view": 0
  },
  {
    "link_thumb": "https://live.staticflickr.com/65535/49891946943_f23a22a7c9_n.jpg",
    "id_album": "-91950429",
    "description": "2006_rv_Dodge_rv_Viper_rv_SRT10_rv_V8_rv_1536",
    "title": "2006_rv_Dodge_rv_Viper_rv_SRT10_rv_V8_rv_1536",
    "link_img": "https://live.staticflickr.com/65535/49891946943_3d2d6f8a64_o.jpg",
    "id_image": "2006_rv_Dodge_rv_Viper_rv_SRT10_rv_V8_rv_1536",
    "count_view": 0
  },
  {
    "link_thumb": "https://live.staticflickr.com/65535/48120991428_5341a08c91_n.jpg",
    "id_album": "-1123679742",
    "description": "Plymouth_200670",
    "title": "Plymouth_200670",
    "link_img": "https://live.staticflickr.com/65535/48120991428_60efbe78a9_o.jpg",
    "id_image": "Plymouth_200670",
    "count_view": 0
  },
  {
    "link_thumb": "https://live.staticflickr.com/65535/48116845841_76e32a6b39_n.jpg",
    "id_album": "-1846404630",
    "description": "Ford_246050",
    "title": "Ford_246050",
    "link_img": "https://live.staticflickr.com/65535/48116845841_ee92ee4705_o.jpg",
    "id_image": "Ford_246050",
    "count_view": 0
  },
  {
    "link_thumb": "https://live.staticflickr.com/65535/49892022453_55176c7af3_n.jpg",
    "id_album": "2017658989",
    "description": "2016_rv_Trion_rv_Nemesis_rv_RR_rv_V5_rv_1440",
    "title": "2016_rv_Trion_rv_Nemesis_rv_RR_rv_V5_rv_1440",
    "link_img": "https://live.staticflickr.com/65535/49892022453_e6fd9e8f76_o.jpg",
    "id_image": "2016_rv_Trion_rv_Nemesis_rv_RR_rv_V5_rv_1440",
    "count_view": 0
  },
  {
    "link_thumb": "https://live.staticflickr.com/65535/48116989966_f38dd7ef73_n.jpg",
    "id_album": "-1846404630",
    "description": "Ford_303675",
    "title": "Ford_303675",
    "link_img": "https://live.staticflickr.com/65535/48116989966_ca7e18bb37_o.jpg",
    "id_image": "Ford_303675",
    "count_view": 0
  },
  {
    "link_thumb": "https://live.staticflickr.com/65535/49889298811_6770e66941_n.jpg",
    "id_album": "-750566387",
    "description": "1970_rv_Chevrolet_rv_Chevelle_rv_SS_rv_Coupe_rv_V4_rv_1536",
    "title": "1970_rv_Chevrolet_rv_Chevelle_rv_SS_rv_Coupe_rv_V4_rv_1536",
    "link_img": "https://live.staticflickr.com/65535/49889298811_a96e69e5ab_o.jpg",
    "id_image": "1970_rv_Chevrolet_rv_Chevelle_rv_SS_rv_Coupe_rv_V4_rv_1536",
    "count_view": 0
  },
  {
    "link_thumb": "https://live.staticflickr.com/65535/48115561896_61d501b3a8_n.jpg",
    "id_album": "594975066",
    "description": "Duesenberg_264949",
    "title": "Duesenberg_264949",
    "link_img": "https://live.staticflickr.com/65535/48115561896_8244ae63cb_o.jpg",
    "id_image": "Duesenberg_264949",
    "count_view": 0
  },
  {
    "link_thumb": "https://live.staticflickr.com/65535/48120996656_b649e22348_n.jpg",
    "id_album": "-1123679742",
    "description": "Plymouth_339088",
    "title": "Plymouth_339088",
    "link_img": "https://live.staticflickr.com/65535/48120996656_1d1b401c15_o.jpg",
    "id_image": "Plymouth_339088",
    "count_view": 0
  },
  {
    "link_thumb": "https://live.staticflickr.com/65535/48112429653_d5244dda62_n.jpg",
    "id_album": "-15119147",
    "description": "Audi_757251",
    "title": "Audi_757251",
    "link_img": "https://live.staticflickr.com/65535/48112429653_b48f60f1d8_o.jpg",
    "id_image": "Audi_757251",
    "count_view": 0
  },
  {
    "link_thumb": "https://live.staticflickr.com/65535/49892722427_241ddc6b67_n.jpg",
    "id_album": "874272507",
    "description": "2012_rv_Subaru_rv_BRZ_rv_V2_rv_1440",
    "title": "2012_rv_Subaru_rv_BRZ_rv_V2_rv_1440",
    "link_img": "https://live.staticflickr.com/65535/49892722427_67df887500_o.jpg",
    "id_image": "2012_rv_Subaru_rv_BRZ_rv_V2_rv_1440",
    "count_view": 0
  },
  {
    "link_thumb": "https://live.staticflickr.com/65535/48117656598_39089e4d8f_n.jpg",
    "id_album": "-1846404630",
    "description": "Ford_947843",
    "title": "Ford_947843",
    "link_img": "https://live.staticflickr.com/65535/48117656598_d1c3c98ca0_o.jpg",
    "id_image": "Ford_947843",
    "count_view": 0
  },
  {
    "link_thumb": "https://live.staticflickr.com/65535/48113577946_391c80733f_n.jpg",
    "id_album": "-680120434",
    "description": "Cadillac_498182",
    "title": "Cadillac_498182",
    "link_img": "https://live.staticflickr.com/65535/48113577946_160b839430_o.jpg",
    "id_image": "Cadillac_498182",
    "count_view": 0
  },
  {
    "link_thumb": "https://live.staticflickr.com/65535/49888873513_6969bccc2f_n.jpg",
    "id_album": "715958079",
    "description": "2020_rv_Formula1_rv_Mercedes_rv_AMG_rv_W11_rv_EQ_rv_Performance_rv_V3_rv_2160",
    "title": "2020_rv_Formula1_rv_Mercedes_rv_AMG_rv_W11_rv_EQ_rv_Performance_rv_V3_rv_2160",
    "link_img": "https://live.staticflickr.com/65535/49888873513_a3f1ffe27f_o.jpg",
    "id_image": "2020_rv_Formula1_rv_Mercedes_rv_AMG_rv_W11_rv_EQ_rv_Performance_rv_V3_rv_2160",
    "count_view": 0
  },
  {
    "link_thumb": "https://live.staticflickr.com/65535/49890749982_1bb2fb28e9_n.jpg",
    "id_album": "284880556",
    "description": "2008_rv_Maserati_rv_Quattroporte_rv_V2_rv_1440",
    "title": "2008_rv_Maserati_rv_Quattroporte_rv_V2_rv_1440",
    "link_img": "https://live.staticflickr.com/65535/49890749982_8c0873e96b_o.jpg",
    "id_image": "2008_rv_Maserati_rv_Quattroporte_rv_V2_rv_1440",
    "count_view": 0
  },
  {
    "link_thumb": "https://live.staticflickr.com/65535/48120596751_060b02b1d3_n.jpg",
    "id_album": "810634050",
    "description": "Nissan_915215",
    "title": "Nissan_915215",
    "link_img": "https://live.staticflickr.com/65535/48120596751_af9de857d8_o.jpg",
    "id_image": "Nissan_915215",
    "count_view": 0
  },
  {
    "link_thumb": "https://live.staticflickr.com/65535/48114346111_fb0bf7184c_n.jpg",
    "id_album": "-1721545051",
    "description": "Chevrolet_503709",
    "title": "Chevrolet_503709",
    "link_img": "https://live.staticflickr.com/65535/48114346111_8fc41346c7_o.jpg",
    "id_image": "Chevrolet_503709",
    "count_view": 0
  },
  {
    "link_thumb": "https://live.staticflickr.com/65535/48122491331_4878e79330_n.jpg",
    "id_album": "422322641",
    "description": "Subaru_549381",
    "title": "Subaru_549381",
    "link_img": "https://live.staticflickr.com/65535/48122491331_8e0edceda1_o.jpg",
    "id_image": "Subaru_549381",
    "count_view": 0
  },
  {
    "link_thumb": "https://live.staticflickr.com/65535/48113992292_00e651648a_n.jpg",
    "id_album": "-1721545051",
    "description": "Chevrolet_250831",
    "title": "Chevrolet_250831",
    "link_img": "https://live.staticflickr.com/65535/48113992292_853e6cb7c2_o.jpg",
    "id_image": "Chevrolet_250831",
    "count_view": 0
  },
  {
    "link_thumb": "https://live.staticflickr.com/65535/48122806643_cdd15ea204_n.jpg",
    "id_album": "1274920659",
    "description": "Toyota_811870",
    "title": "Toyota_811870",
    "link_img": "https://live.staticflickr.com/65535/48122806643_45b0c1ef8a_o.jpg",
    "id_image": "Toyota_811870",
    "count_view": 0
  },
  {
    "link_thumb": "https://live.staticflickr.com/65535/48120246497_f86f6b3905_n.jpg",
    "id_album": "666438681",
    "description": "Motorcycles_209380",
    "title": "Motorcycles_209380",
    "link_img": "https://live.staticflickr.com/65535/48120246497_352c193b8e_o.jpg",
    "id_image": "Motorcycles_209380",
    "count_view": 0
  },
  {
    "link_thumb": "https://live.staticflickr.com/65535/48119391366_7101c2ec35_n.jpg",
    "id_album": "990865885",
    "description": "McLaren_921755",
    "title": "McLaren_921755",
    "link_img": "https://live.staticflickr.com/65535/48119391366_b5e2b127dc_o.jpg",
    "id_image": "McLaren_921755",
    "count_view": 0
  },
  {
    "link_thumb": "https://live.staticflickr.com/65535/48119955037_ff4bd9b7fa_n.jpg",
    "id_album": "-731054311",
    "description": "MercedesBenz_919832",
    "title": "MercedesBenz_919832",
    "link_img": "https://live.staticflickr.com/65535/48119955037_a146673a3e_o.jpg",
    "id_image": "MercedesBenz_919832",
    "count_view": 0
  },
  {
    "link_thumb": "https://live.staticflickr.com/65535/49889142203_5c03a0e785_n.jpg",
    "id_album": "-135411974",
    "description": "1967_rv_Shelby_rv_GT500_rv_V6_rv_2000",
    "title": "1967_rv_Shelby_rv_GT500_rv_V6_rv_2000",
    "link_img": "https://live.staticflickr.com/65535/49889142203_1b7bbcd58a_o.jpg",
    "id_image": "1967_rv_Shelby_rv_GT500_rv_V6_rv_2000",
    "count_view": 0
  },
  {
    "link_thumb": "https://live.staticflickr.com/65535/48121466078_22156f59a2_n.jpg",
    "id_album": "-1178450892",
    "description": "Porsche_521719",
    "title": "Porsche_521719",
    "link_img": "https://live.staticflickr.com/65535/48121466078_34a63e3d29_o.jpg",
    "id_image": "Porsche_521719",
    "count_view": 0
  },
  {
    "link_thumb": "https://live.staticflickr.com/65535/48119489833_9683703745_n.jpg",
    "id_album": "-731054311",
    "description": "MercedesBenz_171059",
    "title": "MercedesBenz_171059",
    "link_img": "https://live.staticflickr.com/65535/48119489833_c9213da7ac_o.jpg",
    "id_image": "MercedesBenz_171059",
    "count_view": 0
  },
  {
    "link_thumb": "https://live.staticflickr.com/65535/48121737966_a6203689dd_n.jpg",
    "id_album": "-1178450892",
    "description": "Porsche_929311",
    "title": "Porsche_929311",
    "link_img": "https://live.staticflickr.com/65535/48121737966_49e1e728f4_o.jpg",
    "id_image": "Porsche_929311",
    "count_view": 0
  },
  {
    "link_thumb": "https://live.staticflickr.com/65535/48119328268_4bfdbcc846_n.jpg",
    "id_album": "990865885",
    "description": "McLaren_508029",
    "title": "McLaren_508029",
    "link_img": "https://live.staticflickr.com/65535/48119328268_66b3589c62_o.jpg",
    "id_image": "McLaren_508029",
    "count_view": 0
  },
  {
    "link_thumb": "https://live.staticflickr.com/65535/49889792623_630ef7e1d0_n.jpg",
    "id_album": "-1502031787",
    "description": "2015_rv_Lexus_rv_RC_rv_F_rv_V8_rv_1600",
    "title": "2015_rv_Lexus_rv_RC_rv_F_rv_V8_rv_1600",
    "link_img": "https://live.staticflickr.com/65535/49889792623_a9f5e27993_o.jpg",
    "id_image": "2015_rv_Lexus_rv_RC_rv_F_rv_V8_rv_1600",
    "count_view": 0
  },
  {
    "link_thumb": "https://live.staticflickr.com/65535/48123013408_0a04fa24bb_n.jpg",
    "id_album": "-150952028",
    "description": "Volkswagen_490084",
    "title": "Volkswagen_490084",
    "link_img": "https://live.staticflickr.com/65535/48123013408_7de25cf338_o.jpg",
    "id_image": "Volkswagen_490084",
    "count_view": 0
  },
  {
    "link_thumb": "https://live.staticflickr.com/65535/48118809102_3ef38da654_n.jpg",
    "id_album": "-2100339805",
    "description": "Lamborghini_975024",
    "title": "Lamborghini_975024",
    "link_img": "https://live.staticflickr.com/65535/48118809102_e22c44627c_o.jpg",
    "id_image": "Lamborghini_975024",
    "count_view": 0
  },
  {
    "link_thumb": "https://live.staticflickr.com/65535/48113586861_39fccb4f67_n.jpg",
    "id_album": "-680120434",
    "description": "Cadillac_574466",
    "title": "Cadillac_574466",
    "link_img": "https://live.staticflickr.com/65535/48113586861_155e4fe6dc_o.jpg",
    "id_image": "Cadillac_574466",
    "count_view": 0
  },
  {
    "link_thumb": "https://live.staticflickr.com/65535/48120541797_02ec2bf5f9_n.jpg",
    "id_album": "810634050",
    "description": "Nissan_477642",
    "title": "Nissan_477642",
    "link_img": "https://live.staticflickr.com/65535/48120541797_8ab5d45fe2_o.jpg",
    "id_image": "Nissan_477642",
    "count_view": 0
  },
  {
    "link_thumb": "https://live.staticflickr.com/65535/48119528021_ac9b853a28_n.jpg",
    "id_album": "-731054311",
    "description": "MercedesBenz_257210",
    "title": "MercedesBenz_257210",
    "link_img": "https://live.staticflickr.com/65535/48119528021_9eaf2f198b_o.jpg",
    "id_image": "MercedesBenz_257210",
    "count_view": 0
  },
  {
    "link_thumb": "https://live.staticflickr.com/65535/48118674798_92d7c0d799_n.jpg",
    "id_album": "-2100339805",
    "description": "Lamborghini_886866",
    "title": "Lamborghini_886866",
    "link_img": "https://live.staticflickr.com/65535/48118674798_eefb970306_o.jpg",
    "id_image": "Lamborghini_886866",
    "count_view": 0
  },
  {
    "link_thumb": "https://live.staticflickr.com/65535/48113974026_25bf83e761_n.jpg",
    "id_album": "-1721545051",
    "description": "Chevrolet_288525",
    "title": "Chevrolet_288525",
    "link_img": "https://live.staticflickr.com/65535/48113974026_9d820a8980_o.jpg",
    "id_image": "Chevrolet_288525",
    "count_view": 0
  },
  {
    "link_thumb": "https://live.staticflickr.com/65535/48113775828_c77b15d408_n.jpg",
    "id_album": "-1721545051",
    "description": "Chevrolet_182678",
    "title": "Chevrolet_182678",
    "link_img": "https://live.staticflickr.com/65535/48113775828_08390f7ddc_o.jpg",
    "id_image": "Chevrolet_182678",
    "count_view": 0
  },
  {
    "link_thumb": "https://live.staticflickr.com/65535/48113417647_dbca1667f8_n.jpg",
    "id_album": "1456070666",
    "description": "Bugatti_194483",
    "title": "Bugatti_194483",
    "link_img": "https://live.staticflickr.com/65535/48113417647_c5d0003735_o.jpg",
    "id_image": "Bugatti_194483",
    "count_view": 0
  },
  {
    "link_thumb": "https://live.staticflickr.com/65535/48116535257_5f5c678d96_n.jpg",
    "id_album": "1364506720",
    "description": "Ferrari_986313",
    "title": "Ferrari_986313",
    "link_img": "https://live.staticflickr.com/65535/48116535257_ba68248730_o.jpg",
    "id_image": "Ferrari_986313",
    "count_view": 0
  },
  {
    "link_thumb": "https://live.staticflickr.com/65535/48116336772_893ff109f6_n.jpg",
    "id_album": "1364506720",
    "description": "Ferrari_757793",
    "title": "Ferrari_757793",
    "link_img": "https://live.staticflickr.com/65535/48116336772_d43fc6134d_o.jpg",
    "id_image": "Ferrari_757793",
    "count_view": 0
  },
  {
    "link_thumb": "https://live.staticflickr.com/65535/48121261821_6ce53c2fc9_n.jpg",
    "id_album": "-1178450892",
    "description": "Porsche_257690",
    "title": "Porsche_257690",
    "link_img": "https://live.staticflickr.com/65535/48121261821_9c9809ccf1_o.jpg",
    "id_image": "Porsche_257690",
    "count_view": 0
  },
  {
    "link_thumb": "https://live.staticflickr.com/65535/49892151141_34a2b22675_n.jpg",
    "id_album": "326624747",
    "description": "2017_rv_Porsche_rv_Macan_rv_GTS_rv_V4_rv_1600",
    "title": "2017_rv_Porsche_rv_Macan_rv_GTS_rv_V4_rv_1600",
    "link_img": "https://live.staticflickr.com/65535/49892151141_482d6c0331_o.jpg",
    "id_image": "2017_rv_Porsche_rv_Macan_rv_GTS_rv_V4_rv_1600",
    "count_view": 0
  },
  {
    "link_thumb": "https://live.staticflickr.com/65535/49890614453_7cd66ff32a_n.jpg",
    "id_album": "900159089",
    "description": "1985_rv_Nissan_rv_March_rv_Turbo_rv_V3_rv_1536",
    "title": "1985_rv_Nissan_rv_March_rv_Turbo_rv_V3_rv_1536",
    "link_img": "https://live.staticflickr.com/65535/49890614453_4975cc5377_o.jpg",
    "id_image": "1985_rv_Nissan_rv_March_rv_Turbo_rv_V3_rv_1536",
    "count_view": 0
  },
  {
    "link_thumb": "https://live.staticflickr.com/65535/48112238776_1f8ec67bf1_n.jpg",
    "id_album": "-15119147",
    "description": "Audi_224071",
    "title": "Audi_224071",
    "link_img": "https://live.staticflickr.com/65535/48112238776_aa1b01ceb2_o.jpg",
    "id_image": "Audi_224071",
    "count_view": 0
  },
  {
    "link_thumb": "https://live.staticflickr.com/65535/48119647236_098aa47e25_n.jpg",
    "id_album": "-731054311",
    "description": "MercedesBenz_391969",
    "title": "MercedesBenz_391969",
    "link_img": "https://live.staticflickr.com/65535/48119647236_c19f04bd14_o.jpg",
    "id_image": "MercedesBenz_391969",
    "count_view": 0
  },
  {
    "link_thumb": "https://live.staticflickr.com/65535/48116516877_7959e97201_n.jpg",
    "id_album": "1364506720",
    "description": "Ferrari_951058",
    "title": "Ferrari_951058",
    "link_img": "https://live.staticflickr.com/65535/48116516877_3be18d0952_o.jpg",
    "id_image": "Ferrari_951058",
    "count_view": 0
  },
  {
    "link_thumb": "https://live.staticflickr.com/65535/49890307692_e78124d0a3_n.jpg",
    "id_album": "1773051544",
    "description": "2017_rv_Jaguar_rv_XE_rv_AWD_rv_V1_rv_2000",
    "title": "2017_rv_Jaguar_rv_XE_rv_AWD_rv_V1_rv_2000",
    "link_img": "https://live.staticflickr.com/65535/49890307692_72cb97ddef_o.jpg",
    "id_image": "2017_rv_Jaguar_rv_XE_rv_AWD_rv_V1_rv_2000",
    "count_view": 0
  },
  {
    "link_thumb": "https://live.staticflickr.com/65535/48118626882_ffbbec602e_n.jpg",
    "id_album": "-2100339805",
    "description": "Lamborghini_589848",
    "title": "Lamborghini_589848",
    "link_img": "https://live.staticflickr.com/65535/48118626882_92a593d91f_o.jpg",
    "id_image": "Lamborghini_589848",
    "count_view": 0
  },
  {
    "link_thumb": "https://live.staticflickr.com/65535/49890664456_e5740a5bfd_n.jpg",
    "id_album": "-542802656",
    "description": "2014_rv_Mercedes_rv_Benz_rv_A45_rv_AMG_rv_V3_rv_1600",
    "title": "2014_rv_Mercedes_rv_Benz_rv_A45_rv_AMG_rv_V3_rv_1600",
    "link_img": "https://live.staticflickr.com/65535/49890664456_5edc405481_o.jpg",
    "id_image": "2014_rv_Mercedes_rv_Benz_rv_A45_rv_AMG_rv_V3_rv_1600",
    "count_view": 0
  },
  {
    "link_thumb": "https://live.staticflickr.com/65535/48118735603_ff31264c29_n.jpg",
    "id_album": "-2100339805",
    "description": "Lamborghini_960232",
    "title": "Lamborghini_960232",
    "link_img": "https://live.staticflickr.com/65535/48118735603_939e1ba4ce_o.jpg",
    "id_image": "Lamborghini_960232",
    "count_view": 0
  },
  {
    "link_thumb": "https://live.staticflickr.com/65535/48113996413_12723b76f7_n.jpg",
    "id_album": "-1721545051",
    "description": "Chevrolet_288405",
    "title": "Chevrolet_288405",
    "link_img": "https://live.staticflickr.com/65535/48113996413_ea7d799bf4_o.jpg",
    "id_image": "Chevrolet_288405",
    "count_view": 0
  },
  {
    "link_thumb": "https://live.staticflickr.com/65535/48113636233_d792d91909_n.jpg",
    "id_album": "-680120434",
    "description": "Cadillac_680917",
    "title": "Cadillac_680917",
    "link_img": "https://live.staticflickr.com/65535/48113636233_72d344a95e_o.jpg",
    "id_image": "Cadillac_680917",
    "count_view": 0
  },
  {
    "link_thumb": "https://live.staticflickr.com/65535/48121702306_ae4e152ffe_n.jpg",
    "id_album": "-1178450892",
    "description": "Porsche_882905",
    "title": "Porsche_882905",
    "link_img": "https://live.staticflickr.com/65535/48121702306_ff978ee8aa_o.jpg",
    "id_image": "Porsche_882905",
    "count_view": 0
  },
  {
    "link_thumb": "https://live.staticflickr.com/65535/48113484018_6ecdfc4bda_n.jpg",
    "id_album": "1456070666",
    "description": "Bugatti_906947",
    "title": "Bugatti_906947",
    "link_img": "https://live.staticflickr.com/65535/48113484018_f8a6ed1dde_o.jpg",
    "id_image": "Bugatti_906947",
    "count_view": 0
  },
  {
    "link_thumb": "https://live.staticflickr.com/65535/48118026296_60d70a3375_n.jpg",
    "id_album": "-843028318",
    "description": "Jaguar_885782",
    "title": "Jaguar_885782",
    "link_img": "https://live.staticflickr.com/65535/48118026296_bb3048e878_o.jpg",
    "id_image": "Jaguar_885782",
    "count_view": 0
  },
  {
    "link_thumb": "https://live.staticflickr.com/65535/48116386537_23c3326496_n.jpg",
    "id_album": "1364506720",
    "description": "Ferrari_76931",
    "title": "Ferrari_76931",
    "link_img": "https://live.staticflickr.com/65535/48116386537_03db76394a_o.jpg",
    "id_image": "Ferrari_76931",
    "count_view": 0
  },
  {
    "link_thumb": "https://live.staticflickr.com/65535/48122925216_a207112196_n.jpg",
    "id_album": "-150952028",
    "description": "Volkswagen_345724",
    "title": "Volkswagen_345724",
    "link_img": "https://live.staticflickr.com/65535/48122925216_62b8b5592b_o.jpg",
    "id_image": "Volkswagen_345724",
    "count_view": 0
  },
  {
    "link_thumb": "https://live.staticflickr.com/65535/48113477196_c342247474_n.jpg",
    "id_album": "1246496342",
    "description": "Buick_398322",
    "title": "Buick_398322",
    "link_img": "https://live.staticflickr.com/65535/48113477196_9763ae03e1_o.jpg",
    "id_image": "Buick_398322",
    "count_view": 0
  },
  {
    "link_thumb": "https://live.staticflickr.com/65535/48123195756_59f098b65b_n.jpg",
    "id_album": "1159292543",
    "description": "Volvo_882967",
    "title": "Volvo_882967",
    "link_img": "https://live.staticflickr.com/65535/48123195756_9b1d5d0390_o.jpg",
    "id_image": "Volvo_882967",
    "count_view": 0
  },
  {
    "link_thumb": "https://live.staticflickr.com/65535/48118509033_67b9f51c3d_n.jpg",
    "id_album": "-2100339805",
    "description": "Lamborghini_454612",
    "title": "Lamborghini_454612",
    "link_img": "https://live.staticflickr.com/65535/48118509033_ed9d820238_o.jpg",
    "id_image": "Lamborghini_454612",
    "count_view": 0
  },
  {
    "link_thumb": "https://live.staticflickr.com/65535/49890418073_0779f3d710_n.jpg",
    "id_album": "-1503939287",
    "description": "2017_rv_Mini_rv_John_rv_Cooper_rv_Works_rv_GP_rv_Concept_rv_V2_rv_2000",
    "title": "2017_rv_Mini_rv_John_rv_Cooper_rv_Works_rv_GP_rv_Concept_rv_V2_rv_2000",
    "link_img": "https://live.staticflickr.com/65535/49890418073_237f05e5ee_o.jpg",
    "id_image": "2017_rv_Mini_rv_John_rv_Cooper_rv_Works_rv_GP_rv_Concept_rv_V2_rv_2000",
    "count_view": 0
  },
  {
    "link_thumb": "https://live.staticflickr.com/65535/48114124997_d20325e58b_n.jpg",
    "id_album": "-1721545051",
    "description": "Chevrolet_289126",
    "title": "Chevrolet_289126",
    "link_img": "https://live.staticflickr.com/65535/48114124997_98e99f13ba_o.jpg",
    "id_image": "Chevrolet_289126",
    "count_view": 0
  },
  {
    "link_thumb": "https://live.staticflickr.com/65535/48120686201_21146e486c_n.jpg",
    "id_album": "-6897294",
    "description": "Opel_639546",
    "title": "Opel_639546",
    "link_img": "https://live.staticflickr.com/65535/48120686201_bd71ce0f78_o.jpg",
    "id_image": "Opel_639546",
    "count_view": 0
  },
  {
    "link_thumb": "https://live.staticflickr.com/65535/48122368348_c6a241ab4d_n.jpg",
    "id_album": "-58240507",
    "description": "Studebaker_929361",
    "title": "Studebaker_929361",
    "link_img": "https://live.staticflickr.com/65535/48122368348_fa09f4688c_o.jpg",
    "id_image": "Studebaker_929361",
    "count_view": 0
  },
  {
    "link_thumb": "https://live.staticflickr.com/65535/48117114896_008d4334fb_n.jpg",
    "id_album": "-1846404630",
    "description": "Ford_401265",
    "title": "Ford_401265",
    "link_img": "https://live.staticflickr.com/65535/48117114896_47c70a6eff_o.jpg",
    "id_image": "Ford_401265",
    "count_view": 0
  },
  {
    "link_thumb": "https://live.staticflickr.com/65535/48112106512_facd8a90bd_n.jpg",
    "id_album": "-843028318",
    "description": "Jaguar_144766",
    "title": "Jaguar_144766",
    "link_img": "https://live.staticflickr.com/65535/48112106512_6da284a0c6_o.jpg",
    "id_image": "Jaguar_144766",
    "count_view": 0
  },
  {
    "link_thumb": "https://live.staticflickr.com/65535/48122493527_e07801af08_n.jpg",
    "id_album": "422322641",
    "description": "Subaru_259052",
    "title": "Subaru_259052",
    "link_img": "https://live.staticflickr.com/65535/48122493527_b5a6ddc5bc_o.jpg",
    "id_image": "Subaru_259052",
    "count_view": 0
  },
  {
    "link_thumb": "https://live.staticflickr.com/65535/49889354538_c61f2eb9da_n.jpg",
    "id_album": "2087986180",
    "description": "2012_rv_Gumpert_rv_Apollo_rv_Enraged_rv_V2_rv_1440",
    "title": "2012_rv_Gumpert_rv_Apollo_rv_Enraged_rv_V2_rv_1440",
    "link_img": "https://live.staticflickr.com/65535/49889354538_6af1ba8daa_o.jpg",
    "id_image": "2012_rv_Gumpert_rv_Apollo_rv_Enraged_rv_V2_rv_1440",
    "count_view": 0
  },
  {
    "link_thumb": "https://live.staticflickr.com/65535/49890631786_5725467b63_n.jpg",
    "id_album": "1873728602",
    "description": "2014_rv_McLaren_rv_P1_rv_V10_rv_1600",
    "title": "2014_rv_McLaren_rv_P1_rv_V10_rv_1600",
    "link_img": "https://live.staticflickr.com/65535/49890631786_bd26111d1d_o.jpg",
    "id_image": "2014_rv_McLaren_rv_P1_rv_V10_rv_1600",
    "count_view": 0
  },
  {
    "link_thumb": "https://live.staticflickr.com/65535/48120501861_08fb7fb2ce_n.jpg",
    "id_album": "810634050",
    "description": "Nissan_512450",
    "title": "Nissan_512450",
    "link_img": "https://live.staticflickr.com/65535/48120501861_0842dda1d6_o.jpg",
    "id_image": "Nissan_512450",
    "count_view": 0
  },
  {
    "link_thumb": "https://live.staticflickr.com/65535/49890085096_bdfb75f6d8_n.jpg",
    "id_album": "-59902933",
    "description": "2012_rv_Lamborghini_rv_Aventador_rv_LP_rv_700_rv_4_rv_V7_rv_1600",
    "title": "2012_rv_Lamborghini_rv_Aventador_rv_LP_rv_700_rv_4_rv_V7_rv_1600",
    "link_img": "https://live.staticflickr.com/65535/49890085096_2dc6cee6b1_o.jpg",
    "id_image": "2012_rv_Lamborghini_rv_Aventador_rv_LP_rv_700_rv_4_rv_V7_rv_1600",
    "count_view": 0
  },
  {
    "link_thumb": "https://live.staticflickr.com/65535/49890794067_be36003d5f_n.jpg",
    "id_album": "-1174261063",
    "description": "2016_rv_Mazda_rv_Global_rv_MX_rv_5_rv_Cup_rv_Racecar_rv_V6_rv_1600",
    "title": "2016_rv_Mazda_rv_Global_rv_MX_rv_5_rv_Cup_rv_Racecar_rv_V6_rv_1600",
    "link_img": "https://live.staticflickr.com/65535/49890794067_fed96765c4_o.jpg",
    "id_image": "2016_rv_Mazda_rv_Global_rv_MX_rv_5_rv_Cup_rv_Racecar_rv_V6_rv_1600",
    "count_view": 0
  },
  {
    "link_thumb": "https://live.staticflickr.com/65535/48118795756_37e867b9a2_n.jpg",
    "id_album": "1234246491",
    "description": "LandRover_351152",
    "title": "LandRover_351152",
    "link_img": "https://live.staticflickr.com/65535/48118795756_940b0178e0_o.jpg",
    "id_image": "LandRover_351152",
    "count_view": 0
  },
  {
    "link_thumb": "https://live.staticflickr.com/65535/49889895587_7619760e87_n.jpg",
    "id_album": "89481110",
    "description": "2017_rv_Ferrari_rv_LaFerrari_rv_Aperta_rv_V3_rv_2000",
    "title": "2017_rv_Ferrari_rv_LaFerrari_rv_Aperta_rv_V3_rv_2000",
    "link_img": "https://live.staticflickr.com/65535/49889895587_72ae78a915_o.jpg",
    "id_image": "2017_rv_Ferrari_rv_LaFerrari_rv_Aperta_rv_V3_rv_2000",
    "count_view": 0
  },
  {
    "link_thumb": "https://live.staticflickr.com/65535/48118519206_7f7b14120f_n.jpg",
    "id_album": "-2100339805",
    "description": "Lamborghini_527064",
    "title": "Lamborghini_527064",
    "link_img": "https://live.staticflickr.com/65535/48118519206_6526fc93cc_o.jpg",
    "id_image": "Lamborghini_527064",
    "count_view": 0
  },
  {
    "link_thumb": "https://live.staticflickr.com/65535/48112104626_c97defbabe_n.jpg",
    "id_album": "-1414939221",
    "description": "AstonMartin_313717",
    "title": "AstonMartin_313717",
    "link_img": "https://live.staticflickr.com/65535/48112104626_5829c0c4df_o.jpg",
    "id_image": "AstonMartin_313717",
    "count_view": 0
  },
  {
    "link_thumb": "https://live.staticflickr.com/65535/48113203071_dcd9425ccf_n.jpg",
    "id_album": "727633301",
    "description": "BMW_917612",
    "title": "BMW_917612",
    "link_img": "https://live.staticflickr.com/65535/48113203071_28361cd375_o.jpg",
    "id_image": "BMW_917612",
    "count_view": 0
  },
  {
    "link_thumb": "https://live.staticflickr.com/65535/49891899868_3a3455d337_n.jpg",
    "id_album": "1968261195",
    "description": "2015_rv_Subaru_rv_Impreza_rv_Sedan_rv_Concept_rv_V2_rv_2000",
    "title": "2015_rv_Subaru_rv_Impreza_rv_Sedan_rv_Concept_rv_V2_rv_2000",
    "link_img": "https://live.staticflickr.com/65535/49891899868_22ac7f5eb0_o.jpg",
    "id_image": "2015_rv_Subaru_rv_Impreza_rv_Sedan_rv_Concept_rv_V2_rv_2000",
    "count_view": 0
  },
  {
    "link_thumb": "https://live.staticflickr.com/65535/48122902922_8361ac2fbf_n.jpg",
    "id_album": "1274920659",
    "description": "Toyota_919439",
    "title": "Toyota_919439",
    "link_img": "https://live.staticflickr.com/65535/48122902922_e9ca02a84b_o.jpg",
    "id_image": "Toyota_919439",
    "count_view": 0
  },
  {
    "link_thumb": "https://live.staticflickr.com/65535/48116496338_2dca2d1203_n.jpg",
    "id_album": "-803737857",
    "description": "Fiat_273028",
    "title": "Fiat_273028",
    "link_img": "https://live.staticflickr.com/65535/48116496338_b4c5a40fc7_o.jpg",
    "id_image": "Fiat_273028",
    "count_view": 0
  },
  {
    "link_thumb": "https://live.staticflickr.com/65535/48123177563_6a68abceba_n.jpg",
    "id_album": "1159292543",
    "description": "Volvo_615376",
    "title": "Volvo_615376",
    "link_img": "https://live.staticflickr.com/65535/48123177563_15027526bc_o.jpg",
    "id_image": "Volvo_615376",
    "count_view": 0
  },
  {
    "link_thumb": "https://live.staticflickr.com/65535/48119710653_18cd9e7848_n.jpg",
    "id_album": "-731054311",
    "description": "MercedesBenz_469441",
    "title": "MercedesBenz_469441",
    "link_img": "https://live.staticflickr.com/65535/48119710653_ed5139aa5c_o.jpg",
    "id_image": "MercedesBenz_469441",
    "count_view": 0
  },
  {
    "link_thumb": "https://live.staticflickr.com/65535/48120113338_93d2f56447_n.jpg",
    "id_album": "-1116477526",
    "description": "Mitsubishi_571637",
    "title": "Mitsubishi_571637",
    "link_img": "https://live.staticflickr.com/65535/48120113338_6dfced2590_o.jpg",
    "id_image": "Mitsubishi_571637",
    "count_view": 0
  },
  {
    "link_thumb": "https://live.staticflickr.com/65535/48118901881_d53b87a89a_n.jpg",
    "id_album": "446908717",
    "description": "Lexus_880184",
    "title": "Lexus_880184",
    "link_img": "https://live.staticflickr.com/65535/48118901881_d066366d86_o.jpg",
    "id_image": "Lexus_880184",
    "count_view": 0
  },
  {
    "link_thumb": "https://live.staticflickr.com/65535/48113003027_c754c00cbc_n.jpg",
    "id_album": "727633301",
    "description": "BMW_489460",
    "title": "BMW_489460",
    "link_img": "https://live.staticflickr.com/65535/48113003027_6cab4af589_o.jpg",
    "id_image": "BMW_489460",
    "count_view": 0
  },
  {
    "link_thumb": "https://live.staticflickr.com/65535/48116343098_fc1a3af1d4_n.jpg",
    "id_album": "1364506720",
    "description": "Ferrari_81498",
    "title": "Ferrari_81498",
    "link_img": "https://live.staticflickr.com/65535/48116343098_148b545fe9_o.jpg",
    "id_image": "Ferrari_81498",
    "count_view": 0
  },
  {
    "link_thumb": "https://live.staticflickr.com/65535/48116863582_91601ae9fc_n.jpg",
    "id_album": "-1846404630",
    "description": "Ford_221856",
    "title": "Ford_221856",
    "link_img": "https://live.staticflickr.com/65535/48116863582_2d47597435_o.jpg",
    "id_image": "Ford_221856",
    "count_view": 0
  },
  {
    "link_thumb": "https://live.staticflickr.com/65535/49888438703_eb728499f3_n.jpg",
    "id_album": "1879029582",
    "description": "2016_rv_Audi_rv_RS3_rv_Sportback_rv_V5_rv_1600",
    "title": "2016_rv_Audi_rv_RS3_rv_Sportback_rv_V5_rv_1600",
    "link_img": "https://live.staticflickr.com/65535/49888438703_a840a3dde7_o.jpg",
    "id_image": "2016_rv_Audi_rv_RS3_rv_Sportback_rv_V5_rv_1600",
    "count_view": 0
  },
  {
    "link_thumb": "https://live.staticflickr.com/65535/48114931767_a0fbd2e62b_n.jpg",
    "id_album": "2072464184",
    "description": "Citroen_254342",
    "title": "Citroen_254342",
    "link_img": "https://live.staticflickr.com/65535/48114931767_34882ec657_o.jpg",
    "id_image": "Citroen_254342",
    "count_view": 0
  },
  {
    "link_thumb": "https://live.staticflickr.com/65535/48122435477_ffdf3a10c3_n.jpg",
    "id_album": "-58240507",
    "description": "Studebaker_929715",
    "title": "Studebaker_929715",
    "link_img": "https://live.staticflickr.com/65535/48122435477_5ba37c083c_o.jpg",
    "id_image": "Studebaker_929715",
    "count_view": 0
  },
  {
    "link_thumb": "https://live.staticflickr.com/65535/48119139087_b7b621df33_n.jpg",
    "id_album": "697984456",
    "description": "Maserati_188797",
    "title": "Maserati_188797",
    "link_img": "https://live.staticflickr.com/65535/48119139087_2e11d86e9f_o.jpg",
    "id_image": "Maserati_188797",
    "count_view": 0
  },
  {
    "link_thumb": "https://live.staticflickr.com/65535/48115482767_9bd1a6e745_n.jpg",
    "id_album": "413141323",
    "description": "Dodge_512600",
    "title": "Dodge_512600",
    "link_img": "https://live.staticflickr.com/65535/48115482767_f4d9802bc9_o.jpg",
    "id_image": "Dodge_512600",
    "count_view": 0
  },
  {
    "link_thumb": "https://live.staticflickr.com/65535/48119238182_87a91331da_n.jpg",
    "id_album": "697984456",
    "description": "Maserati_895928",
    "title": "Maserati_895928",
    "link_img": "https://live.staticflickr.com/65535/48119238182_dd7269d361_o.jpg",
    "id_image": "Maserati_895928",
    "count_view": 0
  },
  {
    "link_thumb": "https://live.staticflickr.com/65535/48121926097_e6b5e792aa_n.jpg",
    "id_album": "-1178450892",
    "description": "Porsche_994765",
    "title": "Porsche_994765",
    "link_img": "https://live.staticflickr.com/65535/48121926097_533d5eddc2_o.jpg",
    "id_image": "Porsche_994765",
    "count_view": 0
  },
  {
    "link_thumb": "https://live.staticflickr.com/65535/49890453462_839a2bbc37_n.jpg",
    "id_album": "636428280",
    "description": "2012_rv_Lamborghini_rv_Gallardo_rv_LP_rv_570_rv_4_rv_Super_rv_Trofeo_rv_Stradale_rv_V4_rv_1600",
    "title": "2012_rv_Lamborghini_rv_Gallardo_rv_LP_rv_570_rv_4_rv_Super_rv_Trofeo_rv_Stradale_rv_V4_rv_1600",
    "link_img": "https://live.staticflickr.com/65535/49890453462_16a63bec4a_o.jpg",
    "id_image": "2012_rv_Lamborghini_rv_Gallardo_rv_LP_rv_570_rv_4_rv_Super_rv_Trofeo_rv_Stradale_rv_V4_rv_1600",
    "count_view": 0
  },
  {
    "link_thumb": "https://live.staticflickr.com/65535/48118871103_0e6238058c_n.jpg",
    "id_album": "446908717",
    "description": "Lexus_256344",
    "title": "Lexus_256344",
    "link_img": "https://live.staticflickr.com/65535/48118871103_2a7a0cab99_o.jpg",
    "id_image": "Lexus_256344",
    "count_view": 0
  },
  {
    "link_thumb": "https://live.staticflickr.com/65535/49889115057_500d04e227_n.jpg",
    "id_album": "-172867823",
    "description": "2019_rv_Apollo_rv_IE_rv_V1_rv_2000",
    "title": "2019_rv_Apollo_rv_IE_rv_V1_rv_2000",
    "link_img": "https://live.staticflickr.com/65535/49889115057_faa52d79ec_o.jpg",
    "id_image": "2019_rv_Apollo_rv_IE_rv_V1_rv_2000",
    "count_view": 0
  },
  {
    "link_thumb": "https://live.staticflickr.com/65535/49890207268_d6e3f018c1_n.jpg",
    "id_album": "-1837389467",
    "description": "2004_rv_Mercedes_rv_Benz_rv_CLK_rv_DTM_rv_AMG_rv_V2_rv_1600",
    "title": "2004_rv_Mercedes_rv_Benz_rv_CLK_rv_DTM_rv_AMG_rv_V2_rv_1600",
    "link_img": "https://live.staticflickr.com/65535/49890207268_962ed35269_o.jpg",
    "id_image": "2004_rv_Mercedes_rv_Benz_rv_CLK_rv_DTM_rv_AMG_rv_V2_rv_1600",
    "count_view": 0
  },
  {
    "link_thumb": "https://live.staticflickr.com/65535/49889595462_cc969fb34a_n.jpg",
    "id_album": "1016927281",
    "description": "2013_rv_Porsche_rv_911_rv_4S_rv_Cabriolet_rv_V3_rv_1440",
    "title": "2013_rv_Porsche_rv_911_rv_4S_rv_Cabriolet_rv_V3_rv_1440",
    "link_img": "https://live.staticflickr.com/65535/49889595462_9186d3f5bd_o.jpg",
    "id_image": "2013_rv_Porsche_rv_911_rv_4S_rv_Cabriolet_rv_V3_rv_1440",
    "count_view": 0
  },
  {
    "link_thumb": "https://live.staticflickr.com/65535/49893020542_df58c37c0e_n.jpg",
    "id_album": "-842352648",
    "description": "2008_rv_Mitsubishi_rv_Lancer_rv_Evolution_rv_X_rv_V5_rv_1536",
    "title": "2008_rv_Mitsubishi_rv_Lancer_rv_Evolution_rv_X_rv_V5_rv_1536",
    "link_img": "https://live.staticflickr.com/65535/49893020542_d523d32946_o.jpg",
    "id_image": "2008_rv_Mitsubishi_rv_Lancer_rv_Evolution_rv_X_rv_V5_rv_1536",
    "count_view": 0
  },
  {
    "link_thumb": "https://live.staticflickr.com/65535/48119943841_b8ed54332b_n.jpg",
    "id_album": "-731054311",
    "description": "MercedesBenz_971416",
    "title": "MercedesBenz_971416",
    "link_img": "https://live.staticflickr.com/65535/48119943841_4a3c115d08_o.jpg",
    "id_image": "MercedesBenz_971416",
    "count_view": 0
  },
  {
    "link_thumb": "https://live.staticflickr.com/65535/49890589826_0b9a0e6555_n.jpg",
    "id_album": "1873728612",
    "description": "1997_rv_McLaren_rv_F1_rv_GTR_rv_Longtail_rv_V8_rv_1600",
    "title": "1997_rv_McLaren_rv_F1_rv_GTR_rv_Longtail_rv_V8_rv_1600",
    "link_img": "https://live.staticflickr.com/65535/49890589826_5fb1fb6a43_o.jpg",
    "id_image": "1997_rv_McLaren_rv_F1_rv_GTR_rv_Longtail_rv_V8_rv_1600",
    "count_view": 0
  },
  {
    "link_thumb": "https://live.staticflickr.com/65535/48121605778_6e43595c59_n.jpg",
    "id_album": "-1178450892",
    "description": "Porsche_700767",
    "title": "Porsche_700767",
    "link_img": "https://live.staticflickr.com/65535/48121605778_4af6a3a0b6_o.jpg",
    "id_image": "Porsche_700767",
    "count_view": 0
  },
  {
    "link_thumb": "https://live.staticflickr.com/65535/49890263247_7965794cc9_n.jpg",
    "id_album": "-826373217",
    "description": "2013_rv_Infiniti_rv_FX_rv_Vettel_rv_Edition_rv_V4_rv_1440",
    "title": "2013_rv_Infiniti_rv_FX_rv_Vettel_rv_Edition_rv_V4_rv_1440",
    "link_img": "https://live.staticflickr.com/65535/49890263247_8e74ce4721_o.jpg",
    "id_image": "2013_rv_Infiniti_rv_FX_rv_Vettel_rv_Edition_rv_V4_rv_1440",
    "count_view": 0
  },
  {
    "link_thumb": "https://live.staticflickr.com/65535/49890256066_70a3ee635c_n.jpg",
    "id_album": "-460218730",
    "description": "2020_rv_Land_rv_Rover_rv_Defender_rv_V5_rv_2160",
    "title": "2020_rv_Land_rv_Rover_rv_Defender_rv_V5_rv_2160",
    "link_img": "https://live.staticflickr.com/65535/49890256066_366ca38bff_o.jpg",
    "id_image": "2020_rv_Land_rv_Rover_rv_Defender_rv_V5_rv_2160",
    "count_view": 0
  },
  {
    "link_thumb": "https://live.staticflickr.com/65535/49889065186_2e7998e13f_n.jpg",
    "id_album": "-1839908199",
    "description": "2016_rv_BMW_rv_M2_rv_Coupe_rv_V13_rv_2000",
    "title": "2016_rv_BMW_rv_M2_rv_Coupe_rv_V13_rv_2000",
    "link_img": "https://live.staticflickr.com/65535/49889065186_5a78f8b61a_o.jpg",
    "id_image": "2016_rv_BMW_rv_M2_rv_Coupe_rv_V13_rv_2000",
    "count_view": 0
  },
  {
    "link_thumb": "https://live.staticflickr.com/65535/48120266142_8ed9856850_n.jpg",
    "id_album": "666438681",
    "description": "Motorcycles_309144",
    "title": "Motorcycles_309144",
    "link_img": "https://live.staticflickr.com/65535/48120266142_fdb7f9320f_o.jpg",
    "id_image": "Motorcycles_309144",
    "count_view": 0
  },
  {
    "link_thumb": "https://live.staticflickr.com/65535/48114005032_3a24750fb3_n.jpg",
    "id_album": "-1721545051",
    "description": "Chevrolet_254924",
    "title": "Chevrolet_254924",
    "link_img": "https://live.staticflickr.com/65535/48114005032_def93f0206_o.jpg",
    "id_image": "Chevrolet_254924",
    "count_view": 0
  },
  {
    "link_thumb": "https://live.staticflickr.com/65535/49892041928_8685ddf7c5_n.jpg",
    "id_album": "2103242556",
    "description": "2007_rv_Honda_rv_Civic_rv_Type_rv_R_rv_Sedan_rv_V8_rv_1536",
    "title": "2007_rv_Honda_rv_Civic_rv_Type_rv_R_rv_Sedan_rv_V8_rv_1536",
    "link_img": "https://live.staticflickr.com/65535/49892041928_e3a3df3263_o.jpg",
    "id_image": "2007_rv_Honda_rv_Civic_rv_Type_rv_R_rv_Sedan_rv_V8_rv_1536",
    "count_view": 0
  },
  {
    "link_thumb": "https://live.staticflickr.com/65535/49890793343_5e87328a3c_n.jpg",
    "id_album": "-1209827947",
    "description": "2015_rv_Pogea_rv_Racing_rv_4C_rv_Centurion_rv_V2_rv_1600",
    "title": "2015_rv_Pogea_rv_Racing_rv_4C_rv_Centurion_rv_V2_rv_1600",
    "link_img": "https://live.staticflickr.com/65535/49890793343_967584ab1c_o.jpg",
    "id_image": "2015_rv_Pogea_rv_Racing_rv_4C_rv_Centurion_rv_V2_rv_1600",
    "count_view": 0
  },
  {
    "link_thumb": "https://live.staticflickr.com/65535/48117596776_69e6a75090_n.jpg",
    "id_album": "-1846404630",
    "description": "Ford_934446",
    "title": "Ford_934446",
    "link_img": "https://live.staticflickr.com/65535/48117596776_7dc9c81375_o.jpg",
    "id_image": "Ford_934446",
    "count_view": 0
  },
  {
    "link_thumb": "https://live.staticflickr.com/65535/48115416953_e3f81d905c_n.jpg",
    "id_album": "413141323",
    "description": "Dodge_512413",
    "title": "Dodge_512413",
    "link_img": "https://live.staticflickr.com/65535/48115416953_f02dbdb8ef_o.jpg",
    "id_image": "Dodge_512413",
    "count_view": 0
  },
  {
    "link_thumb": "https://live.staticflickr.com/65535/49890867723_47e3d87338_n.jpg",
    "id_album": "-857328710",
    "description": "2013_rv_Porsche_rv_Boxster_rv_by_rv_TechArt_rv_V2_rv_1440",
    "title": "2013_rv_Porsche_rv_Boxster_rv_by_rv_TechArt_rv_V2_rv_1440",
    "link_img": "https://live.staticflickr.com/65535/49890867723_6e9c109187_o.jpg",
    "id_image": "2013_rv_Porsche_rv_Boxster_rv_by_rv_TechArt_rv_V2_rv_1440",
    "count_view": 0
  },
  {
    "link_thumb": "https://live.staticflickr.com/65535/49889134468_c018416a4d_n.jpg",
    "id_album": "-135411974",
    "description": "1965_rv_Ford_rv_Mustang_rv_Fastback_rv_V5_rv_1536",
    "title": "1965_rv_Ford_rv_Mustang_rv_Fastback_rv_V5_rv_1536",
    "link_img": "https://live.staticflickr.com/65535/49889134468_47c9fff330_o.jpg",
    "id_image": "1965_rv_Ford_rv_Mustang_rv_Fastback_rv_V5_rv_1536",
    "count_view": 0
  },
  {
    "link_thumb": "https://live.staticflickr.com/65535/48120364421_a9d0346e67_n.jpg",
    "id_album": "810634050",
    "description": "Nissan_273738",
    "title": "Nissan_273738",
    "link_img": "https://live.staticflickr.com/65535/48120364421_0014c0d215_o.jpg",
    "id_image": "Nissan_273738",
    "count_view": 0
  },
  {
    "link_thumb": "https://live.staticflickr.com/65535/48121130673_ac3206c721_n.jpg",
    "id_album": "-2099496752",
    "description": "Pontiac_243686",
    "title": "Pontiac_243686",
    "link_img": "https://live.staticflickr.com/65535/48121130673_6b01de4482_o.jpg",
    "id_image": "Pontiac_243686",
    "count_view": 0
  },
  {
    "link_thumb": "https://live.staticflickr.com/65535/49890352123_ff5997f202_n.jpg",
    "id_album": "-35902487",
    "description": "2017_rv_Mercedes_rv_AMG_rv_Project_rv_ONE_rv_Concept_rv_V8_rv_2000",
    "title": "2017_rv_Mercedes_rv_AMG_rv_Project_rv_ONE_rv_Concept_rv_V8_rv_2000",
    "link_img": "https://live.staticflickr.com/65535/49890352123_fa47e0dd90_o.jpg",
    "id_image": "2017_rv_Mercedes_rv_AMG_rv_Project_rv_ONE_rv_Concept_rv_V8_rv_2000",
    "count_view": 0
  },
  {
    "link_thumb": "https://live.staticflickr.com/65535/48113252793_1335057bdd_n.jpg",
    "id_album": "727633301",
    "description": "BMW_920104",
    "title": "BMW_920104",
    "link_img": "https://live.staticflickr.com/65535/48113252793_2813c6d4fc_o.jpg",
    "id_image": "BMW_920104",
    "count_view": 0
  },
  {
    "link_thumb": "https://live.staticflickr.com/65535/48112305013_a34012e6d0_n.jpg",
    "id_album": "-15119147",
    "description": "Audi_317268",
    "title": "Audi_317268",
    "link_img": "https://live.staticflickr.com/65535/48112305013_6117d5f21e_o.jpg",
    "id_image": "Audi_317268",
    "count_view": 0
  },
  {
    "link_thumb": "https://live.staticflickr.com/65535/48112609391_687735f364_n.jpg",
    "id_album": "727633301",
    "description": "BMW_212195",
    "title": "BMW_212195",
    "link_img": "https://live.staticflickr.com/65535/48112609391_e52eef03be_o.jpg",
    "id_image": "BMW_212195",
    "count_view": 0
  },
  {
    "link_thumb": "https://live.staticflickr.com/65535/48115670016_a73103d9a6_n.jpg",
    "id_album": "1364506720",
    "description": "Ferrari_241729",
    "title": "Ferrari_241729",
    "link_img": "https://live.staticflickr.com/65535/48115670016_319c42c31f_o.jpg",
    "id_image": "Ferrari_241729",
    "count_view": 0
  },
  {
    "link_thumb": "https://live.staticflickr.com/65535/48120009978_7cc5f9ea33_n.jpg",
    "id_album": "-1366790033",
    "description": "Mercury_182018",
    "title": "Mercury_182018",
    "link_img": "https://live.staticflickr.com/65535/48120009978_053fc62770_o.jpg",
    "id_image": "Mercury_182018",
    "count_view": 0
  },
  {
    "link_thumb": "https://live.staticflickr.com/65535/49890376211_4b45a71656_n.jpg",
    "id_album": "-391278537",
    "description": "2016_rv_Lotus_rv_Evora_rv_400_rv_V10_rv_1600",
    "title": "2016_rv_Lotus_rv_Evora_rv_400_rv_V10_rv_1600",
    "link_img": "https://live.staticflickr.com/65535/49890376211_9fa4364864_o.jpg",
    "id_image": "2016_rv_Lotus_rv_Evora_rv_400_rv_V10_rv_1600",
    "count_view": 0
  },
  {
    "link_thumb": "https://live.staticflickr.com/65535/48112955641_c357715bf9_n.jpg",
    "id_album": "727633301",
    "description": "BMW_512026",
    "title": "BMW_512026",
    "link_img": "https://live.staticflickr.com/65535/48112955641_3b1efcca3c_o.jpg",
    "id_image": "BMW_512026",
    "count_view": 0
  },
  {
    "link_thumb": "https://live.staticflickr.com/65535/48114064027_8710b0d7ae_n.jpg",
    "id_album": "-1721545051",
    "description": "Chevrolet_288481",
    "title": "Chevrolet_288481",
    "link_img": "https://live.staticflickr.com/65535/48114064027_f83bae5204_o.jpg",
    "id_image": "Chevrolet_288481",
    "count_view": 0
  },
  {
    "link_thumb": "https://live.staticflickr.com/65535/49889253541_422cb5ab53_n.jpg",
    "id_album": "-843860003",
    "description": "2014_rv_Chevrolet_rv_Corvette_rv_Stingray_rv_Convertible_rv_V6_rv_1600",
    "title": "2014_rv_Chevrolet_rv_Corvette_rv_Stingray_rv_Convertible_rv_V6_rv_1600",
    "link_img": "https://live.staticflickr.com/65535/49889253541_deb38f8334_o.jpg",
    "id_image": "2014_rv_Chevrolet_rv_Corvette_rv_Stingray_rv_Convertible_rv_V6_rv_1600",
    "count_view": 0
  },
  {
    "link_thumb": "https://live.staticflickr.com/65535/48112753097_9be71ffbce_n.jpg",
    "id_album": "727633301",
    "description": "BMW_253966",
    "title": "BMW_253966",
    "link_img": "https://live.staticflickr.com/65535/48112753097_c33bb5e00b_o.jpg",
    "id_image": "BMW_253966",
    "count_view": 0
  },
  {
    "link_thumb": "https://live.staticflickr.com/65535/48119543598_e4d6635254_n.jpg",
    "id_album": "-731054311",
    "description": "MercedesBenz_257134",
    "title": "MercedesBenz_257134",
    "link_img": "https://live.staticflickr.com/65535/48119543598_3c89299d17_o.jpg",
    "id_image": "MercedesBenz_257134",
    "count_view": 0
  },
  {
    "link_thumb": "https://live.staticflickr.com/65535/48117659702_2bcd92ba29_n.jpg",
    "id_album": "-1846404630",
    "description": "Ford_931476",
    "title": "Ford_931476",
    "link_img": "https://live.staticflickr.com/65535/48117659702_f27a7573f3_o.jpg",
    "id_image": "Ford_931476",
    "count_view": 0
  },
  {
    "link_thumb": "https://live.staticflickr.com/65535/48112908538_4b33edae7f_n.jpg",
    "id_album": "727633301",
    "description": "BMW_484636",
    "title": "BMW_484636",
    "link_img": "https://live.staticflickr.com/65535/48112908538_7476d4ff64_o.jpg",
    "id_image": "BMW_484636",
    "count_view": 0
  },
  {
    "link_thumb": "https://live.staticflickr.com/65535/48120518242_7e74253447_n.jpg",
    "id_album": "810634050",
    "description": "Nissan_450399",
    "title": "Nissan_450399",
    "link_img": "https://live.staticflickr.com/65535/48120518242_c42cb43e76_o.jpg",
    "id_image": "Nissan_450399",
    "count_view": 0
  },
  {
    "link_thumb": "https://live.staticflickr.com/65535/49891692888_6e6f844972_n.jpg",
    "id_album": "-461005169",
    "description": "2017_rv_Nissan_rv_GT_rv_R_rv_V14_rv_2000",
    "title": "2017_rv_Nissan_rv_GT_rv_R_rv_V14_rv_2000",
    "link_img": "https://live.staticflickr.com/65535/49891692888_2816649dd2_o.jpg",
    "id_image": "2017_rv_Nissan_rv_GT_rv_R_rv_V14_rv_2000",
    "count_view": 0
  },
  {
    "link_thumb": "https://live.staticflickr.com/65535/48119113653_8833c0ae03_n.jpg",
    "id_album": "697984456",
    "description": "Maserati_409343",
    "title": "Maserati_409343",
    "link_img": "https://live.staticflickr.com/65535/48119113653_d8d5f60ef4_o.jpg",
    "id_image": "Maserati_409343",
    "count_view": 0
  },
  {
    "link_thumb": "https://live.staticflickr.com/65535/48112399277_46886eb827_n.jpg",
    "id_album": "-15119147",
    "description": "Audi_450560",
    "title": "Audi_450560",
    "link_img": "https://live.staticflickr.com/65535/48112399277_5e81d48441_o.jpg",
    "id_image": "Audi_450560",
    "count_view": 0
  },
  {
    "link_thumb": "https://live.staticflickr.com/65535/48115357551_9e37122f07_n.jpg",
    "id_album": "413141323",
    "description": "Dodge_504586",
    "title": "Dodge_504586",
    "link_img": "https://live.staticflickr.com/65535/48115357551_a645715d99_o.jpg",
    "id_image": "Dodge_504586",
    "count_view": 0
  },
  {
    "link_thumb": "https://live.staticflickr.com/65535/48122536208_b45c836534_n.jpg",
    "id_album": "422322641",
    "description": "Subaru_692466",
    "title": "Subaru_692466",
    "link_img": "https://live.staticflickr.com/65535/48122536208_15c5285e12_o.jpg",
    "id_image": "Subaru_692466",
    "count_view": 0
  },
  {
    "link_thumb": "https://live.staticflickr.com/65535/49889418541_e171d2d94b_n.jpg",
    "id_album": "-1219799180",
    "description": "2015_rv_BMW_rv_M3_rv_Sedan_rv_V6_rv_1600",
    "title": "2015_rv_BMW_rv_M3_rv_Sedan_rv_V6_rv_1600",
    "link_img": "https://live.staticflickr.com/65535/49889418541_82faaf63ee_o.jpg",
    "id_image": "2015_rv_BMW_rv_M3_rv_Sedan_rv_V6_rv_1600",
    "count_view": 0
  },
  {
    "link_thumb": "https://live.staticflickr.com/65535/48115056748_4206f4e66e_n.jpg",
    "id_album": "413141323",
    "description": "Dodge_167499",
    "title": "Dodge_167499",
    "link_img": "https://live.staticflickr.com/65535/48115056748_c75a415ef1_o.jpg",
    "id_image": "Dodge_167499",
    "count_view": 0
  },
  {
    "link_thumb": "https://live.staticflickr.com/65535/48112320638_7bc12cb0ae_n.jpg",
    "id_album": "-15119147",
    "description": "Audi_368939",
    "title": "Audi_368939",
    "link_img": "https://live.staticflickr.com/65535/48112320638_205f2275d3_o.jpg",
    "id_image": "Audi_368939",
    "count_view": 0
  },
  {
    "link_thumb": "https://live.staticflickr.com/65535/49890366991_7456da5553_n.jpg",
    "id_album": "1985230094",
    "description": "2002_rv_Lotus_rv_Esprit_rv_V8_rv_V6_rv_1440",
    "title": "2002_rv_Lotus_rv_Esprit_rv_V8_rv_V6_rv_1440",
    "link_img": "https://live.staticflickr.com/65535/49890366991_7cffb17d09_o.jpg",
    "id_image": "2002_rv_Lotus_rv_Esprit_rv_V8_rv_V6_rv_1440",
    "count_view": 0
  },
  {
    "link_thumb": "https://live.staticflickr.com/65535/48119044916_bd07239004_n.jpg",
    "id_album": "697984456",
    "description": "Maserati_188773",
    "title": "Maserati_188773",
    "link_img": "https://live.staticflickr.com/65535/48119044916_3041afb10b_o.jpg",
    "id_image": "Maserati_188773",
    "count_view": 0
  }
]