[
  {
    "link_thumb": "https://live.staticflickr.com/65535/49889923096_027c5f609f_n.jpg",
    "id_album": "-2000594684",
    "description": "2002_rv_Holden_rv_HSV_rv_HRT_rv_427_rv_V1_rv_1440",
    "title": "2002_rv_Holden_rv_HSV_rv_HRT_rv_427_rv_V1_rv_1440",
    "link_img": "https://live.staticflickr.com/65535/49889923096_b0c703b682_o.jpg",
    "id_image": "2002_rv_Holden_rv_HSV_rv_HRT_rv_427_rv_V1_rv_1440",
    "count_view": 0
  },
  {
    "link_thumb": "https://live.staticflickr.com/65535/49890240771_3d9e1429b6_n.jpg",
    "id_album": "-2000594684",
    "description": "2002_rv_Holden_rv_HSV_rv_HRT_rv_427_rv_V2_rv_1440",
    "title": "2002_rv_Holden_rv_HSV_rv_HRT_rv_427_rv_V2_rv_1440",
    "link_img": "https://live.staticflickr.com/65535/49890240771_440a0b04b3_o.jpg",
    "id_image": "2002_rv_Holden_rv_HSV_rv_HRT_rv_427_rv_V2_rv_1440",
    "count_view": 0
  },
  {
    "link_thumb": "https://live.staticflickr.com/65535/49890233557_387c565ab6_n.jpg",
    "id_album": "-2000594684",
    "description": "2004_rv_Holden_rv_HSV_rv_Coupe_rv_GTO_rv_V1_rv_1440",
    "title": "2004_rv_Holden_rv_HSV_rv_Coupe_rv_GTO_rv_V1_rv_1440",
    "link_img": "https://live.staticflickr.com/65535/49890233557_4c8d2df8e2_o.jpg",
    "id_image": "2004_rv_Holden_rv_HSV_rv_Coupe_rv_GTO_rv_V1_rv_1440",
    "count_view": 0
  },
  {
    "link_thumb": "https://live.staticflickr.com/65535/49889405778_fb38e2b4e1_n.jpg",
    "id_album": "-2000594684",
    "description": "2004_rv_Holden_rv_HSV_rv_Coupe_rv_GTO_rv_V2_rv_1440",
    "title": "2004_rv_Holden_rv_HSV_rv_Coupe_rv_GTO_rv_V2_rv_1440",
    "link_img": "https://live.staticflickr.com/65535/49889405778_453695378a_o.jpg",
    "id_image": "2004_rv_Holden_rv_HSV_rv_Coupe_rv_GTO_rv_V2_rv_1440",
    "count_view": 0
  },
  {
    "link_thumb": "https://live.staticflickr.com/65535/49889405878_c19bd4c9b6_n.jpg",
    "id_album": "-2000594684",
    "description": "2004_rv_Holden_rv_HSV_rv_Coupe_rv_GTO_rv_V3_rv_1440",
    "title": "2004_rv_Holden_rv_HSV_rv_Coupe_rv_GTO_rv_V3_rv_1440",
    "link_img": "https://live.staticflickr.com/65535/49889405878_d2dc3f5e42_o.jpg",
    "id_image": "2004_rv_Holden_rv_HSV_rv_Coupe_rv_GTO_rv_V3_rv_1440",
    "count_view": 0
  },
  {
    "link_thumb": "https://live.staticflickr.com/65535/49889406008_2111b49bb3_n.jpg",
    "id_album": "-2000594684",
    "description": "2007_rv_Holden_rv_HSV_rv_E_rv_Series_rv_V1_rv_1536",
    "title": "2007_rv_Holden_rv_HSV_rv_E_rv_Series_rv_V1_rv_1536",
    "link_img": "https://live.staticflickr.com/65535/49889406008_a8d6685023_o.jpg",
    "id_image": "2007_rv_Holden_rv_HSV_rv_E_rv_Series_rv_V1_rv_1536",
    "count_view": 0
  },
  {
    "link_thumb": "https://live.staticflickr.com/65535/49889923651_d815107123_n.jpg",
    "id_album": "-2000594684",
    "description": "2007_rv_Holden_rv_HSV_rv_E_rv_Series_rv_V2_rv_1536",
    "title": "2007_rv_Holden_rv_HSV_rv_E_rv_Series_rv_V2_rv_1536",
    "link_img": "https://live.staticflickr.com/65535/49889923651_9b0b70826a_o.jpg",
    "id_image": "2007_rv_Holden_rv_HSV_rv_E_rv_Series_rv_V2_rv_1536",
    "count_view": 0
  },
  {
    "link_thumb": "https://live.staticflickr.com/65535/49889923701_bf8aca9f7e_n.jpg",
    "id_album": "-2000594684",
    "description": "2007_rv_Holden_rv_HSV_rv_E_rv_Series_rv_V3_rv_1536",
    "title": "2007_rv_Holden_rv_HSV_rv_E_rv_Series_rv_V3_rv_1536",
    "link_img": "https://live.staticflickr.com/65535/49889923701_b04ae9bd7b_o.jpg",
    "id_image": "2007_rv_Holden_rv_HSV_rv_E_rv_Series_rv_V3_rv_1536",
    "count_view": 0
  },
  {
    "link_thumb": "https://live.staticflickr.com/65535/49890234052_6c48d0426a_n.jpg",
    "id_album": "-2000594684",
    "description": "2007_rv_Holden_rv_HSV_rv_E_rv_Series_rv_V4_rv_1536",
    "title": "2007_rv_Holden_rv_HSV_rv_E_rv_Series_rv_V4_rv_1536",
    "link_img": "https://live.staticflickr.com/65535/49890234052_38de2babb8_o.jpg",
    "id_image": "2007_rv_Holden_rv_HSV_rv_E_rv_Series_rv_V4_rv_1536",
    "count_view": 0
  },
  {
    "link_thumb": "https://live.staticflickr.com/65535/49889923876_b417ab4f43_n.jpg",
    "id_album": "-2000594684",
    "description": "2007_rv_Holden_rv_HSV_rv_E_rv_Series_rv_V5_rv_1536",
    "title": "2007_rv_Holden_rv_HSV_rv_E_rv_Series_rv_V5_rv_1536",
    "link_img": "https://live.staticflickr.com/65535/49889923876_79aa697d9e_o.jpg",
    "id_image": "2007_rv_Holden_rv_HSV_rv_E_rv_Series_rv_V5_rv_1536",
    "count_view": 0
  },
  {
    "link_thumb": "https://live.staticflickr.com/65535/49889406383_0e3b56897c_n.jpg",
    "id_album": "-2000594684",
    "description": "2007_rv_Holden_rv_HSV_rv_E_rv_Series_rv_V6_rv_1536",
    "title": "2007_rv_Holden_rv_HSV_rv_E_rv_Series_rv_V6_rv_1536",
    "link_img": "https://live.staticflickr.com/65535/49889406383_20754e2506_o.jpg",
    "id_image": "2007_rv_Holden_rv_HSV_rv_E_rv_Series_rv_V6_rv_1536",
    "count_view": 0
  },
  {
    "link_thumb": "https://live.staticflickr.com/65535/49890234277_29f86089a5_n.jpg",
    "id_album": "-2000594684",
    "description": "2008_rv_Holden_rv_HSV_rv_E_rv_Series_rv_LS3_rv_V1_rv_1200",
    "title": "2008_rv_Holden_rv_HSV_rv_E_rv_Series_rv_LS3_rv_V1_rv_1200",
    "link_img": "https://live.staticflickr.com/65535/49890234277_4f69f3ff58_o.jpg",
    "id_image": "2008_rv_Holden_rv_HSV_rv_E_rv_Series_rv_LS3_rv_V1_rv_1200",
    "count_view": 0
  },
  {
    "link_thumb": "https://live.staticflickr.com/65535/49890234407_127a309079_n.jpg",
    "id_album": "-2000594684",
    "description": "2008_rv_Holden_rv_HSV_rv_E_rv_Series_rv_LS3_rv_V2_rv_1200",
    "title": "2008_rv_Holden_rv_HSV_rv_E_rv_Series_rv_LS3_rv_V2_rv_1200",
    "link_img": "https://live.staticflickr.com/65535/49890234407_6e612c7afc_o.jpg",
    "id_image": "2008_rv_Holden_rv_HSV_rv_E_rv_Series_rv_LS3_rv_V2_rv_1200",
    "count_view": 0
  },
  {
    "link_thumb": "https://live.staticflickr.com/65535/49889406603_ecb0b056a7_n.jpg",
    "id_album": "-2000594684",
    "description": "2008_rv_Holden_rv_HSV_rv_E_rv_Series_rv_LS3_rv_V3_rv_1200",
    "title": "2008_rv_Holden_rv_HSV_rv_E_rv_Series_rv_LS3_rv_V3_rv_1200",
    "link_img": "https://live.staticflickr.com/65535/49889406603_96dd6e4d17_o.jpg",
    "id_image": "2008_rv_Holden_rv_HSV_rv_E_rv_Series_rv_LS3_rv_V3_rv_1200",
    "count_view": 0
  },
  {
    "link_thumb": "https://live.staticflickr.com/65535/49889924371_7008d2b543_n.jpg",
    "id_album": "-2000594684",
    "description": "2009_rv_Holden_rv_HSV_rv_W427_rv_V1_rv_1440",
    "title": "2009_rv_Holden_rv_HSV_rv_W427_rv_V1_rv_1440",
    "link_img": "https://live.staticflickr.com/65535/49889924371_15f1304b7d_o.jpg",
    "id_image": "2009_rv_Holden_rv_HSV_rv_W427_rv_V1_rv_1440",
    "count_view": 0
  },
  {
    "link_thumb": "https://live.staticflickr.com/65535/49890234662_329e69ce27_n.jpg",
    "id_album": "-2000594684",
    "description": "2009_rv_Holden_rv_HSV_rv_W427_rv_V2_rv_1440",
    "title": "2009_rv_Holden_rv_HSV_rv_W427_rv_V2_rv_1440",
    "link_img": "https://live.staticflickr.com/65535/49890234662_c5464a2db2_o.jpg",
    "id_image": "2009_rv_Holden_rv_HSV_rv_W427_rv_V2_rv_1440",
    "count_view": 0
  },
  {
    "link_thumb": "https://live.staticflickr.com/65535/49889924566_408b26159d_n.jpg",
    "id_album": "-2000594684",
    "description": "2009_rv_Holden_rv_HSV_rv_W427_rv_V3_rv_1440",
    "title": "2009_rv_Holden_rv_HSV_rv_W427_rv_V3_rv_1440",
    "link_img": "https://live.staticflickr.com/65535/49889924566_cc35efc08b_o.jpg",
    "id_image": "2009_rv_Holden_rv_HSV_rv_W427_rv_V3_rv_1440",
    "count_view": 0
  },
  {
    "link_thumb": "https://live.staticflickr.com/65535/49889406998_30775c9393_n.jpg",
    "id_album": "-2000594684",
    "description": "2009_rv_Holden_rv_HSV_rv_W427_rv_V4_rv_1440",
    "title": "2009_rv_Holden_rv_HSV_rv_W427_rv_V4_rv_1440",
    "link_img": "https://live.staticflickr.com/65535/49889406998_1d8e09a6e2_o.jpg",
    "id_image": "2009_rv_Holden_rv_HSV_rv_W427_rv_V4_rv_1440",
    "count_view": 0
  },
  {
    "link_thumb": "https://live.staticflickr.com/65535/49890234852_506c7b6504_n.jpg",
    "id_album": "-2000594684",
    "description": "2009_rv_Holden_rv_HSV_rv_W427_rv_V5_rv_1440",
    "title": "2009_rv_Holden_rv_HSV_rv_W427_rv_V5_rv_1440",
    "link_img": "https://live.staticflickr.com/65535/49890234852_ac717ae10b_o.jpg",
    "id_image": "2009_rv_Holden_rv_HSV_rv_W427_rv_V5_rv_1440",
    "count_view": 0
  },
  {
    "link_thumb": "https://live.staticflickr.com/65535/49889407188_78704f4062_n.jpg",
    "id_album": "-2000594684",
    "description": "2009_rv_Holden_rv_HSV_rv_W427_rv_V6_rv_1440",
    "title": "2009_rv_Holden_rv_HSV_rv_W427_rv_V6_rv_1440",
    "link_img": "https://live.staticflickr.com/65535/49889407188_f20b5c96ba_o.jpg",
    "id_image": "2009_rv_Holden_rv_HSV_rv_W427_rv_V6_rv_1440",
    "count_view": 0
  },
  {
    "link_thumb": "https://live.staticflickr.com/65535/49890235017_4e43c3d46c_n.jpg",
    "id_album": "-2000594684",
    "description": "2010_rv_Holden_rv_HSV_rv_E_rv_Series_rv_2_rv_V1_rv_1200",
    "title": "2010_rv_Holden_rv_HSV_rv_E_rv_Series_rv_2_rv_V1_rv_1200",
    "link_img": "https://live.staticflickr.com/65535/49890235017_d9a769f5d2_o.jpg",
    "id_image": "2010_rv_Holden_rv_HSV_rv_E_rv_Series_rv_2_rv_V1_rv_1200",
    "count_view": 0
  },
  {
    "link_thumb": "https://live.staticflickr.com/65535/49889925131_d8c2a77299_n.jpg",
    "id_album": "-2000594684",
    "description": "2010_rv_Holden_rv_HSV_rv_E_rv_Series_rv_2_rv_V2_rv_1200",
    "title": "2010_rv_Holden_rv_HSV_rv_E_rv_Series_rv_2_rv_V2_rv_1200",
    "link_img": "https://live.staticflickr.com/65535/49889925131_d262db3346_o.jpg",
    "id_image": "2010_rv_Holden_rv_HSV_rv_E_rv_Series_rv_2_rv_V2_rv_1200",
    "count_view": 0
  },
  {
    "link_thumb": "https://live.staticflickr.com/65535/49890235212_bbf2355fe5_n.jpg",
    "id_album": "-2000594684",
    "description": "2010_rv_Holden_rv_HSV_rv_E_rv_Series_rv_2_rv_V3_rv_1200",
    "title": "2010_rv_Holden_rv_HSV_rv_E_rv_Series_rv_2_rv_V3_rv_1200",
    "link_img": "https://live.staticflickr.com/65535/49890235212_5523cc2853_o.jpg",
    "id_image": "2010_rv_Holden_rv_HSV_rv_E_rv_Series_rv_2_rv_V3_rv_1200",
    "count_view": 0
  },
  {
    "link_thumb": "https://live.staticflickr.com/65535/49890235287_f816694fbf_n.jpg",
    "id_album": "-2000594684",
    "description": "2010_rv_Holden_rv_HSV_rv_E_rv_Series_rv_2_rv_V4_rv_1200",
    "title": "2010_rv_Holden_rv_HSV_rv_E_rv_Series_rv_2_rv_V4_rv_1200",
    "link_img": "https://live.staticflickr.com/65535/49890235287_80af17fc20_o.jpg",
    "id_image": "2010_rv_Holden_rv_HSV_rv_E_rv_Series_rv_2_rv_V4_rv_1200",
    "count_view": 0
  },
  {
    "link_thumb": "https://live.staticflickr.com/65535/49889407628_15b120268f_n.jpg",
    "id_album": "-2000594684",
    "description": "2010_rv_Holden_rv_HSV_rv_E_rv_Series_rv_2_rv_V5_rv_1200",
    "title": "2010_rv_Holden_rv_HSV_rv_E_rv_Series_rv_2_rv_V5_rv_1200",
    "link_img": "https://live.staticflickr.com/65535/49889407628_25bef9e93d_o.jpg",
    "id_image": "2010_rv_Holden_rv_HSV_rv_E_rv_Series_rv_2_rv_V5_rv_1200",
    "count_view": 0
  },
  {
    "link_thumb": "https://live.staticflickr.com/65535/49889925511_b42d4b818e_n.jpg",
    "id_album": "-2000594684",
    "description": "2010_rv_Holden_rv_HSV_rv_E_rv_Series_rv_2_rv_V6_rv_1200",
    "title": "2010_rv_Holden_rv_HSV_rv_E_rv_Series_rv_2_rv_V6_rv_1200",
    "link_img": "https://live.staticflickr.com/65535/49889925511_f95078d2d4_o.jpg",
    "id_image": "2010_rv_Holden_rv_HSV_rv_E_rv_Series_rv_2_rv_V6_rv_1200",
    "count_view": 0
  },
  {
    "link_thumb": "https://live.staticflickr.com/65535/49889925611_9c78d1116d_n.jpg",
    "id_album": "-2000594684",
    "description": "2011_rv_Holden_rv_HSV_rv_E_rv_Series_rv_3_rv_V1_rv_1536",
    "title": "2011_rv_Holden_rv_HSV_rv_E_rv_Series_rv_3_rv_V1_rv_1536",
    "link_img": "https://live.staticflickr.com/65535/49889925611_f1e9345ff2_o.jpg",
    "id_image": "2011_rv_Holden_rv_HSV_rv_E_rv_Series_rv_3_rv_V1_rv_1536",
    "count_view": 0
  },
  {
    "link_thumb": "https://live.staticflickr.com/65535/49890235747_88e201c640_n.jpg",
    "id_album": "-2000594684",
    "description": "2011_rv_Holden_rv_HSV_rv_E_rv_Series_rv_3_rv_V2_rv_1536",
    "title": "2011_rv_Holden_rv_HSV_rv_E_rv_Series_rv_3_rv_V2_rv_1536",
    "link_img": "https://live.staticflickr.com/65535/49890235747_daa0027045_o.jpg",
    "id_image": "2011_rv_Holden_rv_HSV_rv_E_rv_Series_rv_3_rv_V2_rv_1536",
    "count_view": 0
  },
  {
    "link_thumb": "https://live.staticflickr.com/65535/49889925796_367bae8471_n.jpg",
    "id_album": "-2000594684",
    "description": "2011_rv_Holden_rv_HSV_rv_E_rv_Series_rv_3_rv_V3_rv_1536",
    "title": "2011_rv_Holden_rv_HSV_rv_E_rv_Series_rv_3_rv_V3_rv_1536",
    "link_img": "https://live.staticflickr.com/65535/49889925796_c638807f6a_o.jpg",
    "id_image": "2011_rv_Holden_rv_HSV_rv_E_rv_Series_rv_3_rv_V3_rv_1536",
    "count_view": 0
  },
  {
    "link_thumb": "https://live.staticflickr.com/65535/49889925996_51446b2a94_n.jpg",
    "id_album": "-2000594684",
    "description": "2012_rv_HSV_rv_GTS_rv_25th_rv_Anniversary_rv_Edition_rv_V1_rv_1440",
    "title": "2012_rv_HSV_rv_GTS_rv_25th_rv_Anniversary_rv_Edition_rv_V1_rv_1440",
    "link_img": "https://live.staticflickr.com/65535/49889925996_31783fda88_o.jpg",
    "id_image": "2012_rv_HSV_rv_GTS_rv_25th_rv_Anniversary_rv_Edition_rv_V1_rv_1440",
    "count_view": 0
  },
  {
    "link_thumb": "https://live.staticflickr.com/65535/49889926121_a2e723dc7c_n.jpg",
    "id_album": "-2000594684",
    "description": "2012_rv_HSV_rv_GTS_rv_25th_rv_Anniversary_rv_Edition_rv_V2_rv_1440",
    "title": "2012_rv_HSV_rv_GTS_rv_25th_rv_Anniversary_rv_Edition_rv_V2_rv_1440",
    "link_img": "https://live.staticflickr.com/65535/49889926121_5c483652a4_o.jpg",
    "id_image": "2012_rv_HSV_rv_GTS_rv_25th_rv_Anniversary_rv_Edition_rv_V2_rv_1440",
    "count_view": 0
  },
  {
    "link_thumb": "https://live.staticflickr.com/65535/49889408263_4d1cb559c9_n.jpg",
    "id_album": "-2000594684",
    "description": "2012_rv_HSV_rv_GTS_rv_25th_rv_Anniversary_rv_Edition_rv_V3_rv_1440",
    "title": "2012_rv_HSV_rv_GTS_rv_25th_rv_Anniversary_rv_Edition_rv_V3_rv_1440",
    "link_img": "https://live.staticflickr.com/65535/49889408263_053e98104c_o.jpg",
    "id_image": "2012_rv_HSV_rv_GTS_rv_25th_rv_Anniversary_rv_Edition_rv_V3_rv_1440",
    "count_view": 0
  },
  {
    "link_thumb": "https://live.staticflickr.com/65535/49890236332_44c7e1cbc9_n.jpg",
    "id_album": "-2000594684",
    "description": "2014_rv_Holden_rv_HSV_rv_Gen_rv_F_rv_V1_rv_1440",
    "title": "2014_rv_Holden_rv_HSV_rv_Gen_rv_F_rv_V1_rv_1440",
    "link_img": "https://live.staticflickr.com/65535/49890236332_00ab50f6be_o.jpg",
    "id_image": "2014_rv_Holden_rv_HSV_rv_Gen_rv_F_rv_V1_rv_1440",
    "count_view": 0
  },
  {
    "link_thumb": "https://live.staticflickr.com/65535/49890236412_cc582a5d3a_n.jpg",
    "id_album": "-2000594684",
    "description": "2014_rv_Holden_rv_HSV_rv_Gen_rv_F_rv_V2_rv_1440",
    "title": "2014_rv_Holden_rv_HSV_rv_Gen_rv_F_rv_V2_rv_1440",
    "link_img": "https://live.staticflickr.com/65535/49890236412_ab115bf4f9_o.jpg",
    "id_image": "2014_rv_Holden_rv_HSV_rv_Gen_rv_F_rv_V2_rv_1440",
    "count_view": 0
  },
  {
    "link_thumb": "https://live.staticflickr.com/65535/49890236522_199ac392b7_n.jpg",
    "id_album": "-2000594684",
    "description": "2014_rv_Holden_rv_HSV_rv_Gen_rv_F_rv_V3_rv_1440",
    "title": "2014_rv_Holden_rv_HSV_rv_Gen_rv_F_rv_V3_rv_1440",
    "link_img": "https://live.staticflickr.com/65535/49890236522_33fe6683a7_o.jpg",
    "id_image": "2014_rv_Holden_rv_HSV_rv_Gen_rv_F_rv_V3_rv_1440",
    "count_view": 0
  },
  {
    "link_thumb": "https://live.staticflickr.com/65535/49889408633_09d9379d44_n.jpg",
    "id_album": "-2000594684",
    "description": "2014_rv_Holden_rv_HSV_rv_Gen_rv_F_rv_V4_rv_1440",
    "title": "2014_rv_Holden_rv_HSV_rv_Gen_rv_F_rv_V4_rv_1440",
    "link_img": "https://live.staticflickr.com/65535/49889408633_dcb43e6230_o.jpg",
    "id_image": "2014_rv_Holden_rv_HSV_rv_Gen_rv_F_rv_V4_rv_1440",
    "count_view": 0
  },
  {
    "link_thumb": "https://live.staticflickr.com/65535/49890236767_fa99e4df00_n.jpg",
    "id_album": "-2000594684",
    "description": "2014_rv_Holden_rv_HSV_rv_Gen_rv_F_rv_V5_rv_1440",
    "title": "2014_rv_Holden_rv_HSV_rv_Gen_rv_F_rv_V5_rv_1440",
    "link_img": "https://live.staticflickr.com/65535/49890236767_b57a1b458a_o.jpg",
    "id_image": "2014_rv_Holden_rv_HSV_rv_Gen_rv_F_rv_V5_rv_1440",
    "count_view": 0
  },
  {
    "link_thumb": "https://live.staticflickr.com/65535/49889408873_ca7d1f4f10_n.jpg",
    "id_album": "-2000594684",
    "description": "2014_rv_Holden_rv_HSV_rv_Gen_rv_F_rv_V6_rv_1440",
    "title": "2014_rv_Holden_rv_HSV_rv_Gen_rv_F_rv_V6_rv_1440",
    "link_img": "https://live.staticflickr.com/65535/49889408873_7a85fcbf70_o.jpg",
    "id_image": "2014_rv_Holden_rv_HSV_rv_Gen_rv_F_rv_V6_rv_1440",
    "count_view": 0
  },
  {
    "link_thumb": "https://live.staticflickr.com/65535/49889926926_ec6a170df1_n.jpg",
    "id_album": "-2000594684",
    "description": "2015_rv_Holden_rv_HSV_rv_ClubSport_rv_R8_rv_25th_rv_Anniversary_rv_V1_rv_1440",
    "title": "2015_rv_Holden_rv_HSV_rv_ClubSport_rv_R8_rv_25th_rv_Anniversary_rv_V1_rv_1440",
    "link_img": "https://live.staticflickr.com/65535/49889926926_2778d4bc3c_o.jpg",
    "id_image": "2015_rv_Holden_rv_HSV_rv_ClubSport_rv_R8_rv_25th_rv_Anniversary_rv_V1_rv_1440",
    "count_view": 0
  },
  {
    "link_thumb": "https://live.staticflickr.com/65535/49889409158_0962f0b70f_n.jpg",
    "id_album": "-2000594684",
    "description": "2015_rv_Holden_rv_HSV_rv_ClubSport_rv_R8_rv_25th_rv_Anniversary_rv_V2_rv_1440",
    "title": "2015_rv_Holden_rv_HSV_rv_ClubSport_rv_R8_rv_25th_rv_Anniversary_rv_V2_rv_1440",
    "link_img": "https://live.staticflickr.com/65535/49889409158_cc18cca8d4_o.jpg",
    "id_image": "2015_rv_Holden_rv_HSV_rv_ClubSport_rv_R8_rv_25th_rv_Anniversary_rv_V2_rv_1440",
    "count_view": 0
  },
  {
    "link_thumb": "https://live.staticflickr.com/65535/49890237327_946192ebe4_n.jpg",
    "id_album": "-2000594684",
    "description": "2015_rv_Holden_rv_HSV_rv_GTS_rv_Maloo_rv_V1_rv_1440",
    "title": "2015_rv_Holden_rv_HSV_rv_GTS_rv_Maloo_rv_V1_rv_1440",
    "link_img": "https://live.staticflickr.com/65535/49890237327_ba8169ee7b_o.jpg",
    "id_image": "2015_rv_Holden_rv_HSV_rv_GTS_rv_Maloo_rv_V1_rv_1440",
    "count_view": 0
  },
  {
    "link_thumb": "https://live.staticflickr.com/65535/49889409338_9f9f501257_n.jpg",
    "id_album": "-2000594684",
    "description": "2015_rv_Holden_rv_HSV_rv_GTS_rv_Maloo_rv_V2_rv_1440",
    "title": "2015_rv_Holden_rv_HSV_rv_GTS_rv_Maloo_rv_V2_rv_1440",
    "link_img": "https://live.staticflickr.com/65535/49889409338_24ff8cb35e_o.jpg",
    "id_image": "2015_rv_Holden_rv_HSV_rv_GTS_rv_Maloo_rv_V2_rv_1440",
    "count_view": 0
  },
  {
    "link_thumb": "https://live.staticflickr.com/65535/49889927331_08c55eec4f_n.jpg",
    "id_album": "-2000594684",
    "description": "2015_rv_Holden_rv_HSV_rv_GTS_rv_Maloo_rv_V3_rv_1440",
    "title": "2015_rv_Holden_rv_HSV_rv_GTS_rv_Maloo_rv_V3_rv_1440",
    "link_img": "https://live.staticflickr.com/65535/49889927331_0073049bd6_o.jpg",
    "id_image": "2015_rv_Holden_rv_HSV_rv_GTS_rv_Maloo_rv_V3_rv_1440",
    "count_view": 0
  },
  {
    "link_thumb": "https://live.staticflickr.com/65535/49889927451_8e18a2f956_n.jpg",
    "id_album": "-2000594684",
    "description": "2015_rv_Holden_rv_HSV_rv_GTS_rv_Maloo_rv_V4_rv_1440",
    "title": "2015_rv_Holden_rv_HSV_rv_GTS_rv_Maloo_rv_V4_rv_1440",
    "link_img": "https://live.staticflickr.com/65535/49889927451_35b4f6079f_o.jpg",
    "id_image": "2015_rv_Holden_rv_HSV_rv_GTS_rv_Maloo_rv_V4_rv_1440",
    "count_view": 0
  },
  {
    "link_thumb": "https://live.staticflickr.com/65535/49889409598_91273de5a1_n.jpg",
    "id_album": "-2000594684",
    "description": "2015_rv_Holden_rv_HSV_rv_GTS_rv_Maloo_rv_V5_rv_1440",
    "title": "2015_rv_Holden_rv_HSV_rv_GTS_rv_Maloo_rv_V5_rv_1440",
    "link_img": "https://live.staticflickr.com/65535/49889409598_8d13bcfeb9_o.jpg",
    "id_image": "2015_rv_Holden_rv_HSV_rv_GTS_rv_Maloo_rv_V5_rv_1440",
    "count_view": 0
  },
  {
    "link_thumb": "https://live.staticflickr.com/65535/49889927531_dbb23de0ca_n.jpg",
    "id_album": "-2000594684",
    "description": "2015_rv_HSV_rv_Senator_rv_SV_rv_V1_rv_1600",
    "title": "2015_rv_HSV_rv_Senator_rv_SV_rv_V1_rv_1600",
    "link_img": "https://live.staticflickr.com/65535/49889927531_965d528a6d_o.jpg",
    "id_image": "2015_rv_HSV_rv_Senator_rv_SV_rv_V1_rv_1600",
    "count_view": 0
  },
  {
    "link_thumb": "https://live.staticflickr.com/65535/49889409783_26ef97ed72_n.jpg",
    "id_album": "-2000594684",
    "description": "2015_rv_HSV_rv_Senator_rv_SV_rv_V2_rv_1600",
    "title": "2015_rv_HSV_rv_Senator_rv_SV_rv_V2_rv_1600",
    "link_img": "https://live.staticflickr.com/65535/49889409783_231cebdda7_o.jpg",
    "id_image": "2015_rv_HSV_rv_Senator_rv_SV_rv_V2_rv_1600",
    "count_view": 0
  },
  {
    "link_thumb": "https://live.staticflickr.com/65535/49890238042_a108b6280a_n.jpg",
    "id_album": "-2000594684",
    "description": "2016_rv_Holden_rv_HSV_rv_Gen_rv_F2_rv_V10_rv_1600",
    "title": "2016_rv_Holden_rv_HSV_rv_Gen_rv_F2_rv_V10_rv_1600",
    "link_img": "https://live.staticflickr.com/65535/49890238042_f99eb2cc75_o.jpg",
    "id_image": "2016_rv_Holden_rv_HSV_rv_Gen_rv_F2_rv_V10_rv_1600",
    "count_view": 0
  },
  {
    "link_thumb": "https://live.staticflickr.com/65535/49889928001_d5083d6e5f_n.jpg",
    "id_album": "-2000594684",
    "description": "2016_rv_Holden_rv_HSV_rv_Gen_rv_F2_rv_V11_rv_1600",
    "title": "2016_rv_Holden_rv_HSV_rv_Gen_rv_F2_rv_V11_rv_1600",
    "link_img": "https://live.staticflickr.com/65535/49889928001_30706a1de6_o.jpg",
    "id_image": "2016_rv_Holden_rv_HSV_rv_Gen_rv_F2_rv_V11_rv_1600",
    "count_view": 0
  },
  {
    "link_thumb": "https://live.staticflickr.com/65535/49889928106_55775e6239_n.jpg",
    "id_album": "-2000594684",
    "description": "2016_rv_Holden_rv_HSV_rv_Gen_rv_F2_rv_V12_rv_1600",
    "title": "2016_rv_Holden_rv_HSV_rv_Gen_rv_F2_rv_V12_rv_1600",
    "link_img": "https://live.staticflickr.com/65535/49889928106_2960668953_o.jpg",
    "id_image": "2016_rv_Holden_rv_HSV_rv_Gen_rv_F2_rv_V12_rv_1600",
    "count_view": 0
  },
  {
    "link_thumb": "https://live.staticflickr.com/65535/49889927726_b5824ae54f_n.jpg",
    "id_album": "-2000594684",
    "description": "2016_rv_Holden_rv_HSV_rv_Gen_rv_F2_rv_V1_rv_1600",
    "title": "2016_rv_Holden_rv_HSV_rv_Gen_rv_F2_rv_V1_rv_1600",
    "link_img": "https://live.staticflickr.com/65535/49889927726_384b4c2992_o.jpg",
    "id_image": "2016_rv_Holden_rv_HSV_rv_Gen_rv_F2_rv_V1_rv_1600",
    "count_view": 0
  },
  {
    "link_thumb": "https://live.staticflickr.com/65535/49889410323_d26e658d68_n.jpg",
    "id_album": "-2000594684",
    "description": "2016_rv_Holden_rv_HSV_rv_Gen_rv_F2_rv_V2_rv_1600",
    "title": "2016_rv_Holden_rv_HSV_rv_Gen_rv_F2_rv_V2_rv_1600",
    "link_img": "https://live.staticflickr.com/65535/49889410323_74844c3997_o.jpg",
    "id_image": "2016_rv_Holden_rv_HSV_rv_Gen_rv_F2_rv_V2_rv_1600",
    "count_view": 0
  },
  {
    "link_thumb": "https://live.staticflickr.com/65535/49890238592_e9a9e886c7_n.jpg",
    "id_album": "-2000594684",
    "description": "2016_rv_Holden_rv_HSV_rv_Gen_rv_F2_rv_V3_rv_1600",
    "title": "2016_rv_Holden_rv_HSV_rv_Gen_rv_F2_rv_V3_rv_1600",
    "link_img": "https://live.staticflickr.com/65535/49890238592_678f03ca1f_o.jpg",
    "id_image": "2016_rv_Holden_rv_HSV_rv_Gen_rv_F2_rv_V3_rv_1600",
    "count_view": 0
  },
  {
    "link_thumb": "https://live.staticflickr.com/65535/49889410543_b298baae10_n.jpg",
    "id_album": "-2000594684",
    "description": "2016_rv_Holden_rv_HSV_rv_Gen_rv_F2_rv_V4_rv_1600",
    "title": "2016_rv_Holden_rv_HSV_rv_Gen_rv_F2_rv_V4_rv_1600",
    "link_img": "https://live.staticflickr.com/65535/49889410543_eeb03bb9d0_o.jpg",
    "id_image": "2016_rv_Holden_rv_HSV_rv_Gen_rv_F2_rv_V4_rv_1600",
    "count_view": 0
  },
  {
    "link_thumb": "https://live.staticflickr.com/65535/49889410678_6a1f95a23c_n.jpg",
    "id_album": "-2000594684",
    "description": "2016_rv_Holden_rv_HSV_rv_Gen_rv_F2_rv_V5_rv_1600",
    "title": "2016_rv_Holden_rv_HSV_rv_Gen_rv_F2_rv_V5_rv_1600",
    "link_img": "https://live.staticflickr.com/65535/49889410678_359a1b91e9_o.jpg",
    "id_image": "2016_rv_Holden_rv_HSV_rv_Gen_rv_F2_rv_V5_rv_1600",
    "count_view": 0
  },
  {
    "link_thumb": "https://live.staticflickr.com/65535/49889928596_c4b50d7e3e_n.jpg",
    "id_album": "-2000594684",
    "description": "2016_rv_Holden_rv_HSV_rv_Gen_rv_F2_rv_V6_rv_1600",
    "title": "2016_rv_Holden_rv_HSV_rv_Gen_rv_F2_rv_V6_rv_1600",
    "link_img": "https://live.staticflickr.com/65535/49889928596_2810ef4dcf_o.jpg",
    "id_image": "2016_rv_Holden_rv_HSV_rv_Gen_rv_F2_rv_V6_rv_1600",
    "count_view": 0
  },
  {
    "link_thumb": "https://live.staticflickr.com/65535/49890239117_5a0519d658_n.jpg",
    "id_album": "-2000594684",
    "description": "2016_rv_Holden_rv_HSV_rv_Gen_rv_F2_rv_V7_rv_1600",
    "title": "2016_rv_Holden_rv_HSV_rv_Gen_rv_F2_rv_V7_rv_1600",
    "link_img": "https://live.staticflickr.com/65535/49890239117_8616b893ed_o.jpg",
    "id_image": "2016_rv_Holden_rv_HSV_rv_Gen_rv_F2_rv_V7_rv_1600",
    "count_view": 0
  },
  {
    "link_thumb": "https://live.staticflickr.com/65535/49890239302_72cb4d3e76_n.jpg",
    "id_album": "-2000594684",
    "description": "2016_rv_Holden_rv_HSV_rv_Gen_rv_F2_rv_V8_rv_1600",
    "title": "2016_rv_Holden_rv_HSV_rv_Gen_rv_F2_rv_V8_rv_1600",
    "link_img": "https://live.staticflickr.com/65535/49890239302_765b85d441_o.jpg",
    "id_image": "2016_rv_Holden_rv_HSV_rv_Gen_rv_F2_rv_V8_rv_1600",
    "count_view": 0
  },
  {
    "link_thumb": "https://live.staticflickr.com/65535/49890239447_eaf358a81c_n.jpg",
    "id_album": "-2000594684",
    "description": "2016_rv_Holden_rv_HSV_rv_Gen_rv_F2_rv_V9_rv_1600",
    "title": "2016_rv_Holden_rv_HSV_rv_Gen_rv_F2_rv_V9_rv_1600",
    "link_img": "https://live.staticflickr.com/65535/49890239447_f728e9e270_o.jpg",
    "id_image": "2016_rv_Holden_rv_HSV_rv_Gen_rv_F2_rv_V9_rv_1600",
    "count_view": 0
  },
  {
    "link_thumb": "https://live.staticflickr.com/65535/49889411313_d9ab944dc8_n.jpg",
    "id_album": "-2000594684",
    "description": "2017_rv_Holden_rv_HSV_rv_GTSR_rv_V1_rv_2000",
    "title": "2017_rv_Holden_rv_HSV_rv_GTSR_rv_V1_rv_2000",
    "link_img": "https://live.staticflickr.com/65535/49889411313_2d07045fc3_o.jpg",
    "id_image": "2017_rv_Holden_rv_HSV_rv_GTSR_rv_V1_rv_2000",
    "count_view": 0
  },
  {
    "link_thumb": "https://live.staticflickr.com/65535/49889411398_c3c19b38c2_n.jpg",
    "id_album": "-2000594684",
    "description": "2017_rv_Holden_rv_HSV_rv_GTSR_rv_V2_rv_2000",
    "title": "2017_rv_Holden_rv_HSV_rv_GTSR_rv_V2_rv_2000",
    "link_img": "https://live.staticflickr.com/65535/49889411398_03f5fabfdf_o.jpg",
    "id_image": "2017_rv_Holden_rv_HSV_rv_GTSR_rv_V2_rv_2000",
    "count_view": 0
  },
  {
    "link_thumb": "https://live.staticflickr.com/65535/49889929286_521d1f23e1_n.jpg",
    "id_album": "-2000594684",
    "description": "2017_rv_Holden_rv_HSV_rv_GTSR_rv_V3_rv_2000",
    "title": "2017_rv_Holden_rv_HSV_rv_GTSR_rv_V3_rv_2000",
    "link_img": "https://live.staticflickr.com/65535/49889929286_9352ccf758_o.jpg",
    "id_image": "2017_rv_Holden_rv_HSV_rv_GTSR_rv_V3_rv_2000",
    "count_view": 0
  },
  {
    "link_thumb": "https://live.staticflickr.com/65535/49890239867_fab2ef102f_n.jpg",
    "id_album": "-2000594684",
    "description": "2017_rv_Holden_rv_HSV_rv_GTSR_rv_V4_rv_2000",
    "title": "2017_rv_Holden_rv_HSV_rv_GTSR_rv_V4_rv_2000",
    "link_img": "https://live.staticflickr.com/65535/49890239867_83eb10155d_o.jpg",
    "id_image": "2017_rv_Holden_rv_HSV_rv_GTSR_rv_V4_rv_2000",
    "count_view": 0
  },
  {
    "link_thumb": "https://live.staticflickr.com/65535/49889929566_cacba83b8c_n.jpg",
    "id_album": "-2000594684",
    "description": "2017_rv_Holden_rv_HSV_rv_GTSR_rv_V5_rv_2000",
    "title": "2017_rv_Holden_rv_HSV_rv_GTSR_rv_V5_rv_2000",
    "link_img": "https://live.staticflickr.com/65535/49889929566_49809a583d_o.jpg",
    "id_image": "2017_rv_Holden_rv_HSV_rv_GTSR_rv_V5_rv_2000",
    "count_view": 0
  },
  {
    "link_thumb": "https://live.staticflickr.com/65535/49889411808_0cd46fda3e_n.jpg",
    "id_album": "-2000594684",
    "description": "2017_rv_Holden_rv_HSV_rv_GTSR_rv_V6_rv_2000",
    "title": "2017_rv_Holden_rv_HSV_rv_GTSR_rv_V6_rv_2000",
    "link_img": "https://live.staticflickr.com/65535/49889411808_fcdc481415_o.jpg",
    "id_image": "2017_rv_Holden_rv_HSV_rv_GTSR_rv_V6_rv_2000",
    "count_view": 0
  },
  {
    "link_thumb": "https://live.staticflickr.com/65535/49889411933_41b460d1f0_n.jpg",
    "id_album": "-2000594684",
    "description": "2017_rv_Holden_rv_HSV_rv_GTSR_rv_V7_rv_2000",
    "title": "2017_rv_Holden_rv_HSV_rv_GTSR_rv_V7_rv_2000",
    "link_img": "https://live.staticflickr.com/65535/49889411933_c5b5eabcba_o.jpg",
    "id_image": "2017_rv_Holden_rv_HSV_rv_GTSR_rv_V7_rv_2000",
    "count_view": 0
  },
  {
    "link_thumb": "https://live.staticflickr.com/65535/49889412058_ae31ccf812_n.jpg",
    "id_album": "-2000594684",
    "description": "2017_rv_Holden_rv_HSV_rv_GTSR_rv_V8_rv_2000",
    "title": "2017_rv_Holden_rv_HSV_rv_GTSR_rv_V8_rv_2000",
    "link_img": "https://live.staticflickr.com/65535/49889412058_e4e425965f_o.jpg",
    "id_image": "2017_rv_Holden_rv_HSV_rv_GTSR_rv_V8_rv_2000",
    "count_view": 0
  },
  {
    "link_thumb": "https://live.staticflickr.com/65535/49889412158_c50862057e_n.jpg",
    "id_album": "-2000594684",
    "description": "2017_rv_Holden_rv_HSV_rv_GTSR_rv_V9_rv_2000",
    "title": "2017_rv_Holden_rv_HSV_rv_GTSR_rv_V9_rv_2000",
    "link_img": "https://live.staticflickr.com/65535/49889412158_016390c6f1_o.jpg",
    "id_image": "2017_rv_Holden_rv_HSV_rv_GTSR_rv_V9_rv_2000",
    "count_view": 0
  }
]