[
  {
    "total_img": 0,
    "number_page": 0,
    "title": "Lexus NX",
    "tag": "Lexus NX,",
    "description": "Lexus NX",
    "link_thumb": "https://live.staticflickr.com/65535/49890306916_4ffd062543_n.jpg",
    "id_album": "-1054428103",
    "total_view": 6
  }
]