[
  {
    "link_thumb": "https://live.staticflickr.com/65535/49890350762_1b026ff1bd_n.jpg",
    "id_album": "-1314216515",
    "description": "2015_rv_Kia_rv_Novo_rv_Concept_rv_V5_rv_1600",
    "title": "2015_rv_Kia_rv_Novo_rv_Concept_rv_V5_rv_1600",
    "link_img": "https://live.staticflickr.com/65535/49890350762_da230f9400_o.jpg",
    "id_image": "2015_rv_Kia_rv_Novo_rv_Concept_rv_V5_rv_1600",
    "count_view": 0
  },
  {
    "link_thumb": "https://live.staticflickr.com/65535/48120376701_9cb7584e59_n.jpg",
    "id_album": "810634050",
    "description": "Nissan_319326",
    "title": "Nissan_319326",
    "link_img": "https://live.staticflickr.com/65535/48120376701_404f76eac6_o.jpg",
    "id_image": "Nissan_319326",
    "count_view": 0
  },
  {
    "link_thumb": "https://live.staticflickr.com/65535/48113973541_8b95cd7740_n.jpg",
    "id_album": "-1721545051",
    "description": "Chevrolet_288523",
    "title": "Chevrolet_288523",
    "link_img": "https://live.staticflickr.com/65535/48113973541_8af100d1e3_o.jpg",
    "id_image": "Chevrolet_288523",
    "count_view": 0
  },
  {
    "link_thumb": "https://live.staticflickr.com/65535/49890702198_f6326a79fd_n.jpg",
    "id_album": "-1650262351",
    "description": "2017_rv_Pagani_rv_Huayra_rv_Roadster_rv_V9_rv_2160",
    "title": "2017_rv_Pagani_rv_Huayra_rv_Roadster_rv_V9_rv_2160",
    "link_img": "https://live.staticflickr.com/65535/49890702198_0ae2fc497a_o.jpg",
    "id_image": "2017_rv_Pagani_rv_Huayra_rv_Roadster_rv_V9_rv_2160",
    "count_view": 0
  },
  {
    "link_thumb": "https://live.staticflickr.com/65535/48116380488_350906778d_n.jpg",
    "id_album": "1364506720",
    "description": "Ferrari_854767",
    "title": "Ferrari_854767",
    "link_img": "https://live.staticflickr.com/65535/48116380488_e2e78f1de4_o.jpg",
    "id_image": "Ferrari_854767",
    "count_view": 0
  },
  {
    "link_thumb": "https://live.staticflickr.com/65535/48119158018_a81133a577_n.jpg",
    "id_album": "697984456",
    "description": "Maserati_891915",
    "title": "Maserati_891915",
    "link_img": "https://live.staticflickr.com/65535/48119158018_1dc553b7f9_o.jpg",
    "id_image": "Maserati_891915",
    "count_view": 0
  },
  {
    "link_thumb": "https://live.staticflickr.com/65535/49889876756_d70acc4a91_n.jpg",
    "id_album": "1652581370",
    "description": "2013_rv_Hennessey_rv_HPE700_rv_Twin_rv_Turbo_rv_458_rv_V2_rv_1600",
    "title": "2013_rv_Hennessey_rv_HPE700_rv_Twin_rv_Turbo_rv_458_rv_V2_rv_1600",
    "link_img": "https://live.staticflickr.com/65535/49889876756_1faa3ce710_o.jpg",
    "id_image": "2013_rv_Hennessey_rv_HPE700_rv_Twin_rv_Turbo_rv_458_rv_V2_rv_1600",
    "count_view": 0
  },
  {
    "link_thumb": "https://live.staticflickr.com/65535/49891191696_fa101ce23f_n.jpg",
    "id_album": "-1127516857",
    "description": "2017_rv_Novitec_rv_Rosso_rv_Ferrari_rv_GTC4Lusso_rv_V8_rv_2000",
    "title": "2017_rv_Novitec_rv_Rosso_rv_Ferrari_rv_GTC4Lusso_rv_V8_rv_2000",
    "link_img": "https://live.staticflickr.com/65535/49891191696_04aae86a07_o.jpg",
    "id_image": "2017_rv_Novitec_rv_Rosso_rv_Ferrari_rv_GTC4Lusso_rv_V8_rv_2000",
    "count_view": 0
  },
  {
    "link_thumb": "https://live.staticflickr.com/65535/49889345517_635d4234a7_n.jpg",
    "id_album": "915915336",
    "description": "2017_rv_Bentley_rv_Flying_rv_Spur_rv_W12_rv_S_rv_V3_rv_2000",
    "title": "2017_rv_Bentley_rv_Flying_rv_Spur_rv_W12_rv_S_rv_V3_rv_2000",
    "link_img": "https://live.staticflickr.com/65535/49889345517_7072485b3a_o.jpg",
    "id_image": "2017_rv_Bentley_rv_Flying_rv_Spur_rv_W12_rv_S_rv_V3_rv_2000",
    "count_view": 0
  },
  {
    "link_thumb": "https://live.staticflickr.com/65535/49889076163_e19ede7732_n.jpg",
    "id_album": "-290692475",
    "description": "2019_rv_Novitec_rv_Ferrari_rv_488_rv_Pista_rv_V4_rv_2160",
    "title": "2019_rv_Novitec_rv_Ferrari_rv_488_rv_Pista_rv_V4_rv_2160",
    "link_img": "https://live.staticflickr.com/65535/49889076163_21b731cf76_o.jpg",
    "id_image": "2019_rv_Novitec_rv_Ferrari_rv_488_rv_Pista_rv_V4_rv_2160",
    "count_view": 0
  },
  {
    "link_thumb": "https://live.staticflickr.com/65535/48112699492_2cf32ae103_n.jpg",
    "id_album": "727633301",
    "description": "BMW_113272",
    "title": "BMW_113272",
    "link_img": "https://live.staticflickr.com/65535/48112699492_d7194dc5eb_o.jpg",
    "id_image": "BMW_113272",
    "count_view": 0
  },
  {
    "link_thumb": "https://live.staticflickr.com/65535/48119938572_f4a2a2b90d_n.jpg",
    "id_album": "-731054311",
    "description": "MercedesBenz_906648",
    "title": "MercedesBenz_906648",
    "link_img": "https://live.staticflickr.com/65535/48119938572_daba1629c5_o.jpg",
    "id_image": "MercedesBenz_906648",
    "count_view": 0
  },
  {
    "link_thumb": "https://live.staticflickr.com/65535/49892663537_acf6f5292f_n.jpg",
    "id_album": "-1705201304",
    "description": "2015_rv_Singer_rv_911_rv_Targa_rv_V6_rv_1600",
    "title": "2015_rv_Singer_rv_911_rv_Targa_rv_V6_rv_1600",
    "link_img": "https://live.staticflickr.com/65535/49892663537_85714b04fe_o.jpg",
    "id_image": "2015_rv_Singer_rv_911_rv_Targa_rv_V6_rv_1600",
    "count_view": 0
  },
  {
    "link_thumb": "https://live.staticflickr.com/65535/48118878197_35e19df5c4_n.jpg",
    "id_album": "1234246491",
    "description": "LandRover_258999",
    "title": "LandRover_258999",
    "link_img": "https://live.staticflickr.com/65535/48118878197_e8d5d18e29_o.jpg",
    "id_image": "LandRover_258999",
    "count_view": 0
  },
  {
    "link_thumb": "https://live.staticflickr.com/65535/49889171571_bfa345e497_n.jpg",
    "id_album": "-1839909978",
    "description": "2015_rv_BMW_rv_i8_rv_V5_rv_1600",
    "title": "2015_rv_BMW_rv_i8_rv_V5_rv_1600",
    "link_img": "https://live.staticflickr.com/65535/49889171571_624f1b60a2_o.jpg",
    "id_image": "2015_rv_BMW_rv_i8_rv_V5_rv_1600",
    "count_view": 0
  },
  {
    "link_thumb": "https://live.staticflickr.com/65535/49890902641_cbb56eb991_n.jpg",
    "id_album": "929278309",
    "description": "2017_rv_Mercedes_rv_Benz_rv_SLC43_rv_AMG_rv_V3_rv_2000",
    "title": "2017_rv_Mercedes_rv_Benz_rv_SLC43_rv_AMG_rv_V3_rv_2000",
    "link_img": "https://live.staticflickr.com/65535/49890902641_08a48f6cec_o.jpg",
    "id_image": "2017_rv_Mercedes_rv_Benz_rv_SLC43_rv_AMG_rv_V3_rv_2000",
    "count_view": 0
  },
  {
    "link_thumb": "https://live.staticflickr.com/65535/49954401516_57be25d96c_n.jpg",
    "id_album": "-1617578684",
    "description": "2011_rv_Porsche_rv_911_rv_GT3_rv_RS_rv_4.0_rv_V9_rv_1600",
    "title": "2011_rv_Porsche_rv_911_rv_GT3_rv_RS_rv_4.0_rv_V9_rv_1600",
    "link_img": "https://live.staticflickr.com/65535/49954401516_052f076afd_o.jpg",
    "id_image": "2011_rv_Porsche_rv_911_rv_GT3_rv_RS_rv_4.0_rv_V9_rv_1600",
    "count_view": 0
  },
  {
    "link_thumb": "https://live.staticflickr.com/65535/48120894912_9335a78858_n.jpg",
    "id_album": "1952909762",
    "description": "Packard_928249",
    "title": "Packard_928249",
    "link_img": "https://live.staticflickr.com/65535/48120894912_e9eabd0a8d_o.jpg",
    "id_image": "Packard_928249",
    "count_view": 0
  },
  {
    "link_thumb": "https://live.staticflickr.com/65535/48119659286_d3b58ac8a4_n.jpg",
    "id_album": "-731054311",
    "description": "MercedesBenz_401771",
    "title": "MercedesBenz_401771",
    "link_img": "https://live.staticflickr.com/65535/48119659286_f438e0cffc_o.jpg",
    "id_image": "MercedesBenz_401771",
    "count_view": 0
  },
  {
    "link_thumb": "https://live.staticflickr.com/65535/49888313868_3c4b7be0fb_n.jpg",
    "id_album": "1601696203",
    "description": "1960_rv_Aston_rv_Martin_rv_DB4_rv_GTZ_rv_V9_rv_1600",
    "title": "1960_rv_Aston_rv_Martin_rv_DB4_rv_GTZ_rv_V9_rv_1600",
    "link_img": "https://live.staticflickr.com/65535/49888313868_4d0b03687b_o.jpg",
    "id_image": "1960_rv_Aston_rv_Martin_rv_DB4_rv_GTZ_rv_V9_rv_1600",
    "count_view": 0
  },
  {
    "link_thumb": "https://live.staticflickr.com/65535/48118084901_77cac9bc1a_n.jpg",
    "id_album": "-2009218697",
    "description": "Jeep_345375",
    "title": "Jeep_345375",
    "link_img": "https://live.staticflickr.com/65535/48118084901_3ded0e4418_o.jpg",
    "id_image": "Jeep_345375",
    "count_view": 0
  },
  {
    "link_thumb": "https://live.staticflickr.com/65535/48122890153_548e9774ee_n.jpg",
    "id_album": "-150952028",
    "description": "Volkswagen_200873",
    "title": "Volkswagen_200873",
    "link_img": "https://live.staticflickr.com/65535/48122890153_be79a124b2_o.jpg",
    "id_image": "Volkswagen_200873",
    "count_view": 0
  },
  {
    "link_thumb": "https://live.staticflickr.com/65535/49889508133_cc35ab1278_n.jpg",
    "id_album": "1773051538",
    "description": "2011_rv_Jaguar_rv_XKR_rv_Special_rv_Edition_rv_V7_rv_1440",
    "title": "2011_rv_Jaguar_rv_XKR_rv_Special_rv_Edition_rv_V7_rv_1440",
    "link_img": "https://live.staticflickr.com/65535/49889508133_65d038f30c_o.jpg",
    "id_image": "2011_rv_Jaguar_rv_XKR_rv_Special_rv_Edition_rv_V7_rv_1440",
    "count_view": 0
  },
  {
    "link_thumb": "https://live.staticflickr.com/65535/48116374676_bd0891c5c7_n.jpg",
    "id_album": "1364506720",
    "description": "Ferrari_902163",
    "title": "Ferrari_902163",
    "link_img": "https://live.staticflickr.com/65535/48116374676_9a72c92100_o.jpg",
    "id_image": "Ferrari_902163",
    "count_view": 0
  },
  {
    "link_thumb": "https://live.staticflickr.com/65535/49889713202_d88714b865_n.jpg",
    "id_album": "123809772",
    "description": "2017_rv_Formula1_rv_Sauber_rv_C36_rv_V1_rv_2000",
    "title": "2017_rv_Formula1_rv_Sauber_rv_C36_rv_V1_rv_2000",
    "link_img": "https://live.staticflickr.com/65535/49889713202_68aeec8c0a_o.jpg",
    "id_image": "2017_rv_Formula1_rv_Sauber_rv_C36_rv_V1_rv_2000",
    "count_view": 0
  },
  {
    "link_thumb": "https://live.staticflickr.com/65535/48119122292_f0d5a14492_n.jpg",
    "id_album": "-1153253263",
    "description": "Lotus_886112",
    "title": "Lotus_886112",
    "link_img": "https://live.staticflickr.com/65535/48119122292_737f3f06f8_o.jpg",
    "id_image": "Lotus_886112",
    "count_view": 0
  },
  {
    "link_thumb": "https://live.staticflickr.com/65535/49888909963_e18b93b9e6_n.jpg",
    "id_album": "1046057332",
    "description": "2017_rv_Faraday_rv_Future_rv_FF_rv_91_rv_V1_rv_2000",
    "title": "2017_rv_Faraday_rv_Future_rv_FF_rv_91_rv_V1_rv_2000",
    "link_img": "https://live.staticflickr.com/65535/49888909963_1935f589c3_o.jpg",
    "id_image": "2017_rv_Faraday_rv_Future_rv_FF_rv_91_rv_V1_rv_2000",
    "count_view": 0
  },
  {
    "link_thumb": "https://live.staticflickr.com/65535/49891687078_c2b0fe4fbe_n.jpg",
    "id_album": "-461005169",
    "description": "2017_rv_Nissan_rv_GT_rv_R_rv_Nismo_rv_V12_rv_2000",
    "title": "2017_rv_Nissan_rv_GT_rv_R_rv_Nismo_rv_V12_rv_2000",
    "link_img": "https://live.staticflickr.com/65535/49891687078_03567a635d_o.jpg",
    "id_image": "2017_rv_Nissan_rv_GT_rv_R_rv_Nismo_rv_V12_rv_2000",
    "count_view": 0
  },
  {
    "link_thumb": "https://live.staticflickr.com/65535/48121103803_d45372208e_n.jpg",
    "id_album": "-2099496752",
    "description": "Pontiac_189498",
    "title": "Pontiac_189498",
    "link_img": "https://live.staticflickr.com/65535/48121103803_5d55334945_o.jpg",
    "id_image": "Pontiac_189498",
    "count_view": 0
  },
  {
    "link_thumb": "https://live.staticflickr.com/65535/49889758927_33ff4878ab_n.jpg",
    "id_album": "1472492888",
    "description": "1993_rv_Ferrari_rv_348_rv_Spider_rv_V4_rv_1536",
    "title": "1993_rv_Ferrari_rv_348_rv_Spider_rv_V4_rv_1536",
    "link_img": "https://live.staticflickr.com/65535/49889758927_8b5e1409e6_o.jpg",
    "id_image": "1993_rv_Ferrari_rv_348_rv_Spider_rv_V4_rv_1536",
    "count_view": 0
  },
  {
    "link_thumb": "https://live.staticflickr.com/65535/49891673192_26c96fd30b_n.jpg",
    "id_album": "-151534282",
    "description": "2015_rv_Porsche_rv_918_rv_Spyder_rv_Weissach_rv_Package_rv_V2_rv_2000",
    "title": "2015_rv_Porsche_rv_918_rv_Spyder_rv_Weissach_rv_Package_rv_V2_rv_2000",
    "link_img": "https://live.staticflickr.com/65535/49891673192_756b69894b_o.jpg",
    "id_image": "2015_rv_Porsche_rv_918_rv_Spyder_rv_Weissach_rv_Package_rv_V2_rv_2000",
    "count_view": 0
  },
  {
    "link_thumb": "https://live.staticflickr.com/65535/48112303728_3d66997fbb_n.jpg",
    "id_album": "-15119147",
    "description": "Audi_291460",
    "title": "Audi_291460",
    "link_img": "https://live.staticflickr.com/65535/48112303728_e85a472f1a_o.jpg",
    "id_image": "Audi_291460",
    "count_view": 0
  },
  {
    "link_thumb": "https://live.staticflickr.com/65535/48119129286_4092b40d62_n.jpg",
    "id_album": "697984456",
    "description": "Maserati_891930",
    "title": "Maserati_891930",
    "link_img": "https://live.staticflickr.com/65535/48119129286_85d18e5566_o.jpg",
    "id_image": "Maserati_891930",
    "count_view": 0
  },
  {
    "link_thumb": "https://live.staticflickr.com/65535/48119324433_42c2e54ee8_n.jpg",
    "id_album": "990865885",
    "description": "McLaren_507320",
    "title": "McLaren_507320",
    "link_img": "https://live.staticflickr.com/65535/48119324433_f1a4a3f849_o.jpg",
    "id_image": "McLaren_507320",
    "count_view": 0
  },
  {
    "link_thumb": "https://live.staticflickr.com/65535/48112828117_ebcd6a94b7_n.jpg",
    "id_album": "727633301",
    "description": "BMW_362458",
    "title": "BMW_362458",
    "link_img": "https://live.staticflickr.com/65535/48112828117_2cf6957b9e_o.jpg",
    "id_image": "BMW_362458",
    "count_view": 0
  },
  {
    "link_thumb": "https://live.staticflickr.com/65535/48113442051_40bea1fc58_n.jpg",
    "id_album": "1456070666",
    "description": "Bugatti_888831",
    "title": "Bugatti_888831",
    "link_img": "https://live.staticflickr.com/65535/48113442051_9a7924fea2_o.jpg",
    "id_image": "Bugatti_888831",
    "count_view": 0
  },
  {
    "link_thumb": "https://live.staticflickr.com/65535/48114027598_5c08a694b8_n.jpg",
    "id_album": "-1721545051",
    "description": "Chevrolet_288798",
    "title": "Chevrolet_288798",
    "link_img": "https://live.staticflickr.com/65535/48114027598_33da2af27d_o.jpg",
    "id_image": "Chevrolet_288798",
    "count_view": 0
  },
  {
    "link_thumb": "https://live.staticflickr.com/65535/49891670377_890da61668_n.jpg",
    "id_album": "-151534282",
    "description": "2015_rv_Porsche_rv_918_rv_Spyder_rv_V23_rv_2000",
    "title": "2015_rv_Porsche_rv_918_rv_Spyder_rv_V23_rv_2000",
    "link_img": "https://live.staticflickr.com/65535/49891670377_4c2d09f4fd_o.jpg",
    "id_image": "2015_rv_Porsche_rv_918_rv_Spyder_rv_V23_rv_2000",
    "count_view": 0
  },
  {
    "link_thumb": "https://live.staticflickr.com/65535/48118488248_f3b7e4ba8d_n.jpg",
    "id_album": "-2100339805",
    "description": "Lamborghini_444478",
    "title": "Lamborghini_444478",
    "link_img": "https://live.staticflickr.com/65535/48118488248_10124c572b_o.jpg",
    "id_image": "Lamborghini_444478",
    "count_view": 0
  },
  {
    "link_thumb": "https://live.staticflickr.com/65535/49888759213_45dc64abc8_n.jpg",
    "id_album": "-10446952",
    "description": "2014_rv_Cadillac_rv_CTS_rv_Vsport_rv_V1_rv_1600",
    "title": "2014_rv_Cadillac_rv_CTS_rv_Vsport_rv_V1_rv_1600",
    "link_img": "https://live.staticflickr.com/65535/49888759213_25f2780ce8_o.jpg",
    "id_image": "2014_rv_Cadillac_rv_CTS_rv_Vsport_rv_V1_rv_1600",
    "count_view": 0
  },
  {
    "link_thumb": "https://live.staticflickr.com/65535/49889950762_452ac5d652_n.jpg",
    "id_album": "1558646706",
    "description": "2013_rv_Dodge_rv_SRT_rv_Viper_rv_V12_rv_1600",
    "title": "2013_rv_Dodge_rv_SRT_rv_Viper_rv_V12_rv_1600",
    "link_img": "https://live.staticflickr.com/65535/49889950762_86641c84bb_o.jpg",
    "id_image": "2013_rv_Dodge_rv_SRT_rv_Viper_rv_V12_rv_1600",
    "count_view": 0
  },
  {
    "link_thumb": "https://live.staticflickr.com/65535/49891701703_48e44c19d1_n.jpg",
    "id_album": "362387257",
    "description": "2017_rv_Audi_rv_R8_rv_LMS_rv_GT4_rv_V1_rv_2000",
    "title": "2017_rv_Audi_rv_R8_rv_LMS_rv_GT4_rv_V1_rv_2000",
    "link_img": "https://live.staticflickr.com/65535/49891701703_dc2362fecc_o.jpg",
    "id_image": "2017_rv_Audi_rv_R8_rv_LMS_rv_GT4_rv_V1_rv_2000",
    "count_view": 0
  },
  {
    "link_thumb": "https://live.staticflickr.com/65535/49890636893_5f72130afc_n.jpg",
    "id_album": "-1746133601",
    "description": "2019_rv_Novitec_rv_Ferrari_rv_812_rv_Superfast_rv_N_rv_Largo_rv_V3_rv_2160",
    "title": "2019_rv_Novitec_rv_Ferrari_rv_812_rv_Superfast_rv_N_rv_Largo_rv_V3_rv_2160",
    "link_img": "https://live.staticflickr.com/65535/49890636893_a34b209210_o.jpg",
    "id_image": "2019_rv_Novitec_rv_Ferrari_rv_812_rv_Superfast_rv_N_rv_Largo_rv_V3_rv_2160",
    "count_view": 0
  },
  {
    "link_thumb": "https://live.staticflickr.com/65535/49890181051_f5fedd68c3_n.jpg",
    "id_album": "-1748385803",
    "description": "1970_rv_Lamborghini_rv_Jarama_rv_400_rv_GT_rv_V7_rv_1536",
    "title": "1970_rv_Lamborghini_rv_Jarama_rv_400_rv_GT_rv_V7_rv_1536",
    "link_img": "https://live.staticflickr.com/65535/49890181051_90a05fc7b0_o.jpg",
    "id_image": "1970_rv_Lamborghini_rv_Jarama_rv_400_rv_GT_rv_V7_rv_1536",
    "count_view": 0
  },
  {
    "link_thumb": "https://live.staticflickr.com/65535/48117989753_4ed0658716_n.jpg",
    "id_album": "427416146",
    "description": "Hummer_521094",
    "title": "Hummer_521094",
    "link_img": "https://live.staticflickr.com/65535/48117989753_b48e2a6314_o.jpg",
    "id_image": "Hummer_521094",
    "count_view": 0
  },
  {
    "link_thumb": "https://live.staticflickr.com/65535/48122848672_c81c92443f_n.jpg",
    "id_album": "1274920659",
    "description": "Toyota_612336",
    "title": "Toyota_612336",
    "link_img": "https://live.staticflickr.com/65535/48122848672_496d25b836_o.jpg",
    "id_image": "Toyota_612336",
    "count_view": 0
  },
  {
    "link_thumb": "https://live.staticflickr.com/65535/48115404687_e80845cfc3_n.jpg",
    "id_album": "413141323",
    "description": "Dodge_472134",
    "title": "Dodge_472134",
    "link_img": "https://live.staticflickr.com/65535/48115404687_a8e411f570_o.jpg",
    "id_image": "Dodge_472134",
    "count_view": 0
  },
  {
    "link_thumb": "https://live.staticflickr.com/65535/48118554606_59ba6621a7_n.jpg",
    "id_album": "-2100339805",
    "description": "Lamborghini_673423",
    "title": "Lamborghini_673423",
    "link_img": "https://live.staticflickr.com/65535/48118554606_e495897626_o.jpg",
    "id_image": "Lamborghini_673423",
    "count_view": 0
  },
  {
    "link_thumb": "https://live.staticflickr.com/65535/48121863346_19dc032bf9_n.jpg",
    "id_album": "-1377335499",
    "description": "RangeRover_258968",
    "title": "RangeRover_258968",
    "link_img": "https://live.staticflickr.com/65535/48121863346_77793fbaf4_o.jpg",
    "id_image": "RangeRover_258968",
    "count_view": 0
  },
  {
    "link_thumb": "https://live.staticflickr.com/65535/49889442311_f12dc8329f_n.jpg",
    "id_album": "1069273898",
    "description": "1966_rv_Ferrari_rv_275_rv_GTB4_rv_V1_rv_1440",
    "title": "1966_rv_Ferrari_rv_275_rv_GTB4_rv_V1_rv_1440",
    "link_img": "https://live.staticflickr.com/65535/49889442311_54b156be28_o.jpg",
    "id_image": "1966_rv_Ferrari_rv_275_rv_GTB4_rv_V1_rv_1440",
    "count_view": 0
  },
  {
    "link_thumb": "https://live.staticflickr.com/65535/48118099072_11013b70d6_n.jpg",
    "id_album": "-843028318",
    "description": "Jaguar_792358",
    "title": "Jaguar_792358",
    "link_img": "https://live.staticflickr.com/65535/48118099072_f5f25eb65c_o.jpg",
    "id_image": "Jaguar_792358",
    "count_view": 0
  },
  {
    "link_thumb": "https://live.staticflickr.com/65535/48119513422_5668ea0d68_n.jpg",
    "id_album": "990865885",
    "description": "McLaren_980266",
    "title": "McLaren_980266",
    "link_img": "https://live.staticflickr.com/65535/48119513422_f5ce99c31f_o.jpg",
    "id_image": "McLaren_980266",
    "count_view": 0
  },
  {
    "link_thumb": "https://live.staticflickr.com/65535/48119404986_0f088e0e41_n.jpg",
    "id_album": "990865885",
    "description": "McLaren_942333",
    "title": "McLaren_942333",
    "link_img": "https://live.staticflickr.com/65535/48119404986_a24770cb84_o.jpg",
    "id_image": "McLaren_942333",
    "count_view": 0
  },
  {
    "link_thumb": "https://live.staticflickr.com/65535/49889701692_aae0dd7784_n.jpg",
    "id_album": "942478219",
    "description": "2015_rv_Formula1_rv_Red_rv_Bull_rv_Racing_rv_RB11_rv_V1_rv_1600",
    "title": "2015_rv_Formula1_rv_Red_rv_Bull_rv_Racing_rv_RB11_rv_V1_rv_1600",
    "link_img": "https://live.staticflickr.com/65535/49889701692_6d86e29bb7_o.jpg",
    "id_image": "2015_rv_Formula1_rv_Red_rv_Bull_rv_Racing_rv_RB11_rv_V1_rv_1600",
    "count_view": 0
  },
  {
    "link_thumb": "https://live.staticflickr.com/65535/48113796597_4d4fb10582_n.jpg",
    "id_album": "-1721545051",
    "description": "Chevrolet_167774",
    "title": "Chevrolet_167774",
    "link_img": "https://live.staticflickr.com/65535/48113796597_542a23295f_o.jpg",
    "id_image": "Chevrolet_167774",
    "count_view": 0
  },
  {
    "link_thumb": "https://live.staticflickr.com/65535/49892963727_ae7cc10baf_n.jpg",
    "id_album": "-1197081173",
    "description": "2006_rv_Volkswagen_rv_IROC_rv_Concept_rv_V2_rv_1440",
    "title": "2006_rv_Volkswagen_rv_IROC_rv_Concept_rv_V2_rv_1440",
    "link_img": "https://live.staticflickr.com/65535/49892963727_836275ba17_o.jpg",
    "id_image": "2006_rv_Volkswagen_rv_IROC_rv_Concept_rv_V2_rv_1440",
    "count_view": 0
  },
  {
    "link_thumb": "https://live.staticflickr.com/65535/48112403173_86efef6b58_n.jpg",
    "id_album": "-15119147",
    "description": "Audi_612860",
    "title": "Audi_612860",
    "link_img": "https://live.staticflickr.com/65535/48112403173_624f5c06ea_o.jpg",
    "id_image": "Audi_612860",
    "count_view": 0
  },
  {
    "link_thumb": "https://live.staticflickr.com/65535/49891339377_eb2a16f11c_n.jpg",
    "id_album": "-1103541452",
    "description": "2001_rv_Nissan_rv_Skyline_rv_R34_rv_Nismo_rv_V3_rv_1440",
    "title": "2001_rv_Nissan_rv_Skyline_rv_R34_rv_Nismo_rv_V3_rv_1440",
    "link_img": "https://live.staticflickr.com/65535/49891339377_0468519dc0_o.jpg",
    "id_image": "2001_rv_Nissan_rv_Skyline_rv_R34_rv_Nismo_rv_V3_rv_1440",
    "count_view": 0
  },
  {
    "link_thumb": "https://live.staticflickr.com/65535/48112360507_edd8ea5eab_n.jpg",
    "id_album": "-15119147",
    "description": "Audi_253714",
    "title": "Audi_253714",
    "link_img": "https://live.staticflickr.com/65535/48112360507_7d5befe9a0_o.jpg",
    "id_image": "Audi_253714",
    "count_view": 0
  },
  {
    "link_thumb": "https://live.staticflickr.com/65535/48118776251_4274ca9c7a_n.jpg",
    "id_album": "1986285173",
    "description": "Lancia_541170",
    "title": "Lancia_541170",
    "link_img": "https://live.staticflickr.com/65535/48118776251_c4e8c87e07_o.jpg",
    "id_image": "Lancia_541170",
    "count_view": 0
  },
  {
    "link_thumb": "https://live.staticflickr.com/65535/49891075706_e63dd94261_n.jpg",
    "id_album": "511911560",
    "description": "2006_rv_Nissan_rv_350Z_rv_V1_rv_1440",
    "title": "2006_rv_Nissan_rv_350Z_rv_V1_rv_1440",
    "link_img": "https://live.staticflickr.com/65535/49891075706_76ccd14b42_o.jpg",
    "id_image": "2006_rv_Nissan_rv_350Z_rv_V1_rv_1440",
    "count_view": 0
  },
  {
    "link_thumb": "https://live.staticflickr.com/65535/48112329036_ae57bcb2cd_n.jpg",
    "id_album": "-15119147",
    "description": "Audi_478322",
    "title": "Audi_478322",
    "link_img": "https://live.staticflickr.com/65535/48112329036_7731d201dc_o.jpg",
    "id_image": "Audi_478322",
    "count_view": 0
  },
  {
    "link_thumb": "https://live.staticflickr.com/65535/48119180897_4a187d8b4c_n.jpg",
    "id_album": "697984456",
    "description": "Maserati_450594",
    "title": "Maserati_450594",
    "link_img": "https://live.staticflickr.com/65535/48119180897_338b1cab6b_o.jpg",
    "id_image": "Maserati_450594",
    "count_view": 0
  },
  {
    "link_thumb": "https://live.staticflickr.com/65535/48118637646_8b0af49bd2_n.jpg",
    "id_album": "-2100339805",
    "description": "Lamborghini_880347",
    "title": "Lamborghini_880347",
    "link_img": "https://live.staticflickr.com/65535/48118637646_958f3c5896_o.jpg",
    "id_image": "Lamborghini_880347",
    "count_view": 0
  },
  {
    "link_thumb": "https://live.staticflickr.com/65535/48117715652_1f8ed5b77b_n.jpg",
    "id_album": "-1846404630",
    "description": "Ford_955963",
    "title": "Ford_955963",
    "link_img": "https://live.staticflickr.com/65535/48117715652_34ef1fec64_o.jpg",
    "id_image": "Ford_955963",
    "count_view": 0
  },
  {
    "link_thumb": "https://live.staticflickr.com/65535/49892605902_11de450829_n.jpg",
    "id_album": "954930425",
    "description": "2017_rv_Rolls_rv_Royce_rv_Dawn_rv_V2_rv_1600",
    "title": "2017_rv_Rolls_rv_Royce_rv_Dawn_rv_V2_rv_1600",
    "link_img": "https://live.staticflickr.com/65535/49892605902_fa96a2d896_o.jpg",
    "id_image": "2017_rv_Rolls_rv_Royce_rv_Dawn_rv_V2_rv_1600",
    "count_view": 0
  },
  {
    "link_thumb": "https://live.staticflickr.com/65535/48120826281_26b5f092a3_n.jpg",
    "id_album": "1965631892",
    "description": "Peugeot_169141",
    "title": "Peugeot_169141",
    "link_img": "https://live.staticflickr.com/65535/48120826281_933877b410_o.jpg",
    "id_image": "Peugeot_169141",
    "count_view": 0
  },
  {
    "link_thumb": "https://live.staticflickr.com/65535/49890821337_9da20e5894_n.jpg",
    "id_album": "-914737879",
    "description": "2013_rv_McLaren_rv_12C_rv_Spider_rv_V20_rv_1440",
    "title": "2013_rv_McLaren_rv_12C_rv_Spider_rv_V20_rv_1440",
    "link_img": "https://live.staticflickr.com/65535/49890821337_2b18d5c42b_o.jpg",
    "id_image": "2013_rv_McLaren_rv_12C_rv_Spider_rv_V20_rv_1440",
    "count_view": 0
  },
  {
    "link_thumb": "https://live.staticflickr.com/65535/48115892661_d774ed2f80_n.jpg",
    "id_album": "1364506720",
    "description": "Ferrari_366098",
    "title": "Ferrari_366098",
    "link_img": "https://live.staticflickr.com/65535/48115892661_50a88392c3_o.jpg",
    "id_image": "Ferrari_366098",
    "count_view": 0
  },
  {
    "link_thumb": "https://live.staticflickr.com/65535/48112368928_0018c4b0e9_n.jpg",
    "id_album": "-15119147",
    "description": "Audi_477900",
    "title": "Audi_477900",
    "link_img": "https://live.staticflickr.com/65535/48112368928_3933317d51_o.jpg",
    "id_image": "Audi_477900",
    "count_view": 0
  },
  {
    "link_thumb": "https://live.staticflickr.com/65535/48115766317_a9f526d2db_n.jpg",
    "id_album": "1364506720",
    "description": "Ferrari_250395",
    "title": "Ferrari_250395",
    "link_img": "https://live.staticflickr.com/65535/48115766317_25843c10e6_o.jpg",
    "id_image": "Ferrari_250395",
    "count_view": 0
  },
  {
    "link_thumb": "https://live.staticflickr.com/65535/48119408518_1bf6c797e7_n.jpg",
    "id_album": "990865885",
    "description": "McLaren_896861",
    "title": "McLaren_896861",
    "link_img": "https://live.staticflickr.com/65535/48119408518_9108a4675d_o.jpg",
    "id_image": "McLaren_896861",
    "count_view": 0
  },
  {
    "link_thumb": "https://live.staticflickr.com/65535/48111691531_ece1cf92cb_n.jpg",
    "id_album": "1482519782",
    "description": "Hyundai_964250",
    "title": "Hyundai_964250",
    "link_img": "https://live.staticflickr.com/65535/48111691531_f0a6f7f2c1_o.jpg",
    "id_image": "Hyundai_964250",
    "count_view": 0
  },
  {
    "link_thumb": "https://live.staticflickr.com/65535/49889682617_c5eeee720d_n.jpg",
    "id_album": "-1276282568",
    "description": "2015_rv_Formula1_rv_Ferrari_rv_SF15_rv_T_rv_V2_rv_1600",
    "title": "2015_rv_Formula1_rv_Ferrari_rv_SF15_rv_T_rv_V2_rv_1600",
    "link_img": "https://live.staticflickr.com/65535/49889682617_988ef04020_o.jpg",
    "id_image": "2015_rv_Formula1_rv_Ferrari_rv_SF15_rv_T_rv_V2_rv_1600",
    "count_view": 0
  },
  {
    "link_thumb": "https://live.staticflickr.com/65535/49888341573_b995de2efa_n.jpg",
    "id_album": "-329322037",
    "description": "2019_rv_Aston_rv_Martin_rv_DBS_rv_Superleggera_rv_V12_rv_2000",
    "title": "2019_rv_Aston_rv_Martin_rv_DBS_rv_Superleggera_rv_V12_rv_2000",
    "link_img": "https://live.staticflickr.com/65535/49888341573_b61973ac3e_o.jpg",
    "id_image": "2019_rv_Aston_rv_Martin_rv_DBS_rv_Superleggera_rv_V12_rv_2000",
    "count_view": 0
  },
  {
    "link_thumb": "https://live.staticflickr.com/65535/48114083823_a2502a5510_n.jpg",
    "id_album": "-1721545051",
    "description": "Chevrolet_289641",
    "title": "Chevrolet_289641",
    "link_img": "https://live.staticflickr.com/65535/48114083823_eef1da69de_o.jpg",
    "id_image": "Chevrolet_289641",
    "count_view": 0
  },
  {
    "link_thumb": "https://live.staticflickr.com/65535/48115236422_a89f678718_n.jpg",
    "id_album": "413141323",
    "description": "Dodge_274355",
    "title": "Dodge_274355",
    "link_img": "https://live.staticflickr.com/65535/48115236422_f3bb301393_o.jpg",
    "id_image": "Dodge_274355",
    "count_view": 0
  },
  {
    "link_thumb": "https://live.staticflickr.com/65535/48118718116_ebe59490b2_n.jpg",
    "id_album": "-2100339805",
    "description": "Lamborghini_973640",
    "title": "Lamborghini_973640",
    "link_img": "https://live.staticflickr.com/65535/48118718116_c740db14d4_o.jpg",
    "id_image": "Lamborghini_973640",
    "count_view": 0
  },
  {
    "link_thumb": "https://live.staticflickr.com/65535/49890601337_88b3959bb6_n.jpg",
    "id_album": "917675375",
    "description": "2017_rv_Lexus_rv_LC_rv_500h_rv_V1_rv_2000",
    "title": "2017_rv_Lexus_rv_LC_rv_500h_rv_V1_rv_2000",
    "link_img": "https://live.staticflickr.com/65535/49890601337_60da552b72_o.jpg",
    "id_image": "2017_rv_Lexus_rv_LC_rv_500h_rv_V1_rv_2000",
    "count_view": 0
  },
  {
    "link_thumb": "https://live.staticflickr.com/65535/48113320706_01597d1fc9_n.jpg",
    "id_album": "1456070666",
    "description": "Bugatti_215962",
    "title": "Bugatti_215962",
    "link_img": "https://live.staticflickr.com/65535/48113320706_977119ca61_o.jpg",
    "id_image": "Bugatti_215962",
    "count_view": 0
  },
  {
    "link_thumb": "https://live.staticflickr.com/65535/49892629442_2bd988fceb_n.jpg",
    "id_album": "-1205337898",
    "description": "2010_rv_Seat_rv_Leon_rv_Cupra_rv_R_rv_V2_rv_1440",
    "title": "2010_rv_Seat_rv_Leon_rv_Cupra_rv_R_rv_V2_rv_1440",
    "link_img": "https://live.staticflickr.com/65535/49892629442_e760b6d227_o.jpg",
    "id_image": "2010_rv_Seat_rv_Leon_rv_Cupra_rv_R_rv_V2_rv_1440",
    "count_view": 0
  },
  {
    "link_thumb": "https://live.staticflickr.com/65535/49892170141_3d9f049264_n.jpg",
    "id_album": "1508363299",
    "description": "1987_rv_Nissan_rv_Skyline_rv_GTS_rv_R_rv_V3_rv_1536",
    "title": "1987_rv_Nissan_rv_Skyline_rv_GTS_rv_R_rv_V3_rv_1536",
    "link_img": "https://live.staticflickr.com/65535/49892170141_a61b56842b_o.jpg",
    "id_image": "1987_rv_Nissan_rv_Skyline_rv_GTS_rv_R_rv_V3_rv_1536",
    "count_view": 0
  },
  {
    "link_thumb": "https://live.staticflickr.com/65535/48112958571_208719691e_n.jpg",
    "id_album": "727633301",
    "description": "BMW_513143",
    "title": "BMW_513143",
    "link_img": "https://live.staticflickr.com/65535/48112958571_2e37b281f4_o.jpg",
    "id_image": "BMW_513143",
    "count_view": 0
  },
  {
    "link_thumb": "https://live.staticflickr.com/65535/48118127046_e19da5fa52_n.jpg",
    "id_album": "-2009218697",
    "description": "Jeep_892352",
    "title": "Jeep_892352",
    "link_img": "https://live.staticflickr.com/65535/48118127046_ef2000577a_o.jpg",
    "id_image": "Jeep_892352",
    "count_view": 0
  },
  {
    "link_thumb": "https://live.staticflickr.com/65535/48115408296_894b48229c_n.jpg",
    "id_album": "413141323",
    "description": "Dodge_515035",
    "title": "Dodge_515035",
    "link_img": "https://live.staticflickr.com/65535/48115408296_c6d6a27b28_o.jpg",
    "id_image": "Dodge_515035",
    "count_view": 0
  },
  {
    "link_thumb": "https://live.staticflickr.com/65535/49889213246_98ee1a6f98_n.jpg",
    "id_album": "-1678364421",
    "description": "2017_rv_Bugatti_rv_Chiron_rv_V13_rv_2000",
    "title": "2017_rv_Bugatti_rv_Chiron_rv_V13_rv_2000",
    "link_img": "https://live.staticflickr.com/65535/49889213246_72e4ff9b45_o.jpg",
    "id_image": "2017_rv_Bugatti_rv_Chiron_rv_V13_rv_2000",
    "count_view": 0
  },
  {
    "link_thumb": "https://live.staticflickr.com/65535/48119079086_84d7a25455_n.jpg",
    "id_album": "697984456",
    "description": "Maserati_398236",
    "title": "Maserati_398236",
    "link_img": "https://live.staticflickr.com/65535/48119079086_3d6535992b_o.jpg",
    "id_image": "Maserati_398236",
    "count_view": 0
  },
  {
    "link_thumb": "https://live.staticflickr.com/65535/48119522698_1494887056_n.jpg",
    "id_album": "-731054311",
    "description": "MercedesBenz_239268",
    "title": "MercedesBenz_239268",
    "link_img": "https://live.staticflickr.com/65535/48119522698_5bafdd4cdd_o.jpg",
    "id_image": "MercedesBenz_239268",
    "count_view": 0
  },
  {
    "link_thumb": "https://live.staticflickr.com/65535/48112769908_06b0ca1a4a_n.jpg",
    "id_album": "727633301",
    "description": "BMW_369398",
    "title": "BMW_369398",
    "link_img": "https://live.staticflickr.com/65535/48112769908_bf84870020_o.jpg",
    "id_image": "BMW_369398",
    "count_view": 0
  },
  {
    "link_thumb": "https://live.staticflickr.com/65535/48115975701_a0e54df9ee_n.jpg",
    "id_album": "1364506720",
    "description": "Ferrari_453391",
    "title": "Ferrari_453391",
    "link_img": "https://live.staticflickr.com/65535/48115975701_aeb5d7f9bb_o.jpg",
    "id_image": "Ferrari_453391",
    "count_view": 0
  },
  {
    "link_thumb": "https://live.staticflickr.com/65535/48114387216_de66d47c51_n.jpg",
    "id_album": "-1721545051",
    "description": "Chevrolet_512296",
    "title": "Chevrolet_512296",
    "link_img": "https://live.staticflickr.com/65535/48114387216_89104987d7_o.jpg",
    "id_image": "Chevrolet_512296",
    "count_view": 0
  },
  {
    "link_thumb": "https://live.staticflickr.com/65535/49890554392_32da8d82f5_n.jpg",
    "id_album": "-653425499",
    "description": "1964_rv_Lancia_rv_Flavia_rv_Sport_rv_Corsa_rv_V1_rv_1440",
    "title": "1964_rv_Lancia_rv_Flavia_rv_Sport_rv_Corsa_rv_V1_rv_1440",
    "link_img": "https://live.staticflickr.com/65535/49890554392_652b00945f_o.jpg",
    "id_image": "1964_rv_Lancia_rv_Flavia_rv_Sport_rv_Corsa_rv_V1_rv_1440",
    "count_view": 0
  },
  {
    "link_thumb": "https://live.staticflickr.com/65535/49892367526_68bb260432_n.jpg",
    "id_album": "2063224475",
    "description": "2016_rv_Ford_rv_Mustang_rv_Shelby_rv_GT350R_rv_V4_rv_1600",
    "title": "2016_rv_Ford_rv_Mustang_rv_Shelby_rv_GT350R_rv_V4_rv_1600",
    "link_img": "https://live.staticflickr.com/65535/49892367526_da2f5b627c_o.jpg",
    "id_image": "2016_rv_Ford_rv_Mustang_rv_Shelby_rv_GT350R_rv_V4_rv_1600",
    "count_view": 0
  },
  {
    "link_thumb": "https://live.staticflickr.com/65535/49890433887_e36aab79c6_n.jpg",
    "id_album": "91448049",
    "description": "1985_rv_Lamborghini_rv_Countach_rv_5000_rv_Quattrovalvole_rv_V5_rv_1440",
    "title": "1985_rv_Lamborghini_rv_Countach_rv_5000_rv_Quattrovalvole_rv_V5_rv_1440",
    "link_img": "https://live.staticflickr.com/65535/49890433887_0d2b620cda_o.jpg",
    "id_image": "1985_rv_Lamborghini_rv_Countach_rv_5000_rv_Quattrovalvole_rv_V5_rv_1440",
    "count_view": 0
  },
  {
    "link_thumb": "https://live.staticflickr.com/65535/48113277197_8503124608_n.jpg",
    "id_album": "727633301",
    "description": "BMW_911725",
    "title": "BMW_911725",
    "link_img": "https://live.staticflickr.com/65535/48113277197_bae55c2137_o.jpg",
    "id_image": "BMW_911725",
    "count_view": 0
  },
  {
    "link_thumb": "https://live.staticflickr.com/65535/48119149197_a695ec207f_n.jpg",
    "id_album": "697984456",
    "description": "Maserati_251390",
    "title": "Maserati_251390",
    "link_img": "https://live.staticflickr.com/65535/48119149197_e1eb57a8d2_o.jpg",
    "id_image": "Maserati_251390",
    "count_view": 0
  },
  {
    "link_thumb": "https://live.staticflickr.com/65535/49889403883_f1d712288e_n.jpg",
    "id_album": "-359433426",
    "description": "2009_rv_Honda_rv_S2000_rv_CR_rv_V6_rv_1440",
    "title": "2009_rv_Honda_rv_S2000_rv_CR_rv_V6_rv_1440",
    "link_img": "https://live.staticflickr.com/65535/49889403883_dea9f917d7_o.jpg",
    "id_image": "2009_rv_Honda_rv_S2000_rv_CR_rv_V6_rv_1440",
    "count_view": 0
  },
  {
    "link_thumb": "https://live.staticflickr.com/65535/49889414078_c297b8dc62_n.jpg",
    "id_album": "-1787274822",
    "description": "2015_rv_Hyundai_rv_Vision_rv_G_rv_Concept_rv_V2_rv_1600",
    "title": "2015_rv_Hyundai_rv_Vision_rv_G_rv_Concept_rv_V2_rv_1600",
    "link_img": "https://live.staticflickr.com/65535/49889414078_7634bb3b59_o.jpg",
    "id_image": "2015_rv_Hyundai_rv_Vision_rv_G_rv_Concept_rv_V2_rv_1600",
    "count_view": 0
  },
  {
    "link_thumb": "https://live.staticflickr.com/65535/49891870548_214a119c42_n.jpg",
    "id_album": "-189032193",
    "description": "2009_rv_Skoda_rv_Octavia_rv_RS_rv_Combi_rv_V1_rv_1536",
    "title": "2009_rv_Skoda_rv_Octavia_rv_RS_rv_Combi_rv_V1_rv_1536",
    "link_img": "https://live.staticflickr.com/65535/49891870548_c4c4612c96_o.jpg",
    "id_image": "2009_rv_Skoda_rv_Octavia_rv_RS_rv_Combi_rv_V1_rv_1536",
    "count_view": 0
  },
  {
    "link_thumb": "https://live.staticflickr.com/65535/49892284981_0d51a07107_n.jpg",
    "id_album": "820813097",
    "description": "1966_rv_Ringbrothers_rv_Chevrolet_rv_Chevelle_rv_Recoil_rv_V4_rv_2000",
    "title": "1966_rv_Ringbrothers_rv_Chevrolet_rv_Chevelle_rv_Recoil_rv_V4_rv_2000",
    "link_img": "https://live.staticflickr.com/65535/49892284981_80c894b2a3_o.jpg",
    "id_image": "1966_rv_Ringbrothers_rv_Chevrolet_rv_Chevelle_rv_Recoil_rv_V4_rv_2000",
    "count_view": 0
  },
  {
    "link_thumb": "https://live.staticflickr.com/65535/49890631786_5725467b63_n.jpg",
    "id_album": "1873728602",
    "description": "2014_rv_McLaren_rv_P1_rv_V10_rv_1600",
    "title": "2014_rv_McLaren_rv_P1_rv_V10_rv_1600",
    "link_img": "https://live.staticflickr.com/65535/49890631786_bd26111d1d_o.jpg",
    "id_image": "2014_rv_McLaren_rv_P1_rv_V10_rv_1600",
    "count_view": 0
  },
  {
    "link_thumb": "https://live.staticflickr.com/65535/48115892783_d146bc8e47_n.jpg",
    "id_album": "1364506720",
    "description": "Ferrari_353925",
    "title": "Ferrari_353925",
    "link_img": "https://live.staticflickr.com/65535/48115892783_43fe2bc2e0_o.jpg",
    "id_image": "Ferrari_353925",
    "count_view": 0
  },
  {
    "link_thumb": "https://live.staticflickr.com/65535/49888193998_6967a27321_n.jpg",
    "id_album": "-1116936211",
    "description": "2015_rv_AC_rv_Schnitzer_rv_BMW_rv_i8_rv_V3_rv_1600",
    "title": "2015_rv_AC_rv_Schnitzer_rv_BMW_rv_i8_rv_V3_rv_1600",
    "link_img": "https://live.staticflickr.com/65535/49888193998_6aa9662221_o.jpg",
    "id_image": "2015_rv_AC_rv_Schnitzer_rv_BMW_rv_i8_rv_V3_rv_1600",
    "count_view": 0
  },
  {
    "link_thumb": "https://live.staticflickr.com/65535/48112977808_1abd9c7294_n.jpg",
    "id_album": "727633301",
    "description": "BMW_495209",
    "title": "BMW_495209",
    "link_img": "https://live.staticflickr.com/65535/48112977808_ea70fdb455_o.jpg",
    "id_image": "BMW_495209",
    "count_view": 0
  },
  {
    "link_thumb": "https://live.staticflickr.com/65535/49890815227_05c6461181_n.jpg",
    "id_album": "-914737879",
    "description": "2011_rv_McLaren_rv_MP4_rv_12C_rv_GT3_rv_V7_rv_1536",
    "title": "2011_rv_McLaren_rv_MP4_rv_12C_rv_GT3_rv_V7_rv_1536",
    "link_img": "https://live.staticflickr.com/65535/49890815227_3e6d74e639_o.jpg",
    "id_image": "2011_rv_McLaren_rv_MP4_rv_12C_rv_GT3_rv_V7_rv_1536",
    "count_view": 0
  },
  {
    "link_thumb": "https://live.staticflickr.com/65535/48118446432_c1038db3f2_n.jpg",
    "id_album": "-2100339805",
    "description": "Lamborghini_343136",
    "title": "Lamborghini_343136",
    "link_img": "https://live.staticflickr.com/65535/48118446432_e54315dc3d_o.jpg",
    "id_image": "Lamborghini_343136",
    "count_view": 0
  },
  {
    "link_thumb": "https://live.staticflickr.com/65535/49891929583_256d9943e5_n.jpg",
    "id_album": "-2019773296",
    "description": "2022_rv_Tesla_rv_Cybertruck_rv_V1_rv_2160",
    "title": "2022_rv_Tesla_rv_Cybertruck_rv_V1_rv_2160",
    "link_img": "https://live.staticflickr.com/65535/49891929583_2ed797541a_o.jpg",
    "id_image": "2022_rv_Tesla_rv_Cybertruck_rv_V1_rv_2160",
    "count_view": 0
  },
  {
    "link_thumb": "https://live.staticflickr.com/65535/48116808253_ea9e0dbbc3_n.jpg",
    "id_album": "-1846404630",
    "description": "Ford_225229",
    "title": "Ford_225229",
    "link_img": "https://live.staticflickr.com/65535/48116808253_1ec2a9dda2_o.jpg",
    "id_image": "Ford_225229",
    "count_view": 0
  },
  {
    "link_thumb": "https://live.staticflickr.com/65535/48121456591_55abce0ceb_n.jpg",
    "id_album": "-1178450892",
    "description": "Porsche_597716",
    "title": "Porsche_597716",
    "link_img": "https://live.staticflickr.com/65535/48121456591_6e11f22953_o.jpg",
    "id_image": "Porsche_597716",
    "count_view": 0
  },
  {
    "link_thumb": "https://live.staticflickr.com/65535/48113475393_53a6b4db87_n.jpg",
    "id_album": "1456070666",
    "description": "Bugatti_855307",
    "title": "Bugatti_855307",
    "link_img": "https://live.staticflickr.com/65535/48113475393_b5286eb51b_o.jpg",
    "id_image": "Bugatti_855307",
    "count_view": 0
  },
  {
    "link_thumb": "https://live.staticflickr.com/65535/49889050288_50315ee392_n.jpg",
    "id_album": "-1150105315",
    "description": "2018_rv_Formula1_rv_Ferrari_rv_SF71H_rv_V2_rv_2000",
    "title": "2018_rv_Formula1_rv_Ferrari_rv_SF71H_rv_V2_rv_2000",
    "link_img": "https://live.staticflickr.com/65535/49889050288_1583af67ef_o.jpg",
    "id_image": "2018_rv_Formula1_rv_Ferrari_rv_SF71H_rv_V2_rv_2000",
    "count_view": 0
  },
  {
    "link_thumb": "https://live.staticflickr.com/65535/48112306007_b2ec972c9b_n.jpg",
    "id_album": "-1001854128",
    "description": "AstonMartin_909636",
    "title": "AstonMartin_909636",
    "link_img": "https://live.staticflickr.com/65535/48112306007_deb6329cef_o.jpg",
    "id_image": "AstonMartin_909636",
    "count_view": 0
  },
  {
    "link_thumb": "https://live.staticflickr.com/65535/49892406171_e2a587fdd3_n.jpg",
    "id_album": "-1850816117",
    "description": "2018_rv_SSC_rv_Tuatara_rv_V5_rv_2160",
    "title": "2018_rv_SSC_rv_Tuatara_rv_V5_rv_2160",
    "link_img": "https://live.staticflickr.com/65535/49892406171_b24ce3e40f_o.jpg",
    "id_image": "2018_rv_SSC_rv_Tuatara_rv_V5_rv_2160",
    "count_view": 0
  },
  {
    "link_thumb": "https://live.staticflickr.com/65535/49892684317_a0f1d4e389_n.jpg",
    "id_album": "2063224475",
    "description": "2018_rv_Ford_rv_Mustang_rv_GT_rv_Performance_rv_Pack_rv_Level_rv_2_rv_V3_rv_2000",
    "title": "2018_rv_Ford_rv_Mustang_rv_GT_rv_Performance_rv_Pack_rv_Level_rv_2_rv_V3_rv_2000",
    "link_img": "https://live.staticflickr.com/65535/49892684317_fdbf876c1d_o.jpg",
    "id_image": "2018_rv_Ford_rv_Mustang_rv_GT_rv_Performance_rv_Pack_rv_Level_rv_2_rv_V3_rv_2000",
    "count_view": 0
  },
  {
    "link_thumb": "https://live.staticflickr.com/65535/48118668797_931f31789b_n.jpg",
    "id_album": "-2100339805",
    "description": "Lamborghini_712173",
    "title": "Lamborghini_712173",
    "link_img": "https://live.staticflickr.com/65535/48118668797_e2de76ca73_o.jpg",
    "id_image": "Lamborghini_712173",
    "count_view": 0
  },
  {
    "link_thumb": "https://live.staticflickr.com/65535/49892545936_e8aca78025_n.jpg",
    "id_album": "1662834735",
    "description": "2017_rv_Porsche_rv_911_rv_Turbo_rv_S_rv_V2_rv_2000",
    "title": "2017_rv_Porsche_rv_911_rv_Turbo_rv_S_rv_V2_rv_2000",
    "link_img": "https://live.staticflickr.com/65535/49892545936_fc3c743ebb_o.jpg",
    "id_image": "2017_rv_Porsche_rv_911_rv_Turbo_rv_S_rv_V2_rv_2000",
    "count_view": 0
  },
  {
    "link_thumb": "https://live.staticflickr.com/65535/48116435116_10891cc7b3_n.jpg",
    "id_album": "1364506720",
    "description": "Ferrari_971363",
    "title": "Ferrari_971363",
    "link_img": "https://live.staticflickr.com/65535/48116435116_a01e7471bd_o.jpg",
    "id_image": "Ferrari_971363",
    "count_view": 0
  },
  {
    "link_thumb": "https://live.staticflickr.com/65535/48120004833_6c9dd677e7_n.jpg",
    "id_album": "-1366790033",
    "description": "Mercury_134156",
    "title": "Mercury_134156",
    "link_img": "https://live.staticflickr.com/65535/48120004833_f5bf3f3e25_o.jpg",
    "id_image": "Mercury_134156",
    "count_view": 0
  },
  {
    "link_thumb": "https://live.staticflickr.com/65535/48118801142_d627953815_n.jpg",
    "id_album": "-2100339805",
    "description": "Lamborghini_965739",
    "title": "Lamborghini_965739",
    "link_img": "https://live.staticflickr.com/65535/48118801142_4b9b98e303_o.jpg",
    "id_image": "Lamborghini_965739",
    "count_view": 0
  },
  {
    "link_thumb": "https://live.staticflickr.com/65535/48112984342_d20b107629_n.jpg",
    "id_album": "727633301",
    "description": "BMW_486741",
    "title": "BMW_486741",
    "link_img": "https://live.staticflickr.com/65535/48112984342_13e3a619eb_o.jpg",
    "id_image": "BMW_486741",
    "count_view": 0
  },
  {
    "link_thumb": "https://live.staticflickr.com/65535/49889000393_b5d00c56c2_n.jpg",
    "id_album": "665596165",
    "description": "2018_rv_Ferrari_rv_812_rv_Superfast_rv_V16_rv_2160",
    "title": "2018_rv_Ferrari_rv_812_rv_Superfast_rv_V16_rv_2160",
    "link_img": "https://live.staticflickr.com/65535/49889000393_a7cacbda9c_o.jpg",
    "id_image": "2018_rv_Ferrari_rv_812_rv_Superfast_rv_V16_rv_2160",
    "count_view": 0
  },
  {
    "link_thumb": "https://live.staticflickr.com/65535/49891823493_17b458743a_n.jpg",
    "id_album": "1479345904",
    "description": "2015_rv_Dodge_rv_Charger_rv_SRT_rv_Hellcat_rv_V2_rv_1600",
    "title": "2015_rv_Dodge_rv_Charger_rv_SRT_rv_Hellcat_rv_V2_rv_1600",
    "link_img": "https://live.staticflickr.com/65535/49891823493_479deb9f50_o.jpg",
    "id_image": "2015_rv_Dodge_rv_Charger_rv_SRT_rv_Hellcat_rv_V2_rv_1600",
    "count_view": 0
  },
  {
    "link_thumb": "https://live.staticflickr.com/65535/48115237832_42d6fe37b4_n.jpg",
    "id_album": "413141323",
    "description": "Dodge_275068",
    "title": "Dodge_275068",
    "link_img": "https://live.staticflickr.com/65535/48115237832_12595115f1_o.jpg",
    "id_image": "Dodge_275068",
    "count_view": 0
  },
  {
    "link_thumb": "https://live.staticflickr.com/65535/48112075282_a05c49bdbe_n.jpg",
    "id_album": "1906325017",
    "description": "Infiniti_504411",
    "title": "Infiniti_504411",
    "link_img": "https://live.staticflickr.com/65535/48112075282_4f453103ef_o.jpg",
    "id_image": "Infiniti_504411",
    "count_view": 0
  },
  {
    "link_thumb": "https://live.staticflickr.com/65535/49889453293_f0fbfe0ab5_n.jpg",
    "id_album": "781714354",
    "description": "2013_rv_Jaguar_rv_C_rv_X75_rv_Prototype_rv_V5_rv_1600",
    "title": "2013_rv_Jaguar_rv_C_rv_X75_rv_Prototype_rv_V5_rv_1600",
    "link_img": "https://live.staticflickr.com/65535/49889453293_32732be40d_o.jpg",
    "id_image": "2013_rv_Jaguar_rv_C_rv_X75_rv_Prototype_rv_V5_rv_1600",
    "count_view": 0
  },
  {
    "link_thumb": "https://live.staticflickr.com/65535/48112578466_3d1fd9107c_n.jpg",
    "id_album": "2097036181",
    "description": "Bentley_997678",
    "title": "Bentley_997678",
    "link_img": "https://live.staticflickr.com/65535/48112578466_c6f7e7931d_o.jpg",
    "id_image": "Bentley_997678",
    "count_view": 0
  },
  {
    "link_thumb": "https://live.staticflickr.com/65535/48112093486_658ef5e2d2_n.jpg",
    "id_album": "1546790746",
    "description": "AstonMartin_253552",
    "title": "AstonMartin_253552",
    "link_img": "https://live.staticflickr.com/65535/48112093486_075c1524b1_o.jpg",
    "id_image": "AstonMartin_253552",
    "count_view": 0
  },
  {
    "link_thumb": "https://live.staticflickr.com/65535/48115648313_fb4856ca4e_n.jpg",
    "id_album": "1364506720",
    "description": "Ferrari_117961",
    "title": "Ferrari_117961",
    "link_img": "https://live.staticflickr.com/65535/48115648313_f36a9ba3ff_o.jpg",
    "id_image": "Ferrari_117961",
    "count_view": 0
  },
  {
    "link_thumb": "https://live.staticflickr.com/65535/49889268356_86b5aec55d_n.jpg",
    "id_album": "-842876963",
    "description": "2020_rv_Chevrolet_rv_Corvette_rv_Stingray_rv_V8_rv_2160",
    "title": "2020_rv_Chevrolet_rv_Corvette_rv_Stingray_rv_V8_rv_2160",
    "link_img": "https://live.staticflickr.com/65535/49889268356_427e5f6880_o.jpg",
    "id_image": "2020_rv_Chevrolet_rv_Corvette_rv_Stingray_rv_V8_rv_2160",
    "count_view": 0
  },
  {
    "link_thumb": "https://live.staticflickr.com/65535/49890025156_cdb87e7179_n.jpg",
    "id_album": "1773051538",
    "description": "2011_rv_Jaguar_rv_XKR_rv_Special_rv_Edition_rv_V9_rv_1440",
    "title": "2011_rv_Jaguar_rv_XKR_rv_Special_rv_Edition_rv_V9_rv_1440",
    "link_img": "https://live.staticflickr.com/65535/49890025156_9af6d697ef_o.jpg",
    "id_image": "2011_rv_Jaguar_rv_XKR_rv_Special_rv_Edition_rv_V9_rv_1440",
    "count_view": 0
  },
  {
    "link_thumb": "https://live.staticflickr.com/65535/49890548391_a97d123471_n.jpg",
    "id_album": "1806856197",
    "description": "2015_rv_McLaren_rv_650S_rv_V12_rv_1536",
    "title": "2015_rv_McLaren_rv_650S_rv_V12_rv_1536",
    "link_img": "https://live.staticflickr.com/65535/49890548391_1d73b77bee_o.jpg",
    "id_image": "2015_rv_McLaren_rv_650S_rv_V12_rv_1536",
    "count_view": 0
  },
  {
    "link_thumb": "https://live.staticflickr.com/65535/48115376362_8bc71867ca_n.jpg",
    "id_album": "413141323",
    "description": "Dodge_472029",
    "title": "Dodge_472029",
    "link_img": "https://live.staticflickr.com/65535/48115376362_2d8ab8b0de_o.jpg",
    "id_image": "Dodge_472029",
    "count_view": 0
  },
  {
    "link_thumb": "https://live.staticflickr.com/65535/48115894678_81f3197a90_n.jpg",
    "id_album": "1364506720",
    "description": "Ferrari_358170",
    "title": "Ferrari_358170",
    "link_img": "https://live.staticflickr.com/65535/48115894678_40ecd8c7d9_o.jpg",
    "id_image": "Ferrari_358170",
    "count_view": 0
  },
  {
    "link_thumb": "https://live.staticflickr.com/65535/49890097851_45dbd2b8c6_n.jpg",
    "id_album": "-59902933",
    "description": "2017_rv_Lamborghini_rv_Aventador_rv_S_rv_V15_rv_2000",
    "title": "2017_rv_Lamborghini_rv_Aventador_rv_S_rv_V15_rv_2000",
    "link_img": "https://live.staticflickr.com/65535/49890097851_e77aa704ea_o.jpg",
    "id_image": "2017_rv_Lamborghini_rv_Aventador_rv_S_rv_V15_rv_2000",
    "count_view": 0
  },
  {
    "link_thumb": "https://live.staticflickr.com/65535/49888392548_83f284b540_n.jpg",
    "id_album": "216453960",
    "description": "2014_rv_Aston_rv_Martin_rv_DB9_rv_Spyder_rv_Zagato_rv_Centennial_rv_V2_rv_1600",
    "title": "2014_rv_Aston_rv_Martin_rv_DB9_rv_Spyder_rv_Zagato_rv_Centennial_rv_V2_rv_1600",
    "link_img": "https://live.staticflickr.com/65535/49888392548_da88205b06_o.jpg",
    "id_image": "2014_rv_Aston_rv_Martin_rv_DB9_rv_Spyder_rv_Zagato_rv_Centennial_rv_V2_rv_1600",
    "count_view": 0
  },
  {
    "link_thumb": "https://live.staticflickr.com/65535/49889162776_47e91e0030_n.jpg",
    "id_album": "-1077631613",
    "description": "2019_rv_BMW_rv_Concept_rv_4_rv_V3_rv_2160",
    "title": "2019_rv_BMW_rv_Concept_rv_4_rv_V3_rv_2160",
    "link_img": "https://live.staticflickr.com/65535/49889162776_b982867282_o.jpg",
    "id_image": "2019_rv_BMW_rv_Concept_rv_4_rv_V3_rv_2160",
    "count_view": 0
  },
  {
    "link_thumb": "https://live.staticflickr.com/65535/48114206696_b03f299032_n.jpg",
    "id_album": "-1721545051",
    "description": "Chevrolet_416697",
    "title": "Chevrolet_416697",
    "link_img": "https://live.staticflickr.com/65535/48114206696_c06f2de11f_o.jpg",
    "id_image": "Chevrolet_416697",
    "count_view": 0
  },
  {
    "link_thumb": "https://live.staticflickr.com/65535/49890286268_f0f035d31a_n.jpg",
    "id_album": "546154853",
    "description": "2016_rv_Mercedes_rv_Benz_rv_GLE450_rv_AMG_rv_Coupe_rv_V2_rv_1600",
    "title": "2016_rv_Mercedes_rv_Benz_rv_GLE450_rv_AMG_rv_Coupe_rv_V2_rv_1600",
    "link_img": "https://live.staticflickr.com/65535/49890286268_275a5765fa_o.jpg",
    "id_image": "2016_rv_Mercedes_rv_Benz_rv_GLE450_rv_AMG_rv_Coupe_rv_V2_rv_1600",
    "count_view": 0
  },
  {
    "link_thumb": "https://live.staticflickr.com/65535/49891658062_80b4964d0e_n.jpg",
    "id_album": "654772634",
    "description": "1959_rv_Porsche_rv_356B_rv_V12_rv_1536",
    "title": "1959_rv_Porsche_rv_356B_rv_V12_rv_1536",
    "link_img": "https://live.staticflickr.com/65535/49891658062_bf223d860f_o.jpg",
    "id_image": "1959_rv_Porsche_rv_356B_rv_V12_rv_1536",
    "count_view": 0
  },
  {
    "link_thumb": "https://live.staticflickr.com/65535/48113356083_7ffb9bc59c_n.jpg",
    "id_album": "1456070666",
    "description": "Bugatti_175716",
    "title": "Bugatti_175716",
    "link_img": "https://live.staticflickr.com/65535/48113356083_aef44bcbe5_o.jpg",
    "id_image": "Bugatti_175716",
    "count_view": 0
  },
  {
    "link_thumb": "https://live.staticflickr.com/65535/48118160566_9df070670c_n.jpg",
    "id_album": "-625217782",
    "description": "Kia_690967",
    "title": "Kia_690967",
    "link_img": "https://live.staticflickr.com/65535/48118160566_e4fac10643_o.jpg",
    "id_image": "Kia_690967",
    "count_view": 0
  },
  {
    "link_thumb": "https://live.staticflickr.com/65535/48115305241_20667acf11_n.jpg",
    "id_album": "413141323",
    "description": "Dodge_472099",
    "title": "Dodge_472099",
    "link_img": "https://live.staticflickr.com/65535/48115305241_71f42498fa_o.jpg",
    "id_image": "Dodge_472099",
    "count_view": 0
  },
  {
    "link_thumb": "https://live.staticflickr.com/65535/48123266421_6fa12eea2a_n.jpg",
    "id_album": "-360260466",
    "description": "Yamaha_810228",
    "title": "Yamaha_810228",
    "link_img": "https://live.staticflickr.com/65535/48123266421_b2e21d72a0_o.jpg",
    "id_image": "Yamaha_810228",
    "count_view": 0
  },
  {
    "link_thumb": "https://live.staticflickr.com/65535/48120378926_5cced0752d_n.jpg",
    "id_album": "810634050",
    "description": "Nissan_319332",
    "title": "Nissan_319332",
    "link_img": "https://live.staticflickr.com/65535/48120378926_f920f9b372_o.jpg",
    "id_image": "Nissan_319332",
    "count_view": 0
  },
  {
    "link_thumb": "https://live.staticflickr.com/65535/49890777023_fdb5856ea0_n.jpg",
    "id_album": "136450507",
    "description": "2013_rv_BMW_rv_Pininfarina_rv_Gran_rv_Lusso_rv_Coupe_rv_V4_rv_1600",
    "title": "2013_rv_BMW_rv_Pininfarina_rv_Gran_rv_Lusso_rv_Coupe_rv_V4_rv_1600",
    "link_img": "https://live.staticflickr.com/65535/49890777023_0276e6593e_o.jpg",
    "id_image": "2013_rv_BMW_rv_Pininfarina_rv_Gran_rv_Lusso_rv_Coupe_rv_V4_rv_1600",
    "count_view": 0
  },
  {
    "link_thumb": "https://live.staticflickr.com/65535/48118286851_c92154b763_n.jpg",
    "id_album": "-2100339805",
    "description": "Lamborghini_282970",
    "title": "Lamborghini_282970",
    "link_img": "https://live.staticflickr.com/65535/48118286851_1f372f4992_o.jpg",
    "id_image": "Lamborghini_282970",
    "count_view": 0
  },
  {
    "link_thumb": "https://live.staticflickr.com/65535/48115176112_f918f4330c_n.jpg",
    "id_album": "413141323",
    "description": "Dodge_241098",
    "title": "Dodge_241098",
    "link_img": "https://live.staticflickr.com/65535/48115176112_7df552d388_o.jpg",
    "id_image": "Dodge_241098",
    "count_view": 0
  },
  {
    "link_thumb": "https://live.staticflickr.com/65535/49892841232_e247313612_n.jpg",
    "id_album": "883034302",
    "description": "2018_rv_Toyota_rv_GR_rv_Supra_rv_Racing_rv_Concept_rv_V7_rv_2000",
    "title": "2018_rv_Toyota_rv_GR_rv_Supra_rv_Racing_rv_Concept_rv_V7_rv_2000",
    "link_img": "https://live.staticflickr.com/65535/49892841232_d0fbdcc3b1_o.jpg",
    "id_image": "2018_rv_Toyota_rv_GR_rv_Supra_rv_Racing_rv_Concept_rv_V7_rv_2000",
    "count_view": 0
  },
  {
    "link_thumb": "https://live.staticflickr.com/65535/48119802953_a8723d1d67_n.jpg",
    "id_album": "-731054311",
    "description": "MercedesBenz_803847",
    "title": "MercedesBenz_803847",
    "link_img": "https://live.staticflickr.com/65535/48119802953_ab835beaf9_o.jpg",
    "id_image": "MercedesBenz_803847",
    "count_view": 0
  },
  {
    "link_thumb": "https://live.staticflickr.com/65535/49889541386_f2e538cbef_n.jpg",
    "id_album": "-1163422051",
    "description": "1972_rv_Ferrari_rv_Dino_rv_246_rv_GTS_rv_V12_rv_2000",
    "title": "1972_rv_Ferrari_rv_Dino_rv_246_rv_GTS_rv_V12_rv_2000",
    "link_img": "https://live.staticflickr.com/65535/49889541386_c0baef0916_o.jpg",
    "id_image": "1972_rv_Ferrari_rv_Dino_rv_246_rv_GTS_rv_V12_rv_2000",
    "count_view": 0
  },
  {
    "link_thumb": "https://live.staticflickr.com/65535/48120305457_782c901978_n.jpg",
    "id_album": "666438681",
    "description": "Motorcycles_400919",
    "title": "Motorcycles_400919",
    "link_img": "https://live.staticflickr.com/65535/48120305457_be34c5e409_o.jpg",
    "id_image": "Motorcycles_400919",
    "count_view": 0
  },
  {
    "link_thumb": "https://live.staticflickr.com/65535/49890171031_b522db6436_n.jpg",
    "id_album": "-936716449",
    "description": "2019_rv_Lamborghini_rv_Huracan_rv_Performante_rv_Spyder_rv_V6_rv_2000",
    "title": "2019_rv_Lamborghini_rv_Huracan_rv_Performante_rv_Spyder_rv_V6_rv_2000",
    "link_img": "https://live.staticflickr.com/65535/49890171031_050944600a_o.jpg",
    "id_image": "2019_rv_Lamborghini_rv_Huracan_rv_Performante_rv_Spyder_rv_V6_rv_2000",
    "count_view": 0
  },
  {
    "link_thumb": "https://live.staticflickr.com/65535/49890168168_14fd357572_n.jpg",
    "id_album": "-538739456",
    "description": "2015_rv_Mercedes_rv_Benz_rv_C63_rv_AMG_rv_V4_rv_1600",
    "title": "2015_rv_Mercedes_rv_Benz_rv_C63_rv_AMG_rv_V4_rv_1600",
    "link_img": "https://live.staticflickr.com/65535/49890168168_b832aed676_o.jpg",
    "id_image": "2015_rv_Mercedes_rv_Benz_rv_C63_rv_AMG_rv_V4_rv_1600",
    "count_view": 0
  },
  {
    "link_thumb": "https://live.staticflickr.com/65535/48121999492_89558a8031_n.jpg",
    "id_album": "-1377335499",
    "description": "RangeRover_487394",
    "title": "RangeRover_487394",
    "link_img": "https://live.staticflickr.com/65535/48121999492_3617e6811c_o.jpg",
    "id_image": "RangeRover_487394",
    "count_view": 0
  },
  {
    "link_thumb": "https://live.staticflickr.com/65535/48118261222_a91eaf621a_n.jpg",
    "id_album": "-625217782",
    "description": "Kia_935807",
    "title": "Kia_935807",
    "link_img": "https://live.staticflickr.com/65535/48118261222_33c4b47f2c_o.jpg",
    "id_image": "Kia_935807",
    "count_view": 0
  },
  {
    "link_thumb": "https://live.staticflickr.com/65535/49889188482_f0002cc616_n.jpg",
    "id_album": "-31825570",
    "description": "2019_rv_Aston_rv_Martin_rv_Rapide_rv_AMR_rv_V5_rv_2160",
    "title": "2019_rv_Aston_rv_Martin_rv_Rapide_rv_AMR_rv_V5_rv_2160",
    "link_img": "https://live.staticflickr.com/65535/49889188482_2800c69b78_o.jpg",
    "id_image": "2019_rv_Aston_rv_Martin_rv_Rapide_rv_AMR_rv_V5_rv_2160",
    "count_view": 0
  },
  {
    "link_thumb": "https://live.staticflickr.com/65535/48113396473_348e2db074_n.jpg",
    "id_album": "1456070666",
    "description": "Bugatti_365987",
    "title": "Bugatti_365987",
    "link_img": "https://live.staticflickr.com/65535/48113396473_59048c1761_o.jpg",
    "id_image": "Bugatti_365987",
    "count_view": 0
  },
  {
    "link_thumb": "https://live.staticflickr.com/65535/49891161952_c83a3bd0b2_n.jpg",
    "id_album": "-21475779",
    "description": "2020_rv_Mercedes_rv_AMG_rv_GT_rv_R_rv_V4_rv_2160",
    "title": "2020_rv_Mercedes_rv_AMG_rv_GT_rv_R_rv_V4_rv_2160",
    "link_img": "https://live.staticflickr.com/65535/49891161952_78a20956a1_o.jpg",
    "id_image": "2020_rv_Mercedes_rv_AMG_rv_GT_rv_R_rv_V4_rv_2160",
    "count_view": 0
  },
  {
    "link_thumb": "https://live.staticflickr.com/65535/48119538878_89f2ed73ef_n.jpg",
    "id_album": "-731054311",
    "description": "MercedesBenz_257103",
    "title": "MercedesBenz_257103",
    "link_img": "https://live.staticflickr.com/65535/48119538878_f4d64e2a79_o.jpg",
    "id_image": "MercedesBenz_257103",
    "count_view": 0
  },
  {
    "link_thumb": "https://live.staticflickr.com/65535/49889134898_a1479f30b4_n.jpg",
    "id_album": "-135411974",
    "description": "1965_rv_Ford_rv_Mustang_rv_Fastback_rv_V8_rv_1536",
    "title": "1965_rv_Ford_rv_Mustang_rv_Fastback_rv_V8_rv_1536",
    "link_img": "https://live.staticflickr.com/65535/49889134898_bb8561436e_o.jpg",
    "id_image": "1965_rv_Ford_rv_Mustang_rv_Fastback_rv_V8_rv_1536",
    "count_view": 0
  },
  {
    "link_thumb": "https://live.staticflickr.com/65535/48115852577_e1c4a714b9_n.jpg",
    "id_album": "1364506720",
    "description": "Ferrari_291146",
    "title": "Ferrari_291146",
    "link_img": "https://live.staticflickr.com/65535/48115852577_1e74fecd00_o.jpg",
    "id_image": "Ferrari_291146",
    "count_view": 0
  },
  {
    "link_thumb": "https://live.staticflickr.com/65535/49889543568_90f8ee0833_n.jpg",
    "id_album": "-132134020",
    "description": "2006_rv_Koenigsegg_rv_CCX_rv_V1_rv_1440",
    "title": "2006_rv_Koenigsegg_rv_CCX_rv_V1_rv_1440",
    "link_img": "https://live.staticflickr.com/65535/49889543568_912f4439ab_o.jpg",
    "id_image": "2006_rv_Koenigsegg_rv_CCX_rv_V1_rv_1440",
    "count_view": 0
  },
  {
    "link_thumb": "https://live.staticflickr.com/65535/49041125087_66c532141c_n.jpg",
    "id_album": "-1109579119",
    "description": "AlfaRomeo_960806",
    "title": "AlfaRomeo_960806",
    "link_img": "https://live.staticflickr.com/65535/49041125087_a71e5c2351_o.jpg",
    "id_image": "AlfaRomeo_960806",
    "count_view": 0
  },
  {
    "link_thumb": "https://live.staticflickr.com/65535/48112508251_c5b1bccedb_n.jpg",
    "id_album": "2097036181",
    "description": "Bentley_253786",
    "title": "Bentley_253786",
    "link_img": "https://live.staticflickr.com/65535/48112508251_0d7848e36b_o.jpg",
    "id_image": "Bentley_253786",
    "count_view": 0
  },
  {
    "link_thumb": "https://live.staticflickr.com/65535/48117853176_e7ca4a2943_n.jpg",
    "id_album": "-354267407",
    "description": "Honda_684257",
    "title": "Honda_684257",
    "link_img": "https://live.staticflickr.com/65535/48117853176_8f7083c92a_o.jpg",
    "id_image": "Honda_684257",
    "count_view": 0
  },
  {
    "link_thumb": "https://live.staticflickr.com/65535/49953904763_7a21895592_n.jpg",
    "id_album": "-1040682979",
    "description": "2018_rv_Renault_rv_Clio_rv_R.S._rv_18_rv_V4_rv_2000",
    "title": "2018_rv_Renault_rv_Clio_rv_R.S._rv_18_rv_V4_rv_2000",
    "link_img": "https://live.staticflickr.com/65535/49953904763_49cbc1f118_o.jpg",
    "id_image": "2018_rv_Renault_rv_Clio_rv_R.S._rv_18_rv_V4_rv_2000",
    "count_view": 0
  },
  {
    "link_thumb": "https://live.staticflickr.com/65535/48122227587_08e7e439bf_n.jpg",
    "id_album": "1536700661",
    "description": "RollsRoyce_732532",
    "title": "RollsRoyce_732532",
    "link_img": "https://live.staticflickr.com/65535/48122227587_a382debc2b_o.jpg",
    "id_image": "RollsRoyce_732532",
    "count_view": 0
  },
  {
    "link_thumb": "https://live.staticflickr.com/65535/48116972908_7bda241a75_n.jpg",
    "id_album": "-1846404630",
    "description": "Ford_283063",
    "title": "Ford_283063",
    "link_img": "https://live.staticflickr.com/65535/48116972908_239afa32eb_o.jpg",
    "id_image": "Ford_283063",
    "count_view": 0
  },
  {
    "link_thumb": "https://live.staticflickr.com/65535/48112786706_c703e1856c_n.jpg",
    "id_album": "727633301",
    "description": "BMW_455898",
    "title": "BMW_455898",
    "link_img": "https://live.staticflickr.com/65535/48112786706_ebc5c3951d_o.jpg",
    "id_image": "BMW_455898",
    "count_view": 0
  },
  {
    "link_thumb": "https://live.staticflickr.com/65535/49892948747_97d7b17b7b_n.jpg",
    "id_album": "-1948800335",
    "description": "2021_rv_Vega_rv_EVX_rv_V3_rv_2160",
    "title": "2021_rv_Vega_rv_EVX_rv_V3_rv_2160",
    "link_img": "https://live.staticflickr.com/65535/49892948747_f08c563dec_o.jpg",
    "id_image": "2021_rv_Vega_rv_EVX_rv_V3_rv_2160",
    "count_view": 0
  },
  {
    "link_thumb": "https://live.staticflickr.com/65535/49889728216_99eed7ee07_n.jpg",
    "id_album": "524349362",
    "description": "2017_rv_Ford_rv_GT_rv_V19_rv_1600",
    "title": "2017_rv_Ford_rv_GT_rv_V19_rv_1600",
    "link_img": "https://live.staticflickr.com/65535/49889728216_be64461de2_o.jpg",
    "id_image": "2017_rv_Ford_rv_GT_rv_V19_rv_1600",
    "count_view": 0
  },
  {
    "link_thumb": "https://live.staticflickr.com/65535/48117548326_89fe082632_n.jpg",
    "id_album": "-1846404630",
    "description": "Ford_931023",
    "title": "Ford_931023",
    "link_img": "https://live.staticflickr.com/65535/48117548326_6f51042028_o.jpg",
    "id_image": "Ford_931023",
    "count_view": 0
  },
  {
    "link_thumb": "https://live.staticflickr.com/65535/48120087638_ce1ec875a5_n.jpg",
    "id_album": "-1116477526",
    "description": "Mitsubishi_450802",
    "title": "Mitsubishi_450802",
    "link_img": "https://live.staticflickr.com/65535/48120087638_b84fd697ea_o.jpg",
    "id_image": "Mitsubishi_450802",
    "count_view": 0
  },
  {
    "link_thumb": "https://live.staticflickr.com/65535/48116914981_08bb6ba314_n.jpg",
    "id_album": "-1846404630",
    "description": "Ford_270203",
    "title": "Ford_270203",
    "link_img": "https://live.staticflickr.com/65535/48116914981_03dd45b205_o.jpg",
    "id_image": "Ford_270203",
    "count_view": 0
  },
  {
    "link_thumb": "https://live.staticflickr.com/65535/49890189642_6107813a26_n.jpg",
    "id_album": "-659575064",
    "description": "2011_rv_Hennessey_rv_Venom_rv_GT_rv_V2_rv_1440",
    "title": "2011_rv_Hennessey_rv_Venom_rv_GT_rv_V2_rv_1440",
    "link_img": "https://live.staticflickr.com/65535/49890189642_c28be94e6a_o.jpg",
    "id_image": "2011_rv_Hennessey_rv_Venom_rv_GT_rv_V2_rv_1440",
    "count_view": 0
  },
  {
    "link_thumb": "https://live.staticflickr.com/65535/48112488817_4847e3840e_n.jpg",
    "id_album": "-15119147",
    "description": "Audi_722820",
    "title": "Audi_722820",
    "link_img": "https://live.staticflickr.com/65535/48112488817_362f1de343_o.jpg",
    "id_image": "Audi_722820",
    "count_view": 0
  },
  {
    "link_thumb": "https://live.staticflickr.com/65535/48121251351_91a9d35c39_n.jpg",
    "id_album": "-1178450892",
    "description": "Porsche_257645",
    "title": "Porsche_257645",
    "link_img": "https://live.staticflickr.com/65535/48121251351_66d8ec79dd_o.jpg",
    "id_image": "Porsche_257645",
    "count_view": 0
  },
  {
    "link_thumb": "https://live.staticflickr.com/65535/48117026148_cd36ccdb63_n.jpg",
    "id_album": "-1846404630",
    "description": "Ford_317085",
    "title": "Ford_317085",
    "link_img": "https://live.staticflickr.com/65535/48117026148_9153ebe84e_o.jpg",
    "id_image": "Ford_317085",
    "count_view": 0
  },
  {
    "link_thumb": "https://live.staticflickr.com/65535/48121200613_2c0caab84c_n.jpg",
    "id_album": "-2099496752",
    "description": "Pontiac_856429",
    "title": "Pontiac_856429",
    "link_img": "https://live.staticflickr.com/65535/48121200613_d054955294_o.jpg",
    "id_image": "Pontiac_856429",
    "count_view": 0
  },
  {
    "link_thumb": "https://live.staticflickr.com/65535/48112376473_9c04f68587_n.jpg",
    "id_album": "-15119147",
    "description": "Audi_479825",
    "title": "Audi_479825",
    "link_img": "https://live.staticflickr.com/65535/48112376473_1b6ed52592_o.jpg",
    "id_image": "Audi_479825",
    "count_view": 0
  },
  {
    "link_thumb": "https://live.staticflickr.com/65535/48116244417_f3e0672c85_n.jpg",
    "id_album": "1364506720",
    "description": "Ferrari_687032",
    "title": "Ferrari_687032",
    "link_img": "https://live.staticflickr.com/65535/48116244417_fef1936cf3_o.jpg",
    "id_image": "Ferrari_687032",
    "count_view": 0
  },
  {
    "link_thumb": "https://live.staticflickr.com/65535/48112829897_b9f48c92d8_n.jpg",
    "id_album": "727633301",
    "description": "BMW_366707",
    "title": "BMW_366707",
    "link_img": "https://live.staticflickr.com/65535/48112829897_0b93e1d6f2_o.jpg",
    "id_image": "BMW_366707",
    "count_view": 0
  },
  {
    "link_thumb": "https://live.staticflickr.com/65535/49890325422_85b5eb3aed_n.jpg",
    "id_album": "-1171889069",
    "description": "1990_rv_Jaguar_rv_XJ220_rv_Prototype_rv_V2_rv_1440",
    "title": "1990_rv_Jaguar_rv_XJ220_rv_Prototype_rv_V2_rv_1440",
    "link_img": "https://live.staticflickr.com/65535/49890325422_336dcd5b99_o.jpg",
    "id_image": "1990_rv_Jaguar_rv_XJ220_rv_Prototype_rv_V2_rv_1440",
    "count_view": 0
  },
  {
    "link_thumb": "https://live.staticflickr.com/65535/48123142228_a6bba0e282_n.jpg",
    "id_album": "1159292543",
    "description": "Volvo_273833",
    "title": "Volvo_273833",
    "link_img": "https://live.staticflickr.com/65535/48123142228_d242dec6ce_o.jpg",
    "id_image": "Volvo_273833",
    "count_view": 0
  },
  {
    "link_thumb": "https://live.staticflickr.com/65535/48117605426_d75e3b83b8_n.jpg",
    "id_album": "-1846404630",
    "description": "Ford_936259",
    "title": "Ford_936259",
    "link_img": "https://live.staticflickr.com/65535/48117605426_ee90ca875e_o.jpg",
    "id_image": "Ford_936259",
    "count_view": 0
  },
  {
    "link_thumb": "https://live.staticflickr.com/65535/48115665726_bcd3eb3914_n.jpg",
    "id_album": "1364506720",
    "description": "Ferrari_235717",
    "title": "Ferrari_235717",
    "link_img": "https://live.staticflickr.com/65535/48115665726_eecb52ff12_o.jpg",
    "id_image": "Ferrari_235717",
    "count_view": 0
  },
  {
    "link_thumb": "https://live.staticflickr.com/65535/48119138937_9d8b1c96ff_n.jpg",
    "id_album": "697984456",
    "description": "Maserati_188796",
    "title": "Maserati_188796",
    "link_img": "https://live.staticflickr.com/65535/48119138937_9d4d7a285d_o.jpg",
    "id_image": "Maserati_188796",
    "count_view": 0
  },
  {
    "link_thumb": "https://live.staticflickr.com/65535/49892469071_c0fc2abb4b_n.jpg",
    "id_album": "746165216",
    "description": "2012_rv_Toyota_rv_GT_rv_86_rv_V2_rv_1440",
    "title": "2012_rv_Toyota_rv_GT_rv_86_rv_V2_rv_1440",
    "link_img": "https://live.staticflickr.com/65535/49892469071_38925f1c90_o.jpg",
    "id_image": "2012_rv_Toyota_rv_GT_rv_86_rv_V2_rv_1440",
    "count_view": 0
  },
  {
    "link_thumb": "https://live.staticflickr.com/65535/49889806907_d4a9fcb4a1_n.jpg",
    "id_album": "1471706463",
    "description": "2020_rv_Ferrari_rv_488_rv_GT3_rv_Evo_rv_V1_rv_2160",
    "title": "2020_rv_Ferrari_rv_488_rv_GT3_rv_Evo_rv_V1_rv_2160",
    "link_img": "https://live.staticflickr.com/65535/49889806907_2c7d4553de_o.jpg",
    "id_image": "2020_rv_Ferrari_rv_488_rv_GT3_rv_Evo_rv_V1_rv_2160",
    "count_view": 0
  },
  {
    "link_thumb": "https://live.staticflickr.com/65535/49889526087_36ce4d9f8c_n.jpg",
    "id_album": "-1678364421",
    "description": "2017_rv_Bugatti_rv_Chiron_rv_V9_rv_2000",
    "title": "2017_rv_Bugatti_rv_Chiron_rv_V9_rv_2000",
    "link_img": "https://live.staticflickr.com/65535/49889526087_e127c7ed44_o.jpg",
    "id_image": "2017_rv_Bugatti_rv_Chiron_rv_V9_rv_2000",
    "count_view": 0
  },
  {
    "link_thumb": "https://live.staticflickr.com/65535/48112757407_dcf7781972_n.jpg",
    "id_album": "727633301",
    "description": "BMW_254001",
    "title": "BMW_254001",
    "link_img": "https://live.staticflickr.com/65535/48112757407_da73c8db2e_o.jpg",
    "id_image": "BMW_254001",
    "count_view": 0
  },
  {
    "link_thumb": "https://live.staticflickr.com/65535/48120914632_43f5337d7e_n.jpg",
    "id_album": "1965631892",
    "description": "Peugeot_143509",
    "title": "Peugeot_143509",
    "link_img": "https://live.staticflickr.com/65535/48120914632_c466ccb0f7_o.jpg",
    "id_image": "Peugeot_143509",
    "count_view": 0
  },
  {
    "link_thumb": "https://live.staticflickr.com/65535/49888721043_efcd346a7c_n.jpg",
    "id_album": "-1220389001",
    "description": "1969_rv_Nissan_rv_Skyline_rv_2000GT_rv_R_rv_Sedan_rv_V6_rv_1440",
    "title": "1969_rv_Nissan_rv_Skyline_rv_2000GT_rv_R_rv_Sedan_rv_V6_rv_1440",
    "link_img": "https://live.staticflickr.com/65535/49888721043_e9bfe3ee96_o.jpg",
    "id_image": "1969_rv_Nissan_rv_Skyline_rv_2000GT_rv_R_rv_Sedan_rv_V6_rv_1440",
    "count_view": 0
  },
  {
    "link_thumb": "https://live.staticflickr.com/65535/48116351127_80cdec8b1a_n.jpg",
    "id_album": "1364506720",
    "description": "Ferrari_758260",
    "title": "Ferrari_758260",
    "link_img": "https://live.staticflickr.com/65535/48116351127_9159a85424_o.jpg",
    "id_image": "Ferrari_758260",
    "count_view": 0
  },
  {
    "link_thumb": "https://live.staticflickr.com/65535/49892445016_fa6e4b1258_n.jpg",
    "id_album": "-822601924",
    "description": "2016_rv_Tesla_rv_Model_rv_3_rv_Prototype_rv_V3_rv_2000",
    "title": "2016_rv_Tesla_rv_Model_rv_3_rv_Prototype_rv_V3_rv_2000",
    "link_img": "https://live.staticflickr.com/65535/49892445016_66bfe2d995_o.jpg",
    "id_image": "2016_rv_Tesla_rv_Model_rv_3_rv_Prototype_rv_V3_rv_2000",
    "count_view": 0
  },
  {
    "link_thumb": "https://live.staticflickr.com/65535/48116510562_877eb43edc_n.jpg",
    "id_album": "1364506720",
    "description": "Ferrari_944057",
    "title": "Ferrari_944057",
    "link_img": "https://live.staticflickr.com/65535/48116510562_ff86b20b99_o.jpg",
    "id_image": "Ferrari_944057",
    "count_view": 0
  },
  {
    "link_thumb": "https://live.staticflickr.com/65535/48120233258_fe6f17eff4_n.jpg",
    "id_album": "666438681",
    "description": "Motorcycles_331525",
    "title": "Motorcycles_331525",
    "link_img": "https://live.staticflickr.com/65535/48120233258_4becf0eece_o.jpg",
    "id_image": "Motorcycles_331525",
    "count_view": 0
  },
  {
    "link_thumb": "https://live.staticflickr.com/65535/48118211136_48b3a2e075_n.jpg",
    "id_album": "1911063798",
    "description": "Koenigsegg_600138",
    "title": "Koenigsegg_600138",
    "link_img": "https://live.staticflickr.com/65535/48118211136_aef389f2e8_o.jpg",
    "id_image": "Koenigsegg_600138",
    "count_view": 0
  },
  {
    "link_thumb": "https://live.staticflickr.com/65535/49890714147_a3495a679d_n.jpg",
    "id_album": "1908695537",
    "description": "1961_rv_Maserati_rv_5000_rv_GT_rv_Coupe_rv_V4_rv_1600",
    "title": "1961_rv_Maserati_rv_5000_rv_GT_rv_Coupe_rv_V4_rv_1600",
    "link_img": "https://live.staticflickr.com/65535/49890714147_da8870dfb7_o.jpg",
    "id_image": "1961_rv_Maserati_rv_5000_rv_GT_rv_Coupe_rv_V4_rv_1600",
    "count_view": 0
  },
  {
    "link_thumb": "https://live.staticflickr.com/65535/49892202493_03826ac2cc_n.jpg",
    "id_album": "1158113959",
    "description": "2014_rv_Lamborghini_rv_5_rv_95_rv_Zagato_rv_Concept_rv_V3_rv_1600",
    "title": "2014_rv_Lamborghini_rv_5_rv_95_rv_Zagato_rv_Concept_rv_V3_rv_1600",
    "link_img": "https://live.staticflickr.com/65535/49892202493_c3f1937ee9_o.jpg",
    "id_image": "2014_rv_Lamborghini_rv_5_rv_95_rv_Zagato_rv_Concept_rv_V3_rv_1600",
    "count_view": 0
  },
  {
    "link_thumb": "https://live.staticflickr.com/65535/48112263503_38437bdd38_n.jpg",
    "id_album": "1546790746",
    "description": "AstonMartin_995936",
    "title": "AstonMartin_995936",
    "link_img": "https://live.staticflickr.com/65535/48112263503_2aee1a03cd_o.jpg",
    "id_image": "AstonMartin_995936",
    "count_view": 0
  },
  {
    "link_thumb": "https://live.staticflickr.com/65535/49888743521_480f11a5a7_n.jpg",
    "id_album": "1831597390",
    "description": "2014_rv_Alfa_rv_Romeo_rv_4C_rv_V12_rv_1600",
    "title": "2014_rv_Alfa_rv_Romeo_rv_4C_rv_V12_rv_1600",
    "link_img": "https://live.staticflickr.com/65535/49888743521_511541545a_o.jpg",
    "id_image": "2014_rv_Alfa_rv_Romeo_rv_4C_rv_V12_rv_1600",
    "count_view": 0
  },
  {
    "link_thumb": "https://live.staticflickr.com/65535/49889376173_ffc7a4aa95_n.jpg",
    "id_album": "159808189",
    "description": "2018_rv_Holden_rv_Time_rv_Attack_rv_Concept_rv_V1_rv_2000",
    "title": "2018_rv_Holden_rv_Time_rv_Attack_rv_Concept_rv_V1_rv_2000",
    "link_img": "https://live.staticflickr.com/65535/49889376173_998d1725e4_o.jpg",
    "id_image": "2018_rv_Holden_rv_Time_rv_Attack_rv_Concept_rv_V1_rv_2000",
    "count_view": 0
  },
  {
    "link_thumb": "https://live.staticflickr.com/65535/49890390891_8396e1e58b_n.jpg",
    "id_album": "-843792943",
    "description": "2016_rv_Lotus_rv_Exige_rv_Sport_rv_350_rv_V3_rv_2000",
    "title": "2016_rv_Lotus_rv_Exige_rv_Sport_rv_350_rv_V3_rv_2000",
    "link_img": "https://live.staticflickr.com/65535/49890390891_dee98ccba6_o.jpg",
    "id_image": "2016_rv_Lotus_rv_Exige_rv_Sport_rv_350_rv_V3_rv_2000",
    "count_view": 0
  },
  {
    "link_thumb": "https://live.staticflickr.com/65535/48123356002_583b472654_n.jpg",
    "id_album": "-360260466",
    "description": "Yamaha_648787",
    "title": "Yamaha_648787",
    "link_img": "https://live.staticflickr.com/65535/48123356002_c49f071a6c_o.jpg",
    "id_image": "Yamaha_648787",
    "count_view": 0
  },
  {
    "link_thumb": "https://live.staticflickr.com/65535/48115062316_d06a5ebbcc_n.jpg",
    "id_album": "413141323",
    "description": "Dodge_220965",
    "title": "Dodge_220965",
    "link_img": "https://live.staticflickr.com/65535/48115062316_32a267deff_o.jpg",
    "id_image": "Dodge_220965",
    "count_view": 0
  },
  {
    "link_thumb": "https://live.staticflickr.com/65535/48114774343_3293f70bb4_n.jpg",
    "id_album": "939606447",
    "description": "Chrysler_223839",
    "title": "Chrysler_223839",
    "link_img": "https://live.staticflickr.com/65535/48114774343_a1b082b8c8_o.jpg",
    "id_image": "Chrysler_223839",
    "count_view": 0
  },
  {
    "link_thumb": "https://live.staticflickr.com/65535/49889825012_dbe8077c97_n.jpg",
    "id_album": "665596159",
    "description": "2008_rv_Ferrari_rv_612_rv_Scaglietti_rv_V3_rv_1440",
    "title": "2008_rv_Ferrari_rv_612_rv_Scaglietti_rv_V3_rv_1440",
    "link_img": "https://live.staticflickr.com/65535/49889825012_5f3fc6f2d3_o.jpg",
    "id_image": "2008_rv_Ferrari_rv_612_rv_Scaglietti_rv_V3_rv_1440",
    "count_view": 0
  },
  {
    "link_thumb": "https://live.staticflickr.com/65535/48115561896_61d501b3a8_n.jpg",
    "id_album": "594975066",
    "description": "Duesenberg_264949",
    "title": "Duesenberg_264949",
    "link_img": "https://live.staticflickr.com/65535/48115561896_8244ae63cb_o.jpg",
    "id_image": "Duesenberg_264949",
    "count_view": 0
  },
  {
    "link_thumb": "https://live.staticflickr.com/65535/48115448121_66cc18780a_n.jpg",
    "id_album": "413141323",
    "description": "Dodge_681837",
    "title": "Dodge_681837",
    "link_img": "https://live.staticflickr.com/65535/48115448121_7f80d584fb_o.jpg",
    "id_image": "Dodge_681837",
    "count_view": 0
  },
  {
    "link_thumb": "https://live.staticflickr.com/65535/49892139926_70be8ae0f4_n.jpg",
    "id_album": "1310566757",
    "description": "2016_rv_Mercedes_rv_Benz_rv_CLA_rv_Shooting_rv_Brake_rv_V5_rv_1600",
    "title": "2016_rv_Mercedes_rv_Benz_rv_CLA_rv_Shooting_rv_Brake_rv_V5_rv_1600",
    "link_img": "https://live.staticflickr.com/65535/49892139926_aaa39315b1_o.jpg",
    "id_image": "2016_rv_Mercedes_rv_Benz_rv_CLA_rv_Shooting_rv_Brake_rv_V5_rv_1600",
    "count_view": 0
  },
  {
    "link_thumb": "https://live.staticflickr.com/65535/48114301637_6c6f5ba57d_n.jpg",
    "id_album": "-1721545051",
    "description": "Chevrolet_413462",
    "title": "Chevrolet_413462",
    "link_img": "https://live.staticflickr.com/65535/48114301637_449db0a080_o.jpg",
    "id_image": "Chevrolet_413462",
    "count_view": 0
  },
  {
    "link_thumb": "https://live.staticflickr.com/65535/49890491401_857c41cfbe_n.jpg",
    "id_album": "-1174261063",
    "description": "2017_rv_Mazda_rv_MX_rv_5_rv_RF_rv_V4_rv_2000",
    "title": "2017_rv_Mazda_rv_MX_rv_5_rv_RF_rv_V4_rv_2000",
    "link_img": "https://live.staticflickr.com/65535/49890491401_0331efb01e_o.jpg",
    "id_image": "2017_rv_Mazda_rv_MX_rv_5_rv_RF_rv_V4_rv_2000",
    "count_view": 0
  },
  {
    "link_thumb": "https://live.staticflickr.com/65535/48122067098_02fa4cda0b_n.jpg",
    "id_album": "-1217333387",
    "description": "Renault_804852",
    "title": "Renault_804852",
    "link_img": "https://live.staticflickr.com/65535/48122067098_be6bdc660d_o.jpg",
    "id_image": "Renault_804852",
    "count_view": 0
  },
  {
    "link_thumb": "https://live.staticflickr.com/65535/48116762187_ee5347f1a1_n.jpg",
    "id_album": "-1846404630",
    "description": "Ford_179031",
    "title": "Ford_179031",
    "link_img": "https://live.staticflickr.com/65535/48116762187_574afcb56c_o.jpg",
    "id_image": "Ford_179031",
    "count_view": 0
  },
  {
    "link_thumb": "https://live.staticflickr.com/65535/48116693916_33a7ef636d_n.jpg",
    "id_album": "-1846404630",
    "description": "Ford_188453",
    "title": "Ford_188453",
    "link_img": "https://live.staticflickr.com/65535/48116693916_ae78192ae0_o.jpg",
    "id_image": "Ford_188453",
    "count_view": 0
  },
  {
    "link_thumb": "https://live.staticflickr.com/65535/49889286528_8a21783d6b_n.jpg",
    "id_album": "-51494743",
    "description": "2011_rv_Porsche_rv_911_rv_GT2_rv_RS_rv_V6_rv_1440",
    "title": "2011_rv_Porsche_rv_911_rv_GT2_rv_RS_rv_V6_rv_1440",
    "link_img": "https://live.staticflickr.com/65535/49889286528_64d7e27208_o.jpg",
    "id_image": "2011_rv_Porsche_rv_911_rv_GT2_rv_RS_rv_V6_rv_1440",
    "count_view": 0
  },
  {
    "link_thumb": "https://live.staticflickr.com/65535/48118105412_45191cf894_n.jpg",
    "id_album": "-843028318",
    "description": "Jaguar_831434",
    "title": "Jaguar_831434",
    "link_img": "https://live.staticflickr.com/65535/48118105412_3ab8fd61c0_o.jpg",
    "id_image": "Jaguar_831434",
    "count_view": 0
  },
  {
    "link_thumb": "https://live.staticflickr.com/65535/49888888763_1644f99fc5_n.jpg",
    "id_album": "-2091344784",
    "description": "2011_rv_Formula1_rv_Team_rv_Lotus_rv_T128_rv_V3_rv_1200",
    "title": "2011_rv_Formula1_rv_Team_rv_Lotus_rv_T128_rv_V3_rv_1200",
    "link_img": "https://live.staticflickr.com/65535/49888888763_3bf5ed3884_o.jpg",
    "id_image": "2011_rv_Formula1_rv_Team_rv_Lotus_rv_T128_rv_V3_rv_1200",
    "count_view": 0
  },
  {
    "link_thumb": "https://live.staticflickr.com/65535/48114348528_522207c35f_n.jpg",
    "id_album": "-1721545051",
    "description": "Chevrolet_499612",
    "title": "Chevrolet_499612",
    "link_img": "https://live.staticflickr.com/65535/48114348528_491f8547eb_o.jpg",
    "id_image": "Chevrolet_499612",
    "count_view": 0
  },
  {
    "link_thumb": "https://live.staticflickr.com/65535/48115105296_ae4af36a73_n.jpg",
    "id_album": "413141323",
    "description": "Dodge_254991",
    "title": "Dodge_254991",
    "link_img": "https://live.staticflickr.com/65535/48115105296_90cf3aa88c_o.jpg",
    "id_image": "Dodge_254991",
    "count_view": 0
  },
  {
    "link_thumb": "https://live.staticflickr.com/65535/48120976798_848e468b02_n.jpg",
    "id_album": "-1123679742",
    "description": "Plymouth_178399",
    "title": "Plymouth_178399",
    "link_img": "https://live.staticflickr.com/65535/48120976798_1ff65bfa34_o.jpg",
    "id_image": "Plymouth_178399",
    "count_view": 0
  },
  {
    "link_thumb": "https://live.staticflickr.com/65535/48115180052_cb617818af_n.jpg",
    "id_album": "413141323",
    "description": "Dodge_245152",
    "title": "Dodge_245152",
    "link_img": "https://live.staticflickr.com/65535/48115180052_fea3b2f86a_o.jpg",
    "id_image": "Dodge_245152",
    "count_view": 0
  },
  {
    "link_thumb": "https://live.staticflickr.com/65535/48115538016_50008ca433_n.jpg",
    "id_album": "413141323",
    "description": "Dodge_938734",
    "title": "Dodge_938734",
    "link_img": "https://live.staticflickr.com/65535/48115538016_4a772b5e39_o.jpg",
    "id_image": "Dodge_938734",
    "count_view": 0
  },
  {
    "link_thumb": "https://live.staticflickr.com/65535/49890109396_c786d31982_n.jpg",
    "id_album": "-59902933",
    "description": "2020_rv_Lamborghini_rv_Aventador_rv_SVJ_rv_Roadster_rv_V6_rv_2160",
    "title": "2020_rv_Lamborghini_rv_Aventador_rv_SVJ_rv_Roadster_rv_V6_rv_2160",
    "link_img": "https://live.staticflickr.com/65535/49890109396_226940e78c_o.jpg",
    "id_image": "2020_rv_Lamborghini_rv_Aventador_rv_SVJ_rv_Roadster_rv_V6_rv_2160",
    "count_view": 0
  },
  {
    "link_thumb": "https://live.staticflickr.com/65535/48112296021_67efe0004e_n.jpg",
    "id_album": "-15119147",
    "description": "Audi_450576",
    "title": "Audi_450576",
    "link_img": "https://live.staticflickr.com/65535/48112296021_ac970923de_o.jpg",
    "id_image": "Audi_450576",
    "count_view": 0
  },
  {
    "link_thumb": "https://live.staticflickr.com/65535/49891660747_bca24fc877_n.jpg",
    "id_album": "654772634",
    "description": "1964_rv_Porsche_rv_356C_rv_V8_rv_1536",
    "title": "1964_rv_Porsche_rv_356C_rv_V8_rv_1536",
    "link_img": "https://live.staticflickr.com/65535/49891660747_a20ccc2859_o.jpg",
    "id_image": "1964_rv_Porsche_rv_356C_rv_V8_rv_1536",
    "count_view": 0
  },
  {
    "link_thumb": "https://live.staticflickr.com/65535/48115200673_5200c9a62d_n.jpg",
    "id_album": "413141323",
    "description": "Dodge_317638",
    "title": "Dodge_317638",
    "link_img": "https://live.staticflickr.com/65535/48115200673_71da6698a2_o.jpg",
    "id_image": "Dodge_317638",
    "count_view": 0
  },
  {
    "link_thumb": "https://live.staticflickr.com/65535/49890563193_65bf6afb28_n.jpg",
    "id_album": "511911560",
    "description": "2006_rv_Nissan_rv_350Z_rv_V5_rv_1440",
    "title": "2006_rv_Nissan_rv_350Z_rv_V5_rv_1440",
    "link_img": "https://live.staticflickr.com/65535/49890563193_f209439d89_o.jpg",
    "id_image": "2006_rv_Nissan_rv_350Z_rv_V5_rv_1440",
    "count_view": 0
  },
  {
    "link_thumb": "https://live.staticflickr.com/65535/48118350142_6d7a72623f_n.jpg",
    "id_album": "-2100339805",
    "description": "Lamborghini_251185",
    "title": "Lamborghini_251185",
    "link_img": "https://live.staticflickr.com/65535/48118350142_76d3707637_o.jpg",
    "id_image": "Lamborghini_251185",
    "count_view": 0
  },
  {
    "link_thumb": "https://live.staticflickr.com/65535/48122779971_2c26080e26_n.jpg",
    "id_album": "1274920659",
    "description": "Toyota_844498",
    "title": "Toyota_844498",
    "link_img": "https://live.staticflickr.com/65535/48122779971_36556835ce_o.jpg",
    "id_image": "Toyota_844498",
    "count_view": 0
  },
  {
    "link_thumb": "https://live.staticflickr.com/65535/48122706131_63f65811c7_n.jpg",
    "id_album": "1274920659",
    "description": "Toyota_499016",
    "title": "Toyota_499016",
    "link_img": "https://live.staticflickr.com/65535/48122706131_ba81192513_o.jpg",
    "id_image": "Toyota_499016",
    "count_view": 0
  },
  {
    "link_thumb": "https://live.staticflickr.com/65535/49892536836_1c88c8489c_n.jpg",
    "id_album": "2017658989",
    "description": "2016_rv_Trion_rv_Nemesis_rv_RR_rv_V3_rv_1440",
    "title": "2016_rv_Trion_rv_Nemesis_rv_RR_rv_V3_rv_1440",
    "link_img": "https://live.staticflickr.com/65535/49892536836_410cc1cac0_o.jpg",
    "id_image": "2016_rv_Trion_rv_Nemesis_rv_RR_rv_V3_rv_1440",
    "count_view": 0
  },
  {
    "link_thumb": "https://live.staticflickr.com/65535/48122554858_c3669568b2_n.jpg",
    "id_album": "422322641",
    "description": "Subaru_904892",
    "title": "Subaru_904892",
    "link_img": "https://live.staticflickr.com/65535/48122554858_2f4533fce2_o.jpg",
    "id_image": "Subaru_904892",
    "count_view": 0
  },
  {
    "link_thumb": "https://live.staticflickr.com/65535/48121125308_5885491e45_n.jpg",
    "id_album": "-2099496752",
    "description": "Pontiac_242978",
    "title": "Pontiac_242978",
    "link_img": "https://live.staticflickr.com/65535/48121125308_445fd2ce6b_o.jpg",
    "id_image": "Pontiac_242978",
    "count_view": 0
  },
  {
    "link_thumb": "https://live.staticflickr.com/65535/48116792228_f0dfd08cc7_n.jpg",
    "id_album": "-1846404630",
    "description": "Ford_214987",
    "title": "Ford_214987",
    "link_img": "https://live.staticflickr.com/65535/48116792228_985e761bf7_o.jpg",
    "id_image": "Ford_214987",
    "count_view": 0
  },
  {
    "link_thumb": "https://live.staticflickr.com/65535/49890652222_cfcfd0c9ac_n.jpg",
    "id_album": "431922363",
    "description": "2014_rv_Toyota_rv_TS040_rv_Hybrid_rv_V2_rv_1600",
    "title": "2014_rv_Toyota_rv_TS040_rv_Hybrid_rv_V2_rv_1600",
    "link_img": "https://live.staticflickr.com/65535/49890652222_edf688ec18_o.jpg",
    "id_image": "2014_rv_Toyota_rv_TS040_rv_Hybrid_rv_V2_rv_1600",
    "count_view": 0
  },
  {
    "link_thumb": "https://live.staticflickr.com/65535/48118785396_357e05035d_n.jpg",
    "id_album": "1234246491",
    "description": "LandRover_258950",
    "title": "LandRover_258950",
    "link_img": "https://live.staticflickr.com/65535/48118785396_c5200431da_o.jpg",
    "id_image": "LandRover_258950",
    "count_view": 0
  },
  {
    "link_thumb": "https://live.staticflickr.com/65535/48122318608_4e211d126f_n.jpg",
    "id_album": "-58240507",
    "description": "Studebaker_217875",
    "title": "Studebaker_217875",
    "link_img": "https://live.staticflickr.com/65535/48122318608_e8aa17d046_o.jpg",
    "id_image": "Studebaker_217875",
    "count_view": 0
  },
  {
    "link_thumb": "https://live.staticflickr.com/65535/49890481036_1d806e1522_n.jpg",
    "id_album": "-1174261063",
    "description": "2012_rv_Mazda_rv_MX_rv_5_rv_Senshu_rv_V3_rv_1440",
    "title": "2012_rv_Mazda_rv_MX_rv_5_rv_Senshu_rv_V3_rv_1440",
    "link_img": "https://live.staticflickr.com/65535/49890481036_1378324958_o.jpg",
    "id_image": "2012_rv_Mazda_rv_MX_rv_5_rv_Senshu_rv_V3_rv_1440",
    "count_view": 0
  },
  {
    "link_thumb": "https://live.staticflickr.com/65535/48113494087_1339284cb7_n.jpg",
    "id_album": "1456070666",
    "description": "Bugatti_493453",
    "title": "Bugatti_493453",
    "link_img": "https://live.staticflickr.com/65535/48113494087_1a9d9cd4c7_o.jpg",
    "id_image": "Bugatti_493453",
    "count_view": 0
  },
  {
    "link_thumb": "https://live.staticflickr.com/65535/49888632433_e33ffdf156_n.jpg",
    "id_album": "-1077631613",
    "description": "2011_rv_BMW_rv_328_rv_Hommage_rv_Concept_rv_V3_rv_1440",
    "title": "2011_rv_BMW_rv_328_rv_Hommage_rv_Concept_rv_V3_rv_1440",
    "link_img": "https://live.staticflickr.com/65535/49888632433_aac6f4ec1b_o.jpg",
    "id_image": "2011_rv_BMW_rv_328_rv_Hommage_rv_Concept_rv_V3_rv_1440",
    "count_view": 0
  },
  {
    "link_thumb": "https://live.staticflickr.com/65535/48122054221_5c0bcf4a89_n.jpg",
    "id_album": "-1217333387",
    "description": "Renault_923235",
    "title": "Renault_923235",
    "link_img": "https://live.staticflickr.com/65535/48122054221_4deaf833ef_o.jpg",
    "id_image": "Renault_923235",
    "count_view": 0
  },
  {
    "link_thumb": "https://live.staticflickr.com/65535/49890051423_c5f3c9b1e3_n.jpg",
    "id_album": "1807183876",
    "description": "2019_rv_McLaren_rv_720S_rv_GT3_rv_V1_rv_2000",
    "title": "2019_rv_McLaren_rv_720S_rv_GT3_rv_V1_rv_2000",
    "link_img": "https://live.staticflickr.com/65535/49890051423_9d12fc16f5_o.jpg",
    "id_image": "2019_rv_McLaren_rv_720S_rv_GT3_rv_V1_rv_2000",
    "count_view": 0
  },
  {
    "link_thumb": "https://live.staticflickr.com/65535/48118883396_e240d60498_n.jpg",
    "id_album": "446908717",
    "description": "Lexus_686690",
    "title": "Lexus_686690",
    "link_img": "https://live.staticflickr.com/65535/48118883396_9c00bc2ce4_o.jpg",
    "id_image": "Lexus_686690",
    "count_view": 0
  },
  {
    "link_thumb": "https://live.staticflickr.com/65535/48115936326_a0efce2b06_n.jpg",
    "id_album": "1364506720",
    "description": "Ferrari_401507",
    "title": "Ferrari_401507",
    "link_img": "https://live.staticflickr.com/65535/48115936326_e797cba374_o.jpg",
    "id_image": "Ferrari_401507",
    "count_view": 0
  },
  {
    "link_thumb": "https://live.staticflickr.com/65535/48114427533_ec2f9dff13_n.jpg",
    "id_album": "-1721545051",
    "description": "Chevrolet_523340",
    "title": "Chevrolet_523340",
    "link_img": "https://live.staticflickr.com/65535/48114427533_3dcf9d3c9e_o.jpg",
    "id_image": "Chevrolet_523340",
    "count_view": 0
  },
  {
    "link_thumb": "https://live.staticflickr.com/65535/48114255307_07c0515e5d_n.jpg",
    "id_album": "-1721545051",
    "description": "Chevrolet_378417",
    "title": "Chevrolet_378417",
    "link_img": "https://live.staticflickr.com/65535/48114255307_b722b397a7_o.jpg",
    "id_image": "Chevrolet_378417",
    "count_view": 0
  },
  {
    "link_thumb": "https://live.staticflickr.com/65535/48115544398_b297ea0a86_n.jpg",
    "id_album": "413141323",
    "description": "Dodge_880022",
    "title": "Dodge_880022",
    "link_img": "https://live.staticflickr.com/65535/48115544398_93667e2b2c_o.jpg",
    "id_image": "Dodge_880022",
    "count_view": 0
  },
  {
    "link_thumb": "https://live.staticflickr.com/65535/48117688133_863cf6d7b7_n.jpg",
    "id_album": "-1846404630",
    "description": "Ford_985270",
    "title": "Ford_985270",
    "link_img": "https://live.staticflickr.com/65535/48117688133_34b553ded1_o.jpg",
    "id_image": "Ford_985270",
    "count_view": 0
  }
]