[
  {
    "link_thumb": "https://live.staticflickr.com/65535/49888289303_1ff4bd3fa6_n.jpg",
    "id_album": "117489722",
    "description": "2017_rv_Artega_rv_Scalo_rv_Superelletra_rv_Concept_rv_V1_rv_2000",
    "title": "2017_rv_Artega_rv_Scalo_rv_Superelletra_rv_Concept_rv_V1_rv_2000",
    "link_img": "https://live.staticflickr.com/65535/49888289303_c4b6392acb_o.jpg",
    "id_image": "2017_rv_Artega_rv_Scalo_rv_Superelletra_rv_Concept_rv_V1_rv_2000",
    "count_view": 0
  },
  {
    "link_thumb": "https://live.staticflickr.com/65535/49889118422_6c5120dae0_n.jpg",
    "id_album": "117489722",
    "description": "2017_rv_Artega_rv_Scalo_rv_Superelletra_rv_Concept_rv_V2_rv_2000",
    "title": "2017_rv_Artega_rv_Scalo_rv_Superelletra_rv_Concept_rv_V2_rv_2000",
    "link_img": "https://live.staticflickr.com/65535/49889118422_fe031476c0_o.jpg",
    "id_image": "2017_rv_Artega_rv_Scalo_rv_Superelletra_rv_Concept_rv_V2_rv_2000",
    "count_view": 0
  },
  {
    "link_thumb": "https://live.staticflickr.com/65535/49888289578_45ae7d4529_n.jpg",
    "id_album": "117489722",
    "description": "2017_rv_Artega_rv_Scalo_rv_Superelletra_rv_Concept_rv_V3_rv_2000",
    "title": "2017_rv_Artega_rv_Scalo_rv_Superelletra_rv_Concept_rv_V3_rv_2000",
    "link_img": "https://live.staticflickr.com/65535/49888289578_39163a4bff_o.jpg",
    "id_image": "2017_rv_Artega_rv_Scalo_rv_Superelletra_rv_Concept_rv_V3_rv_2000",
    "count_view": 0
  }
]