[
  {
    "total_img": 0,
    "number_page": 0,
    "title": "Porsche Cayman",
    "tag": "Porsche Cayman,",
    "description": "Porsche Cayman",
    "link_thumb": "https://live.staticflickr.com/65535/49891711002_af9876c378_n.jpg",
    "id_album": "1795407418",
    "total_view": 86
  },
  {
    "total_img": 0,
    "number_page": 0,
    "title": "Vorsteiner",
    "tag": "Vorsteiner,",
    "description": "Vorsteiner",
    "link_thumb": "https://live.staticflickr.com/65535/49890897688_bd34772a48_n.jpg",
    "id_album": "-1490990769",
    "total_view": 3
  }
]