[
  {
    "total_img": 0,
    "number_page": 0,
    "title": "F1 Renault  Lotus",
    "tag": "F1 Renault  Lotus,",
    "description": "F1 Renault  Lotus",
    "link_thumb": "https://live.staticflickr.com/65535/49889704222_ce97fa597f_n.jpg",
    "id_album": "-835450558",
    "total_view": 53
  },
  {
    "total_img": 0,
    "number_page": 0,
    "title": "Lotus Formula 1",
    "tag": "Lotus Formula 1,",
    "description": "Lotus Formula 1",
    "link_thumb": "https://live.staticflickr.com/65535/49889706227_219db7ab81_n.jpg",
    "id_album": "-789402059",
    "total_view": 12
  }
]