[
  {
    "link_thumb": "https://live.staticflickr.com/65535/49892284551_e7975dbf98_n.jpg",
    "id_album": "820813097",
    "description": "1966_rv_Ringbrothers_rv_Chevrolet_rv_Chevelle_rv_Recoil_rv_V1_rv_2000",
    "title": "1966_rv_Ringbrothers_rv_Chevrolet_rv_Chevelle_rv_Recoil_rv_V1_rv_2000",
    "link_img": "https://live.staticflickr.com/65535/49892284551_439ea6e566_o.jpg",
    "id_image": "1966_rv_Ringbrothers_rv_Chevrolet_rv_Chevelle_rv_Recoil_rv_V1_rv_2000",
    "count_view": 0
  },
  {
    "link_thumb": "https://live.staticflickr.com/65535/49892598017_1f0ae02a03_n.jpg",
    "id_album": "820813097",
    "description": "1966_rv_Ringbrothers_rv_Chevrolet_rv_Chevelle_rv_Recoil_rv_V2_rv_2000",
    "title": "1966_rv_Ringbrothers_rv_Chevrolet_rv_Chevelle_rv_Recoil_rv_V2_rv_2000",
    "link_img": "https://live.staticflickr.com/65535/49892598017_e699d9230e_o.jpg",
    "id_image": "1966_rv_Ringbrothers_rv_Chevrolet_rv_Chevelle_rv_Recoil_rv_V2_rv_2000",
    "count_view": 0
  },
  {
    "link_thumb": "https://live.staticflickr.com/65535/49891771663_e43acc445d_n.jpg",
    "id_album": "820813097",
    "description": "1966_rv_Ringbrothers_rv_Chevrolet_rv_Chevelle_rv_Recoil_rv_V3_rv_2000",
    "title": "1966_rv_Ringbrothers_rv_Chevrolet_rv_Chevelle_rv_Recoil_rv_V3_rv_2000",
    "link_img": "https://live.staticflickr.com/65535/49891771663_8ffa1c5d54_o.jpg",
    "id_image": "1966_rv_Ringbrothers_rv_Chevrolet_rv_Chevelle_rv_Recoil_rv_V3_rv_2000",
    "count_view": 0
  },
  {
    "link_thumb": "https://live.staticflickr.com/65535/49892284981_0d51a07107_n.jpg",
    "id_album": "820813097",
    "description": "1966_rv_Ringbrothers_rv_Chevrolet_rv_Chevelle_rv_Recoil_rv_V4_rv_2000",
    "title": "1966_rv_Ringbrothers_rv_Chevrolet_rv_Chevelle_rv_Recoil_rv_V4_rv_2000",
    "link_img": "https://live.staticflickr.com/65535/49892284981_80c894b2a3_o.jpg",
    "id_image": "1966_rv_Ringbrothers_rv_Chevrolet_rv_Chevelle_rv_Recoil_rv_V4_rv_2000",
    "count_view": 0
  },
  {
    "link_thumb": "https://live.staticflickr.com/65535/49891771918_03ca07bdf0_n.jpg",
    "id_album": "820813097",
    "description": "1969_rv_Ringbrothers_rv_Chevrolet_rv_Camaro_rv_G_rv_Code_rv_V1_rv_2000",
    "title": "1969_rv_Ringbrothers_rv_Chevrolet_rv_Camaro_rv_G_rv_Code_rv_V1_rv_2000",
    "link_img": "https://live.staticflickr.com/65535/49891771918_e22e2184b9_o.jpg",
    "id_image": "1969_rv_Ringbrothers_rv_Chevrolet_rv_Camaro_rv_G_rv_Code_rv_V1_rv_2000",
    "count_view": 0
  },
  {
    "link_thumb": "https://live.staticflickr.com/65535/49892285161_09d9aa2f84_n.jpg",
    "id_album": "820813097",
    "description": "1969_rv_Ringbrothers_rv_Chevrolet_rv_Camaro_rv_G_rv_Code_rv_V2_rv_2000",
    "title": "1969_rv_Ringbrothers_rv_Chevrolet_rv_Camaro_rv_G_rv_Code_rv_V2_rv_2000",
    "link_img": "https://live.staticflickr.com/65535/49892285161_72ac3715a7_o.jpg",
    "id_image": "1969_rv_Ringbrothers_rv_Chevrolet_rv_Camaro_rv_G_rv_Code_rv_V2_rv_2000",
    "count_view": 0
  },
  {
    "link_thumb": "https://live.staticflickr.com/65535/49892285296_c3a053a3bf_n.jpg",
    "id_album": "820813097",
    "description": "1969_rv_Ringbrothers_rv_Chevrolet_rv_Camaro_rv_G_rv_Code_rv_V3_rv_2000",
    "title": "1969_rv_Ringbrothers_rv_Chevrolet_rv_Camaro_rv_G_rv_Code_rv_V3_rv_2000",
    "link_img": "https://live.staticflickr.com/65535/49892285296_43a8558798_o.jpg",
    "id_image": "1969_rv_Ringbrothers_rv_Chevrolet_rv_Camaro_rv_G_rv_Code_rv_V3_rv_2000",
    "count_view": 0
  },
  {
    "link_thumb": "https://live.staticflickr.com/65535/49891772328_8b0161b7bf_n.jpg",
    "id_album": "820813097",
    "description": "1969_rv_Ringbrothers_rv_Chevrolet_rv_Camaro_rv_G_rv_Code_rv_V4_rv_2000",
    "title": "1969_rv_Ringbrothers_rv_Chevrolet_rv_Camaro_rv_G_rv_Code_rv_V4_rv_2000",
    "link_img": "https://live.staticflickr.com/65535/49891772328_efde45e73b_o.jpg",
    "id_image": "1969_rv_Ringbrothers_rv_Chevrolet_rv_Camaro_rv_G_rv_Code_rv_V4_rv_2000",
    "count_view": 0
  },
  {
    "link_thumb": "https://live.staticflickr.com/65535/49892598997_42d6f2b2d4_n.jpg",
    "id_album": "820813097",
    "description": "1969_rv_Ringbrothers_rv_Chevrolet_rv_Camaro_rv_G_rv_Code_rv_V5_rv_2000",
    "title": "1969_rv_Ringbrothers_rv_Chevrolet_rv_Camaro_rv_G_rv_Code_rv_V5_rv_2000",
    "link_img": "https://live.staticflickr.com/65535/49892598997_d6133a6a7b_o.jpg",
    "id_image": "1969_rv_Ringbrothers_rv_Chevrolet_rv_Camaro_rv_G_rv_Code_rv_V5_rv_2000",
    "count_view": 0
  },
  {
    "link_thumb": "https://live.staticflickr.com/65535/49892285871_a097cbe706_n.jpg",
    "id_album": "820813097",
    "description": "1969_rv_Ringbrothers_rv_Chevrolet_rv_Camaro_rv_Valkyrja_rv_V1_rv_2160",
    "title": "1969_rv_Ringbrothers_rv_Chevrolet_rv_Camaro_rv_Valkyrja_rv_V1_rv_2160",
    "link_img": "https://live.staticflickr.com/65535/49892285871_f4374119f0_o.jpg",
    "id_image": "1969_rv_Ringbrothers_rv_Chevrolet_rv_Camaro_rv_Valkyrja_rv_V1_rv_2160",
    "count_view": 0
  },
  {
    "link_thumb": "https://live.staticflickr.com/65535/49892286036_1d2634a41c_n.jpg",
    "id_album": "820813097",
    "description": "1969_rv_Ringbrothers_rv_Chevrolet_rv_Camaro_rv_Valkyrja_rv_V2_rv_2160",
    "title": "1969_rv_Ringbrothers_rv_Chevrolet_rv_Camaro_rv_Valkyrja_rv_V2_rv_2160",
    "link_img": "https://live.staticflickr.com/65535/49892286036_9fe241b0d2_o.jpg",
    "id_image": "1969_rv_Ringbrothers_rv_Chevrolet_rv_Camaro_rv_Valkyrja_rv_V2_rv_2160",
    "count_view": 0
  },
  {
    "link_thumb": "https://live.staticflickr.com/65535/49892286191_5cac11ded6_n.jpg",
    "id_album": "820813097",
    "description": "1969_rv_Ringbrothers_rv_Chevrolet_rv_Camaro_rv_Valkyrja_rv_V3_rv_2160",
    "title": "1969_rv_Ringbrothers_rv_Chevrolet_rv_Camaro_rv_Valkyrja_rv_V3_rv_2160",
    "link_img": "https://live.staticflickr.com/65535/49892286191_a9c6949f4d_o.jpg",
    "id_image": "1969_rv_Ringbrothers_rv_Chevrolet_rv_Camaro_rv_Valkyrja_rv_V3_rv_2160",
    "count_view": 0
  },
  {
    "link_thumb": "https://live.staticflickr.com/65535/49891773173_038ed19d66_n.jpg",
    "id_album": "820813097",
    "description": "1969_rv_Ringbrothers_rv_Chevrolet_rv_Camaro_rv_Valkyrja_rv_V4_rv_2160",
    "title": "1969_rv_Ringbrothers_rv_Chevrolet_rv_Camaro_rv_Valkyrja_rv_V4_rv_2160",
    "link_img": "https://live.staticflickr.com/65535/49891773173_a489eb5ab6_o.jpg",
    "id_image": "1969_rv_Ringbrothers_rv_Chevrolet_rv_Camaro_rv_Valkyrja_rv_V4_rv_2160",
    "count_view": 0
  },
  {
    "link_thumb": "https://live.staticflickr.com/65535/49892599787_523e1b5e9d_n.jpg",
    "id_album": "820813097",
    "description": "1969_rv_Ringbrothers_rv_Chevrolet_rv_Camaro_rv_Valkyrja_rv_V6_rv_2160",
    "title": "1969_rv_Ringbrothers_rv_Chevrolet_rv_Camaro_rv_Valkyrja_rv_V6_rv_2160",
    "link_img": "https://live.staticflickr.com/65535/49892599787_9934bb2f8a_o.jpg",
    "id_image": "1969_rv_Ringbrothers_rv_Chevrolet_rv_Camaro_rv_Valkyrja_rv_V6_rv_2160",
    "count_view": 0
  },
  {
    "link_thumb": "https://live.staticflickr.com/65535/49892286566_12f6cbaf2b_n.jpg",
    "id_album": "820813097",
    "description": "1969_rv_Ringbrothers_rv_Chevrolet_rv_Camaro_rv_Valkyrja_rv_V7_rv_2160",
    "title": "1969_rv_Ringbrothers_rv_Chevrolet_rv_Camaro_rv_Valkyrja_rv_V7_rv_2160",
    "link_img": "https://live.staticflickr.com/65535/49892286566_8798a08551_o.jpg",
    "id_image": "1969_rv_Ringbrothers_rv_Chevrolet_rv_Camaro_rv_Valkyrja_rv_V7_rv_2160",
    "count_view": 0
  },
  {
    "link_thumb": "https://live.staticflickr.com/65535/49891773613_93050653dc_n.jpg",
    "id_album": "820813097",
    "description": "1969_rv_Ringbrothers_rv_Chevrolet_rv_Camaro_rv_Valkyrja_rv_V8_rv_2160",
    "title": "1969_rv_Ringbrothers_rv_Chevrolet_rv_Camaro_rv_Valkyrja_rv_V8_rv_2160",
    "link_img": "https://live.staticflickr.com/65535/49891773613_593c5b7419_o.jpg",
    "id_image": "1969_rv_Ringbrothers_rv_Chevrolet_rv_Camaro_rv_Valkyrja_rv_V8_rv_2160",
    "count_view": 0
  },
  {
    "link_thumb": "https://live.staticflickr.com/65535/49891773803_b9f4992b11_n.jpg",
    "id_album": "820813097",
    "description": "1971_rv_Ringbrothers_rv_De_rv_Tomaso_rv_Pantera_rv_V1_rv_2000",
    "title": "1971_rv_Ringbrothers_rv_De_rv_Tomaso_rv_Pantera_rv_V1_rv_2000",
    "link_img": "https://live.staticflickr.com/65535/49891773803_1222e3758a_o.jpg",
    "id_image": "1971_rv_Ringbrothers_rv_De_rv_Tomaso_rv_Pantera_rv_V1_rv_2000",
    "count_view": 0
  },
  {
    "link_thumb": "https://live.staticflickr.com/65535/49892287211_f1c086e4f7_n.jpg",
    "id_album": "820813097",
    "description": "1971_rv_Ringbrothers_rv_De_rv_Tomaso_rv_Pantera_rv_V2_rv_2000",
    "title": "1971_rv_Ringbrothers_rv_De_rv_Tomaso_rv_Pantera_rv_V2_rv_2000",
    "link_img": "https://live.staticflickr.com/65535/49892287211_3bc2d787a8_o.jpg",
    "id_image": "1971_rv_Ringbrothers_rv_De_rv_Tomaso_rv_Pantera_rv_V2_rv_2000",
    "count_view": 0
  },
  {
    "link_thumb": "https://live.staticflickr.com/65535/49891774203_dcedcf9621_n.jpg",
    "id_album": "820813097",
    "description": "1971_rv_Ringbrothers_rv_De_rv_Tomaso_rv_Pantera_rv_V3_rv_2000",
    "title": "1971_rv_Ringbrothers_rv_De_rv_Tomaso_rv_Pantera_rv_V3_rv_2000",
    "link_img": "https://live.staticflickr.com/65535/49891774203_d2877c01f5_o.jpg",
    "id_image": "1971_rv_Ringbrothers_rv_De_rv_Tomaso_rv_Pantera_rv_V3_rv_2000",
    "count_view": 0
  },
  {
    "link_thumb": "https://live.staticflickr.com/65535/49891774318_bf5c328ba4_n.jpg",
    "id_album": "820813097",
    "description": "1971_rv_Ringbrothers_rv_De_rv_Tomaso_rv_Pantera_rv_V4_rv_2000",
    "title": "1971_rv_Ringbrothers_rv_De_rv_Tomaso_rv_Pantera_rv_V4_rv_2000",
    "link_img": "https://live.staticflickr.com/65535/49891774318_2c156c4238_o.jpg",
    "id_image": "1971_rv_Ringbrothers_rv_De_rv_Tomaso_rv_Pantera_rv_V4_rv_2000",
    "count_view": 0
  },
  {
    "link_thumb": "https://live.staticflickr.com/65535/49892600967_1c5aa55b00_n.jpg",
    "id_album": "820813097",
    "description": "1971_rv_Ringbrothers_rv_De_rv_Tomaso_rv_Pantera_rv_V5_rv_2000",
    "title": "1971_rv_Ringbrothers_rv_De_rv_Tomaso_rv_Pantera_rv_V5_rv_2000",
    "link_img": "https://live.staticflickr.com/65535/49892600967_0c36a9b668_o.jpg",
    "id_image": "1971_rv_Ringbrothers_rv_De_rv_Tomaso_rv_Pantera_rv_V5_rv_2000",
    "count_view": 0
  },
  {
    "link_thumb": "https://live.staticflickr.com/65535/49892601112_bca896ea13_n.jpg",
    "id_album": "820813097",
    "description": "1972_rv_Ringbrothers_rv_AMC_rv_Javelin_rv_AMX_rv_Defiant_rv_V1_rv_2000",
    "title": "1972_rv_Ringbrothers_rv_AMC_rv_Javelin_rv_AMX_rv_Defiant_rv_V1_rv_2000",
    "link_img": "https://live.staticflickr.com/65535/49892601112_203487322f_o.jpg",
    "id_image": "1972_rv_Ringbrothers_rv_AMC_rv_Javelin_rv_AMX_rv_Defiant_rv_V1_rv_2000",
    "count_view": 0
  },
  {
    "link_thumb": "https://live.staticflickr.com/65535/49892288021_4c9ec5dbd8_n.jpg",
    "id_album": "820813097",
    "description": "1972_rv_Ringbrothers_rv_AMC_rv_Javelin_rv_AMX_rv_Defiant_rv_V2_rv_2000",
    "title": "1972_rv_Ringbrothers_rv_AMC_rv_Javelin_rv_AMX_rv_Defiant_rv_V2_rv_2000",
    "link_img": "https://live.staticflickr.com/65535/49892288021_509f50f8a6_o.jpg",
    "id_image": "1972_rv_Ringbrothers_rv_AMC_rv_Javelin_rv_AMX_rv_Defiant_rv_V2_rv_2000",
    "count_view": 0
  },
  {
    "link_thumb": "https://live.staticflickr.com/65535/49891774958_70d37e2a1e_n.jpg",
    "id_album": "820813097",
    "description": "1972_rv_Ringbrothers_rv_AMC_rv_Javelin_rv_AMX_rv_Defiant_rv_V3_rv_2000",
    "title": "1972_rv_Ringbrothers_rv_AMC_rv_Javelin_rv_AMX_rv_Defiant_rv_V3_rv_2000",
    "link_img": "https://live.staticflickr.com/65535/49891774958_78596de2f8_o.jpg",
    "id_image": "1972_rv_Ringbrothers_rv_AMC_rv_Javelin_rv_AMX_rv_Defiant_rv_V3_rv_2000",
    "count_view": 0
  },
  {
    "link_thumb": "https://live.staticflickr.com/65535/49892601582_60e717f2e6_n.jpg",
    "id_album": "820813097",
    "description": "1972_rv_Ringbrothers_rv_AMC_rv_Javelin_rv_AMX_rv_Defiant_rv_V4_rv_2000",
    "title": "1972_rv_Ringbrothers_rv_AMC_rv_Javelin_rv_AMX_rv_Defiant_rv_V4_rv_2000",
    "link_img": "https://live.staticflickr.com/65535/49892601582_c0c18d1c70_o.jpg",
    "id_image": "1972_rv_Ringbrothers_rv_AMC_rv_Javelin_rv_AMX_rv_Defiant_rv_V4_rv_2000",
    "count_view": 0
  },
  {
    "link_thumb": "https://live.staticflickr.com/65535/49892288681_f0c52dd21d_n.jpg",
    "id_album": "820813097",
    "description": "1972_rv_Ringbrothers_rv_AMC_rv_Javelin_rv_AMX_rv_Defiant_rv_V5_rv_2000",
    "title": "1972_rv_Ringbrothers_rv_AMC_rv_Javelin_rv_AMX_rv_Defiant_rv_V5_rv_2000",
    "link_img": "https://live.staticflickr.com/65535/49892288681_0c512af308_o.jpg",
    "id_image": "1972_rv_Ringbrothers_rv_AMC_rv_Javelin_rv_AMX_rv_Defiant_rv_V5_rv_2000",
    "count_view": 0
  }
]