[
  {
    "link_thumb": "https://live.staticflickr.com/65535/48112086796_7608810d09_n.jpg",
    "id_album": "-1072797263",
    "description": "AstonMartin_220022",
    "title": "AstonMartin_220022",
    "link_img": "https://live.staticflickr.com/65535/48112086796_8b86caba5c_o.jpg",
    "id_image": "AstonMartin_220022",
    "count_view": 0
  },
  {
    "link_thumb": "https://live.staticflickr.com/65535/48119529786_922fce9f61_n.jpg",
    "id_album": "-731054311",
    "description": "MercedesBenz_257222",
    "title": "MercedesBenz_257222",
    "link_img": "https://live.staticflickr.com/65535/48119529786_3162deec94_o.jpg",
    "id_image": "MercedesBenz_257222",
    "count_view": 0
  },
  {
    "link_thumb": "https://live.staticflickr.com/65535/48117141801_9842f2617d_n.jpg",
    "id_album": "-1846404630",
    "description": "Ford_417527",
    "title": "Ford_417527",
    "link_img": "https://live.staticflickr.com/65535/48117141801_b8d92f5174_o.jpg",
    "id_image": "Ford_417527",
    "count_view": 0
  },
  {
    "link_thumb": "https://live.staticflickr.com/65535/48113011116_6b93fa6f29_n.jpg",
    "id_album": "727633301",
    "description": "BMW_698110",
    "title": "BMW_698110",
    "link_img": "https://live.staticflickr.com/65535/48113011116_2e688a5637_o.jpg",
    "id_image": "BMW_698110",
    "count_view": 0
  },
  {
    "link_thumb": "https://live.staticflickr.com/65535/49891862493_d23f3dc9fb_n.jpg",
    "id_album": "2063224475",
    "description": "2019_rv_Ford_rv_Mustang_rv_Shelby_rv_GT350_rv_V1_rv_2000",
    "title": "2019_rv_Ford_rv_Mustang_rv_Shelby_rv_GT350_rv_V1_rv_2000",
    "link_img": "https://live.staticflickr.com/65535/49891862493_b6238608bf_o.jpg",
    "id_image": "2019_rv_Ford_rv_Mustang_rv_Shelby_rv_GT350_rv_V1_rv_2000",
    "count_view": 0
  },
  {
    "link_thumb": "https://live.staticflickr.com/65535/48115815701_644c991729_n.jpg",
    "id_album": "1364506720",
    "description": "Ferrari_317829",
    "title": "Ferrari_317829",
    "link_img": "https://live.staticflickr.com/65535/48115815701_096a7daa24_o.jpg",
    "id_image": "Ferrari_317829",
    "count_view": 0
  },
  {
    "link_thumb": "https://live.staticflickr.com/65535/48112763471_c181c41f61_n.jpg",
    "id_album": "727633301",
    "description": "BMW_449888",
    "title": "BMW_449888",
    "link_img": "https://live.staticflickr.com/65535/48112763471_99f20f213d_o.jpg",
    "id_image": "BMW_449888",
    "count_view": 0
  },
  {
    "link_thumb": "https://live.staticflickr.com/65535/49891194112_a42c43c69b_n.jpg",
    "id_album": "-376919707",
    "description": "1954_rv_Mercedes_rv_Benz_rv_300_rv_SL_rv_Gullwing_rv_V6_rv_1536",
    "title": "1954_rv_Mercedes_rv_Benz_rv_300_rv_SL_rv_Gullwing_rv_V6_rv_1536",
    "link_img": "https://live.staticflickr.com/65535/49891194112_eff7349653_o.jpg",
    "id_image": "1954_rv_Mercedes_rv_Benz_rv_300_rv_SL_rv_Gullwing_rv_V6_rv_1536",
    "count_view": 0
  },
  {
    "link_thumb": "https://live.staticflickr.com/65535/48117557302_4d59395f58_n.jpg",
    "id_album": "-1846404630",
    "description": "Ford_809449",
    "title": "Ford_809449",
    "link_img": "https://live.staticflickr.com/65535/48117557302_8c1ef69b03_o.jpg",
    "id_image": "Ford_809449",
    "count_view": 0
  },
  {
    "link_thumb": "https://live.staticflickr.com/65535/49890627891_a3e86f38f5_n.jpg",
    "id_album": "1873728602",
    "description": "2013_rv_McLaren_rv_P1_rv_Concept_rv_V9_rv_1440",
    "title": "2013_rv_McLaren_rv_P1_rv_Concept_rv_V9_rv_1440",
    "link_img": "https://live.staticflickr.com/65535/49890627891_dc14b889fa_o.jpg",
    "id_image": "2013_rv_McLaren_rv_P1_rv_Concept_rv_V9_rv_1440",
    "count_view": 0
  },
  {
    "link_thumb": "https://live.staticflickr.com/65535/48115418208_e0f46137c2_n.jpg",
    "id_album": "413141323",
    "description": "Dodge_512417",
    "title": "Dodge_512417",
    "link_img": "https://live.staticflickr.com/65535/48115418208_1b28cf4706_o.jpg",
    "id_image": "Dodge_512417",
    "count_view": 0
  },
  {
    "link_thumb": "https://live.staticflickr.com/65535/48122266602_8ac207a6cb_n.jpg",
    "id_album": "1536700661",
    "description": "RollsRoyce_942915",
    "title": "RollsRoyce_942915",
    "link_img": "https://live.staticflickr.com/65535/48122266602_89e307e242_o.jpg",
    "id_image": "RollsRoyce_942915",
    "count_view": 0
  },
  {
    "link_thumb": "https://live.staticflickr.com/65535/48115769176_45f730c091_n.jpg",
    "id_album": "1364506720",
    "description": "Ferrari_315287",
    "title": "Ferrari_315287",
    "link_img": "https://live.staticflickr.com/65535/48115769176_d57a25c736_o.jpg",
    "id_image": "Ferrari_315287",
    "count_view": 0
  },
  {
    "link_thumb": "https://live.staticflickr.com/65535/48112170558_c600b1650e_n.jpg",
    "id_album": "-1414939221",
    "description": "AstonMartin_457610",
    "title": "AstonMartin_457610",
    "link_img": "https://live.staticflickr.com/65535/48112170558_d1fbfabcf5_o.jpg",
    "id_image": "AstonMartin_457610",
    "count_view": 0
  },
  {
    "link_thumb": "https://live.staticflickr.com/65535/49889986266_5aa981e71d_n.jpg",
    "id_album": "-1191355745",
    "description": "2016_rv_Jaguar_rv_F_rv_Type_rv_V7_rv_1600",
    "title": "2016_rv_Jaguar_rv_F_rv_Type_rv_V7_rv_1600",
    "link_img": "https://live.staticflickr.com/65535/49889986266_2503e48d9b_o.jpg",
    "id_image": "2016_rv_Jaguar_rv_F_rv_Type_rv_V7_rv_1600",
    "count_view": 0
  },
  {
    "link_thumb": "https://live.staticflickr.com/65535/48119238508_b4bb8e8454_n.jpg",
    "id_album": "898314866",
    "description": "Mazda_450657",
    "title": "Mazda_450657",
    "link_img": "https://live.staticflickr.com/65535/48119238508_4038d54be5_o.jpg",
    "id_image": "Mazda_450657",
    "count_view": 0
  },
  {
    "link_thumb": "https://live.staticflickr.com/65535/48112651488_d6829dafff_n.jpg",
    "id_album": "727633301",
    "description": "BMW_213805",
    "title": "BMW_213805",
    "link_img": "https://live.staticflickr.com/65535/48112651488_7502fc045e_o.jpg",
    "id_image": "BMW_213805",
    "count_view": 0
  },
  {
    "link_thumb": "https://live.staticflickr.com/65535/48122273382_3908b41641_n.jpg",
    "id_album": "1536700661",
    "description": "RollsRoyce_942923",
    "title": "RollsRoyce_942923",
    "link_img": "https://live.staticflickr.com/65535/48122273382_1a37eb53e1_o.jpg",
    "id_image": "RollsRoyce_942923",
    "count_view": 0
  },
  {
    "link_thumb": "https://live.staticflickr.com/65535/48114848703_ebb93f846c_n.jpg",
    "id_album": "2072464184",
    "description": "Citroen_187934",
    "title": "Citroen_187934",
    "link_img": "https://live.staticflickr.com/65535/48114848703_3023a0ddb5_o.jpg",
    "id_image": "Citroen_187934",
    "count_view": 0
  },
  {
    "link_thumb": "https://live.staticflickr.com/65535/48115428551_9a438da37a_n.jpg",
    "id_album": "413141323",
    "description": "Dodge_549192",
    "title": "Dodge_549192",
    "link_img": "https://live.staticflickr.com/65535/48115428551_79b8d14586_o.jpg",
    "id_image": "Dodge_549192",
    "count_view": 0
  },
  {
    "link_thumb": "https://live.staticflickr.com/65535/48114302352_e904c45835_n.jpg",
    "id_album": "-1721545051",
    "description": "Chevrolet_415125",
    "title": "Chevrolet_415125",
    "link_img": "https://live.staticflickr.com/65535/48114302352_9f6a9722bc_o.jpg",
    "id_image": "Chevrolet_415125",
    "count_view": 0
  },
  {
    "link_thumb": "https://live.staticflickr.com/65535/48118939847_88f736bfbd_n.jpg",
    "id_album": "446908717",
    "description": "Lexus_256402",
    "title": "Lexus_256402",
    "link_img": "https://live.staticflickr.com/65535/48118939847_5dcfdb6e93_o.jpg",
    "id_image": "Lexus_256402",
    "count_view": 0
  },
  {
    "link_thumb": "https://live.staticflickr.com/65535/48113422223_474c157378_n.jpg",
    "id_album": "1456070666",
    "description": "Bugatti_398613",
    "title": "Bugatti_398613",
    "link_img": "https://live.staticflickr.com/65535/48113422223_f7d4806dc6_o.jpg",
    "id_image": "Bugatti_398613",
    "count_view": 0
  },
  {
    "link_thumb": "https://live.staticflickr.com/65535/49890309273_708d16a859_n.jpg",
    "id_album": "-21475779",
    "description": "2016_rv_Mercedes_rv_Benz_rv_AMG_rv_GT_rv_V7_rv_1600",
    "title": "2016_rv_Mercedes_rv_Benz_rv_AMG_rv_GT_rv_V7_rv_1600",
    "link_img": "https://live.staticflickr.com/65535/49890309273_df5dc3e012_o.jpg",
    "id_image": "2016_rv_Mercedes_rv_Benz_rv_AMG_rv_GT_rv_V7_rv_1600",
    "count_view": 0
  },
  {
    "link_thumb": "https://live.staticflickr.com/65535/48117660837_7dbc93b7fc_n.jpg",
    "id_album": "-1846404630",
    "description": "Ford_931481",
    "title": "Ford_931481",
    "link_img": "https://live.staticflickr.com/65535/48117660837_651f692b23_o.jpg",
    "id_image": "Ford_931481",
    "count_view": 0
  },
  {
    "link_thumb": "https://live.staticflickr.com/65535/48118905306_19d5493a9f_n.jpg",
    "id_album": "446908717",
    "description": "Lexus_880204",
    "title": "Lexus_880204",
    "link_img": "https://live.staticflickr.com/65535/48118905306_fef32b5304_o.jpg",
    "id_image": "Lexus_880204",
    "count_view": 0
  },
  {
    "link_thumb": "https://live.staticflickr.com/65535/49889278978_a52428ec01_n.jpg",
    "id_album": "1514589198",
    "description": "1997_rv_Porsche_rv_911_rv_GT1_rv_V6_rv_1440",
    "title": "1997_rv_Porsche_rv_911_rv_GT1_rv_V6_rv_1440",
    "link_img": "https://live.staticflickr.com/65535/49889278978_26ef04638c_o.jpg",
    "id_image": "1997_rv_Porsche_rv_911_rv_GT1_rv_V6_rv_1440",
    "count_view": 0
  },
  {
    "link_thumb": "https://live.staticflickr.com/65535/48114693532_c8204de037_n.jpg",
    "id_album": "-1721545051",
    "description": "Chevrolet_883011",
    "title": "Chevrolet_883011",
    "link_img": "https://live.staticflickr.com/65535/48114693532_c7ea41aa68_o.jpg",
    "id_image": "Chevrolet_883011",
    "count_view": 0
  },
  {
    "link_thumb": "https://live.staticflickr.com/65535/48112362262_65932c343f_n.jpg",
    "id_album": "-15119147",
    "description": "Audi_253732",
    "title": "Audi_253732",
    "link_img": "https://live.staticflickr.com/65535/48112362262_bf44c65dc0_o.jpg",
    "id_image": "Audi_253732",
    "count_view": 0
  },
  {
    "link_thumb": "https://live.staticflickr.com/65535/48116885411_703b1f95cc_n.jpg",
    "id_album": "-1846404630",
    "description": "Ford_255432",
    "title": "Ford_255432",
    "link_img": "https://live.staticflickr.com/65535/48116885411_c1fef761ff_o.jpg",
    "id_image": "Ford_255432",
    "count_view": 0
  },
  {
    "link_thumb": "https://live.staticflickr.com/65535/49889542543_6b2f56ab57_n.jpg",
    "id_album": "-1833334379",
    "description": "2015_rv_Koenigsegg_rv_Agera_rv_RS_rv_V8_rv_1600",
    "title": "2015_rv_Koenigsegg_rv_Agera_rv_RS_rv_V8_rv_1600",
    "link_img": "https://live.staticflickr.com/65535/49889542543_f5631a8afd_o.jpg",
    "id_image": "2015_rv_Koenigsegg_rv_Agera_rv_RS_rv_V8_rv_1600",
    "count_view": 0
  },
  {
    "link_thumb": "https://live.staticflickr.com/65535/48120187187_5f6df0fe56_n.jpg",
    "id_album": "-1116477526",
    "description": "Mitsubishi_829141",
    "title": "Mitsubishi_829141",
    "link_img": "https://live.staticflickr.com/65535/48120187187_de0962c48a_o.jpg",
    "id_image": "Mitsubishi_829141",
    "count_view": 0
  },
  {
    "link_thumb": "https://live.staticflickr.com/65535/48121806483_216f5e9301_n.jpg",
    "id_album": "-1178450892",
    "description": "Porsche_941771",
    "title": "Porsche_941771",
    "link_img": "https://live.staticflickr.com/65535/48121806483_3b5abc1c0b_o.jpg",
    "id_image": "Porsche_941771",
    "count_view": 0
  },
  {
    "link_thumb": "https://live.staticflickr.com/65535/49889871617_55a757e611_n.jpg",
    "id_album": "-1955927313",
    "description": "2020_rv_Ferrari_rv_F8_rv_Tributo_rv_V3_rv_2160",
    "title": "2020_rv_Ferrari_rv_F8_rv_Tributo_rv_V3_rv_2160",
    "link_img": "https://live.staticflickr.com/65535/49889871617_84203b0561_o.jpg",
    "id_image": "2020_rv_Ferrari_rv_F8_rv_Tributo_rv_V3_rv_2160",
    "count_view": 0
  },
  {
    "link_thumb": "https://live.staticflickr.com/65535/48115508976_a2077c40b4_n.jpg",
    "id_album": "413141323",
    "description": "Dodge_856846",
    "title": "Dodge_856846",
    "link_img": "https://live.staticflickr.com/65535/48115508976_360c0eaf74_o.jpg",
    "id_image": "Dodge_856846",
    "count_view": 0
  },
  {
    "link_thumb": "https://live.staticflickr.com/65535/49888263033_dc741fb03d_n.jpg",
    "id_album": "1627109540",
    "description": "2009_rv_Alfa_rv_Romeo_rv_MiTo_rv_V3_rv_1440",
    "title": "2009_rv_Alfa_rv_Romeo_rv_MiTo_rv_V3_rv_1440",
    "link_img": "https://live.staticflickr.com/65535/49888263033_a8ec653c71_o.jpg",
    "id_image": "2009_rv_Alfa_rv_Romeo_rv_MiTo_rv_V3_rv_1440",
    "count_view": 0
  },
  {
    "link_thumb": "https://live.staticflickr.com/65535/49891087547_4c79f61761_n.jpg",
    "id_album": "-534151904",
    "description": "2017_rv_Mercedes_rv_Benz_rv_E63_rv_AMG_rv_V7_rv_2000",
    "title": "2017_rv_Mercedes_rv_Benz_rv_E63_rv_AMG_rv_V7_rv_2000",
    "link_img": "https://live.staticflickr.com/65535/49891087547_fff61c95ed_o.jpg",
    "id_image": "2017_rv_Mercedes_rv_Benz_rv_E63_rv_AMG_rv_V7_rv_2000",
    "count_view": 0
  },
  {
    "link_thumb": "https://live.staticflickr.com/65535/49891931623_09f9e79e2d_n.jpg",
    "id_album": "-822601924",
    "description": "2018_rv_Tesla_rv_Model_rv_3_rv_V4_rv_2000",
    "title": "2018_rv_Tesla_rv_Model_rv_3_rv_V4_rv_2000",
    "link_img": "https://live.staticflickr.com/65535/49891931623_ab97ce180e_o.jpg",
    "id_image": "2018_rv_Tesla_rv_Model_rv_3_rv_V4_rv_2000",
    "count_view": 0
  },
  {
    "link_thumb": "https://live.staticflickr.com/65535/49889441711_0c42b2b505_n.jpg",
    "id_album": "1069273898",
    "description": "1966_rv_Ferrari_rv_275_rv_GTB_rv_Competizione_rv_V4_rv_1600",
    "title": "1966_rv_Ferrari_rv_275_rv_GTB_rv_Competizione_rv_V4_rv_1600",
    "link_img": "https://live.staticflickr.com/65535/49889441711_32a21267eb_o.jpg",
    "id_image": "1966_rv_Ferrari_rv_275_rv_GTB_rv_Competizione_rv_V4_rv_1600",
    "count_view": 0
  },
  {
    "link_thumb": "https://live.staticflickr.com/65535/48121649531_18a8c00c8b_n.jpg",
    "id_album": "-1178450892",
    "description": "Porsche_829753",
    "title": "Porsche_829753",
    "link_img": "https://live.staticflickr.com/65535/48121649531_c703bea080_o.jpg",
    "id_image": "Porsche_829753",
    "count_view": 0
  },
  {
    "link_thumb": "https://live.staticflickr.com/65535/49888981418_8152cb6669_n.jpg",
    "id_album": "1471706463",
    "description": "2020_rv_Ferrari_rv_488_rv_GT3_rv_Evo_rv_V6_rv_2160",
    "title": "2020_rv_Ferrari_rv_488_rv_GT3_rv_Evo_rv_V6_rv_2160",
    "link_img": "https://live.staticflickr.com/65535/49888981418_522e0e983b_o.jpg",
    "id_image": "2020_rv_Ferrari_rv_488_rv_GT3_rv_Evo_rv_V6_rv_2160",
    "count_view": 0
  },
  {
    "link_thumb": "https://live.staticflickr.com/65535/49889533002_63e3c10bd9_n.jpg",
    "id_album": "332864200",
    "description": "1990_rv_Bugatti_rv_EB110_rv_Prototype_rv_V1_rv_1440",
    "title": "1990_rv_Bugatti_rv_EB110_rv_Prototype_rv_V1_rv_1440",
    "link_img": "https://live.staticflickr.com/65535/49889533002_a8d422fb1d_o.jpg",
    "id_image": "1990_rv_Bugatti_rv_EB110_rv_Prototype_rv_V1_rv_1440",
    "count_view": 0
  },
  {
    "link_thumb": "https://live.staticflickr.com/65535/49890145006_ff2a4679f5_n.jpg",
    "id_album": "636428280",
    "description": "2013_rv_Lamborghini_rv_Gallardo_rv_LP_rv_570_rv_4_rv_Edizione_rv_Tecnica_rv_V1_rv_1440",
    "title": "2013_rv_Lamborghini_rv_Gallardo_rv_LP_rv_570_rv_4_rv_Edizione_rv_Tecnica_rv_V1_rv_1440",
    "link_img": "https://live.staticflickr.com/65535/49890145006_841049bcc5_o.jpg",
    "id_image": "2013_rv_Lamborghini_rv_Gallardo_rv_LP_rv_570_rv_4_rv_Edizione_rv_Tecnica_rv_V1_rv_1440",
    "count_view": 0
  },
  {
    "link_thumb": "https://live.staticflickr.com/65535/48116832966_17a318fcfe_n.jpg",
    "id_album": "-1846404630",
    "description": "Ford_244509",
    "title": "Ford_244509",
    "link_img": "https://live.staticflickr.com/65535/48116832966_9d7e147de0_o.jpg",
    "id_image": "Ford_244509",
    "count_view": 0
  },
  {
    "link_thumb": "https://live.staticflickr.com/65535/49889216797_8b9bb09612_n.jpg",
    "id_album": "-562535449",
    "description": "2016_rv_Aston_rv_Martin_rv_Vulcan_rv_V2_rv_2160",
    "title": "2016_rv_Aston_rv_Martin_rv_Vulcan_rv_V2_rv_2160",
    "link_img": "https://live.staticflickr.com/65535/49889216797_51c183632f_o.jpg",
    "id_image": "2016_rv_Aston_rv_Martin_rv_Vulcan_rv_V2_rv_2160",
    "count_view": 0
  },
  {
    "link_thumb": "https://live.staticflickr.com/65535/48118498726_b0f4505dbb_n.jpg",
    "id_album": "-2100339805",
    "description": "Lamborghini_498749",
    "title": "Lamborghini_498749",
    "link_img": "https://live.staticflickr.com/65535/48118498726_ba815b8ec8_o.jpg",
    "id_image": "Lamborghini_498749",
    "count_view": 0
  },
  {
    "link_thumb": "https://live.staticflickr.com/65535/49891227097_cdeab6ac5f_n.jpg",
    "id_album": "-2129417883",
    "description": "2011_rv_Mercedes_rv_Benz_rv_SLS_rv_AMG_rv_Roadster_rv_V5_rv_1536",
    "title": "2011_rv_Mercedes_rv_Benz_rv_SLS_rv_AMG_rv_Roadster_rv_V5_rv_1536",
    "link_img": "https://live.staticflickr.com/65535/49891227097_81002aedba_o.jpg",
    "id_image": "2011_rv_Mercedes_rv_Benz_rv_SLS_rv_AMG_rv_Roadster_rv_V5_rv_1536",
    "count_view": 0
  },
  {
    "link_thumb": "https://live.staticflickr.com/65535/49890005967_cb8b826691_n.jpg",
    "id_album": "924535588",
    "description": "2015_rv_Ford_rv_Falcon_rv_XR6_rv_V4_rv_1440",
    "title": "2015_rv_Ford_rv_Falcon_rv_XR6_rv_V4_rv_1440",
    "link_img": "https://live.staticflickr.com/65535/49890005967_4990970236_o.jpg",
    "id_image": "2015_rv_Ford_rv_Falcon_rv_XR6_rv_V4_rv_1440",
    "count_view": 0
  },
  {
    "link_thumb": "https://live.staticflickr.com/65535/48118351632_196e049c65_n.jpg",
    "id_album": "-2100339805",
    "description": "Lamborghini_256260",
    "title": "Lamborghini_256260",
    "link_img": "https://live.staticflickr.com/65535/48118351632_ca0339fefe_o.jpg",
    "id_image": "Lamborghini_256260",
    "count_view": 0
  },
  {
    "link_thumb": "https://live.staticflickr.com/65535/48122485348_76f7d0c1e0_n.jpg",
    "id_album": "422322641",
    "description": "Subaru_462247",
    "title": "Subaru_462247",
    "link_img": "https://live.staticflickr.com/65535/48122485348_742cab015b_o.jpg",
    "id_image": "Subaru_462247",
    "count_view": 0
  },
  {
    "link_thumb": "https://live.staticflickr.com/65535/49892631441_bc43166880_n.jpg",
    "id_album": "1283510089",
    "description": "2005_rv_Vauxhall_rv_VXR220_rv_V3_rv_1600",
    "title": "2005_rv_Vauxhall_rv_VXR220_rv_V3_rv_1600",
    "link_img": "https://live.staticflickr.com/65535/49892631441_ea53ced977_o.jpg",
    "id_image": "2005_rv_Vauxhall_rv_VXR220_rv_V3_rv_1600",
    "count_view": 0
  },
  {
    "link_thumb": "https://live.staticflickr.com/65535/49890685547_605b32ec29_n.jpg",
    "id_album": "-391278537",
    "description": "2017_rv_Lotus_rv_Evora_rv_Sport_rv_410_rv_V6_rv_2000",
    "title": "2017_rv_Lotus_rv_Evora_rv_Sport_rv_410_rv_V6_rv_2000",
    "link_img": "https://live.staticflickr.com/65535/49890685547_f8881a57e4_o.jpg",
    "id_image": "2017_rv_Lotus_rv_Evora_rv_Sport_rv_410_rv_V6_rv_2000",
    "count_view": 0
  },
  {
    "link_thumb": "https://live.staticflickr.com/65535/48118876498_42eb58c31c_n.jpg",
    "id_album": "446908717",
    "description": "Lexus_256376",
    "title": "Lexus_256376",
    "link_img": "https://live.staticflickr.com/65535/48118876498_3cd4156e6e_o.jpg",
    "id_image": "Lexus_256376",
    "count_view": 0
  },
  {
    "link_thumb": "https://live.staticflickr.com/65535/48120870368_d6c29d647d_n.jpg",
    "id_album": "1965631892",
    "description": "Peugeot_250664",
    "title": "Peugeot_250664",
    "link_img": "https://live.staticflickr.com/65535/48120870368_4a7b6f6aa7_o.jpg",
    "id_image": "Peugeot_250664",
    "count_view": 0
  },
  {
    "link_thumb": "https://live.staticflickr.com/65535/48112339363_100b20ef8e_n.jpg",
    "id_album": "-15119147",
    "description": "Audi_450587",
    "title": "Audi_450587",
    "link_img": "https://live.staticflickr.com/65535/48112339363_55231a64ec_o.jpg",
    "id_image": "Audi_450587",
    "count_view": 0
  },
  {
    "link_thumb": "https://live.staticflickr.com/65535/48113663706_a8fc9b43c9_n.jpg",
    "id_album": "-1721545051",
    "description": "Chevrolet_159030",
    "title": "Chevrolet_159030",
    "link_img": "https://live.staticflickr.com/65535/48113663706_516b8e3035_o.jpg",
    "id_image": "Chevrolet_159030",
    "count_view": 0
  },
  {
    "link_thumb": "https://live.staticflickr.com/65535/48118402711_716e16c179_n.jpg",
    "id_album": "-2100339805",
    "description": "Lamborghini_379294",
    "title": "Lamborghini_379294",
    "link_img": "https://live.staticflickr.com/65535/48118402711_6a43c4a9a2_o.jpg",
    "id_image": "Lamborghini_379294",
    "count_view": 0
  },
  {
    "link_thumb": "https://live.staticflickr.com/65535/48121192586_e0af48c19b_n.jpg",
    "id_album": "-1178450892",
    "description": "Porsche_208315",
    "title": "Porsche_208315",
    "link_img": "https://live.staticflickr.com/65535/48121192586_e1e6c46d26_o.jpg",
    "id_image": "Porsche_208315",
    "count_view": 0
  },
  {
    "link_thumb": "https://live.staticflickr.com/65535/48118517671_6eca292041_n.jpg",
    "id_album": "-2100339805",
    "description": "Lamborghini_524784",
    "title": "Lamborghini_524784",
    "link_img": "https://live.staticflickr.com/65535/48118517671_e76890d1f7_o.jpg",
    "id_image": "Lamborghini_524784",
    "count_view": 0
  },
  {
    "link_thumb": "https://live.staticflickr.com/65535/48122827217_1b04e49fba_n.jpg",
    "id_album": "1274920659",
    "description": "Toyota_548851",
    "title": "Toyota_548851",
    "link_img": "https://live.staticflickr.com/65535/48122827217_140b8cd41f_o.jpg",
    "id_image": "Toyota_548851",
    "count_view": 0
  },
  {
    "link_thumb": "https://live.staticflickr.com/65535/49889777057_0965c11915_n.jpg",
    "id_album": "1069273897",
    "description": "1954_rv_Ferrari_rv_375_rv_MM_rv_V3_rv_1600",
    "title": "1954_rv_Ferrari_rv_375_rv_MM_rv_V3_rv_1600",
    "link_img": "https://live.staticflickr.com/65535/49889777057_73c76feac6_o.jpg",
    "id_image": "1954_rv_Ferrari_rv_375_rv_MM_rv_V3_rv_1600",
    "count_view": 0
  },
  {
    "link_thumb": "https://live.staticflickr.com/65535/48114172611_7b52789f0b_n.jpg",
    "id_album": "-1721545051",
    "description": "Chevrolet_382201",
    "title": "Chevrolet_382201",
    "link_img": "https://live.staticflickr.com/65535/48114172611_fe674d5a43_o.jpg",
    "id_image": "Chevrolet_382201",
    "count_view": 0
  },
  {
    "link_thumb": "https://live.staticflickr.com/65535/49892617531_392d20f23f_n.jpg",
    "id_album": "-842876950",
    "description": "2019_rv_Aston_rv_Martin_rv_Vantage_rv_V11_rv_2000",
    "title": "2019_rv_Aston_rv_Martin_rv_Vantage_rv_V11_rv_2000",
    "link_img": "https://live.staticflickr.com/65535/49892617531_0ae48d7d9a_o.jpg",
    "id_image": "2019_rv_Aston_rv_Martin_rv_Vantage_rv_V11_rv_2000",
    "count_view": 0
  },
  {
    "link_thumb": "https://live.staticflickr.com/65535/48113980422_b0fa9c145e_n.jpg",
    "id_album": "-1721545051",
    "description": "Chevrolet_248415",
    "title": "Chevrolet_248415",
    "link_img": "https://live.staticflickr.com/65535/48113980422_98190b8be7_o.jpg",
    "id_image": "Chevrolet_248415",
    "count_view": 0
  },
  {
    "link_thumb": "https://live.staticflickr.com/65535/48118679553_4fb09250e8_n.jpg",
    "id_album": "-2100339805",
    "description": "Lamborghini_898813",
    "title": "Lamborghini_898813",
    "link_img": "https://live.staticflickr.com/65535/48118679553_96a257ff53_o.jpg",
    "id_image": "Lamborghini_898813",
    "count_view": 0
  },
  {
    "link_thumb": "https://live.staticflickr.com/65535/48112341923_e47ab1b0c4_n.jpg",
    "id_album": "-15119147",
    "description": "Audi_462647",
    "title": "Audi_462647",
    "link_img": "https://live.staticflickr.com/65535/48112341923_93dc5ced65_o.jpg",
    "id_image": "Audi_462647",
    "count_view": 0
  },
  {
    "link_thumb": "https://live.staticflickr.com/65535/49891159092_68202aaa02_n.jpg",
    "id_album": "-21475779",
    "description": "2020_rv_Mercedes_rv_AMG_rv_GT_rv_R_rv_Roadster_rv_V1_rv_2160",
    "title": "2020_rv_Mercedes_rv_AMG_rv_GT_rv_R_rv_Roadster_rv_V1_rv_2160",
    "link_img": "https://live.staticflickr.com/65535/49891159092_d1a51e28bb_o.jpg",
    "id_image": "2020_rv_Mercedes_rv_AMG_rv_GT_rv_R_rv_Roadster_rv_V1_rv_2160",
    "count_view": 0
  },
  {
    "link_thumb": "https://live.staticflickr.com/65535/48118809963_b7041616b9_n.jpg",
    "id_album": "1986285173",
    "description": "Lancia_631162",
    "title": "Lancia_631162",
    "link_img": "https://live.staticflickr.com/65535/48118809963_2d07f3083a_o.jpg",
    "id_image": "Lancia_631162",
    "count_view": 0
  },
  {
    "link_thumb": "https://live.staticflickr.com/65535/48112315157_20f123f330_n.jpg",
    "id_album": "548548524",
    "description": "AstonMartin_930193",
    "title": "AstonMartin_930193",
    "link_img": "https://live.staticflickr.com/65535/48112315157_12e87d46f2_o.jpg",
    "id_image": "AstonMartin_930193",
    "count_view": 0
  },
  {
    "link_thumb": "https://live.staticflickr.com/65535/48117056792_703f127e14_n.jpg",
    "id_album": "-1846404630",
    "description": "Ford_290689",
    "title": "Ford_290689",
    "link_img": "https://live.staticflickr.com/65535/48117056792_21b14377f6_o.jpg",
    "id_image": "Ford_290689",
    "count_view": 0
  },
  {
    "link_thumb": "https://live.staticflickr.com/65535/49889970296_0fef14417a_n.jpg",
    "id_album": "781714354",
    "description": "2013_rv_Jaguar_rv_C_rv_X75_rv_Prototype_rv_V3_rv_1600",
    "title": "2013_rv_Jaguar_rv_C_rv_X75_rv_Prototype_rv_V3_rv_1600",
    "link_img": "https://live.staticflickr.com/65535/49889970296_38db5ee840_o.jpg",
    "id_image": "2013_rv_Jaguar_rv_C_rv_X75_rv_Prototype_rv_V3_rv_1600",
    "count_view": 0
  },
  {
    "link_thumb": "https://live.staticflickr.com/65535/49890128402_c1a4a806aa_n.jpg",
    "id_album": "-1617578684",
    "description": "2014_rv_Bentley_rv_Continental_rv_GT3_rv_V4_rv_1600",
    "title": "2014_rv_Bentley_rv_Continental_rv_GT3_rv_V4_rv_1600",
    "link_img": "https://live.staticflickr.com/65535/49890128402_dd7963f29b_o.jpg",
    "id_image": "2014_rv_Bentley_rv_Continental_rv_GT3_rv_V4_rv_1600",
    "count_view": 0
  },
  {
    "link_thumb": "https://live.staticflickr.com/65535/48113513603_13df0b9253_n.jpg",
    "id_album": "1246496342",
    "description": "Buick_357892",
    "title": "Buick_357892",
    "link_img": "https://live.staticflickr.com/65535/48113513603_50378b36bf_o.jpg",
    "id_image": "Buick_357892",
    "count_view": 0
  },
  {
    "link_thumb": "https://live.staticflickr.com/65535/49888868283_490d64a572_n.jpg",
    "id_album": "-1198813712",
    "description": "2015_rv_Formula1_rv_McLaren_rv_MP4_rv_30_rv_V6_rv_1600",
    "title": "2015_rv_Formula1_rv_McLaren_rv_MP4_rv_30_rv_V6_rv_1600",
    "link_img": "https://live.staticflickr.com/65535/49888868283_d17ec9465b_o.jpg",
    "id_image": "2015_rv_Formula1_rv_McLaren_rv_MP4_rv_30_rv_V6_rv_1600",
    "count_view": 0
  },
  {
    "link_thumb": "https://live.staticflickr.com/65535/48121151873_cc7f193636_n.jpg",
    "id_album": "-2099496752",
    "description": "Pontiac_280393",
    "title": "Pontiac_280393",
    "link_img": "https://live.staticflickr.com/65535/48121151873_1809966b77_o.jpg",
    "id_image": "Pontiac_280393",
    "count_view": 0
  },
  {
    "link_thumb": "https://live.staticflickr.com/65535/48117066968_8dc51b4367_n.jpg",
    "id_album": "-1846404630",
    "description": "Ford_349212",
    "title": "Ford_349212",
    "link_img": "https://live.staticflickr.com/65535/48117066968_077c182061_o.jpg",
    "id_image": "Ford_349212",
    "count_view": 0
  },
  {
    "link_thumb": "https://live.staticflickr.com/65535/49041117687_da10f0e77f_n.jpg",
    "id_album": "-495894181",
    "description": "AlfaRomeo_960864",
    "title": "AlfaRomeo_960864",
    "link_img": "https://live.staticflickr.com/65535/49041117687_f53e8527b4_o.jpg",
    "id_image": "AlfaRomeo_960864",
    "count_view": 0
  },
  {
    "link_thumb": "https://live.staticflickr.com/65535/49892774192_675e3446cf_n.jpg",
    "id_album": "-91950429",
    "description": "2006_rv_Dodge_rv_Viper_rv_SRT10_rv_V3_rv_1440",
    "title": "2006_rv_Dodge_rv_Viper_rv_SRT10_rv_V3_rv_1440",
    "link_img": "https://live.staticflickr.com/65535/49892774192_4633809a24_o.jpg",
    "id_image": "2006_rv_Dodge_rv_Viper_rv_SRT10_rv_V3_rv_1440",
    "count_view": 0
  },
  {
    "link_thumb": "https://live.staticflickr.com/65535/48115410028_00d2c75901_n.jpg",
    "id_album": "413141323",
    "description": "Dodge_511709",
    "title": "Dodge_511709",
    "link_img": "https://live.staticflickr.com/65535/48115410028_9189df41e8_o.jpg",
    "id_image": "Dodge_511709",
    "count_view": 0
  },
  {
    "link_thumb": "https://live.staticflickr.com/65535/49892389456_a3e88d4e77_n.jpg",
    "id_album": "-189032193",
    "description": "2018_rv_Skoda_rv_Octavia_rv_RS_rv_245_rv_V4_rv_2000",
    "title": "2018_rv_Skoda_rv_Octavia_rv_RS_rv_245_rv_V4_rv_2000",
    "link_img": "https://live.staticflickr.com/65535/49892389456_6fa905e2bf_o.jpg",
    "id_image": "2018_rv_Skoda_rv_Octavia_rv_RS_rv_245_rv_V4_rv_2000",
    "count_view": 0
  },
  {
    "link_thumb": "https://live.staticflickr.com/65535/49890969811_237a528d7d_n.jpg",
    "id_album": "-1072712416",
    "description": "2014_rv_Mitsubishi_rv_XR_rv_PHEV_rv_Concept_rv_V1_rv_1600",
    "title": "2014_rv_Mitsubishi_rv_XR_rv_PHEV_rv_Concept_rv_V1_rv_1600",
    "link_img": "https://live.staticflickr.com/65535/49890969811_1a1ccc8ffb_o.jpg",
    "id_image": "2014_rv_Mitsubishi_rv_XR_rv_PHEV_rv_Concept_rv_V1_rv_1600",
    "count_view": 0
  },
  {
    "link_thumb": "https://live.staticflickr.com/65535/48118149377_20449844b4_n.jpg",
    "id_album": "-2009218697",
    "description": "Jeep_124274",
    "title": "Jeep_124274",
    "link_img": "https://live.staticflickr.com/65535/48118149377_1bf134dc05_o.jpg",
    "id_image": "Jeep_124274",
    "count_view": 0
  },
  {
    "link_thumb": "https://live.staticflickr.com/65535/49889436053_c7455ae4dc_n.jpg",
    "id_album": "-1069914618",
    "description": "2002_rv_Infiniti_rv_G35_rv_Coupe_rv_V2_rv_1536",
    "title": "2002_rv_Infiniti_rv_G35_rv_Coupe_rv_V2_rv_1536",
    "link_img": "https://live.staticflickr.com/65535/49889436053_ef9f95e652_o.jpg",
    "id_image": "2002_rv_Infiniti_rv_G35_rv_Coupe_rv_V2_rv_1536",
    "count_view": 0
  },
  {
    "link_thumb": "https://live.staticflickr.com/65535/48118184062_0d35458e0b_n.jpg",
    "id_album": "-2009218697",
    "description": "Jeep_417238",
    "title": "Jeep_417238",
    "link_img": "https://live.staticflickr.com/65535/48118184062_7d3e448bf2_o.jpg",
    "id_image": "Jeep_417238",
    "count_view": 0
  },
  {
    "link_thumb": "https://live.staticflickr.com/65535/49891539377_945a0a2e3a_n.jpg",
    "id_album": "1600747842",
    "description": "2009_rv_Pagani_rv_Zonda_rv_R_rv_V5_rv_1440",
    "title": "2009_rv_Pagani_rv_Zonda_rv_R_rv_V5_rv_1440",
    "link_img": "https://live.staticflickr.com/65535/49891539377_857b7ffbe0_o.jpg",
    "id_image": "2009_rv_Pagani_rv_Zonda_rv_R_rv_V5_rv_1440",
    "count_view": 0
  },
  {
    "link_thumb": "https://live.staticflickr.com/65535/48119695107_c6b7861310_n.jpg",
    "id_album": "-731054311",
    "description": "MercedesBenz_318996",
    "title": "MercedesBenz_318996",
    "link_img": "https://live.staticflickr.com/65535/48119695107_b30f907237_o.jpg",
    "id_image": "MercedesBenz_318996",
    "count_view": 0
  },
  {
    "link_thumb": "https://live.staticflickr.com/65535/48118630292_1e7a036bf3_n.jpg",
    "id_album": "-2100339805",
    "description": "Lamborghini_598276",
    "title": "Lamborghini_598276",
    "link_img": "https://live.staticflickr.com/65535/48118630292_c04f41c27a_o.jpg",
    "id_image": "Lamborghini_598276",
    "count_view": 0
  },
  {
    "link_thumb": "https://live.staticflickr.com/65535/49892007123_b35d495164_n.jpg",
    "id_album": "883034302",
    "description": "1987_rv_Toyota_rv_Supra_rv_V5_rv_1536",
    "title": "1987_rv_Toyota_rv_Supra_rv_V5_rv_1536",
    "link_img": "https://live.staticflickr.com/65535/49892007123_4641d1e612_o.jpg",
    "id_image": "1987_rv_Toyota_rv_Supra_rv_V5_rv_1536",
    "count_view": 0
  },
  {
    "link_thumb": "https://live.staticflickr.com/65535/49889914567_a0fc4dfeab_n.jpg",
    "id_album": "-1205186403",
    "description": "2017_rv_Fiat_rv_124_rv_Spider_rv_Abarth_rv_V3_rv_2000",
    "title": "2017_rv_Fiat_rv_124_rv_Spider_rv_Abarth_rv_V3_rv_2000",
    "link_img": "https://live.staticflickr.com/65535/49889914567_4a046f59a7_o.jpg",
    "id_image": "2017_rv_Fiat_rv_124_rv_Spider_rv_Abarth_rv_V3_rv_2000",
    "count_view": 0
  },
  {
    "link_thumb": "https://live.staticflickr.com/65535/48115867432_0b2fbfbdc0_n.jpg",
    "id_album": "1364506720",
    "description": "Ferrari_317696",
    "title": "Ferrari_317696",
    "link_img": "https://live.staticflickr.com/65535/48115867432_430429eb68_o.jpg",
    "id_image": "Ferrari_317696",
    "count_view": 0
  },
  {
    "link_thumb": "https://live.staticflickr.com/65535/48119889377_0ece35648f_n.jpg",
    "id_album": "-731054311",
    "description": "MercedesBenz_844428",
    "title": "MercedesBenz_844428",
    "link_img": "https://live.staticflickr.com/65535/48119889377_cbdc3f0dfa_o.jpg",
    "id_image": "MercedesBenz_844428",
    "count_view": 0
  },
  {
    "link_thumb": "https://live.staticflickr.com/65535/48118770316_8ae89b9ce6_n.jpg",
    "id_album": "1986285173",
    "description": "Lancia_436296",
    "title": "Lancia_436296",
    "link_img": "https://live.staticflickr.com/65535/48118770316_26b45f4546_o.jpg",
    "id_image": "Lancia_436296",
    "count_view": 0
  },
  {
    "link_thumb": "https://live.staticflickr.com/65535/48112753611_6a932d170b_n.jpg",
    "id_album": "727633301",
    "description": "BMW_444423",
    "title": "BMW_444423",
    "link_img": "https://live.staticflickr.com/65535/48112753611_472b8df6e4_o.jpg",
    "id_image": "BMW_444423",
    "count_view": 0
  },
  {
    "link_thumb": "https://live.staticflickr.com/65535/48113626782_6336029855_n.jpg",
    "id_album": "-680120434",
    "description": "Cadillac_254236",
    "title": "Cadillac_254236",
    "link_img": "https://live.staticflickr.com/65535/48113626782_78d5bdf565_o.jpg",
    "id_image": "Cadillac_254236",
    "count_view": 0
  },
  {
    "link_thumb": "https://live.staticflickr.com/65535/48112601008_d65719bdca_n.jpg",
    "id_album": "2097036181",
    "description": "Bentley_868288",
    "title": "Bentley_868288",
    "link_img": "https://live.staticflickr.com/65535/48112601008_4f9c2fe17d_o.jpg",
    "id_image": "Bentley_868288",
    "count_view": 0
  },
  {
    "link_thumb": "https://live.staticflickr.com/65535/49890932701_6561a466c8_n.jpg",
    "id_album": "-1503939287",
    "description": "2016_rv_Mini_rv_Vision_rv_Next_rv_100_rv_Concept_rv_V2_rv_2000",
    "title": "2016_rv_Mini_rv_Vision_rv_Next_rv_100_rv_Concept_rv_V2_rv_2000",
    "link_img": "https://live.staticflickr.com/65535/49890932701_de88faffee_o.jpg",
    "id_image": "2016_rv_Mini_rv_Vision_rv_Next_rv_100_rv_Concept_rv_V2_rv_2000",
    "count_view": 0
  },
  {
    "link_thumb": "https://live.staticflickr.com/65535/49889577352_9b16972daf_n.jpg",
    "id_album": "-842876963",
    "description": "2020_rv_Chevrolet_rv_Corvette_rv_Stingray_rv_V21_rv_2160",
    "title": "2020_rv_Chevrolet_rv_Corvette_rv_Stingray_rv_V21_rv_2160",
    "link_img": "https://live.staticflickr.com/65535/49889577352_7e417e7726_o.jpg",
    "id_image": "2020_rv_Chevrolet_rv_Corvette_rv_Stingray_rv_V21_rv_2160",
    "count_view": 0
  },
  {
    "link_thumb": "https://live.staticflickr.com/65535/48119503953_c4a3b10bd5_n.jpg",
    "id_album": "-731054311",
    "description": "MercedesBenz_196855",
    "title": "MercedesBenz_196855",
    "link_img": "https://live.staticflickr.com/65535/48119503953_d956173808_o.jpg",
    "id_image": "MercedesBenz_196855",
    "count_view": 0
  },
  {
    "link_thumb": "https://live.staticflickr.com/65535/48117945303_76e6eda303_n.jpg",
    "id_album": "-354267407",
    "description": "Honda_928073",
    "title": "Honda_928073",
    "link_img": "https://live.staticflickr.com/65535/48117945303_4165e21211_o.jpg",
    "id_image": "Honda_928073",
    "count_view": 0
  },
  {
    "link_thumb": "https://live.staticflickr.com/65535/48120356062_c8e709120f_n.jpg",
    "id_album": "666438681",
    "description": "Motorcycles_692469",
    "title": "Motorcycles_692469",
    "link_img": "https://live.staticflickr.com/65535/48120356062_f2fe874628_o.jpg",
    "id_image": "Motorcycles_692469",
    "count_view": 0
  },
  {
    "link_thumb": "https://live.staticflickr.com/65535/48112806282_90df7eb792_n.jpg",
    "id_album": "727633301",
    "description": "BMW_317512",
    "title": "BMW_317512",
    "link_img": "https://live.staticflickr.com/65535/48112806282_9ee9d5b8f6_o.jpg",
    "id_image": "BMW_317512",
    "count_view": 0
  },
  {
    "link_thumb": "https://live.staticflickr.com/65535/48115857966_81e6b4ab91_n.jpg",
    "id_album": "1364506720",
    "description": "Ferrari_351015",
    "title": "Ferrari_351015",
    "link_img": "https://live.staticflickr.com/65535/48115857966_94e588fda9_o.jpg",
    "id_image": "Ferrari_351015",
    "count_view": 0
  },
  {
    "link_thumb": "https://live.staticflickr.com/65535/48112342092_14bd44eb83_n.jpg",
    "id_album": "-15119147",
    "description": "Audi_219754",
    "title": "Audi_219754",
    "link_img": "https://live.staticflickr.com/65535/48112342092_6efdea3416_o.jpg",
    "id_image": "Audi_219754",
    "count_view": 0
  },
  {
    "link_thumb": "https://live.staticflickr.com/65535/48114996317_aa15ca2bf3_n.jpg",
    "id_album": "2072464184",
    "description": "Citroen_473662",
    "title": "Citroen_473662",
    "link_img": "https://live.staticflickr.com/65535/48114996317_d2e054c1e1_o.jpg",
    "id_image": "Citroen_473662",
    "count_view": 0
  },
  {
    "link_thumb": "https://live.staticflickr.com/65535/48117943881_48e76ca0be_n.jpg",
    "id_album": "427416146",
    "description": "Hummer_256043",
    "title": "Hummer_256043",
    "link_img": "https://live.staticflickr.com/65535/48117943881_5d9249f140_o.jpg",
    "id_image": "Hummer_256043",
    "count_view": 0
  },
  {
    "link_thumb": "https://live.staticflickr.com/65535/48117544323_9298d16a64_n.jpg",
    "id_album": "-1846404630",
    "description": "Ford_891453",
    "title": "Ford_891453",
    "link_img": "https://live.staticflickr.com/65535/48117544323_c4990c7acd_o.jpg",
    "id_image": "Ford_891453",
    "count_view": 0
  },
  {
    "link_thumb": "https://live.staticflickr.com/65535/48118413001_826386ff77_n.jpg",
    "id_album": "-2100339805",
    "description": "Lamborghini_392726",
    "title": "Lamborghini_392726",
    "link_img": "https://live.staticflickr.com/65535/48118413001_fef6864739_o.jpg",
    "id_image": "Lamborghini_392726",
    "count_view": 0
  },
  {
    "link_thumb": "https://live.staticflickr.com/65535/48120913833_0d0ca6bdfa_n.jpg",
    "id_album": "1965631892",
    "description": "Peugeot_714649",
    "title": "Peugeot_714649",
    "link_img": "https://live.staticflickr.com/65535/48120913833_b8b1a0c4e9_o.jpg",
    "id_image": "Peugeot_714649",
    "count_view": 0
  },
  {
    "link_thumb": "https://live.staticflickr.com/65535/48120920573_3f0de601cf_n.jpg",
    "id_album": "1965631892",
    "description": "Peugeot_896844",
    "title": "Peugeot_896844",
    "link_img": "https://live.staticflickr.com/65535/48120920573_d44b8def19_o.jpg",
    "id_image": "Peugeot_896844",
    "count_view": 0
  },
  {
    "link_thumb": "https://live.staticflickr.com/65535/48123205288_dafb173e2e_n.jpg",
    "id_album": "1159292543",
    "description": "Volvo_879645",
    "title": "Volvo_879645",
    "link_img": "https://live.staticflickr.com/65535/48123205288_a1a9f27652_o.jpg",
    "id_image": "Volvo_879645",
    "count_view": 0
  },
  {
    "link_thumb": "https://live.staticflickr.com/65535/49891418991_b28b6c3964_n.jpg",
    "id_album": "1795407418",
    "description": "2020_rv_Porsche_rv_718_rv_Cayman_rv_GT4_rv_V3_rv_2160",
    "title": "2020_rv_Porsche_rv_718_rv_Cayman_rv_GT4_rv_V3_rv_2160",
    "link_img": "https://live.staticflickr.com/65535/49891418991_154a3ebd09_o.jpg",
    "id_image": "2020_rv_Porsche_rv_718_rv_Cayman_rv_GT4_rv_V3_rv_2160",
    "count_view": 0
  },
  {
    "link_thumb": "https://live.staticflickr.com/65535/49890294316_b1ddc0b474_n.jpg",
    "id_album": "917675375",
    "description": "2017_rv_Lexus_rv_LC_rv_500h_rv_V4_rv_2000",
    "title": "2017_rv_Lexus_rv_LC_rv_500h_rv_V4_rv_2000",
    "link_img": "https://live.staticflickr.com/65535/49890294316_40ec7a6fc7_o.jpg",
    "id_image": "2017_rv_Lexus_rv_LC_rv_500h_rv_V4_rv_2000",
    "count_view": 0
  },
  {
    "link_thumb": "https://live.staticflickr.com/65535/48118474111_2ac7c58295_n.jpg",
    "id_album": "-2100339805",
    "description": "Lamborghini_451728",
    "title": "Lamborghini_451728",
    "link_img": "https://live.staticflickr.com/65535/48118474111_d39208456a_o.jpg",
    "id_image": "Lamborghini_451728",
    "count_view": 0
  },
  {
    "link_thumb": "https://live.staticflickr.com/65535/48112352442_3620e0e025_n.jpg",
    "id_album": "-15119147",
    "description": "Audi_253643",
    "title": "Audi_253643",
    "link_img": "https://live.staticflickr.com/65535/48112352442_20b20b63a1_o.jpg",
    "id_image": "Audi_253643",
    "count_view": 0
  },
  {
    "link_thumb": "https://live.staticflickr.com/65535/49889736133_d6a60fcfb9_n.jpg",
    "id_album": "-460218730",
    "description": "2020_rv_Land_rv_Rover_rv_Defender_rv_V11_rv_2160",
    "title": "2020_rv_Land_rv_Rover_rv_Defender_rv_V11_rv_2160",
    "link_img": "https://live.staticflickr.com/65535/49889736133_d5880946d0_o.jpg",
    "id_image": "2020_rv_Land_rv_Rover_rv_Defender_rv_V11_rv_2160",
    "count_view": 0
  },
  {
    "link_thumb": "https://live.staticflickr.com/65535/49889897181_22d4e8482e_n.jpg",
    "id_album": "2135768675",
    "description": "2015_rv_Holden_rv_HSV_rv_ClubSport_rv_R8_rv_25th_rv_Anniversary_rv_V2_rv_1440",
    "title": "2015_rv_Holden_rv_HSV_rv_ClubSport_rv_R8_rv_25th_rv_Anniversary_rv_V2_rv_1440",
    "link_img": "https://live.staticflickr.com/65535/49889897181_f57b6ae50d_o.jpg",
    "id_image": "2015_rv_Holden_rv_HSV_rv_ClubSport_rv_R8_rv_25th_rv_Anniversary_rv_V2_rv_1440",
    "count_view": 0
  },
  {
    "link_thumb": "https://live.staticflickr.com/65535/48114477303_0657e7f865_n.jpg",
    "id_album": "-1721545051",
    "description": "Chevrolet_664341",
    "title": "Chevrolet_664341",
    "link_img": "https://live.staticflickr.com/65535/48114477303_ff4af1cd2d_o.jpg",
    "id_image": "Chevrolet_664341",
    "count_view": 0
  },
  {
    "link_thumb": "https://live.staticflickr.com/65535/48117070363_c4d7742b01_n.jpg",
    "id_album": "-1846404630",
    "description": "Ford_351144",
    "title": "Ford_351144",
    "link_img": "https://live.staticflickr.com/65535/48117070363_3d5207eac5_o.jpg",
    "id_image": "Ford_351144",
    "count_view": 0
  },
  {
    "link_thumb": "https://live.staticflickr.com/65535/49889967351_1d11c8204d_n.jpg",
    "id_album": "-836585497",
    "description": "2007_rv_Mitsubishi_rv_Lancer_rv_Evolution_rv_IX_rv_MR_rv_FQ_rv_360_rv_V6_rv_1440",
    "title": "2007_rv_Mitsubishi_rv_Lancer_rv_Evolution_rv_IX_rv_MR_rv_FQ_rv_360_rv_V6_rv_1440",
    "link_img": "https://live.staticflickr.com/65535/49889967351_03da93d4bf_o.jpg",
    "id_image": "2007_rv_Mitsubishi_rv_Lancer_rv_Evolution_rv_IX_rv_MR_rv_FQ_rv_360_rv_V6_rv_1440",
    "count_view": 0
  },
  {
    "link_thumb": "https://live.staticflickr.com/65535/48120586776_d6a9949008_n.jpg",
    "id_album": "810634050",
    "description": "Nissan_906611",
    "title": "Nissan_906611",
    "link_img": "https://live.staticflickr.com/65535/48120586776_1e69b7bebc_o.jpg",
    "id_image": "Nissan_906611",
    "count_view": 0
  },
  {
    "link_thumb": "https://live.staticflickr.com/65535/48118229291_6c8d1663e5_n.jpg",
    "id_album": "-2100339805",
    "description": "Lamborghini_151878",
    "title": "Lamborghini_151878",
    "link_img": "https://live.staticflickr.com/65535/48118229291_a8e938a570_o.jpg",
    "id_image": "Lamborghini_151878",
    "count_view": 0
  },
  {
    "link_thumb": "https://live.staticflickr.com/65535/48118961436_95a8debef9_n.jpg",
    "id_album": "446908717",
    "description": "Lexus_962802",
    "title": "Lexus_962802",
    "link_img": "https://live.staticflickr.com/65535/48118961436_d1414401bf_o.jpg",
    "id_image": "Lexus_962802",
    "count_view": 0
  },
  {
    "link_thumb": "https://live.staticflickr.com/65535/48118803136_6641eb1c76_n.jpg",
    "id_album": "1234246491",
    "description": "LandRover_452164",
    "title": "LandRover_452164",
    "link_img": "https://live.staticflickr.com/65535/48118803136_13ed4791ca_o.jpg",
    "id_image": "LandRover_452164",
    "count_view": 0
  },
  {
    "link_thumb": "https://live.staticflickr.com/65535/49889895398_378eba6895_n.jpg",
    "id_album": "-911908532",
    "description": "2004_rv_Maserati_rv_Coupe_rv_V2_rv_1440",
    "title": "2004_rv_Maserati_rv_Coupe_rv_V2_rv_1440",
    "link_img": "https://live.staticflickr.com/65535/49889895398_1c8a416727_o.jpg",
    "id_image": "2004_rv_Maserati_rv_Coupe_rv_V2_rv_1440",
    "count_view": 0
  },
  {
    "link_thumb": "https://live.staticflickr.com/65535/48112280953_cc4e945ef9_n.jpg",
    "id_album": "-15119147",
    "description": "Audi_232161",
    "title": "Audi_232161",
    "link_img": "https://live.staticflickr.com/65535/48112280953_7ac1b8563d_o.jpg",
    "id_image": "Audi_232161",
    "count_view": 0
  },
  {
    "link_thumb": "https://live.staticflickr.com/65535/48112836427_a77f0471e5_n.jpg",
    "id_album": "727633301",
    "description": "BMW_379015",
    "title": "BMW_379015",
    "link_img": "https://live.staticflickr.com/65535/48112836427_9df3df1c4c_o.jpg",
    "id_image": "BMW_379015",
    "count_view": 0
  },
  {
    "link_thumb": "https://live.staticflickr.com/65535/48112247422_62d27d5036_n.jpg",
    "id_album": "555757480",
    "description": "AstonMartin_471594",
    "title": "AstonMartin_471594",
    "link_img": "https://live.staticflickr.com/65535/48112247422_db98041582_o.jpg",
    "id_image": "AstonMartin_471594",
    "count_view": 0
  },
  {
    "link_thumb": "https://live.staticflickr.com/65535/49889641488_1be1791e15_n.jpg",
    "id_album": "-936716449",
    "description": "2018_rv_Lamborghini_rv_Huracan_rv_Performante_rv_V11_rv_2000",
    "title": "2018_rv_Lamborghini_rv_Huracan_rv_Performante_rv_V11_rv_2000",
    "link_img": "https://live.staticflickr.com/65535/49889641488_bf8ab56c50_o.jpg",
    "id_image": "2018_rv_Lamborghini_rv_Huracan_rv_Performante_rv_V11_rv_2000",
    "count_view": 0
  },
  {
    "link_thumb": "https://live.staticflickr.com/65535/49890985022_b1e1d48856_n.jpg",
    "id_album": "-538739456",
    "description": "2012_rv_Mercedes_rv_Benz_rv_C63_rv_AMG_rv_Coupe_rv_Black_rv_V4_rv_1440",
    "title": "2012_rv_Mercedes_rv_Benz_rv_C63_rv_AMG_rv_Coupe_rv_Black_rv_V4_rv_1440",
    "link_img": "https://live.staticflickr.com/65535/49890985022_b630733aa9_o.jpg",
    "id_image": "2012_rv_Mercedes_rv_Benz_rv_C63_rv_AMG_rv_Coupe_rv_Black_rv_V4_rv_1440",
    "count_view": 0
  },
  {
    "link_thumb": "https://live.staticflickr.com/65535/48123160817_cc42557407_n.jpg",
    "id_album": "-150952028",
    "description": "Volkswagen_924104",
    "title": "Volkswagen_924104",
    "link_img": "https://live.staticflickr.com/65535/48123160817_bef70caafd_o.jpg",
    "id_image": "Volkswagen_924104",
    "count_view": 0
  },
  {
    "link_thumb": "https://live.staticflickr.com/65535/49889761541_9ab932a13d_n.jpg",
    "id_album": "1370790237",
    "description": "2012_rv_Dodge_rv_Challenger_rv_Rallye_rv_Redline_rv_V2_rv_1536",
    "title": "2012_rv_Dodge_rv_Challenger_rv_Rallye_rv_Redline_rv_V2_rv_1536",
    "link_img": "https://live.staticflickr.com/65535/49889761541_27f202a94c_o.jpg",
    "id_image": "2012_rv_Dodge_rv_Challenger_rv_Rallye_rv_Redline_rv_V2_rv_1536",
    "count_view": 0
  },
  {
    "link_thumb": "https://live.staticflickr.com/65535/48112800486_bc4f3dc370_n.jpg",
    "id_album": "727633301",
    "description": "BMW_461986",
    "title": "BMW_461986",
    "link_img": "https://live.staticflickr.com/65535/48112800486_3c35bfbb7b_o.jpg",
    "id_image": "BMW_461986",
    "count_view": 0
  },
  {
    "link_thumb": "https://live.staticflickr.com/65535/48118035127_3c2a1fc0e0_n.jpg",
    "id_album": "427416146",
    "description": "Hummer_256049",
    "title": "Hummer_256049",
    "link_img": "https://live.staticflickr.com/65535/48118035127_5f7a4f8bc0_o.jpg",
    "id_image": "Hummer_256049",
    "count_view": 0
  },
  {
    "link_thumb": "https://live.staticflickr.com/65535/48118953497_e9f93b7c04_n.jpg",
    "id_album": "446908717",
    "description": "Lexus_449923",
    "title": "Lexus_449923",
    "link_img": "https://live.staticflickr.com/65535/48118953497_b15bf16022_o.jpg",
    "id_image": "Lexus_449923",
    "count_view": 0
  },
  {
    "link_thumb": "https://live.staticflickr.com/65535/49889060666_9a68436256_n.jpg",
    "id_album": "-1839908199",
    "description": "2014_rv_BMW_rv_M235i_rv_Coupe_rv_V3_rv_1600",
    "title": "2014_rv_BMW_rv_M235i_rv_Coupe_rv_V3_rv_1600",
    "link_img": "https://live.staticflickr.com/65535/49889060666_e5fd8a9afe_o.jpg",
    "id_image": "2014_rv_BMW_rv_M235i_rv_Coupe_rv_V3_rv_1600",
    "count_view": 0
  },
  {
    "link_thumb": "https://live.staticflickr.com/65535/49893016107_aa19e87fda_n.jpg",
    "id_album": "-1852700606",
    "description": "2011_rv_Wiesmann_rv_GT_rv_MF4_rv_V3_rv_1200",
    "title": "2011_rv_Wiesmann_rv_GT_rv_MF4_rv_V3_rv_1200",
    "link_img": "https://live.staticflickr.com/65535/49893016107_ed884b8775_o.jpg",
    "id_image": "2011_rv_Wiesmann_rv_GT_rv_MF4_rv_V3_rv_1200",
    "count_view": 0
  },
  {
    "link_thumb": "https://live.staticflickr.com/65535/49889594367_5e0b534166_n.jpg",
    "id_album": "1016927281",
    "description": "2010_rv_Porsche_rv_911_rv_Carrera_rv_4_rv_V1_rv_1440",
    "title": "2010_rv_Porsche_rv_911_rv_Carrera_rv_4_rv_V1_rv_1440",
    "link_img": "https://live.staticflickr.com/65535/49889594367_091cd69be5_o.jpg",
    "id_image": "2010_rv_Porsche_rv_911_rv_Carrera_rv_4_rv_V1_rv_1440",
    "count_view": 0
  },
  {
    "link_thumb": "https://live.staticflickr.com/65535/48114625946_b86fdb2c59_n.jpg",
    "id_album": "-1721545051",
    "description": "Chevrolet_884468",
    "title": "Chevrolet_884468",
    "link_img": "https://live.staticflickr.com/65535/48114625946_c78e781ef6_o.jpg",
    "id_image": "Chevrolet_884468",
    "count_view": 0
  },
  {
    "link_thumb": "https://live.staticflickr.com/65535/49889877292_509676ebcd_n.jpg",
    "id_album": "-1150105315",
    "description": "2015_rv_Formula1_rv_Ferrari_rv_SF15_rv_T_rv_V9_rv_1600",
    "title": "2015_rv_Formula1_rv_Ferrari_rv_SF15_rv_T_rv_V9_rv_1600",
    "link_img": "https://live.staticflickr.com/65535/49889877292_a9b2b4b222_o.jpg",
    "id_image": "2015_rv_Formula1_rv_Ferrari_rv_SF15_rv_T_rv_V9_rv_1600",
    "count_view": 0
  },
  {
    "link_thumb": "https://live.staticflickr.com/65535/49892714502_931f6a1d1a_n.jpg",
    "id_album": "2008321481",
    "description": "2006_rv_Spyker_rv_C8_rv_Laviolette_rv_V2_rv_1440",
    "title": "2006_rv_Spyker_rv_C8_rv_Laviolette_rv_V2_rv_1440",
    "link_img": "https://live.staticflickr.com/65535/49892714502_5d84afd9a8_o.jpg",
    "id_image": "2006_rv_Spyker_rv_C8_rv_Laviolette_rv_V2_rv_1440",
    "count_view": 0
  },
  {
    "link_thumb": "https://live.staticflickr.com/65535/48119130761_4e289445a3_n.jpg",
    "id_album": "697984456",
    "description": "Maserati_891955",
    "title": "Maserati_891955",
    "link_img": "https://live.staticflickr.com/65535/48119130761_6fc29d2d92_o.jpg",
    "id_image": "Maserati_891955",
    "count_view": 0
  },
  {
    "link_thumb": "https://live.staticflickr.com/65535/49889277546_40f8794494_n.jpg",
    "id_album": "-10446952",
    "description": "2016_rv_Cadillac_rv_CTS_rv_V_rv_Sedan_rv_V5_rv_1600",
    "title": "2016_rv_Cadillac_rv_CTS_rv_V_rv_Sedan_rv_V5_rv_1600",
    "link_img": "https://live.staticflickr.com/65535/49889277546_bdffa81cbb_o.jpg",
    "id_image": "2016_rv_Cadillac_rv_CTS_rv_V_rv_Sedan_rv_V5_rv_1600",
    "count_view": 0
  },
  {
    "link_thumb": "https://live.staticflickr.com/65535/49888307323_a64e6c2a29_n.jpg",
    "id_album": "902292912",
    "description": "2017_rv_Aston_rv_Martin_rv_DB11_rv_V6_rv_2000",
    "title": "2017_rv_Aston_rv_Martin_rv_DB11_rv_V6_rv_2000",
    "link_img": "https://live.staticflickr.com/65535/49888307323_7de57af6a4_o.jpg",
    "id_image": "2017_rv_Aston_rv_Martin_rv_DB11_rv_V6_rv_2000",
    "count_view": 0
  },
  {
    "link_thumb": "https://live.staticflickr.com/65535/49890124801_1ac2600998_n.jpg",
    "id_album": "91448049",
    "description": "1989_rv_Lamborghini_rv_Countach_rv_V10_rv_1600",
    "title": "1989_rv_Lamborghini_rv_Countach_rv_V10_rv_1600",
    "link_img": "https://live.staticflickr.com/65535/49890124801_679a9f8442_o.jpg",
    "id_image": "1989_rv_Lamborghini_rv_Countach_rv_V10_rv_1600",
    "count_view": 0
  },
  {
    "link_thumb": "https://live.staticflickr.com/65535/48119805598_5ce26799c7_n.jpg",
    "id_album": "-731054311",
    "description": "MercedesBenz_807733",
    "title": "MercedesBenz_807733",
    "link_img": "https://live.staticflickr.com/65535/48119805598_d546aac78f_o.jpg",
    "id_image": "MercedesBenz_807733",
    "count_view": 0
  },
  {
    "link_thumb": "https://live.staticflickr.com/65535/49889212303_8c58bdf0cd_n.jpg",
    "id_album": "524349362",
    "description": "2017_rv_Ford_rv_GT_rv_V4_rv_1600",
    "title": "2017_rv_Ford_rv_GT_rv_V4_rv_1600",
    "link_img": "https://live.staticflickr.com/65535/49889212303_23af420860_o.jpg",
    "id_image": "2017_rv_Ford_rv_GT_rv_V4_rv_1600",
    "count_view": 0
  },
  {
    "link_thumb": "https://live.staticflickr.com/65535/48112433843_d94310c53f_n.jpg",
    "id_album": "-15119147",
    "description": "Audi_778798",
    "title": "Audi_778798",
    "link_img": "https://live.staticflickr.com/65535/48112433843_dab4e6572d_o.jpg",
    "id_image": "Audi_778798",
    "count_view": 0
  },
  {
    "link_thumb": "https://live.staticflickr.com/65535/48114015783_9bacd0ace0_n.jpg",
    "id_album": "-1721545051",
    "description": "Chevrolet_288537",
    "title": "Chevrolet_288537",
    "link_img": "https://live.staticflickr.com/65535/48114015783_60d2651023_o.jpg",
    "id_image": "Chevrolet_288537",
    "count_view": 0
  },
  {
    "link_thumb": "https://live.staticflickr.com/65535/48123101648_26197ebcd9_n.jpg",
    "id_album": "-150952028",
    "description": "Volkswagen_924408",
    "title": "Volkswagen_924408",
    "link_img": "https://live.staticflickr.com/65535/48123101648_a642665fe2_o.jpg",
    "id_image": "Volkswagen_924408",
    "count_view": 0
  },
  {
    "link_thumb": "https://live.staticflickr.com/65535/48112219336_ed74fb0da4_n.jpg",
    "id_album": "555757480",
    "description": "AstonMartin_972102",
    "title": "AstonMartin_972102",
    "link_img": "https://live.staticflickr.com/65535/48112219336_f7cfce7a5f_o.jpg",
    "id_image": "AstonMartin_972102",
    "count_view": 0
  },
  {
    "link_thumb": "https://live.staticflickr.com/65535/48117197791_6afe7dd8a4_n.jpg",
    "id_album": "-1846404630",
    "description": "Ford_449220",
    "title": "Ford_449220",
    "link_img": "https://live.staticflickr.com/65535/48117197791_7eb9a82479_o.jpg",
    "id_image": "Ford_449220",
    "count_view": 0
  },
  {
    "link_thumb": "https://live.staticflickr.com/65535/49891931698_05d46e2eff_n.jpg",
    "id_album": "-822601924",
    "description": "2018_rv_Tesla_rv_Model_rv_3_rv_V5_rv_2000",
    "title": "2018_rv_Tesla_rv_Model_rv_3_rv_V5_rv_2000",
    "link_img": "https://live.staticflickr.com/65535/49891931698_d1a18bc8fa_o.jpg",
    "id_image": "2018_rv_Tesla_rv_Model_rv_3_rv_V5_rv_2000",
    "count_view": 0
  },
  {
    "link_thumb": "https://live.staticflickr.com/65535/49891891958_f8e5e45e37_n.jpg",
    "id_album": "-1850816117",
    "description": "2018_rv_SSC_rv_Tuatara_rv_V3_rv_1600",
    "title": "2018_rv_SSC_rv_Tuatara_rv_V3_rv_1600",
    "link_img": "https://live.staticflickr.com/65535/49891891958_30468d4b3b_o.jpg",
    "id_image": "2018_rv_SSC_rv_Tuatara_rv_V3_rv_1600",
    "count_view": 0
  },
  {
    "link_thumb": "https://live.staticflickr.com/65535/48115212943_0ab9ba519a_n.jpg",
    "id_album": "413141323",
    "description": "Dodge_330583",
    "title": "Dodge_330583",
    "link_img": "https://live.staticflickr.com/65535/48115212943_08997a5675_o.jpg",
    "id_image": "Dodge_330583",
    "count_view": 0
  },
  {
    "link_thumb": "https://live.staticflickr.com/65535/48119707938_987c406091_n.jpg",
    "id_album": "-731054311",
    "description": "MercedesBenz_457728",
    "title": "MercedesBenz_457728",
    "link_img": "https://live.staticflickr.com/65535/48119707938_73e1e391f6_o.jpg",
    "id_image": "MercedesBenz_457728",
    "count_view": 0
  },
  {
    "link_thumb": "https://live.staticflickr.com/65535/49892602681_fe0745cb46_n.jpg",
    "id_album": "-842876950",
    "description": "2007_rv_Audi_rv_R8_rv_V2_rv_1440",
    "title": "2007_rv_Audi_rv_R8_rv_V2_rv_1440",
    "link_img": "https://live.staticflickr.com/65535/49892602681_1fdd3e62a9_o.jpg",
    "id_image": "2007_rv_Audi_rv_R8_rv_V2_rv_1440",
    "count_view": 0
  },
  {
    "link_thumb": "https://live.staticflickr.com/65535/48115314962_ac781fc9cc_n.jpg",
    "id_album": "413141323",
    "description": "Dodge_420661",
    "title": "Dodge_420661",
    "link_img": "https://live.staticflickr.com/65535/48115314962_489446e989_o.jpg",
    "id_image": "Dodge_420661",
    "count_view": 0
  },
  {
    "link_thumb": "https://live.staticflickr.com/65535/48115751151_116355f62d_n.jpg",
    "id_album": "1364506720",
    "description": "Ferrari_289441",
    "title": "Ferrari_289441",
    "link_img": "https://live.staticflickr.com/65535/48115751151_bdf64c5d34_o.jpg",
    "id_image": "Ferrari_289441",
    "count_view": 0
  },
  {
    "link_thumb": "https://live.staticflickr.com/65535/49888721693_9ff2c7b5ee_n.jpg",
    "id_album": "-1220389001",
    "description": "1970_rv_Nissan_rv_Skyline_rv_2000GT_rv_R_rv_Coupe_rv_V6_rv_1440",
    "title": "1970_rv_Nissan_rv_Skyline_rv_2000GT_rv_R_rv_Coupe_rv_V6_rv_1440",
    "link_img": "https://live.staticflickr.com/65535/49888721693_6aab9e401d_o.jpg",
    "id_image": "1970_rv_Nissan_rv_Skyline_rv_2000GT_rv_R_rv_Coupe_rv_V6_rv_1440",
    "count_view": 0
  },
  {
    "link_thumb": "https://live.staticflickr.com/65535/48112347347_2cb9c4f196_n.jpg",
    "id_album": "-15119147",
    "description": "Audi_250727",
    "title": "Audi_250727",
    "link_img": "https://live.staticflickr.com/65535/48112347347_b484ae1d0f_o.jpg",
    "id_image": "Audi_250727",
    "count_view": 0
  },
  {
    "link_thumb": "https://live.staticflickr.com/65535/48118946406_06808f10db_n.jpg",
    "id_album": "446908717",
    "description": "Lexus_922923",
    "title": "Lexus_922923",
    "link_img": "https://live.staticflickr.com/65535/48118946406_8a993a7429_o.jpg",
    "id_image": "Lexus_922923",
    "count_view": 0
  },
  {
    "link_thumb": "https://live.staticflickr.com/65535/49891544902_5987645df6_n.jpg",
    "id_album": "1600747842",
    "description": "2018_rv_Pagani_rv_Zonda_rv_Aether_rv_V5_rv_2160",
    "title": "2018_rv_Pagani_rv_Zonda_rv_Aether_rv_V5_rv_2160",
    "link_img": "https://live.staticflickr.com/65535/49891544902_3b239ef051_o.jpg",
    "id_image": "2018_rv_Pagani_rv_Zonda_rv_Aether_rv_V5_rv_2160",
    "count_view": 0
  },
  {
    "link_thumb": "https://live.staticflickr.com/65535/49889118422_6c5120dae0_n.jpg",
    "id_album": "117489722",
    "description": "2017_rv_Artega_rv_Scalo_rv_Superelletra_rv_Concept_rv_V2_rv_2000",
    "title": "2017_rv_Artega_rv_Scalo_rv_Superelletra_rv_Concept_rv_V2_rv_2000",
    "link_img": "https://live.staticflickr.com/65535/49889118422_fe031476c0_o.jpg",
    "id_image": "2017_rv_Artega_rv_Scalo_rv_Superelletra_rv_Concept_rv_V2_rv_2000",
    "count_view": 0
  },
  {
    "link_thumb": "https://live.staticflickr.com/65535/49890321412_41ce0cfb72_n.jpg",
    "id_album": "1773051539",
    "description": "2014_rv_Jaguar_rv_XJR_rv_V2_rv_1600",
    "title": "2014_rv_Jaguar_rv_XJR_rv_V2_rv_1600",
    "link_img": "https://live.staticflickr.com/65535/49890321412_8d03e50e96_o.jpg",
    "id_image": "2014_rv_Jaguar_rv_XJR_rv_V2_rv_1600",
    "count_view": 0
  },
  {
    "link_thumb": "https://live.staticflickr.com/65535/48120869541_45d3725e5d_n.jpg",
    "id_album": "1965631892",
    "description": "Peugeot_455562",
    "title": "Peugeot_455562",
    "link_img": "https://live.staticflickr.com/65535/48120869541_a941055c67_o.jpg",
    "id_image": "Peugeot_455562",
    "count_view": 0
  },
  {
    "link_thumb": "https://live.staticflickr.com/65535/48119565616_e9d9d9e969_n.jpg",
    "id_album": "-731054311",
    "description": "MercedesBenz_273686",
    "title": "MercedesBenz_273686",
    "link_img": "https://live.staticflickr.com/65535/48119565616_04d32c44eb_o.jpg",
    "id_image": "MercedesBenz_273686",
    "count_view": 0
  },
  {
    "link_thumb": "https://live.staticflickr.com/65535/48121065593_6128602cb0_n.jpg",
    "id_album": "-1123679742",
    "description": "Plymouth_685379",
    "title": "Plymouth_685379",
    "link_img": "https://live.staticflickr.com/65535/48121065593_f8394fa030_o.jpg",
    "id_image": "Plymouth_685379",
    "count_view": 0
  },
  {
    "link_thumb": "https://live.staticflickr.com/65535/48120595643_a292e820f6_n.jpg",
    "id_album": "810634050",
    "description": "Nissan_74191",
    "title": "Nissan_74191",
    "link_img": "https://live.staticflickr.com/65535/48120595643_85128d1316_o.jpg",
    "id_image": "Nissan_74191",
    "count_view": 0
  },
  {
    "link_thumb": "https://live.staticflickr.com/65535/48115150948_77e6a5880b_n.jpg",
    "id_album": "413141323",
    "description": "Dodge_255041",
    "title": "Dodge_255041",
    "link_img": "https://live.staticflickr.com/65535/48115150948_dc6017b0db_o.jpg",
    "id_image": "Dodge_255041",
    "count_view": 0
  },
  {
    "link_thumb": "https://live.staticflickr.com/65535/48112673542_5a2cc1be70_n.jpg",
    "id_album": "2097036181",
    "description": "Bentley_913637",
    "title": "Bentley_913637",
    "link_img": "https://live.staticflickr.com/65535/48112673542_690285d363_o.jpg",
    "id_image": "Bentley_913637",
    "count_view": 0
  },
  {
    "link_thumb": "https://live.staticflickr.com/65535/49892716457_cc47ae7e56_n.jpg",
    "id_album": "2008321481",
    "description": "2009_rv_Spyker_rv_C8_rv_Aileron_rv_V2_rv_1440",
    "title": "2009_rv_Spyker_rv_C8_rv_Aileron_rv_V2_rv_1440",
    "link_img": "https://live.staticflickr.com/65535/49892716457_a17f2ebf83_o.jpg",
    "id_image": "2009_rv_Spyker_rv_C8_rv_Aileron_rv_V2_rv_1440",
    "count_view": 0
  },
  {
    "link_thumb": "https://live.staticflickr.com/65535/48113726107_b4d0ea4249_n.jpg",
    "id_album": "-1721545051",
    "description": "Chevrolet_143955",
    "title": "Chevrolet_143955",
    "link_img": "https://live.staticflickr.com/65535/48113726107_95a21c42c0_o.jpg",
    "id_image": "Chevrolet_143955",
    "count_view": 0
  },
  {
    "link_thumb": "https://live.staticflickr.com/65535/48118296848_40ddf2e0bd_n.jpg",
    "id_album": "-2100339805",
    "description": "Lamborghini_256281",
    "title": "Lamborghini_256281",
    "link_img": "https://live.staticflickr.com/65535/48118296848_7343030284_o.jpg",
    "id_image": "Lamborghini_256281",
    "count_view": 0
  },
  {
    "link_thumb": "https://live.staticflickr.com/65535/49890076236_7e183ae8e5_n.jpg",
    "id_album": "465737886",
    "description": "2016_rv_Koenigsegg_rv_Regera_rv_V1_rv_2000",
    "title": "2016_rv_Koenigsegg_rv_Regera_rv_V1_rv_2000",
    "link_img": "https://live.staticflickr.com/65535/49890076236_a364b61c1d_o.jpg",
    "id_image": "2016_rv_Koenigsegg_rv_Regera_rv_V1_rv_2000",
    "count_view": 0
  },
  {
    "link_thumb": "https://live.staticflickr.com/65535/48117172671_f520db3caf_n.jpg",
    "id_album": "-1846404630",
    "description": "Ford_437492",
    "title": "Ford_437492",
    "link_img": "https://live.staticflickr.com/65535/48117172671_6ecbe93c2d_o.jpg",
    "id_image": "Ford_437492",
    "count_view": 0
  },
  {
    "link_thumb": "https://live.staticflickr.com/65535/48116588273_c9b97ab837_n.jpg",
    "id_album": "-1846404630",
    "description": "Ford_143753",
    "title": "Ford_143753",
    "link_img": "https://live.staticflickr.com/65535/48116588273_455f8e450e_o.jpg",
    "id_image": "Ford_143753",
    "count_view": 0
  },
  {
    "link_thumb": "https://live.staticflickr.com/65535/49890196051_3121b85c80_n.jpg",
    "id_album": "1957300237",
    "description": "2013_rv_Novitec_rv_Torado_rv_Lamborghini_rv_Aventador_rv_V2_rv_1600",
    "title": "2013_rv_Novitec_rv_Torado_rv_Lamborghini_rv_Aventador_rv_V2_rv_1600",
    "link_img": "https://live.staticflickr.com/65535/49890196051_461f86d991_o.jpg",
    "id_image": "2013_rv_Novitec_rv_Torado_rv_Lamborghini_rv_Aventador_rv_V2_rv_1600",
    "count_view": 0
  },
  {
    "link_thumb": "https://live.staticflickr.com/65535/49890808217_4860741f4e_n.jpg",
    "id_album": "1773656068",
    "description": "2013_rv_Mazzanti_rv_Evantra_rv_V2_rv_1600",
    "title": "2013_rv_Mazzanti_rv_Evantra_rv_V2_rv_1600",
    "link_img": "https://live.staticflickr.com/65535/49890808217_acca34e9c7_o.jpg",
    "id_image": "2013_rv_Mazzanti_rv_Evantra_rv_V2_rv_1600",
    "count_view": 0
  },
  {
    "link_thumb": "https://live.staticflickr.com/65535/48123260091_6f49c1d15e_n.jpg",
    "id_album": "-360260466",
    "description": "Yamaha_648750",
    "title": "Yamaha_648750",
    "link_img": "https://live.staticflickr.com/65535/48123260091_4afb2dedb3_o.jpg",
    "id_image": "Yamaha_648750",
    "count_view": 0
  },
  {
    "link_thumb": "https://live.staticflickr.com/65535/49889477607_6e1a966182_n.jpg",
    "id_album": "-1839909978",
    "description": "2013_rv_BMW_rv_i8_rv_Spyder_rv_Concept_rv_V6_rv_1440",
    "title": "2013_rv_BMW_rv_i8_rv_Spyder_rv_Concept_rv_V6_rv_1440",
    "link_img": "https://live.staticflickr.com/65535/49889477607_470f15ddb4_o.jpg",
    "id_image": "2013_rv_BMW_rv_i8_rv_Spyder_rv_Concept_rv_V6_rv_1440",
    "count_view": 0
  },
  {
    "link_thumb": "https://live.staticflickr.com/65535/48116524056_606fcea6e3_n.jpg",
    "id_album": "-1846404630",
    "description": "Ford_125037",
    "title": "Ford_125037",
    "link_img": "https://live.staticflickr.com/65535/48116524056_6d5be03e49_o.jpg",
    "id_image": "Ford_125037",
    "count_view": 0
  },
  {
    "link_thumb": "https://live.staticflickr.com/65535/49890025156_cdb87e7179_n.jpg",
    "id_album": "1773051538",
    "description": "2011_rv_Jaguar_rv_XKR_rv_Special_rv_Edition_rv_V9_rv_1440",
    "title": "2011_rv_Jaguar_rv_XKR_rv_Special_rv_Edition_rv_V9_rv_1440",
    "link_img": "https://live.staticflickr.com/65535/49890025156_9af6d697ef_o.jpg",
    "id_image": "2011_rv_Jaguar_rv_XKR_rv_Special_rv_Edition_rv_V9_rv_1440",
    "count_view": 0
  },
  {
    "link_thumb": "https://live.staticflickr.com/65535/48112262241_acab9e3d71_n.jpg",
    "id_album": "-15119147",
    "description": "Audi_273201",
    "title": "Audi_273201",
    "link_img": "https://live.staticflickr.com/65535/48112262241_37d531fa4e_o.jpg",
    "id_image": "Audi_273201",
    "count_view": 0
  },
  {
    "link_thumb": "https://live.staticflickr.com/65535/48116429436_4c7f2c6384_n.jpg",
    "id_album": "1364506720",
    "description": "Ferrari_961124",
    "title": "Ferrari_961124",
    "link_img": "https://live.staticflickr.com/65535/48116429436_8e3b2452a8_o.jpg",
    "id_image": "Ferrari_961124",
    "count_view": 0
  },
  {
    "link_thumb": "https://live.staticflickr.com/65535/48121070523_9bc82b03f3_n.jpg",
    "id_album": "-1123679742",
    "description": "Plymouth_844704",
    "title": "Plymouth_844704",
    "link_img": "https://live.staticflickr.com/65535/48121070523_68aa41f156_o.jpg",
    "id_image": "Plymouth_844704",
    "count_view": 0
  },
  {
    "link_thumb": "https://live.staticflickr.com/65535/49888499878_79ec1f2242_n.jpg",
    "id_album": "-500460384",
    "description": "2009_rv_Alfa_rv_Romeo_rv_Brera_rv_S_rv_Autodelta_rv_V2_rv_1440",
    "title": "2009_rv_Alfa_rv_Romeo_rv_Brera_rv_S_rv_Autodelta_rv_V2_rv_1440",
    "link_img": "https://live.staticflickr.com/65535/49888499878_c80666ef10_o.jpg",
    "id_image": "2009_rv_Alfa_rv_Romeo_rv_Brera_rv_S_rv_Autodelta_rv_V2_rv_1440",
    "count_view": 0
  },
  {
    "link_thumb": "https://live.staticflickr.com/65535/48113465477_241a090210_n.jpg",
    "id_album": "1456070666",
    "description": "Bugatti_369581",
    "title": "Bugatti_369581",
    "link_img": "https://live.staticflickr.com/65535/48113465477_a4a8eccd3a_o.jpg",
    "id_image": "Bugatti_369581",
    "count_view": 0
  },
  {
    "link_thumb": "https://live.staticflickr.com/65535/48119240528_881167d12c_n.jpg",
    "id_album": "898314866",
    "description": "Mazda_466893",
    "title": "Mazda_466893",
    "link_img": "https://live.staticflickr.com/65535/48119240528_a71c6661b6_o.jpg",
    "id_image": "Mazda_466893",
    "count_view": 0
  },
  {
    "link_thumb": "https://live.staticflickr.com/65535/48117583868_00caee28c3_n.jpg",
    "id_album": "-1846404630",
    "description": "Ford_931173",
    "title": "Ford_931173",
    "link_img": "https://live.staticflickr.com/65535/48117583868_1ed95f7ee6_o.jpg",
    "id_image": "Ford_931173",
    "count_view": 0
  },
  {
    "link_thumb": "https://live.staticflickr.com/65535/49892624911_7a33036d22_n.jpg",
    "id_album": "2090688121",
    "description": "1979_rv_Vauxhall_rv_Chevette_rv_HS_rv_V1_rv_1600",
    "title": "1979_rv_Vauxhall_rv_Chevette_rv_HS_rv_V1_rv_1600",
    "link_img": "https://live.staticflickr.com/65535/49892624911_ffa466d89a_o.jpg",
    "id_image": "1979_rv_Vauxhall_rv_Chevette_rv_HS_rv_V1_rv_1600",
    "count_view": 0
  },
  {
    "link_thumb": "https://live.staticflickr.com/65535/48115833928_8afaae0fa6_n.jpg",
    "id_album": "1364506720",
    "description": "Ferrari_317786",
    "title": "Ferrari_317786",
    "link_img": "https://live.staticflickr.com/65535/48115833928_68459e73dc_o.jpg",
    "id_image": "Ferrari_317786",
    "count_view": 0
  },
  {
    "link_thumb": "https://live.staticflickr.com/65535/48121939508_133233b551_n.jpg",
    "id_album": "-1377335499",
    "description": "RangeRover_523917",
    "title": "RangeRover_523917",
    "link_img": "https://live.staticflickr.com/65535/48121939508_d1a785117b_o.jpg",
    "id_image": "RangeRover_523917",
    "count_view": 0
  },
  {
    "link_thumb": "https://live.staticflickr.com/65535/49889399627_cca0fa3e91_n.jpg",
    "id_album": "-1839907869",
    "description": "2018_rv_BMW_rv_M4_rv_CS_rv_V2_rv_2000",
    "title": "2018_rv_BMW_rv_M4_rv_CS_rv_V2_rv_2000",
    "link_img": "https://live.staticflickr.com/65535/49889399627_105320bd3a_o.jpg",
    "id_image": "2018_rv_BMW_rv_M4_rv_CS_rv_V2_rv_2000",
    "count_view": 0
  },
  {
    "link_thumb": "https://live.staticflickr.com/65535/48117704523_eee445e4ca_n.jpg",
    "id_album": "-1846404630",
    "description": "Ford_98708",
    "title": "Ford_98708",
    "link_img": "https://live.staticflickr.com/65535/48117704523_bb1fc1369f_o.jpg",
    "id_image": "Ford_98708",
    "count_view": 0
  },
  {
    "link_thumb": "https://live.staticflickr.com/65535/49889171487_31e27d727e_n.jpg",
    "id_album": "-329322037",
    "description": "2019_rv_Aston_rv_Martin_rv_DBS_rv_Superleggera_rv_V4_rv_2000",
    "title": "2019_rv_Aston_rv_Martin_rv_DBS_rv_Superleggera_rv_V4_rv_2000",
    "link_img": "https://live.staticflickr.com/65535/49889171487_b4491ab47c_o.jpg",
    "id_image": "2019_rv_Aston_rv_Martin_rv_DBS_rv_Superleggera_rv_V4_rv_2000",
    "count_view": 0
  },
  {
    "link_thumb": "https://live.staticflickr.com/65535/49891932873_e6837ed789_n.jpg",
    "id_album": "-822601956",
    "description": "2014_rv_Tesla_rv_Model_rv_S_rv_V3_rv_1600",
    "title": "2014_rv_Tesla_rv_Model_rv_S_rv_V3_rv_1600",
    "link_img": "https://live.staticflickr.com/65535/49891932873_81f80f5e8a_o.jpg",
    "id_image": "2014_rv_Tesla_rv_Model_rv_S_rv_V3_rv_1600",
    "count_view": 0
  },
  {
    "link_thumb": "https://live.staticflickr.com/65535/48118519543_e6b7067daf_n.jpg",
    "id_album": "-2100339805",
    "description": "Lamborghini_464457",
    "title": "Lamborghini_464457",
    "link_img": "https://live.staticflickr.com/65535/48118519543_a79a8e3712_o.jpg",
    "id_image": "Lamborghini_464457",
    "count_view": 0
  },
  {
    "link_thumb": "https://live.staticflickr.com/65535/48113356571_7c3c27e20c_n.jpg",
    "id_album": "1456070666",
    "description": "Bugatti_365985",
    "title": "Bugatti_365985",
    "link_img": "https://live.staticflickr.com/65535/48113356571_80e048bdf1_o.jpg",
    "id_image": "Bugatti_365985",
    "count_view": 0
  },
  {
    "link_thumb": "https://live.staticflickr.com/65535/48113866943_64cfce9b2c_n.jpg",
    "id_album": "-1721545051",
    "description": "Chevrolet_219326",
    "title": "Chevrolet_219326",
    "link_img": "https://live.staticflickr.com/65535/48113866943_dee72a1323_o.jpg",
    "id_image": "Chevrolet_219326",
    "count_view": 0
  },
  {
    "link_thumb": "https://live.staticflickr.com/65535/48117097278_c534a7ae6d_n.jpg",
    "id_album": "-1846404630",
    "description": "Ford_378375",
    "title": "Ford_378375",
    "link_img": "https://live.staticflickr.com/65535/48117097278_975897ddff_o.jpg",
    "id_image": "Ford_378375",
    "count_view": 0
  },
  {
    "link_thumb": "https://live.staticflickr.com/65535/48113122562_7eccedf89f_n.jpg",
    "id_album": "727633301",
    "description": "BMW_701793",
    "title": "BMW_701793",
    "link_img": "https://live.staticflickr.com/65535/48113122562_76eb2d5042_o.jpg",
    "id_image": "BMW_701793",
    "count_view": 0
  },
  {
    "link_thumb": "https://live.staticflickr.com/65535/48112543288_7d9034f503_n.jpg",
    "id_album": "2097036181",
    "description": "Bentley_219890",
    "title": "Bentley_219890",
    "link_img": "https://live.staticflickr.com/65535/48112543288_31806c72a7_o.jpg",
    "id_image": "Bentley_219890",
    "count_view": 0
  },
  {
    "link_thumb": "https://live.staticflickr.com/65535/48113225942_0c189130c4_n.jpg",
    "id_album": "727633301",
    "description": "BMW_880706",
    "title": "BMW_880706",
    "link_img": "https://live.staticflickr.com/65535/48113225942_a6ed983050_o.jpg",
    "id_image": "BMW_880706",
    "count_view": 0
  },
  {
    "link_thumb": "https://live.staticflickr.com/65535/48117503553_f2f44fd1a0_n.jpg",
    "id_album": "-1846404630",
    "description": "Ford_824983",
    "title": "Ford_824983",
    "link_img": "https://live.staticflickr.com/65535/48117503553_289d1c813d_o.jpg",
    "id_image": "Ford_824983",
    "count_view": 0
  },
  {
    "link_thumb": "https://live.staticflickr.com/65535/48112474023_28ffc9bebc_n.jpg",
    "id_album": "-15119147",
    "description": "Audi_907402",
    "title": "Audi_907402",
    "link_img": "https://live.staticflickr.com/65535/48112474023_c46a13019d_o.jpg",
    "id_image": "Audi_907402",
    "count_view": 0
  },
  {
    "link_thumb": "https://live.staticflickr.com/65535/48120219541_e7acdac8a0_n.jpg",
    "id_album": "666438681",
    "description": "Motorcycles_401281",
    "title": "Motorcycles_401281",
    "link_img": "https://live.staticflickr.com/65535/48120219541_379a7ddfc4_o.jpg",
    "id_image": "Motorcycles_401281",
    "count_view": 0
  },
  {
    "link_thumb": "https://live.staticflickr.com/65535/48118210578_4c7fd902eb_n.jpg",
    "id_album": "-625217782",
    "description": "Kia_964827",
    "title": "Kia_964827",
    "link_img": "https://live.staticflickr.com/65535/48118210578_4493da1a53_o.jpg",
    "id_image": "Kia_964827",
    "count_view": 0
  },
  {
    "link_thumb": "https://live.staticflickr.com/65535/49889319681_1bc8d6e3f2_n.jpg",
    "id_album": "-462046716",
    "description": "2010_rv_Citroen_rv_DS3_rv_Racing_rv_V5_rv_1440",
    "title": "2010_rv_Citroen_rv_DS3_rv_Racing_rv_V5_rv_1440",
    "link_img": "https://live.staticflickr.com/65535/49889319681_53fffdb86e_o.jpg",
    "id_image": "2010_rv_Citroen_rv_DS3_rv_Racing_rv_V5_rv_1440",
    "count_view": 0
  },
  {
    "link_thumb": "https://live.staticflickr.com/65535/49892160366_203c49278e_n.jpg",
    "id_album": "-1352548977",
    "description": "2020_rv_Porsche_rv_Taycan_rv_V14_rv_2160",
    "title": "2020_rv_Porsche_rv_Taycan_rv_V14_rv_2160",
    "link_img": "https://live.staticflickr.com/65535/49892160366_a0667da358_o.jpg",
    "id_image": "2020_rv_Porsche_rv_Taycan_rv_V14_rv_2160",
    "count_view": 0
  },
  {
    "link_thumb": "https://live.staticflickr.com/65535/49889358037_a4ae0b7c34_n.jpg",
    "id_album": "-1839907970",
    "description": "2011_rv_BMW_rv_1_rv_Series_rv_M_rv_Coupe_rv_V4_rv_1440",
    "title": "2011_rv_BMW_rv_1_rv_Series_rv_M_rv_Coupe_rv_V4_rv_1440",
    "link_img": "https://live.staticflickr.com/65535/49889358037_a5c8436c7c_o.jpg",
    "id_image": "2011_rv_BMW_rv_1_rv_Series_rv_M_rv_Coupe_rv_V4_rv_1440",
    "count_view": 0
  },
  {
    "link_thumb": "https://live.staticflickr.com/65535/48118228472_4049d54b05_n.jpg",
    "id_album": "-625217782",
    "description": "Kia_256224",
    "title": "Kia_256224",
    "link_img": "https://live.staticflickr.com/65535/48118228472_151b5d36d3_o.jpg",
    "id_image": "Kia_256224",
    "count_view": 0
  },
  {
    "link_thumb": "https://live.staticflickr.com/65535/49892603247_45db8e4243_n.jpg",
    "id_album": "-1852242586",
    "description": "2016_rv_Rolls_rv_Royce_rv_103EX_rv_Vision_rv_Next_rv_100_rv_Concept_rv_V3_rv_2000",
    "title": "2016_rv_Rolls_rv_Royce_rv_103EX_rv_Vision_rv_Next_rv_100_rv_Concept_rv_V3_rv_2000",
    "link_img": "https://live.staticflickr.com/65535/49892603247_a807b5bc45_o.jpg",
    "id_image": "2016_rv_Rolls_rv_Royce_rv_103EX_rv_Vision_rv_Next_rv_100_rv_Concept_rv_V3_rv_2000",
    "count_view": 0
  },
  {
    "link_thumb": "https://live.staticflickr.com/65535/48118359881_e6ea7281e3_n.jpg",
    "id_album": "-2100339805",
    "description": "Lamborghini_352061",
    "title": "Lamborghini_352061",
    "link_img": "https://live.staticflickr.com/65535/48118359881_91cf0079d3_o.jpg",
    "id_image": "Lamborghini_352061",
    "count_view": 0
  },
  {
    "link_thumb": "https://live.staticflickr.com/65535/48113908787_9e72a660d0_n.jpg",
    "id_album": "-1721545051",
    "description": "Chevrolet_213912",
    "title": "Chevrolet_213912",
    "link_img": "https://live.staticflickr.com/65535/48113908787_491bb175de_o.jpg",
    "id_image": "Chevrolet_213912",
    "count_view": 0
  },
  {
    "link_thumb": "https://live.staticflickr.com/65535/49892245216_482343e6a4_n.jpg",
    "id_album": "-2006372324",
    "description": "2013_rv_Renault_rv_Twin_rv_Run_rv_Concept_rv_V2_rv_1600",
    "title": "2013_rv_Renault_rv_Twin_rv_Run_rv_Concept_rv_V2_rv_1600",
    "link_img": "https://live.staticflickr.com/65535/49892245216_3cebcd1aa3_o.jpg",
    "id_image": "2013_rv_Renault_rv_Twin_rv_Run_rv_Concept_rv_V2_rv_1600",
    "count_view": 0
  },
  {
    "link_thumb": "https://live.staticflickr.com/65535/48118301806_18ac76646c_n.jpg",
    "id_album": "-2100339805",
    "description": "Lamborghini_301290",
    "title": "Lamborghini_301290",
    "link_img": "https://live.staticflickr.com/65535/48118301806_5bc0662a3f_o.jpg",
    "id_image": "Lamborghini_301290",
    "count_view": 0
  },
  {
    "link_thumb": "https://live.staticflickr.com/65535/48119307428_27753d5fba_n.jpg",
    "id_album": "990865885",
    "description": "McLaren_401157",
    "title": "McLaren_401157",
    "link_img": "https://live.staticflickr.com/65535/48119307428_343ebbb1ce_o.jpg",
    "id_image": "McLaren_401157",
    "count_view": 0
  },
  {
    "link_thumb": "https://live.staticflickr.com/65535/49890989886_c81fba161c_n.jpg",
    "id_album": "-1755207202",
    "description": "2015_rv_Morgan_rv_Aero_rv_8_rv_V6_rv_1600",
    "title": "2015_rv_Morgan_rv_Aero_rv_8_rv_V6_rv_1600",
    "link_img": "https://live.staticflickr.com/65535/49890989886_cf27c32c14_o.jpg",
    "id_image": "2015_rv_Morgan_rv_Aero_rv_8_rv_V6_rv_1600",
    "count_view": 0
  },
  {
    "link_thumb": "https://live.staticflickr.com/65535/48118811161_2f8c69e792_n.jpg",
    "id_album": "1234246491",
    "description": "LandRover_885615",
    "title": "LandRover_885615",
    "link_img": "https://live.staticflickr.com/65535/48118811161_1b5d8aa74d_o.jpg",
    "id_image": "LandRover_885615",
    "count_view": 0
  },
  {
    "link_thumb": "https://live.staticflickr.com/65535/48114851116_e696965642_n.jpg",
    "id_album": "2072464184",
    "description": "Citroen_291691",
    "title": "Citroen_291691",
    "link_img": "https://live.staticflickr.com/65535/48114851116_1fe7c27e11_o.jpg",
    "id_image": "Citroen_291691",
    "count_view": 0
  },
  {
    "link_thumb": "https://live.staticflickr.com/65535/48120839291_9dbe0a7f02_n.jpg",
    "id_album": "1965631892",
    "description": "Peugeot_250668",
    "title": "Peugeot_250668",
    "link_img": "https://live.staticflickr.com/65535/48120839291_f662c628ef_o.jpg",
    "id_image": "Peugeot_250668",
    "count_view": 0
  },
  {
    "link_thumb": "https://live.staticflickr.com/65535/48120388933_bbf26fd53b_n.jpg",
    "id_album": "810634050",
    "description": "Nissan_257544",
    "title": "Nissan_257544",
    "link_img": "https://live.staticflickr.com/65535/48120388933_78154e0c8c_o.jpg",
    "id_image": "Nissan_257544",
    "count_view": 0
  },
  {
    "link_thumb": "https://live.staticflickr.com/65535/48123089882_96a3d647a4_n.jpg",
    "id_album": "-150952028",
    "description": "Volkswagen_549551",
    "title": "Volkswagen_549551",
    "link_img": "https://live.staticflickr.com/65535/48123089882_4b6ae63263_o.jpg",
    "id_image": "Volkswagen_549551",
    "count_view": 0
  },
  {
    "link_thumb": "https://live.staticflickr.com/65535/49890134747_dd154066cc_n.jpg",
    "id_album": "-1617578684",
    "description": "2018_rv_Bentley_rv_Continental_rv_GT3_rv_V6_rv_2000",
    "title": "2018_rv_Bentley_rv_Continental_rv_GT3_rv_V6_rv_2000",
    "link_img": "https://live.staticflickr.com/65535/49890134747_101d8c3a46_o.jpg",
    "id_image": "2018_rv_Bentley_rv_Continental_rv_GT3_rv_V6_rv_2000",
    "count_view": 0
  },
  {
    "link_thumb": "https://live.staticflickr.com/65535/48119891772_762b3927fd_n.jpg",
    "id_album": "-731054311",
    "description": "MercedesBenz_855678",
    "title": "MercedesBenz_855678",
    "link_img": "https://live.staticflickr.com/65535/48119891772_ff18b657f9_o.jpg",
    "id_image": "MercedesBenz_855678",
    "count_view": 0
  },
  {
    "link_thumb": "https://live.staticflickr.com/65535/48116524372_6ae3a93088_n.jpg",
    "id_album": "1364506720",
    "description": "Ferrari_961144",
    "title": "Ferrari_961144",
    "link_img": "https://live.staticflickr.com/65535/48116524372_fb32a24b90_o.jpg",
    "id_image": "Ferrari_961144",
    "count_view": 0
  },
  {
    "link_thumb": "https://live.staticflickr.com/65535/48113591448_60222c1edd_n.jpg",
    "id_album": "-680120434",
    "description": "Cadillac_386264",
    "title": "Cadillac_386264",
    "link_img": "https://live.staticflickr.com/65535/48113591448_e4540eab87_o.jpg",
    "id_image": "Cadillac_386264",
    "count_view": 0
  },
  {
    "link_thumb": "https://live.staticflickr.com/65535/49891188087_7e044647ed_n.jpg",
    "id_album": "-504136416",
    "description": "2015_rv_Mercedes_rv_Benz_rv_S63_rv_AMG_rv_Coupe_rv_V7_rv_1600",
    "title": "2015_rv_Mercedes_rv_Benz_rv_S63_rv_AMG_rv_Coupe_rv_V7_rv_1600",
    "link_img": "https://live.staticflickr.com/65535/49891188087_86c605e70d_o.jpg",
    "id_image": "2015_rv_Mercedes_rv_Benz_rv_S63_rv_AMG_rv_Coupe_rv_V7_rv_1600",
    "count_view": 0
  },
  {
    "link_thumb": "https://live.staticflickr.com/65535/49891864513_77b28905e9_n.jpg",
    "id_album": "2063224475",
    "description": "2020_rv_Ford_rv_Mustang_rv_Shelby_rv_GT500_rv_V11_rv_2160",
    "title": "2020_rv_Ford_rv_Mustang_rv_Shelby_rv_GT500_rv_V11_rv_2160",
    "link_img": "https://live.staticflickr.com/65535/49891864513_46e00aa535_o.jpg",
    "id_image": "2020_rv_Ford_rv_Mustang_rv_Shelby_rv_GT500_rv_V11_rv_2160",
    "count_view": 0
  },
  {
    "link_thumb": "https://live.staticflickr.com/65535/48116689632_5dcf1bbace_n.jpg",
    "id_album": "-1846404630",
    "description": "Ford_157983",
    "title": "Ford_157983",
    "link_img": "https://live.staticflickr.com/65535/48116689632_fa55125eee_o.jpg",
    "id_image": "Ford_157983",
    "count_view": 0
  },
  {
    "link_thumb": "https://live.staticflickr.com/65535/48113274778_c101cefef3_n.jpg",
    "id_album": "727633301",
    "description": "BMW_925392",
    "title": "BMW_925392",
    "link_img": "https://live.staticflickr.com/65535/48113274778_a07cdff2d8_o.jpg",
    "id_image": "BMW_925392",
    "count_view": 0
  },
  {
    "link_thumb": "https://live.staticflickr.com/65535/48118934597_ea9f387bcc_n.jpg",
    "id_album": "446908717",
    "description": "Lexus_256374",
    "title": "Lexus_256374",
    "link_img": "https://live.staticflickr.com/65535/48118934597_e98bb50ee8_o.jpg",
    "id_image": "Lexus_256374",
    "count_view": 0
  },
  {
    "link_thumb": "https://live.staticflickr.com/65535/49889547251_40ac339154_n.jpg",
    "id_album": "1875096248",
    "description": "2002_rv_Ferrari_rv_Enzo_rv_V4_rv_1440",
    "title": "2002_rv_Ferrari_rv_Enzo_rv_V4_rv_1440",
    "link_img": "https://live.staticflickr.com/65535/49889547251_2184ccb384_o.jpg",
    "id_image": "2002_rv_Ferrari_rv_Enzo_rv_V4_rv_1440",
    "count_view": 0
  },
  {
    "link_thumb": "https://live.staticflickr.com/65535/48112709178_905fdf5107_n.jpg",
    "id_album": "727633301",
    "description": "BMW_256662",
    "title": "BMW_256662",
    "link_img": "https://live.staticflickr.com/65535/48112709178_04ecb0cfdd_o.jpg",
    "id_image": "BMW_256662",
    "count_view": 0
  },
  {
    "link_thumb": "https://live.staticflickr.com/65535/48113042293_bceaaeae64_n.jpg",
    "id_album": "727633301",
    "description": "BMW_678537",
    "title": "BMW_678537",
    "link_img": "https://live.staticflickr.com/65535/48113042293_b599080af6_o.jpg",
    "id_image": "BMW_678537",
    "count_view": 0
  },
  {
    "link_thumb": "https://live.staticflickr.com/65535/49890526876_3fbbc5b151_n.jpg",
    "id_album": "819163142",
    "description": "2018_rv_McLaren_rv_570S_rv_Spider_rv_V4_rv_2000",
    "title": "2018_rv_McLaren_rv_570S_rv_Spider_rv_V4_rv_2000",
    "link_img": "https://live.staticflickr.com/65535/49890526876_c518a4bac4_o.jpg",
    "id_image": "2018_rv_McLaren_rv_570S_rv_Spider_rv_V4_rv_2000",
    "count_view": 0
  },
  {
    "link_thumb": "https://live.staticflickr.com/65535/48118186018_f058673f44_n.jpg",
    "id_album": "-625217782",
    "description": "Kia_449878",
    "title": "Kia_449878",
    "link_img": "https://live.staticflickr.com/65535/48118186018_9e6f97d4b1_o.jpg",
    "id_image": "Kia_449878",
    "count_view": 0
  },
  {
    "link_thumb": "https://live.staticflickr.com/65535/48122102253_068d170931_n.jpg",
    "id_album": "-1217333387",
    "description": "Renault_989775",
    "title": "Renault_989775",
    "link_img": "https://live.staticflickr.com/65535/48122102253_52a33ccb24_o.jpg",
    "id_image": "Renault_989775",
    "count_view": 0
  },
  {
    "link_thumb": "https://live.staticflickr.com/65535/48122880072_88ac2251cc_n.jpg",
    "id_album": "1274920659",
    "description": "Toyota_880114",
    "title": "Toyota_880114",
    "link_img": "https://live.staticflickr.com/65535/48122880072_c337d3ee88_o.jpg",
    "id_image": "Toyota_880114",
    "count_view": 0
  },
  {
    "link_thumb": "https://live.staticflickr.com/65535/49889708577_1307989fc4_n.jpg",
    "id_album": "-835450558",
    "description": "2017_rv_Formula1_rv_Renault_rv_RS17_rv_V1_rv_2000",
    "title": "2017_rv_Formula1_rv_Renault_rv_RS17_rv_V1_rv_2000",
    "link_img": "https://live.staticflickr.com/65535/49889708577_34860c0cdf_o.jpg",
    "id_image": "2017_rv_Formula1_rv_Renault_rv_RS17_rv_V1_rv_2000",
    "count_view": 0
  },
  {
    "link_thumb": "https://live.staticflickr.com/65535/49889409532_d1c36b3332_n.jpg",
    "id_album": "-1839907838",
    "description": "2012_rv_BMW_rv_M5_rv_V11_rv_1536",
    "title": "2012_rv_BMW_rv_M5_rv_V11_rv_1536",
    "link_img": "https://live.staticflickr.com/65535/49889409532_9e8dc95f5a_o.jpg",
    "id_image": "2012_rv_BMW_rv_M5_rv_V11_rv_1536",
    "count_view": 0
  },
  {
    "link_thumb": "https://live.staticflickr.com/65535/48115570582_2d0fc5a073_n.jpg",
    "id_album": "413141323",
    "description": "Dodge_759641",
    "title": "Dodge_759641",
    "link_img": "https://live.staticflickr.com/65535/48115570582_5f64e6b51d_o.jpg",
    "id_image": "Dodge_759641",
    "count_view": 0
  },
  {
    "link_thumb": "https://live.staticflickr.com/65535/48112853013_1c51128aaa_n.jpg",
    "id_album": "727633301",
    "description": "BMW_470896",
    "title": "BMW_470896",
    "link_img": "https://live.staticflickr.com/65535/48112853013_392acf9097_o.jpg",
    "id_image": "BMW_470896",
    "count_view": 0
  },
  {
    "link_thumb": "https://live.staticflickr.com/65535/49889834876_323dc76a01_n.jpg",
    "id_album": "-289181366",
    "description": "1967_rv_Shelby_rv_GT350_rv_V1_rv_1600",
    "title": "1967_rv_Shelby_rv_GT350_rv_V1_rv_1600",
    "link_img": "https://live.staticflickr.com/65535/49889834876_3df7b9d63f_o.jpg",
    "id_image": "1967_rv_Shelby_rv_GT350_rv_V1_rv_1600",
    "count_view": 0
  },
  {
    "link_thumb": "https://live.staticflickr.com/65535/48112439446_6d680143ce_n.jpg",
    "id_album": "-15119147",
    "description": "Audi_921822",
    "title": "Audi_921822",
    "link_img": "https://live.staticflickr.com/65535/48112439446_f82b598e5b_o.jpg",
    "id_image": "Audi_921822",
    "count_view": 0
  },
  {
    "link_thumb": "https://live.staticflickr.com/65535/48121266972_a7ebf8d067_n.jpg",
    "id_album": "-1178450892",
    "description": "Porsche_161119",
    "title": "Porsche_161119",
    "link_img": "https://live.staticflickr.com/65535/48121266972_16b552f308_o.jpg",
    "id_image": "Porsche_161119",
    "count_view": 0
  },
  {
    "link_thumb": "https://live.staticflickr.com/65535/48112933716_1eacbb629e_n.jpg",
    "id_album": "727633301",
    "description": "BMW_492794",
    "title": "BMW_492794",
    "link_img": "https://live.staticflickr.com/65535/48112933716_d80164468e_o.jpg",
    "id_image": "BMW_492794",
    "count_view": 0
  },
  {
    "link_thumb": "https://live.staticflickr.com/65535/48120539956_1e3bf528b8_n.jpg",
    "id_album": "810634050",
    "description": "Nissan_666550",
    "title": "Nissan_666550",
    "link_img": "https://live.staticflickr.com/65535/48120539956_d61cfb54de_o.jpg",
    "id_image": "Nissan_666550",
    "count_view": 0
  },
  {
    "link_thumb": "https://live.staticflickr.com/65535/48112602186_99249f46f3_n.jpg",
    "id_album": "727633301",
    "description": "BMW_177118",
    "title": "BMW_177118",
    "link_img": "https://live.staticflickr.com/65535/48112602186_048cbd5136_o.jpg",
    "id_image": "BMW_177118",
    "count_view": 0
  },
  {
    "link_thumb": "https://live.staticflickr.com/65535/48117788842_10af971f66_n.jpg",
    "id_album": "-885504812",
    "description": "GMC_439225",
    "title": "GMC_439225",
    "link_img": "https://live.staticflickr.com/65535/48117788842_59df08bab9_o.jpg",
    "id_image": "GMC_439225",
    "count_view": 0
  }
]