[
  {
    "total_img": 0,
    "number_page": 0,
    "title": "Ferrari 360",
    "tag": "Ferrari 360,",
    "description": "Ferrari 360",
    "link_thumb": "https://live.staticflickr.com/65535/49889455856_fc651c4085_n.jpg",
    "id_album": "1828854320",
    "total_view": 36
  }
]